Exists, Date, #, Episode Name
* ,31/xx/xx ,   1 ,Episode 01
* ,31/xx/xx ,   2 ,Episode 02
* ,31/xx/xx ,   3 ,Episode 03
* ,31/xx/xx ,   4 ,Episode 04
* ,31/xx/xx ,   5 ,Episode 05
* ,31/xx/xx ,   6 ,Episode 06
* ,31/xx/xx ,   7 ,Episode 07
* ,31/xx/xx ,   8 ,Episode 08
* ,31/xx/xx ,   9 ,Episode 09
* ,31/xx/xx ,  10 ,Episode 10
* ,31/xx/xx ,  11 ,Episode 11
* ,31/xx/xx ,  12 ,Episode 12
* ,31/xx/xx ,  13 ,Episode 13
