Exists, Date, #, Episode Name
  ,44/10/08 ,   1 ,Premire episode
  ,44/10/15 ,   2 ,--- Ozzie has neglected to buy Harriet a wedding anniversary gift)
  ,44/10/22 ,   3 ,--- have household budget troubles)
  ,44/10/29 ,   4 ,--- (Ozzie needs a rest, but Harriet has her bridge club)
  ,44/11/05 ,   5 ,--- (become involved in an argument over furniture arrangement)
  ,44/11/12 ,   6 ,--- (Ozzie wins on horses, but loses to Harriet)
* ,44/11/19 ,   7 ,Enters Essay Contest
  ,44/11/26 ,   8 ,--- (Ozzle learns how Harriet does the marketing)
  ,44/12/03 ,   9 ,--- (hunt an apartment and learn about landlords)
  ,44/12/10 ,  10 ,--- (are visited by Blondie and Dagwood)
  ,44/12/17 ,  11 ,--- (Rickey shows his parents how to fill Christmas stockings in the modern manner)
  ,44/12/24 ,  12 ,
  ,44/12/31 ,  13 ,--- (play butler and cook for their maid's New Year's party)
  ,45/01/07 ,  14 ,
  ,45/01/14 ,  15 ,--- (takes Daddy for a sleigh ride)
  ,45/01/21 ,  16 ,
* ,45/01/28 ,  17 ,Ozzie and the Hypnotist
  ,45/02/04 ,  18 ,
  ,45/02/11 ,  19 ,
  ,45/02/18 ,  20 ,
  ,45/02/25 ,  21 ,
  ,45/03/04 ,  22 ,
* ,45/03/11 ,  23 ,Tax Return and the Blue Suit
  ,45/03/18 ,  24 ,
  ,45/03/25 ,  25 ,Ozzie Learns About Reincarnation
  ,45/03/25 ,  25 ,Ozzie Learns About Reincarnation
  ,45/03/25 ,  25 ,Ozzie Learns About Reincarnation
  ,45/04/01 ,  26 ,
  ,45/04/08 ,  27 ,
  ,45/04/15 ,  28 ,
  ,45/04/22 ,  29 ,
  ,45/04/29 ,  30 ,
  ,45/05/06 ,  31 ,
  ,45/05/13 ,  32 ,
* ,45/05/20 ,  33 ,The New Arrival
  ,45/05/27 ,  34 ,
  ,45/06/03 ,  35 ,
  ,45/06/10 ,  36 ,
* ,45/08/12 ,  37 ,Antique Vase
  ,45/08/19 ,  38 ,David in a Fight
* ,45/08/26 ,  39 ,David Sells Ozzie's Suits
* ,45/09/02 ,  40 ,The Dripping Faucet
* ,45/09/09 ,  41 ,David Fights
* ,45/09/16 ,  42 ,Lodge of Unicorns
* ,45/09/23 ,  43 ,Apartment Building Next Door
* ,45/09/30 ,  44 ,Exaggeration Troubles
* ,45/10/07 ,  45 ,The Princess Gift
  ,45/10/14 ,  46 ,
  ,45/10/21 ,  47 ,
  ,45/10/28 ,  48 ,
  ,45/11/04 ,  49 ,
  ,45/11/11 ,  50 ,
  ,45/11/18 ,  51 ,
  ,45/11/25 ,  52 ,
  ,45/12/02 ,  53 ,
  ,45/12/09 ,  54 ,
  ,45/12/16 ,  55 ,
  ,45/12/23 ,  56 ,
  ,45/12/30 ,  57 ,
  ,46/01/06 ,  58 ,
  ,46/01/13 ,  59 ,
  ,46/01/20 ,  60 ,
  ,46/01/27 ,  61 ,
  ,46/02/03 ,  62 ,
  ,46/02/10 ,  63 ,
  ,46/02/17 ,  64 ,
  ,46/02/24 ,  65 ,
  ,46/03/03 ,  66 ,
  ,46/03/10 ,  67 ,
  ,46/03/17 ,  68 ,
  ,46/03/24 ,  69 ,
  ,46/03/31 ,  70 ,
  ,46/04/07 ,  71 ,
  ,46/04/14 ,  72 ,
  ,46/04/21 ,  73 ,
  ,46/04/28 ,  74 ,
  ,46/05/05 ,  75 ,
  ,46/05/12 ,  76 ,
  ,46/05/19 ,  77 ,
  ,46/05/26 ,  78 ,
  ,46/06/02 ,  79 ,
  ,46/06/09 ,  80 ,
  ,46/06/16 ,  81 ,
* ,46/06/23 ,  82 ,Ozzie Thinks He'll Be A New Father
  ,46/09/01 ,  83 ,
  ,46/09/08 ,  84 ,
  ,46/09/15 ,  85 ,
  ,46/09/22 ,  86 ,
  ,46/09/29 ,  87 ,
  ,46/10/06 ,  88 ,
  ,46/10/13 ,  89 ,
  ,46/10/20 ,  90 ,
  ,46/10/27 ,  91 ,
  ,46/11/03 ,  92 ,Ozzie Runs For Office
  ,46/11/03 ,  92 ,Ozzie Runs For Office
  ,46/11/03 ,  92 ,Ozzie Runs For Office
  ,46/11/10 ,  93 ,
  ,46/11/17 ,  94 ,
  ,46/11/24 ,  95 ,
* ,46/12/01 ,  96 ,David's Picture Wins A Prize
* ,46/12/08 ,  97 ,Ricky's Third Prize In School
  ,46/12/15 ,  98 ,
  ,46/12/22 ,  99 ,
  ,46/12/29 , 100 ,
  ,47/01/05 , 101 ,
  ,47/01/12 , 102 ,
  ,47/01/19 , 103 ,
  ,47/01/26 , 104 ,
  ,47/02/02 , 105 ,
  ,47/02/09 , 106 ,
  ,47/02/16 , 107 ,
  ,47/02/23 , 108 ,Bowling
  ,47/02/23 , 108 ,Bowling
  ,47/02/23 , 108 ,Bowling
* ,47/03/02 , 109 ,Thorney's Anniversary Gift
  ,47/03/09 , 110 ,
  ,47/03/16 , 111 ,
  ,47/03/23 , 112 ,
  ,47/03/30 , 113 ,The Dented Fender
  ,47/04/06 , 114 ,Sunrise Services
  ,47/04/13 , 115 ,The Phone Call
* ,47/04/20 , 116 ,Disintegrating Family
  ,47/04/27 , 117 ,Ulterior Motive
  ,47/05/04 , 118 ,The Fishing Trip
  ,47/05/11 , 119 ,Mother's Day
  ,47/05/18 , 120 ,A Day in Bed
  ,47/05/25 , 121 ,David Goes to a Party
  ,47/06/01 , 122 ,Nick Becomes a Problem
  ,47/08/31 , 123 ,
  ,47/09/07 , 124 ,
* ,47/09/14 , 125 ,New Dress
  ,47/09/21 , 126 ,
  ,47/09/28 , 127 ,
  ,47/10/05 , 128 ,The Match Box
* ,47/10/12 , 129 ,Retreat from Civilization
  ,47/10/19 , 130 ,Ricky's Thrift
  ,47/10/26 , 131 ,The Handy Man
  ,47/11/02 , 132 ,The Ladies Man
  ,47/11/09 , 133 ,The Tree
  ,47/11/16 , 134 ,The Jingle
  ,47/11/23 , 135 ,The Spirit of Thanksgiving
  ,47/11/30 , 136 ,The Hunter
  ,47/12/07 , 137 ,Flattery
  ,47/12/14 , 138 ,Observation
  ,47/12/21 , 139 ,A Visit from Santa Claus
  ,47/12/28 , 140 ,The Masquerade
  ,48/01/02 , 141 ,The Feminine Touch
* ,48/01/09 , 142 ,David Sells Ozzie's'Suit
* ,48/01/16 , 143 ,Jury Duty
* ,48/01/23 , 144 ,The Argument
  ,48/01/30 , 145 ,The Gadget
  ,48/02/06 , 146 ,The Laundry
  ,48/02/13 , 147 ,Ricky, the Genius
  ,48/02/20 , 148 ,The Good Neighbor
  ,48/02/27 , 149 ,Interior Decorator
  ,48/03/05 , 150 ,The Mustache
  ,48/03/12 , 151 ,Relax
  ,48/03/19 , 152 ,Who's Walter
  ,48/03/26 , 153 ,The Clock
  ,48/04/02 , 154 ,The Wrestlers
  ,48/04/09 , 155 ,The Farmer
  ,48/04/16 , 156 ,The Cocoanut Caper
  ,48/04/23 , 157 ,Diplomacy and Over-Eating
  ,48/04/30 , 158 ,The Circus
  ,48/05/07 , 159 ,The Fish Story
  ,48/05/14 , 160 ,The Mysterious Love Note
  ,48/05/21 , 161 ,The Debate
  ,48/05/28 , 162 ,Night School
  ,48/06/04 , 163 ,Democracy in the Family
  ,48/06/11 , 164 ,Trailer
  ,48/10/03 , 165 ,The Other Guy's Point of View
  ,48/10/10 , 166 ,The Manicure
* ,48/10/17 , 167 ,Ozzie Promises to Take the Boys Hiking
* ,48/10/24 , 168 ,The Matchmaker
* ,48/10/31 , 169 ,Haunted House
* ,48/11/07 , 170 ,Ozzie Is in a Rut
* ,48/11/14 , 171 ,The Boy's Night Out
* ,48/11/21 , 172 ,The Third Degree
* ,48/11/28 , 173 ,Intellectual Curiosity
* ,48/12/05 , 174 ,Guests Bing Crosby, Lindsay Crosby
* ,48/12/12 , 175 ,Worrying About Worrying
* ,48/12/19 , 176 ,The New Radio-Phonograph
* ,48/12/26 , 177 ,No Show for Christmas
* ,49/01/02 , 178 ,The Knitting Contest
* ,49/01/09 , 179 ,Sports Heroes
* ,49/01/16 , 180 ,The Neglected Husband
* ,49/01/23 , 181 ,Card Tricks
* ,49/01/30 , 182 ,Ozzie Takes Bus Driving Test
* ,49/02/06 , 183 ,House Cleaning
* ,49/02/13 , 184 ,Valentine Card
* ,49/02/20 , 185 ,Invitations to Dinner
* ,49/02/27 , 186 ,The Nelson Bank
* ,49/03/06 , 187 ,Crystal Ball
* ,49/03/13 , 188 ,Income Tax Problems
* ,49/03/20 , 189 ,Argument About Rover Boys
* ,49/03/27 , 190 ,Complaints
  ,49/04/03 , 191 ,The Rivals
* ,49/04/10 , 192 ,Nosy Neighbors
* ,49/04/17 , 193 ,Easter Show
* ,49/04/24 , 194 ,Impressing Girls
  ,49/05/01 , 195 ,Don't Spare the Rod
  ,49/05/08 , 196 ,Mother's Day
  ,49/05/15 , 197 ,Boy's Day
  ,49/05/22 , 198 ,The Play's the Thing
  ,49/05/29 , 199 ,David and Ricky's Punishment
  ,49/06/05 , 200 ,Ozzie Buys a New Suit
  ,49/06/12 , 201 ,The Herd
  ,49/06/19 , 202 ,Father's Day
  ,49/06/26 , 203 ,Self Confidence
  ,49/07/03 , 204 ,Fourth of July
  ,49/07/10 , 205 ,The Real Estate Deal
  ,49/10/14 , 206 ,Opening Show
  ,49/10/21 , 207 ,The Counterfeit Bill
* ,49/10/28 , 208 ,Advice
  ,49/11/04 , 209 ,Husband's Night
  ,49/11/11 , 210 ,The Poet
  ,49/11/18 , 211 ,Tall Stories
  ,49/11/25 , 212 ,The Day After Thanksgiving
  ,49/12/02 , 213 ,The Report Card
  ,49/12/09 , 214 ,Gilbert and Sullivan
  ,49/12/16 , 215 ,The Christmas Cards
  ,49/12/23 , 216 ,Uncle Dudley
  ,49/12/30 , 217 ,The Rented Tuxedos
  ,50/01/06 , 218 ,The Tuba Incident
  ,50/01/13 , 219 ,The Nelson Boys Get Stuck
  ,50/01/20 , 220 ,The Explorers
  ,50/01/27 , 221 ,The Riviera Ballet
  ,50/02/03 , 222 ,Selecting the Boy's Clothes
  ,50/02/10 , 223 ,The Traders
  ,50/02/17 , 224 ,The Boxing Matches
  ,50/02/24 , 225 ,Separate Rooms
  ,50/03/03 , 226 ,Electrician
  ,50/03/10 , 227 ,The Orchid and the Violets
  ,50/03/17 , 228 ,The Blarney Stone
  ,50/03/24 , 229 ,The Monetary System
  ,50/03/31 , 230 ,The Rivals
  ,50/04/07 , 231 ,The Bicycle Thief
  ,50/04/14 , 232 ,Whistler's Daughter
  ,50/04/21 , 233 ,The Fishing Trip
  ,50/04/28 , 234 ,Intuition
  ,50/05/05 , 235 ,The Southern Belle
  ,50/05/12 , 236 ,Snapshots for Mother's Day
  ,50/05/19 , 237 ,A Door Key for David
  ,50/05/26 , 238 ,The Gardners
* ,50/06/02 , 239 ,The Bridal Shower
* ,50/06/09 , 240 ,The Party
  ,50/06/16 , 241 ,The Golf Bag
  ,50/09/08 , 242 ,Happy Charley
  ,50/09/15 , 243 ,The New Shoes
  ,50/09/22 , 244 ,The Barbecue
  ,50/09/29 , 245 ,The Necktie
  ,50/10/06 , 246 ,The New Chairs
  ,50/10/13 , 247 ,The Spelling Match
  ,50/10/20 , 248 ,Physical Fitness
  ,50/10/27 , 249 ,Halloween Party
  ,50/11/03 , 250 ,The New Dresses
  ,50/11/10 , 251 ,The Vicar
  ,50/11/17 , 252 ,Superstitions
  ,50/11/24 , 253 ,Shopping Guide
  ,50/12/01 , 254 ,Ozzie's School Chum
  ,50/12/08 , 255 ,The Boys Earn Christmas Money
  ,50/12/15 , 256 ,The Rummage Sale
  ,50/12/22 , 257 ,A Visit from Santa Claus
  ,50/12/29 , 258 ,New Year's Day Dinner
  ,51/01/05 , 259 ,The Red Leather Bag
* ,51/01/12 , 260 ,The Bowling Champ
  ,51/01/19 , 261 ,The Haircut
  ,51/01/26 , 262 ,Friendship
  ,51/02/02 , 263 ,The Club
  ,51/02/09 , 264 ,The Traffic Signal
  ,51/02/16 , 265 ,The Homemade Bread
  ,51/02/23 , 266 ,Clara's Cousin
  ,51/03/02 , 267 ,The Philodendron
  ,51/03/09 , 268 ,The Joiner
  ,51/03/16 , 269 ,Brother Beesley's Philosphy
  ,51/03/23 , 270 ,The Dug-Up Street
  ,51/03/30 , 271 ,Good Deeds
  ,51/04/06 , 272 ,The Boy's Personalities
  ,51/04/13 , 273 ,The Chef
  ,51/04/20 , 274 ,Painting the Screens
  ,51/04/27 , 275 ,The Boy's Paper Routes
  ,51/05/04 , 276 ,David Goes to a Party
  ,51/05/11 , 277 ,The Astronomy Show
  ,51/05/18 , 278 ,The Fish Story
  ,51/05/25 , 279 ,Kill the Umpire
* ,51/06/01 , 280 ,Have a Cigar
  ,51/06/08 , 281 ,A Wedding Ring for Ozzie
  ,51/06/15 , 282 ,A Shower for the Groom
  ,51/06/22 , 283 ,Vagabond Shoes
  ,51/09/28 , 284 ,The Artist
* ,51/10/05 , 285 ,Sales Resistance
  ,51/10/12 , 286 ,The Briefcase
  ,51/10/19 , 287 ,The Clean-Up Caper
  ,51/10/26 , 288 ,The High Cost of Living
* ,51/11/02 , 289 ,David's Date
  ,51/11/09 , 290 ,Aptitudes - Male vs Female
* ,51/11/16 , 291 ,Sidewalk Superintendents
  ,51/11/23 , 292 ,The Popularity Contest
* ,51/11/30 , 293 ,Thorny's Gift
  ,51/12/07 , 294 ,Courage!
* ,51/12/14 , 295 ,Going to a Concert
  ,51/12/21 , 296 ,Uncle Dudley
  ,51/12/28 , 297 ,Late Gifts
  ,52/01/04 , 298 ,Women Drivers
  ,52/01/11 , 299 ,The Gadget
  ,52/01/18 , 300 ,The Newspaper Write-Up
* ,52/01/25 , 301 ,The Dental Receptionist
  ,52/02/01 , 302 ,The David's Career
  ,52/02/08 , 303 ,The Big Swap
  ,52/02/15 , 304 ,The Speech
  ,52/02/22 , 305 ,Washington's Birthday
  ,52/02/29 , 206 ,Ricky Goes to a Dance
  ,52/03/07 , 307 ,David, the Baby Sitter
  ,52/03/14 , 308 ,The Income Tax
  ,52/03/21 , 309 ,The Ego Builder
  ,52/03/28 , 310 ,The Usher
* ,52/04/04 , 311 ,The Boat Builder
  ,52/04/11 , 312 ,The New Suits
* ,52/04/18 , 313 ,Home Town Baseball Team
* ,52/04/25 , 314 ,Too Much Change
  ,52/05/02 , 315 ,The Pancake Mix
* ,52/05/09 , 316 ,Invitation to Dinner
  ,52/05/16 , 317 ,The Farmer
  ,52/05/23 , 318 ,The Circus
  ,52/05/30 , 319 ,The Hike
  ,52/06/06 , 320 ,The Buried Teasure
  ,52/06/13 , 321 ,The Fall Guy
  ,52/06/20 , 322 ,The Tree Show
  ,52/10/03 , 323 ,The Comic Books
  ,52/10/10 , 324 ,The Painter
  ,52/10/17 , 325 ,The Clean-Up Caper
  ,52/10/24 , 326 ,The Artist
  ,52/10/31 , 327 ,Career Woman
  ,52/11/07 , 328 ,The Street Light
  ,52/11/14 , 329 ,The Hobby
  ,52/11/21 , 330 ,The Antique
* ,52/11/28 , 331 ,The Handy Man
  ,52/12/05 , 332 ,Painting the Women's Club
  ,52/12/12 , 333 ,The Loan
  ,52/12/19 , 334 ,The Voice of Reason
  ,52/12/26 , 335 ,The Hustler
  ,53/01/02 , 336 ,The Jet Pilot
  ,53/01/09 , 337 ,The Pajamas
  ,53/01/16 , 338 ,The Pets
  ,53/01/23 , 339 ,The Courtesy Car
  ,53/01/30 , 340 ,The David's Pipe
  ,53/02/06 , 341 ,The New Neighbor
  ,53/02/13 , 342 ,The Suggestion Box
  ,53/02/20 , 343 ,Washington's Birthday
  ,53/02/27 , 344 ,David's Career
  ,53/03/06 , 345 ,Parental Guidance
  ,53/03/13 , 346 ,The Ladder
  ,53/03/20 , 347 ,The Big Move
  ,53/03/27 , 348 ,The Rainmaker
  ,53/04/03 , 349 ,David Writes a Column
  ,53/04/10 , 350 ,Ozzie's Night Out
  ,53/04/17 , 351 ,The Snob
  ,53/04/24 , 352 ,The Camera Show
* ,53/05/01 , 353 ,The Baseball Manager
* ,53/05/08 , 354 ,The Boat Builders
  ,53/05/15 , 355 ,The Circus
  ,53/05/22 , 356 ,Ricky Gets Advice
  ,53/05/29 , 357 ,Praising David
  ,53/06/05 , 358 ,A Matter of Principle
  ,53/06/12 , 358 ,L'affaire Ricky
  ,53/06/19 , 360 ,David Steals a Girl
* ,53/06/26 , 361 ,Be on Time
  ,53/07/03 , 362 ,The Domineering Male
* ,53/09/18 , 363 ,David Discovers Girls
* ,53/09/25 , 364 ,Upholstery Prize
  ,53/10/02 , 365 ,The Clamdiggers
* ,53/10/09 , 366 ,Too Many Ties
* ,53/10/16 , 367 ,The Street Light
  ,53/10/23 , 368 ,David's Vote
* ,53/10/30 , 369 ,Home-Made Ice Cream
* ,53/11/06 , 370 ,Painting the Women's Club
  ,53/11/13 , 371 ,The Martyr
  ,53/11/20 , 372 ,A Load of Gravel
  ,53/11/27 , 373 ,The Do-Gooder
  ,53/12/04 , 374 ,The Beard
* ,53/12/11 , 375 ,A Cup of Coffee
  ,53/12/18 , 376 ,David, the Mechanic
* ,53/12/25 , 377 ,The Lost Christmas Gift
  ,54/01/01 , 378 ,Advice
* ,54/01/08 , 379 ,Fifi La Plume
  ,54/01/15 , 380 ,The Gopher
  ,54/01/22 , 381 ,Comparisons
* ,54/01/29 , 382 ,The Electric Train
* ,54/02/05 , 383 ,The Sacrifice
* ,54/02/12 , 384 ,The Loud Shirt
* ,54/02/19 , 385 ,Come as You Are
  ,54/02/26 , 386 ,The Modern Den
  ,54/03/05 , 387 ,The Master Builder
  ,54/03/12 , 388 ,The Alternate
  ,54/03/19 , 389 ,David's Boat
  ,54/03/26 , 390 ,A Lock of Hair
  ,54/04/02 , 391 ,Career Woman
  ,54/04/09 , 392 ,Harriet as a Baseball Manager
  ,54/04/16 , 393 ,The Snob
  ,54/04/23 , 394 ,Be on Time
  ,54/04/30 , 395 ,L'affaire Ricky
  ,54/05/07 , 396 ,David Writes a Column
  ,54/05/14 , 397 ,The Rainmaker
  ,54/05/21 , 398 ,Parental Guidance
  ,54/05/28 , 399 ,David's Pipe
  ,54/06/04 , 400 ,Ozzie's Night Out
  ,54/06/11 , 401 ,The Golf Widower
  ,54/06/18 , 402 ,The Grammarian
