Exists, Date, #, Episode Name
  ,44/07/16 ,   1 ,First Episode (Mr. District Attorney)
  ,44/09/17 ,     ,Raymond of Inner Sanctum
  ,44/10/22 ,     ,Casanova
  ,44/12/10 ,     ,Arlene Francis
  ,45/05/20 ,     ,The Shadow (John Archer)
  ,45/12/02 ,     ,Gangbusters' Lewis J. Valentine
  ,45/12/23 ,     ,The G-String Murder (Gypsy Rose Lee)
  ,46/04/06 ,     ,The Compass Points To Murder (Mr. & Mrs. North)
* ,46/04/21 ,     ,Perry Mason
  ,46/09/29 ,     ,Earl Wilson
  ,46/11/10 ,     ,Bill Stern
  ,46/12/08 , 100 ,Hercule Poirot
  ,47/01/21 ,     ,Scotland Yard's Inspector Burke (Basil Rathbone)
* ,47/03/09 ,     ,The Case of the Dangling Man (Phyllis Marlon)
* ,47/03/10 ,     ,Dick Tracy Captures Influence
* ,47/03/16 ,     ,Murder Is A Deadly Mistake (The Shadow)
  ,47/04/13 ,     ,Special Investigator Frank Brock
* ,47/09/21 ,     ,Guest - Bret Morrison
* ,48/02/14 ,     ,The Courtship of Miles Standish
  ,48/02/22 ,     ,Detect and Collect
  ,48/05/23 ,     ,True Detective Mysteries
  ,49/10/22 ,     ,Ann Scotland
  ,49/12/12 ,     ,First ABC Episode
  ,49/12/17 ,     ,
* ,51/05/23 ,     ,The Shadow
  ,51/06/29 ,     ,Last Episode
