Exists, Date, #, Episode Name
  ,36/09/28 ,     ,First Episode
  ,37/04/23 ,     ,
  ,37/09/27 ,     ,
* ,38/07/08 ,     ,Janet Falls For Sam
* ,38/07/11 ,     ,Sam And Janet Discuss Their Love
  ,38/09/23 ,     ,
* ,39/01/24 ,     ,The Wedding Of Sam And Janet
* ,39/02/04 ,     ,
* ,39/02/13 ,     ,Mr Williams Introduces His Wife
* ,39/09/21 ,     ,Doctor Plans An 'Operation'
* ,39/12/22 ,     ,Janet Delivers Her Baby
* ,39/12/25 ,     ,It's A Girl!
  ,40/04/01 ,     ,
  ,41/03/24 ,     ,
  ,41/03/28 ,     ,
* ,41/12/08 ,     ,A Baby Shower
  ,42/09/25 ,     ,
* ,43/09/03 ,     ,
* ,44/06/04 ,     ,
* ,44/06/06 ,     ,What Did Joan Do In Doctor Bob's Past?
* ,44/06/07 ,     ,Joan Grey Is Not Imaginary
* ,45/04/17 ,     ,No-One Comes To The Party
  ,46/09/27 ,     ,Last Episode
