Exists, Date, #, Episode Name
* ,85/05/28 ,     ,Inland Ice
* ,85/06/04 ,     ,The Story
* ,85/06/11 ,     ,Four Monologues for Radio
* ,85/06/18 ,     ,The History of Rapture
* ,85/07/02 ,     ,Tongues
