Exists, Date, #, Episode Name
* ,40/09/15 ,   1 ,First Episode
* ,40/09/22 ,   2 ,Warming Up A Studio Audience
* ,40/09/29 ,   3 ,Baby's Cries
* ,40/10/06 ,   4 ,Versatile Acting
* ,40/10/13 ,   5 ,Sundown On The Veldt
* ,40/10/20 ,   6 ,Radio Sneezing
* ,40/10/27 ,   7 ,Stoogedom
* ,40/11/03 ,   8 ,Sound Effects
* ,40/11/10 ,   9 ,Making A Living By Dying
* ,40/11/17 ,  10 ,Dinah And The Truck Driver
* ,40/11/24 ,  11 ,War News Mistakes
  ,40/12/01 ,     ,
* ,40/12/08 ,  12 ,Musical Bridges
* ,40/12/15 ,  13 ,Radio's Dramatic Actresses
* ,40/12/22 ,  14 ,Difficult Names
* ,40/12/29 ,  15 ,Radio Almanac
* ,41/01/05 ,  16 ,Weird Prospective Guest Interview
* ,41/01/12 ,  17 ,Script Writers
* ,41/01/19 ,  18 ,FDR Third Inaugural Ceremonies
* ,41/01/26 ,  19 ,You're My Dream
* ,41/02/02 ,  20 ,Putting A Program Together
* ,41/02/09 ,  21 ,The Lady From Oklahoma
* ,41/02/16 ,  22 ,Character Actors
* ,41/02/23 ,  23 ,Comedy Broadcasts
* ,41/03/02 ,  24 ,Pioneers Of Radio Entertainment
  ,41/03/09 ,  25 ,
  ,41/03/16 ,  26 ,
* ,41/03/23 ,  27 ,The Lee DeForrest Story
  ,41/03/30 ,  28 ,
  ,41/04/06 ,  29 ,
  ,41/04/13 ,  30 ,
* ,41/04/20 ,  31 ,Director - Star Relations
  ,41/04/27 ,  32 ,
* ,41/05/04 ,  33 ,Enoch Light's Disappearance From The Airways
  ,41/05/11 ,  34 ,
* ,41/05/18 ,  35 ,Amusing Stories Behind Radio
  ,41/05/25 ,  36 ,
  ,41/06/01 ,  37 ,
* ,41/06/08 ,  38 ,Selling A Show To A Sponsor
  ,41/06/15 ,  39 ,
  ,41/06/22 ,  40 ,
* ,41/06/29 ,  41 ,The Associated Press
  ,41/07/06 ,  42 ,Delia West Decker (Texas housewife turns script writer)
  ,41/07/13 ,  43 ,
  ,41/07/20 ,  44 ,
  ,41/07/27 ,  45 ,Truth and Consequences
  ,41/08/03 ,  46 ,- (Jack Benny panned by Phil Harris)
  ,41/08/10 ,  47 ,
  ,41/08/17 ,  48 ,
  ,41/08/24 ,  49 ,--- (with Schlepperman, Rochester, others)
  ,41/08/31 ,  50 ,
  ,41/09/07 ,  51 ,
  ,41/09/14 ,  52 ,
  ,41/09/21 ,  53 ,
  ,41/09/28 ,  54 ,
  ,41/10/05 ,  55 ,
* ,41/10/12 ,  56 ,Zulu Radio Star
  ,41/10/19 ,  57 ,
  ,41/10/26 ,  58 ,
  ,41/11/02 ,  59 ,
  ,41/11/09 ,  60 ,
  ,41/11/16 ,  61 ,
  ,41/11/23 ,  62 ,
* ,41/11/30 ,  63 ,Impersonations Of Famous People
  ,41/12/07 ,  64 ,
  ,41/12/14 ,  65 ,
  ,41/12/21 ,  66 ,Bill Stern, guest
  ,41/12/28 ,  67 ,
  ,42/01/04 ,  68 ,
  ,42/01/11 ,  69 ,
  ,42/01/18 ,  70 ,
  ,42/01/25 ,  71 ,
  ,42/02/01 ,  72 ,
  ,42/02/08 ,  73 ,
  ,42/02/15 ,  74 ,
  ,42/02/22 ,  75 ,
  ,42/03/01 ,  76 ,
  ,42/03/08 ,  77 ,
  ,42/03/15 ,  78 ,
  ,42/03/22 ,  79 ,
  ,42/03/29 ,  80 ,
  ,42/04/05 ,  81 ,
  ,42/04/19 ,  82 ,Last Episode
