Exists, Date, #, Episode Name
* ,35/08/22 ,     ,A Band Remote from the Palomar Ballroom, Los Angeles
* ,35/12/23 ,     ,Commercial Release
* ,36/01/06 ,     ,Commercial Release
* ,36/01/13 ,     ,Commercial Release
* ,36/01/20 ,     ,Commercial Release
* ,36/02/03 ,     ,Commercial Release
* ,36/02/10 ,     ,Commercial Release
* ,36/02/17 ,     ,A Band Remote from the Joseph Urban Room of the Congress Hotel
* ,37/04/28 ,     ,A Band Remote from the Madhattan Room of the Hotel Pennsylvania
* ,37/10/13 ,     ,A Band Remote from the Madhattan Room of the Hotel Pennsylvania
* ,37/10/16 ,     ,A Band Remote from the Madhattan Room of the Hotel Pennsylvania
* ,37/10/20 ,     ,A Band Remote from the Madhattan Room of the Hotel Pennsylvania
* ,37/10/21 ,     ,A Band Remote from the Madhattan Room of the Hotel Pennsylvania
* ,37/10/23 ,     ,A Band Remote from the Madhattan Room of the Hotel Pennsylvania
* ,37/10/27 ,     ,A Band Remote from the Madhattan Room of the Hotel Pennsylvania
* ,37/10/30 ,     ,A Band Remote from the Madhattan Room of the Hotel Pennsylvania
* ,37/11/04 ,     ,A Band Remote from the Madhattan Room of the Hotel Pennsylvania
* ,37/11/06 ,     ,A Band Remote from the Madhattan Room of the Hotel Pennsylvania
* ,37/11/20 ,     ,A Band Remote from the Madhattan Room of the Hotel Pennsylvania
* ,37/12/18 ,     ,A Band Remote from the Madhattan Room of the Hotel Pennsylvania
* ,37/12/22 ,     ,A Band Remote from the Madhattan Room of the Hotel Pennsylvania
* ,40/04/12 ,     ,A Band Remote from the Cocoanut Grove of the Hotel Ambassador
* ,41/08/10 ,     ,A Band Remote from the Panther Room of the Hotel Sherman
* ,43/10/16 ,     ,The Final Twenty Minutes of the Program Only
* ,43/11/13 ,     ,A Band Remote from the Ice Terrace Room of the Hotel New Yorker
* ,46/01/03 ,     ,An Opening Night Band Remote from the Meadowbrook Garden Restaurant
* ,46/01/14 ,     ,A Band Remote from the Meadowbrook Garden Restaurant
* ,46/01/26 ,     ,A Band Remote from the Meadowbrook, Culver City, New Jersey
* ,58/06/03 ,     ,A Remote from the Brussels World's Fair
* ,61/07/25 ,     ,A Band Remote from 'The Moonbowl' at Freedomland, the Bronx
* ,66/01/01 ,     ,A Band Remote from the Blue Room of the Hotel Tropicana
* ,66/12/31 ,     ,A Band Remote from the Blue Room of the Hotel Tropicana
