Exists, Date, #, Episode Name
* ,45/06/04 ,   1 ,The Ballad And The Source - Part 1
* ,45/06/05 ,   2 ,The Ballad And The Source - Part 2
* ,45/06/06 ,   3 ,The Ballad And The Source - Part 3
* ,45/06/07 ,   4 ,The Ballad And The Source - Part 4
* ,45/06/08 ,   5 ,The Ballad And The Source - Part 5
* ,45/06/11 ,   6 ,The Upstart - Part 1
* ,45/06/12 ,   7 ,The Upstart - Part 2
* ,45/06/13 ,   8 ,The Upstart - Part 3
* ,45/06/14 ,   9 ,The Upstart - Part 4
* ,45/06/15 ,  10 ,The Upstart - Part 5
* ,45/06/18 ,  11 ,Pride's Way - Part 1
* ,45/06/19 ,  12 ,Pride's Way - Part 2
* ,45/06/20 ,  13 ,Pride's Way - Part 3
* ,45/06/21 ,  14 ,Pride's Way - Part 4
* ,45/06/22 ,  15 ,Pride's Way - Part 5
* ,45/06/25 ,  16 ,The Maiden With The Butterflies - Part 1
* ,45/06/26 ,  17 ,The Maiden With The Butterflies - Part 2
* ,45/06/27 ,  18 ,The Maiden With The Butterflies - Part 3
* ,45/06/28 ,  19 ,The Maiden With The Butterflies - Part 4
* ,45/06/29 ,  20 ,The Maiden With The Butterflies - Part 5
* ,45/07/02 ,  21 ,Ask No Quarter - Part 1
* ,45/07/03 ,  22 ,Ask No Quarter - Part 2
* ,45/07/04 ,  23 ,Ask No Quarter - Part 3
* ,45/07/05 ,  24 ,Ask No Quarter - Part 4
* ,45/07/06 ,  25 ,Ask No Quarter - Part 5
* ,45/07/09 ,  26 ,The House On Clewe Street - Part 1
* ,45/07/10 ,  27 ,The House On Clewe Street - Part 2
* ,45/07/11 ,  28 ,The House On Clewe Street - Part 3
* ,45/07/12 ,  29 ,The House On Clewe Street - Part 4
* ,45/07/13 ,  30 ,The House On Clewe Street - Part 5
* ,45/07/16 ,  31 ,The City Of Trembling Leaves - Part 1
* ,45/07/17 ,  32 ,The City Of Trembling Leaves - Part 2
* ,45/07/18 ,  33 ,The City Of Trembling Leaves - Part 3
* ,45/07/19 ,  34 ,The City Of Trembling Leaves - Part 4
* ,45/07/20 ,  35 ,The City Of Trembling Leaves - Part 5
* ,45/07/23 ,  36 ,The Wayfarers - Part 1
* ,45/07/24 ,  37 ,The Wayfarers - Part 2
* ,45/07/25 ,  38 ,The Wayfarers - Part 3
* ,45/07/26 ,  39 ,The Wayfarers - Part 4
* ,45/07/27 ,  40 ,The Wayfarers - Part 5
* ,45/07/30 ,  41 ,Put Off Thy Shoes - Part 1
* ,45/07/31 ,  42 ,Put Off Thy Shoes - Part 2
* ,45/08/01 ,  43 ,Put Off Thy Shoes - Part 3
* ,45/08/02 ,  44 ,Put Off Thy Shoes - Part 4
* ,45/08/03 ,  45 ,Put Off Thy Shoes - Part 5
* ,45/08/06 ,  46 ,Prekaska's Wife - Part 1
* ,45/08/07 ,  47 ,Prekaska's Wife - Part 2
* ,45/08/08 ,  48 ,Preksaka's Wife - Part 3
* ,45/08/09 ,  49 ,Preskaka's Wife - Part 4
* ,45/08/10 ,  50 ,Preskaka's Wife - Part 5
* ,45/08/13 ,  51 ,Kitty - Part 1
* ,45/08/14 ,  52 ,Kitty - Part 2
* ,45/08/15 ,  53 ,Kitty - Part 3
* ,45/08/16 ,  54 ,Kitty - Part 4
* ,45/08/17 ,  55 ,Kitty - Part 5
* ,45/08/20 ,  56 ,The Rickshaw Boy - Part 1
* ,45/08/21 ,  57 ,The Rickshaw Boy - Part 2
* ,45/08/22 ,  58 ,The Rickshaw Boy - Part 3
* ,45/08/23 ,  59 ,The Rickshaw Boy - Part 4
* ,45/08/24 ,  60 ,The Rickshaw Boy - Part 5
* ,45/08/27 ,  61 ,Happy Time - Part 1
* ,45/08/28 ,  62 ,Happy Time - Part 2
* ,45/08/29 ,  63 ,Happy Time - Part 3
* ,45/08/30 ,  64 ,Happy Time - Part 4
* ,45/08/31 ,  65 ,Happy Time - Part 5
* ,45/09/03 ,  66 ,Storm Tide - Part 1
* ,45/09/04 ,  67 ,Storm Tide - Part 2
* ,45/09/05 ,  68 ,Storm Tide - Part 3
* ,45/09/06 ,  69 ,Storm Tide - Part 4
* ,45/09/07 ,  70 ,Storm Tide - Part 5
* ,45/09/10 ,  71 ,The Heritage Of The River - Part 1
* ,45/09/11 ,  72 ,The Heritage Of The River - Part 2
* ,45/09/12 ,  73 ,The Heritage Of The River - Part 3
* ,45/09/13 ,  74 ,The Heritage Of The River - Part 4
* ,45/09/14 ,  75 ,The Heritage Of The River - Part 5
* ,45/09/17 ,  76 ,A Lion In The Streets - Part 1
* ,45/09/18 ,  77 ,A Lion In The Streets - Part 2
* ,45/09/19 ,  78 ,A Lion In The Streets - Part 3
* ,45/09/20 ,  79 ,A Lion In The Streets - Part 4
* ,45/09/21 ,  80 ,A Lion In The Streets - Part 5
* ,45/09/24 ,  81 ,I Married Them - Part 1
* ,45/09/25 ,  82 ,I Married Them - Part 2
* ,45/09/26 ,  83 ,I Married Them - Part 3
* ,45/09/27 ,  84 ,I Married Them - Part 4
* ,45/09/28 ,  85 ,I Married Them - Part 5
* ,45/10/01 ,  86 ,The Peacock Sheds Its Tail - Part 1
* ,45/10/02 ,  87 ,The Peacock Sheds Its Tail - Part 2
* ,45/10/03 ,  88 ,The Peacock Sheds Its Tail - Part 3
* ,45/10/04 ,  89 ,The Peacock Sheds Its Tail - Part 4
* ,45/10/05 ,  90 ,The Peacock Sheds Its Tail - Part 5
* ,45/10/08 ,  91 ,Burning Gold - Part 1
* ,45/10/09 ,  92 ,Burning Gold - Part 2
* ,45/10/11 ,  93 ,Burning Gold - Part 3
* ,45/10/12 ,  94 ,Burning Gold - Part 4
* ,45/10/13 ,  95 ,Burning Gold - Part 5
* ,45/10/15 ,  96 ,Charity Strong - Part 1
* ,45/10/16 ,  97 ,Charity Strong - Part 2
* ,45/10/17 ,  98 ,Charity Strong - Part 3
* ,45/10/18 ,  99 ,Charity Strong - Part 4
* ,45/10/19 , 100 ,Charity Strong - Part 5
* ,45/10/22 , 101 ,Rooster Crows - Part 1
* ,45/10/23 , 102 ,Rooster Crows - Part 2
* ,45/10/24 , 103 ,Rooster Crows - Part 3
* ,45/10/25 , 104 ,Rooster Crows - Part 4
* ,45/10/26 , 105 ,Rooster Crows - Part 5
* ,45/10/29 , 106 ,Ever After - Part 1
* ,45/10/30 , 107 ,Ever After - Part 2
* ,45/10/31 , 108 ,Ever After - Part 3
* ,45/11/01 , 109 ,Ever After - Part 4
* ,45/11/02 , 110 ,Ever After - Part 5
