Exists, Date, #, Episode Name
* ,53/xx/xx ,   1 , A Million Words, A Million Songs
* ,53/xx/xx ,   2 , George Washington's Gingerbread Man
* ,53/xx/xx ,   3 , The Night the Mountain Caught Fire
* ,53/xx/xx ,   4 , Milk for Millions
* ,53/xx/xx ,   5 , The Floating City
* ,53/xx/xx ,   6 , A Half Hour to Death
* ,53/xx/xx ,   7 , Wings Over the World
* ,53/xx/xx ,   8 , The Magic Broomstick
* ,53/xx/xx ,   9 , Mrs. USA
* ,53/xx/xx ,  10 , The Wire Rope Express
* ,53/xx/xx ,  11 ,No More Frontiers
* ,53/xx/xx ,  12 ,The Magic Bus
* ,53/xx/xx ,  13 ,  The Lost Billion Trees
