Exists, Date, #, Episode Name
* ,xx/xx/xx ,     ,Lucky Singing
* ,xx/xx/xx ,     ,Popes Own E1
* ,xx/xx/xx ,     ,Popes Own E2
* ,xx/xx/xx ,     ,Popes Own E3
* ,xx/xx/xx ,     ,Shadow of Ashland E01
* ,xx/xx/xx ,     ,Shadow of Ashland E02
* ,xx/xx/xx ,     ,Shadow of Ashland E03
* ,xx/xx/xx ,     ,Shadow of Ashland E04
* ,xx/xx/xx ,     ,Shadow of Ashland E05
* ,xx/xx/xx ,     ,Shadow of Ashland E06
* ,xx/xx/xx ,     ,Shadow of Ashland E07
* ,xx/xx/xx ,     ,Shadow of Ashland E08
* ,xx/xx/xx ,     ,Shadow of Ashland E09
* ,xx/xx/xx ,     ,Shadow of Ashland E10
* ,xx/xx/xx ,     ,To Everything a Season E1
* ,xx/xx/xx ,     ,To Everything a Season E2
* ,xx/xx/xx ,     ,To Everything a Season E3
* ,xx/xx/xx ,     ,To Everything a Season E4
