Exists, Date, #, Episode Name
* ,69/07/06 , 101 ,Leading You Through
* ,69/07/13 , 102 ,Cruising on River
* ,69/07/20 , 103 ,Taking You Through
* ,69/07/27 , 104 ,Disposing Relative
* ,69/08/03 , 105 ,Playing Ducks
* ,69/08/10 , 106 ,Taking Orders
* ,69/08/17 , 107 ,Strike Breaking
* ,69/08/24 , 108 ,Dining Out
* ,69/08/31 , 109 ,Initiating Through
* ,69/09/07 , 110 ,Searching for Liberty
* ,69/09/14 , 111 ,Contracting Out
* ,69/09/21 , 112 ,Destructing
* ,69/09/28 , 113 ,Advertising
