Exists, Date, #, Episode Name
* ,54/11/22 ,   1 ,First Song - This Old House
* ,54/11/23 ,   2 ,First Song - Papa Loves Mambo
* ,54/11/24 ,   3 ,First Song - Mandy
* ,54/11/25 ,   4 ,First Song - I Never Knew
* ,54/11/26 ,   5 ,First Song - Do You Ever Think of Me
* ,54/11/29 ,   6 ,First Song - You Took Advantage of Me
* ,54/11/30 ,   7 ,First Song - I Want To Be Happy
* ,54/12/01 ,   8 ,First Song - Somebody Loves Me
* ,54/12/02 ,   9 ,First Song - This Old House
* ,54/12/03 ,  10 ,First Song - Rudolf The Red Nosed Reindeer
  ,54/12/06 ,  11 ,
* ,54/12/07 ,  12 ,First Song - Silver Bells
* ,54/12/08 ,  13 ,First Song - This Old House
* ,54/12/09 ,  14 ,First Song - Somebody Loves Me
* ,54/12/10 ,  15 ,First Song - I'm A Fool To Care
  ,54/12/13 ,  16 ,
  ,54/12/14 ,  17 ,
* ,54/12/15 ,  18 ,First Song - Rudolph The Red Nosed Reindeer
* ,54/12/16 ,  19 ,First Song - This Ole House
* ,54/12/17 ,  20 ,First Song - Silver Bells
* ,54/12/20 ,  21 ,First Song - I've Got My Love To Keep Me Warm
* ,54/12/21 ,  22 ,First Song - I Want To Be Happy
* ,54/12/22 ,  23 ,First Song - Here Comes Santa Claus
  ,54/12/23 ,  24 ,
  ,54/12/24 ,  25 ,
  ,54/12/27 ,  26 ,First Song - Papa Loves Mambo
  ,54/12/28 ,  27 ,
* ,54/12/29 ,  28 ,First Song - Looks Like A Cold, Cold Winter
* ,54/12/30 ,  29 ,First Song - Mandy
* ,54/12/31 ,  30 ,First Song - Anyone Can Fall In Love
* ,55/01/03 ,  31 ,First Song - 'S Wonderful
* ,55/01/04 ,  32 ,First Song - This Ole House
* ,55/01/05 ,  33 ,First Song - You Took Advantage Of Me
* ,55/01/06 ,  34 ,First Song - Looks Like A Cold Cold Winter
* ,55/01/07 ,  35 ,First Song - After You've Gone
* ,55/01/10 ,  36 ,First Song - I'm Not The Guy Who Cares About Love
* ,55/01/11 ,  37 ,First Song - Papa Loves Mambo
* ,55/01/12 ,  38 ,First Song - Love And Learn
* ,55/01/13 ,  39 ,First Song - Honeysuckle Rose
* ,55/01/14 ,  40 ,First Song - Pennies From Heaven
* ,55/01/17 ,  41 ,First Song - We're In The Money
* ,55/01/18 ,  42 ,First Song - Here I Go Again
* ,55/01/19 ,  43 ,First Song - Mandy
* ,55/01/20 ,  44 ,First Song - Dissertation On The State Of Bliss
* ,55/01/21 ,  45 ,First Song - Looks Like A Cold, Cold Winter
* ,55/01/24 ,  46 ,First Song - Thou Swell
* ,55/01/25 ,  47 ,First Song - All My Love
* ,55/01/26 ,  48 ,First Song - This Ole House
* ,55/01/27 ,  49 ,First Song - It's Mine, It's Yours
* ,55/01/28 ,  50 ,First Song - We're In The Money
* ,55/01/31 ,  51 ,First Song - Mandy
* ,55/02/01 ,  52 ,First Song - In The Cool, Cool Of The Evening
* ,55/02/02 ,  53 ,First Song - Sweet And Lovely
* ,55/02/03 ,  54 ,First Song - Dissertation On The State Of Bliss
* ,55/02/04 ,  55 ,First Song - We're In The Money
* ,55/02/07 ,  56 ,First Song - Ain't Misbehavin'
* ,55/02/08 ,  57 ,First Song - Sleigh Ride
* ,55/02/09 ,  58 ,First Song - Mandy
* ,55/02/10 ,  59 ,First Song - Pretty Baby
* ,55/02/11 ,  60 ,First Song - I Need You Now
* ,55/02/14 ,  61 ,First Song - I Can't Believe You're In Love With Me
* ,55/02/15 ,  62 ,First Song - Do You Ever Think Of Me?
* ,55/02/16 ,  63 ,First Song - Dissertation On The State Of Bliss
* ,55/02/17 ,  64 ,First Song - The Search Is Through
* ,55/02/18 ,  65 ,First Song - This Can't Be Love
* ,55/02/21 ,  66 ,First Song - Thou Swell
* ,55/02/22 ,  67 ,First Song - My Kinda Love
* ,55/02/23 ,  68 ,First Song - Mandy
* ,55/02/24 ,  69 ,First Song - Somebody Loves Me
* ,55/02/25 ,  70 ,First Song - Papa Loves Mambo
* ,55/02/28 ,  71 ,First Song - We're In The Money
* ,55/03/01 ,  72 ,First Song - Taking A Chance On Love
* ,55/03/02 ,  73 ,First Song - All My Love
* ,55/03/03 ,  74 ,First Song - It's Mine, It's Yours
* ,55/03/04 ,  75 ,First Song - Valencia
* ,55/03/07 ,  76 ,First Song - This Can't Be Love
* ,55/03/08 ,  77 ,First Song - Dissertation On The State Of Bliss
* ,55/03/09 ,  78 ,First Song - I Want To Be Happy
* ,55/03/10 ,  79 ,First Song - The Land Around Us
* ,55/03/11 ,  80 ,First Song - A Man Chases A Girl
* ,55/03/14 ,  81 ,First Song - Oh Look At Me Now
  ,55/03/15 ,  82 ,
* ,55/03/16 ,  83 ,First Song - Mandy
* ,55/03/17 ,  84 ,First Song - McNamara's Band
  ,55/03/18 ,  85 ,
* ,55/03/21 ,  86 ,First Song - You Took Advantage Of Me
* ,55/03/22 ,  87 ,First Song - The Search Is Through
* ,55/03/23 ,  88 ,First Song - Sunday
* ,55/03/24 ,  89 ,First Song - It's Mine, It's Yours
* ,55/03/25 ,  90 ,First Song - How Important Can It Be?
* ,55/03/28 ,  91 ,First Song - Jim, Johnny And Jonas
* ,55/03/29 ,  92 ,First Song - Snow
* ,55/03/30 ,  93 ,First Song - Back In Your Own Back Yard
* ,55/03/31 ,  94 ,First Song - Jim, Johnny And Jonas
* ,55/04/01 ,  95 ,First Song - A Man Chases A Girl
* ,55/04/04 ,  96 ,First Song - How Important Can It Be?
* ,55/04/05 ,  97 ,First Song - Dinah
* ,55/04/06 ,  98 ,First Song - Mandy
* ,55/04/07 ,  99 ,First Song - My Heart Is Taking Lessons
* ,55/04/08 , 100 ,First Song - La Borrachita
* ,55/04/11 , 101 ,First Song - Sunday
* ,55/04/12 , 102 ,First Song - Jim, Johnny And Jonas
* ,55/04/13 , 103 ,First Song - Thou Swell
* ,55/04/14 , 104 ,First Song - Dissertation On The State Of Bliss
* ,55/04/15 , 105 ,First Song - Ol' Man River
* ,55/04/18 , 106 ,First Song - Pledging My Love
  ,55/04/19 , 107 ,First Song - Do You Ever Think Of Me
  ,55/04/20 , 108 ,First Song - I Want To Be Happy
  ,55/04/21 , 109 ,First Song - Love Me Or Leave Me
  ,55/04/22 , 100 ,First Song - As Long As I Live
  ,55/04/25 , 111 ,First Song - Just You, Just Me
  ,55/04/26 , 112 ,First Song - Row, Row, Row
  ,55/04/27 , 113 ,First Song - This Can't Be Love
  ,55/04/28 , 114 ,First Song - Dear Hearts And Gentle People
  ,55/04/29 , 115 ,First Song - A Man Chases A Girl
  ,55/05/02 , 116 ,First Song - How Important Can It Be?
  ,55/05/03 , 117 ,First Song - Jim, Johnny and Jonas
  ,55/05/04 , 118 ,First Song - Mandy
  ,55/05/05 , 119 ,
  ,55/05/06 , 120 ,First Song - Pledging My Love
  ,55/05/09 , 121 ,First Song - Pistol Packin' Mama
  ,55/05/10 , 122 ,
  ,55/05/11 , 123 ,First Song - I Can't Believe Your'e In Love With Me
  ,55/05/12 , 124 ,First Song - Yes Indeed
  ,55/05/13 , 125 ,First Song - This Can't Be Love
  ,55/05/16 , 126 ,First Song - We're In The Money
  ,55/05/17 , 127 ,
  ,55/05/18 , 128 ,First Song - S'Wonderful
  ,55/05/19 , 129 ,
  ,55/05/20 , 130 ,First Song - You Took Advantage Of Me
  ,55/05/23 , 131 ,First Song - Sunday
  ,55/05/24 , 132 ,
  ,55/05/25 , 133 ,First Song - Honeysuckle Rose
  ,55/05/26 , 134 ,
  ,55/05/27 , 135 ,First Song - How Important Can It Be?
  ,55/05/30 , 136 ,First Song - Love Is The Sweetest Thing
  ,55/06/01 , 137 ,First Song - Oh Look At Me Now
  ,55/06/02 , 138 ,
  ,55/06/03 , 139 ,First Song - Flores Negras
  ,55/06/06 , 140 ,First Song - Thou Swell
  ,55/06/07 , 141 ,First Song - Jim, Johnny And Jonas
  ,55/06/08 , 142 ,First Song - Back In Your Own Backyard
  ,55/06/09 , 143 ,
  ,55/06/10 , 144 ,First Song - I Want To Be Happy
  ,55/06/13 , 145 ,First Song - Pledging My Love
  ,55/06/14 , 146 ,First Song - I'm An Old Cowhand
  ,55/06/15 , 147 ,First Song - As Long As I Live
  ,55/06/16 , 148 ,
  ,55/06/17 , 149 ,First Song - La Borrachita
  ,55/06/20 , 150 ,First Song - The Dixieland Band
  ,55/06/21 , 151 ,First Song - In The Good Ole Summertime
  ,55/06/22 , 152 ,
  ,55/06/23 , 153 ,First Song - Something's Gotta Give
  ,55/06/24 , 154 ,First Song - Farewell
  ,55/06/26 , 155 ,First Song - Unspecting Heart
  ,55/06/27 , 156 ,First Song - In A Little Spanish Town
  ,55/06/28 , 157 ,
  ,55/06/29 , 158 ,First Song - I Hear Music
  ,55/06/30 , 159 ,
  ,55/07/01 , 160 ,First Song - Keep It Gay
  ,55/07/04 , 161 ,First Song - It's A Most Unusual Day
  ,55/07/05 , 162 ,First Song - Dear Hearts And Gentle People
  ,55/07/06 , 163 ,First Song - As Long As I Live
  ,55/07/07 , 164 ,First Song - After You've Gone
  ,55/07/08 , 165 ,First Song - Mandy
  ,55/07/11 , 166 ,
  ,55/07/12 , 167 ,
  ,55/07/13 , 168 ,
  ,55/07/14 , 169 ,
  ,55/07/15 , 170 ,
  ,55/07/18 , 171 ,
  ,55/07/19 , 172 ,
* ,55/07/20 , 173 , First Song - Gone Fishin'
* ,55/07/21 , 174 , First Song - Something's Gotta Give
  ,55/07/22 , 175 ,
  ,55/07/25 , 176 ,
  ,55/07/26 , 177 ,
  ,55/07/27 , 178 ,
  ,55/07/28 , 179 ,
  ,55/07/29 , 180 ,
* ,55/08/01 , 181 ,First Song - It's A Most Unusual Day
  ,55/08/02 , 182 ,
* ,55/08/03 , 183 ,First Song - This Can't Be Love
* ,55/08/04 , 184 ,First Song - I Never Knew
* ,55/08/05 , 185 ,First Song - The Lady Is A Tramp
* ,55/08/08 , 186 ,First Song - Thou Swell
  ,55/08/09 , 187 ,
* ,55/08/10 , 188 ,First Song - Nice Work If You Can Get It
* ,55/08/11 , 189 ,First Song - In The Good Ole Summertime
* ,55/08/12 , 190 ,First Song - That's The Way Love Goes
* ,55/08/15 , 191 ,First Song - I've Got My Love To Keep Me Warm
* ,55/09/13 , 212 ,First Song - My Kinda Love
* ,55/09/14 , 213 ,First Song - Cherry Pink And Apple Blossom White
* ,55/09/15 , 214 ,First Song - All She'd Say Was Um-Hum
* ,55/09/16 , 215 ,First Song - This Can't Be Love
