Exists, Date, #, Episode Name
* ,31/09/02 ,   1 ,First Song - Just One More Chance
  ,31/09/03 ,   2 ,
  ,31/09/04 ,   3 ,
  ,31/09/05 ,     ,First Song - Old Playmate
  ,31/09/07 ,   4 ,First Song - What Is It?
  ,31/09/08 ,   5 ,
  ,31/09/09 ,   6 ,First Song - Don't Know Why
  ,31/09/10 ,   7 ,First Song - The Hour Of Parting
  ,31/09/11 ,   8 ,First Song - River
  ,31/09/12 ,   9 ,First Song - Old Playmate
  ,31/09/14 ,  10 ,First Song - Just One More Chance
  ,31/09/15 ,  11 ,
  ,31/09/16 ,  12 ,
  ,31/09/17 ,  13 ,
  ,31/09/18 ,  14 ,
  ,31/09/19 ,  15 ,
  ,31/09/21 ,  16 ,First Song - Just One More Chance
  ,31/09/22 ,  17 ,
  ,31/09/23 ,  18 ,
  ,31/09/24 ,  19 ,
  ,31/09/25 ,  20 ,
  ,31/09/26 ,  21 ,
  ,31/09/28 ,  22 ,
  ,31/09/29 ,  23 ,
  ,31/09/30 ,  24 ,
  ,31/10/01 ,  25 ,
  ,31/10/02 ,  26 ,
  ,31/10/03 ,  27 ,
  ,31/10/05 ,  28 ,
  ,31/10/06 ,  29 ,
  ,31/10/07 ,  30 ,
  ,31/10/08 ,  31 ,
  ,31/10/09 ,  32 ,
  ,31/10/10 ,  33 ,
  ,31/10/12 ,  34 ,
  ,31/10/13 ,  35 ,
  ,31/10/14 ,  36 ,
  ,31/10/15 ,  37 ,
  ,31/10/16 ,  38 ,
  ,31/10/17 ,  39 ,
  ,31/10/19 ,  40 ,First Song - Ain't Misbehavin'
  ,31/10/20 ,  41 ,First Song - Sweet & Lovely
  ,31/10/21 ,  42 ,First Song - I'm Sorry Dear
  ,31/10/22 ,  43 ,First Song - It Had To Be You
  ,31/10/23 ,  44 ,First Song - What Is It?
  ,31/10/24 ,  45 ,First Song - Shine On Harvest Moon
  ,31/10/26 ,  46 ,
  ,31/10/27 ,  47 ,
  ,31/10/28 ,  48 ,
  ,31/10/29 ,  49 ,
  ,31/10/30 ,  50 ,
  ,31/10/31 ,  51 ,
