Exists, Date, #, Episode Name
* ,48/07/15 ,   0 ,Riddle Of The Talking Skull(Audition)
* ,48/10/03 ,   1 ,The Ghost That Trapped a Killer
* ,48/10/10 ,   2 ,The Reluctant Buzz Saw
* ,48/10/17 ,   3 ,Emerald in the Fish Bowl
* ,48/10/24 ,   4 ,The Maharajah's Gold
* ,48/10/31 ,   5 ,The Educated Dummy
* ,48/11/07 ,   6 ,Riddle of the Talking Skull(repeat)
* ,48/11/14 ,   7 ,The Whispering Buddah
* ,48/11/21 ,   8 ,The Organ Murder
* ,48/11/28 ,   9 ,The Ghost That Wasn't
* ,48/12/05 ,  10 ,The Icy Touch
* ,48/12/12 ,  11 ,The Underwater Death
* ,48/12/19 ,  12 ,The Coins of Confucius
* ,48/12/26 ,  13 ,Murder on Stage
* ,49/01/02 ,  14 ,The Midway Robberies
* ,49/01/09 ,  15 ,The Frozen Lady
* ,49/01/16 ,  16 ,The Hooded Rider
* ,49/01/23 ,  17 ,The Phantom Intermezzo
* ,49/01/30 ,  18 ,The Vanishing Pearls
* ,49/02/06 ,  19 ,The Curse of the Yogi
* ,49/02/13 ,  20 ,The Coin of Cleopatra
* ,49/02/20 ,  21 ,The Hand of Cagliostro
* ,49/02/27 ,  22 ,The Message from Nowhere
* ,49/03/06 ,  23 ,The Riddle of the Red Goose
* ,49/03/13 ,  24 ,The Aztec Fire God
* ,49/03/20 ,  25 ,The Missing Palmist
* ,49/03/27 ,  26 ,The Ladder of Wealth
* ,49/04/03 ,  27 ,The Locked Book
* ,49/04/10 ,  28 ,The Deathless Shots
* ,49/04/17 ,  29 ,The Riddle of the Eight Ball
* ,49/04/24 ,  30 ,The Cellini Statuette
* ,49/05/01 ,  31 ,The Curse of Kali
* ,49/05/08 ,  32 ,Footsteps in the Night
* ,49/05/15 ,  33 ,The Voodoo Treasure aka Shark Island Story
* ,49/05/22 ,  34 ,Four Keys to Crime
* ,49/05/29 ,  35 ,The Knife from the Dark
* ,49/06/05 ,  36 ,Death in the Crystal
* ,49/06/12 ,  37 ,The Hindu Sword Cabinet
* ,49/06/19 ,  38 ,The Face of Death
* ,49/06/26 ,  39 ,The Voice from the Void
* ,49/07/03 ,  40 ,The Bird of Doom
* ,49/07/10 ,  41 ,The Phantom Detective
* ,49/07/17 ,  42 ,The Riddle of the Seven Zombies
* ,49/07/24 ,  43 ,Crime in the Stars
* ,49/07/31 ,  44 ,The Devil's Cauldron
* ,49/08/07 ,  45 ,The Ghost in the Crypt
* ,49/08/14 ,  46 ,The Accusing Corpse
* ,49/08/21 ,  47 ,Death Defying Death
* ,49/08/28 ,  48 ,The Criminal Who Caught Himself
* ,49/09/04 ,  49 ,The Vanishing Brooch
* ,49/09/11 ,  50 ,Crimes on a Merry-Go-Round
* ,49/09/18 ,  51 ,The Magic Writing
  ,49/09/25 ,  52 ,
  ,49/10/02 ,  53 ,
* ,49/10/09 ,  54 ,The Mark of Crime
* ,49/10/16 ,  55 ,The Creeping Death
  ,49/10/23 ,  56 ,
  ,49/10/30 ,  57 ,
  ,49/11/06 ,  58 ,
  ,49/11/13 ,  59 ,
  ,49/11/20 ,  60 ,
  ,49/11/27 ,  61 ,
  ,49/12/04 ,  62 ,
  ,49/12/11 ,  63 ,
  ,49/12/18 ,  64 ,
  ,49/12/25 ,  65 ,
  ,50/01/01 ,  66 ,
  ,50/01/08 ,  67 ,
  ,50/01/15 ,  68 ,
  ,50/01/22 ,  69 ,
  ,50/01/29 ,  70 ,
  ,50/02/05 ,  71 ,
  ,50/02/12 ,  72 ,
  ,50/02/19 ,  73 ,
  ,50/02/26 ,  74 ,
  ,50/03/05 ,  75 ,
  ,50/03/12 ,  76 ,
  ,50/03/19 ,  77 ,
* ,50/03/26 ,  78 ,The Gory Goldfish
