Exists, Date, #, Episode Name
  ,35/05/03 ,   1 ,--- (Friday, Saturday & Monday at 5:45pm on Chicago station WJJD)
  ,35/05/04 ,   2 ,
  ,35/05/06 ,   3 ,
  ,35/05/10 ,   4 ,
  ,35/05/11 ,   5 ,
  ,35/05/13 ,   6 ,
  ,35/05/17 ,   7 ,
  ,35/05/18 ,   8 ,
  ,35/05/20 ,   9 ,
  ,35/05/24 ,  10 ,
  ,35/05/25 ,  11 ,
  ,35/05/27 ,  12 ,
  ,35/05/31 ,  13 ,
  ,35/06/01 ,  14 ,
  ,35/06/03 ,  15 ,
  ,35/06/07 ,  16 ,
  ,35/06/08 ,  17 ,
  ,35/06/10 ,  18 ,
  ,35/06/14 ,  19 ,
  ,35/06/15 ,  20 ,
  ,35/06/17 ,  21 ,
  ,35/06/21 ,  22 ,--- (Friday & Monday at 5:45pm on station WJJD)
  ,35/06/21 ,  24 ,
  ,35/06/24 ,  23 ,
  ,35/07/01 ,  25 ,
  ,35/07/05 ,  26 ,
  ,35/07/08 ,  27 ,
  ,35/07/12 ,  28 ,
  ,35/07/15 ,  29 ,
  ,35/07/19 ,  30 ,
  ,35/07/22 ,  31 ,
  ,35/07/26 ,  32 ,
  ,35/07/29 ,  33 ,
  ,35/08/02 ,  34 ,--- LAST PROGRAM on station WJJD
  ,35/08/19 ,   1 ,--- (Mondays thru Saturdays around 8pm on Chicago station WIND)
  ,35/08/20 ,   2 ,
  ,35/08/21 ,   3 ,
  ,35/08/22 ,   4 ,
  ,35/08/23 ,   5 ,
  ,35/08/24 ,   6 ,
  ,35/08/26 ,   7 ,
  ,35/08/27 ,   8 ,
  ,35/08/28 ,   9 ,
  ,35/08/29 ,  10 ,
  ,35/08/30 ,  11 ,
  ,35/09/02 ,  12 ,
  ,35/09/03 ,  13 ,
  ,35/09/04 ,  14 ,
  ,35/09/05 ,  15 ,
  ,35/09/06 ,  16 ,
  ,35/09/09 ,  17 ,
  ,35/09/10 ,  18 ,
  ,35/09/11 ,  19 ,
  ,35/09/12 ,  20 ,
  ,35/09/13 ,  21 ,
  ,35/09/14 ,  22 ,
  ,35/09/16 ,  23 ,
  ,35/09/17 ,  24 ,
  ,35/09/18 ,  25 ,
  ,35/09/19 ,  26 ,
  ,35/09/20 ,  27 ,
  ,35/09/21 ,  28 ,
  ,35/09/23 ,  29 ,
  ,35/09/24 ,  30 ,
  ,35/09/25 ,  31 ,
  ,35/09/26 ,  32 ,
  ,35/09/27 ,  33 ,
  ,35/09/28 ,  34 ,
  ,35/09/30 ,  35 ,
  ,35/10/01 ,  36 ,--- (LAST EVENING Broadcast on Chicago station WIND)
  ,35/10/08 ,   1 ,--- (Tuesdays thru Fridays at 9:30am on Chicago station WIND)
  ,35/10/09 ,   2 ,
  ,35/10/10 ,   3 ,
  ,35/10/11 ,   4 ,
  ,35/10/15 ,   5 ,
  ,35/10/16 ,   6 ,
  ,35/10/17 ,   7 ,
  ,35/10/18 ,   8 ,
  ,35/10/22 ,   9 ,--- (Tuesdays, Thursdays & Fridays at 9:30am on Chicago station WIND)
  ,35/10/24 ,  10 ,
  ,35/10/25 ,  11 ,
  ,35/10/29 ,  12 ,
  ,35/10/31 ,  13 ,
  ,35/11/01 ,  14 ,
  ,35/11/05 ,  15 ,
  ,35/11/07 ,  16 ,
  ,35/11/08 ,  17 ,
  ,35/11/15 ,  18 ,
* ,38/01/31 ,   1 ,Fire Valley
* ,38/02/07 ,   2 ,Incident at Long Coulee
  ,38/02/14 ,   3 ,
  ,38/02/21 ,   4 ,
* ,38/02/28 ,   5 ,The Murder at Haggets Landing - Part 1
* ,38/03/07 ,   6 ,The Murder at Haggets Landing - Part 2
* ,38/03/14 ,   7 ,The Cedar Lake Mystery
* ,38/03/21 ,   8 ,The Hamilton Mystery - Part 1
* ,38/03/28 ,   9 ,The Hamilton Mystery - Part 2
* ,38/04/04 ,  10 ,The Cherry Hill Mystery - Part 1
* ,38/04/11 ,  11 ,The Cherry Hill Mystery - Part 2
* ,38/04/18 ,  12 ,The Train Wreckers Mystery
* ,38/04/25 ,  13 ,The Case of Lieutenant Ralston
* ,38/05/02 ,  14 ,The Naked Truth
* ,38/05/09 ,  15 ,The Clover Creek Mystery - Part 1
* ,38/05/16 ,  16 ,The Clover Creek Mystery - Part 2
* ,38/05/23 ,  17 ,The Kittilak Lagoon Mystery - Part 1
* ,38/05/30 ,  18 ,The Kittilak Lagoon Mystery - Part 2
* ,38/06/06 ,  19 ,The Robbery at the Canada Western - Part 1
* ,38/06/13 ,  20 ,The Robbery at the Canada Western - Part 2
* ,38/06/20 ,  21 ,The Goose Lake Robbery
* ,38/06/27 ,  22 ,Star Ruby of Talangor - Part 1
* ,38/07/04 ,  23 ,Star Ruby of Talangor - Part 2
* ,38/07/11 ,  24 ,Ching Wo the Baker
* ,38/07/18 ,  25 ,Strange Case Of Henry Peterson
* ,38/07/25 ,  26 ,The Return Of Inspector Blair
* ,38/08/01 ,  27 ,The Feminine Touch - Part 1
* ,38/08/08 ,  28 ,The Feminine Touch - Part 2
* ,38/08/15 ,  29 ,Lord Waverton's Dilemma - Part 1
* ,38/08/22 ,  30 ,Lord Waverton's Dilemma - Part 2
* ,38/08/29 ,  31 ,Lord Waverton's Dilemma - Part 3
* ,38/09/05 ,  32 ,The Disappearance of Alexander Pressman
* ,38/09/12 ,  33 ,The Most Famous Spy
* ,38/09/19 ,  34 ,The Ibex Mystery - Part 1
* ,38/09/26 ,  35 ,The Ibex Mystery - Part 2
* ,38/10/03 ,  36 ,The Ibex Mystery - Part 3
