Exists, Date, #, Episode Name
  ,43/12/04 ,   1 ,The Awakening of Sleepy Sam
  ,43/12/11 ,   2 ,Daughter of Vikings
  ,43/12/18 ,   3 ,Scapegoat
  ,43/12/25 ,   4 ,Footprints in the Snow
  ,44/01/01 ,   5 ,C Four, H Six
  ,44/01/08 ,   6 ,Trial Without Jury
  ,44/01/15 ,   7 ,Buckeye on Bougainville
  ,44/01/22 ,   8 ,The Rivers Run Red
  ,44/01/29 ,   9 ,Trail to Light
  ,44/02/05 ,  10 ,An Aggie Goes to War
  ,44/02/12 ,  11 ,He Was a Working Man
  ,44/02/19 ,  12 ,For His Brother
  ,44/02/26 ,  13 ,World Horizan
  ,44/03/04 ,  14 ,
  ,44/03/11 ,  15 ,Shines Like Silver
  ,44/03/18 ,  16 ,Skyhorse
  ,44/03/25 ,  17 ,Write a Letter
  ,44/04/01 ,  18 ,Black Magic
  ,44/04/08 ,  19 ,Shoulder to Shoulder
  ,44/04/15 ,  20 ,Homespun Philosopher
  ,44/04/22 ,  21 ,Right Was Street
  ,44/04/29 ,  22 ,General Ike
  ,44/05/06 ,  23 ,Lest We Forget
  ,44/05/13 ,  24 ,Watch Tower
  ,44/05/20 ,  25 ,What Hath God Wrought
  ,44/05/27 ,  26 ,Blue and Gold
* ,44/06/03 ,  27 ,Castle On The Hudson
  ,44/06/10 ,  28 ,The Hundred Years
  ,44/06/17 ,  29 ,Wonder Drug
  ,44/06/24 ,  30 ,Aloysius Has a Son
  ,44/07/01 ,  31 ,All Men Are Equal
  ,44/07/08 ,  32 ,Long Tom
  ,44/07/15 ,  33 ,Liberty Cap
  ,44/07/22 ,  34 ,The Least of These
  ,44/07/29 ,  35 ,The Life of General C. Marshall
* ,44/08/05 ,  36 ,They Shall Be Well Again
* ,44/08/12 ,  37 ,Tennessee Diplomat
  ,44/08/19 ,  38 ,The Daughters of Mercy
* ,44/08/26 ,  39 ,Omm Janie
* ,44/09/02 ,  40 ,Daybreak For Our Carrier
  ,44/09/09 ,  41 ,T. M. D.
