Exists, Date, #, Episode Name
* ,5x/xx/xx ,     ,The Little Bunny Who Lost Its Tail ( a F R T S)
* ,52/07/21 ,   1 ,
  ,52/07/22 ,   2 ,
  ,52/07/23 ,   3 ,
  ,52/07/24 ,   4 ,
  ,52/07/25 ,   6 ,
* ,52/07/28 ,   6 ,
* ,52/07/29 ,   7 ,
* ,52/07/30 ,   8 ,
  ,52/07/31 ,   9 ,
  ,52/08/01 ,  10 ,
* ,52/08/04 ,  11 ,
* ,52/08/05 ,  12 ,
* ,52/08/06 ,  13 ,
  ,52/08/07 ,  14 ,
  ,52/08/08 ,  15 ,
  ,52/08/11 ,  16 ,
* ,52/08/12 ,  17 ,
* ,52/08/13 ,  18 ,
  ,52/08/14 ,  19 ,
  ,52/08/15 ,  20 ,
  ,52/08/18 ,  21 ,
* ,52/08/19 ,  22 ,
* ,52/08/20 ,  23 ,
  ,52/08/21 ,  24 ,
  ,52/08/22 ,  25 ,
* ,52/08/25 ,  26 ,
* ,52/08/26 ,  27 ,
* ,52/08/27 ,  28 ,
* ,52/08/28 ,  29 ,
* ,52/08/29 ,  30 ,
  ,52/09/01 ,  31 ,
* ,52/09/02 ,  32 ,
  ,52/09/03 ,  33 ,
  ,52/09/04 ,  34 ,
  ,52/09/05 ,  35 ,
  ,52/09/08 ,  36 ,
  ,52/09/09 ,  37 ,
  ,52/09/10 ,  38 ,
  ,52/09/11 ,  39 ,
  ,52/09/12 ,  40 ,
  ,52/09/15 ,  41 ,
  ,52/09/16 ,  42 ,
  ,52/09/17 ,  43 ,
  ,52/09/18 ,  44 ,
  ,52/09/19 ,  45 ,
  ,52/09/22 ,  46 ,
* ,52/09/23 ,     ,Bob and Ray
* ,52/09/24 ,     ,Bob and Ray
* ,52/09/25 ,     ,Bob and Ray
* ,52/09/26 ,     ,Bob and Ray
* ,52/09/29 ,     ,Bob and Ray
  ,52/09/30 ,  52 ,
  ,52/10/01 ,  53 ,
* ,52/10/02 ,     ,Bob and Ray
* ,52/10/03 ,     ,Bob and Ray
* ,52/10/06 ,     ,Bob and Ray
* ,52/10/07 ,     ,Bob and Ray
* ,52/10/08 ,     ,Bob and Ray
* ,52/10/09 ,     ,Bob and Ray
* ,52/10/10 ,  60 ,
  ,52/10/13 ,  61 ,
* ,52/10/14 ,  62 ,
* ,52/10/15 ,  63 ,
* ,52/10/16 ,  64 ,
* ,52/10/17 ,  65 ,
  ,52/10/20 ,  66 ,
* ,52/10/21 ,  66 ,Bob and Ray
* ,52/10/22 ,     ,Bob and Ray
* ,52/10/23 ,  69 ,
* ,52/10/24 ,  70 ,
* ,52/10/25 ,     ,
* ,52/10/26 ,     ,
* ,52/10/27 ,     ,Bob and Ray
* ,52/10/29 ,     ,
