Exists, Date, #, Episode Name
* ,4x/xx/xx ,  20 ,E H Gehrman Horace Mason
* ,4x/xx/xx ,     ,Guest Dr I Q
* ,45/xx/xx ,  47 ,Interviewing Passengers at the American Airlines Passenger
* ,46/01/08 ,     ,Interviews Milton Berle
* ,46/03/16 ,     ,Roddy Mc Dowell Margarite Chapman
* ,46/xx/xx , 156 ,Interviews Hugh Herbert
* ,47/02/07 ,     , Interviews Gene Tunney and M G M Producer Howard Dietz
* ,47/12/04 ,     , Interviews Harry Wisner and Irene Dunne
* ,47/xx/xx , 387 ,Interviews Victor Mature
* ,48/02/26 ,     ,Special Guest Robert Young
* ,48/03/02 ,     ,Special Guest Gregory Peck
* ,48/03/03 ,     ,Special Guest Wyoming Senator Joseph O Mahany
* ,48/03/09 ,     ,Special Guest Greek Prince Peter
* ,48/03/11 ,     ,Special Guest Gertrude Lawrence
* ,50/06/03 ,     ,Minutes of Yankees White Sox Game
* ,xx/xx/xx ,  68 ,Interviewing Harry Black Young
* ,xx/xx/xx ,     , Interviews Stars and Stripes Editor on Postwar Japan
* ,xx/xx/xx ,     ,From the Lasalle Street Railroad Station in Chicago
* ,xx/xx/xx ,     ,Herman Cogan
* ,xx/xx/xx ,     ,Interviews a College Professor and a Eskimo
* ,xx/xx/xx ,     ,Jack Benny
* ,xx/xx/xx ,     ,Rin Tin Tin
