Exists, Date, #, Episode Name
* ,52/10/23 ,   1 ,Oil Swindle
* ,52/10/30 ,   2 ,Susan Runs for Mayor
* ,52/11/06 ,   3 ,Hillsdale Becomes Mumdad
* ,52/11/13 ,   4 ,Miss America Visits
* ,52/11/20 ,   5 ,George and the Informer
* ,52/11/27 ,   6 ,Crooked Carnival
* ,52/12/04 ,   7 ,Estate Left To A Cat
* ,52/12/11 ,   8 ,True Confessions Writer Uses Fake Name
  ,52/12/18 ,   9 ,Episode does not exist  (5)
* ,52/12/25 ,  10 ,The Boxer
* ,53/01/01 ,  11 ,Dramatic Lessons
* ,53/01/08 ,  12 ,The French Dress Designer
  ,53/01/15 ,  13 ,Episode does not exist   (6)
  ,53/01/22 ,  14 ,Episode does not exist   (5)
  ,53/01/29 ,  15 ,Episode does not exist   (3)
  ,53/02/05 ,  16 ,Episode does not exist  (4)
* ,53/02/12 ,  17 ,George Covers the Hillsdale Fire
* ,53/02/19 ,  18 ,George Coaches the Hillsdale High Football Team
* ,53/02/26 ,  19 ,The Haunted House
* ,53/03/05 ,  20 ,Rodeo Star
* ,53/03/19 ,  22 ,New Homemaker Page Editor
* ,53/03/26 ,  23 ,Hotel Room Shortage
* ,53/04/02 ,  24 ,Aunt Sophia Plays Matchmaker
* ,53/04/09 ,  25 ,The Talking Parrot
* ,53/04/16 ,  26 ,The Patient's Aid
* ,53/04/23 ,  27 ,Sammy and Shirley
* ,53/04/30 ,  28 ,Beaver Park
* ,53/05/07 ,  29 ,Cousin Emily
* ,53/05/12 ,  30 ,Susan's Poetry
* ,53/05/19 ,  31 ,A Flower for Susan
* ,53/05/26 ,  32 ,Box Supper
* ,53/06/04 ,  33 ,The Chorus Girl
* ,53/06/11 ,  34 ,The Society Burglar
* ,53/06/18 ,  35 ,One Word Cablegram
* ,53/06/25 ,  36 ,Missing Childhood Sweetheart
  ,53/07/02 ,  37 ,Episode does not exist (6)
  ,53/07/09 ,  38 ,Episode does not exist (5)
  ,53/07/16 ,  39 ,Episode does not exist (4)
  ,53/07/23 ,  40 ,Episode does not exist (3)
  ,53/07/30 ,  41 ,Episode does not exist (2)
  ,53/08/06 ,  42 ,Episode does not exist    (2)
  ,53/08/13 ,  43 ,Episode does not exist  (7)
  ,53/08/20 ,  44 ,Episode does not exist
  ,53/08/27 ,  45 ,Episode does not exist  (6)
  ,53/09/03 ,  46 ,Episode does not exist
  ,53/09/10 ,  47 ,Episode does not exist   (8)
  ,53/09/17 ,  48 ,Episode does not exist
  ,53/09/24 ,  49 ,Episode does not exist   (7)
  ,53/10/01 ,  50 ,Episode does not exist
* ,53/10/08 ,  51 ,George's Old Girlfriend, Betty Lou, Comes for a Visit
* ,53/10/15 ,  52 ,Susan's Cousin, Emily, Comes for a Visit
* ,xx/03/12 ,  21 ,Scientific Living
