Exists, Date, #, Episode Name
  ,41/08/07 ,   1 ,
  ,41/08/14 ,   2 ,
  ,41/08/21 ,   3 ,
  ,41/08/28 ,   4 ,
  ,41/09/04 ,   5 ,
  ,41/09/11 ,   6 ,
  ,41/09/18 ,   7 ,
  ,41/09/25 ,   8 ,
  ,41/10/02 ,   9 ,
  ,41/10/09 ,  10 ,
  ,41/10/16 ,  11 ,
  ,41/10/23 ,  12 ,
  ,41/10/30 ,  13 ,
  ,41/11/06 ,  14 ,
  ,41/11/13 ,  15 ,
  ,41/11/20 ,  16 ,
  ,41/11/27 ,  17 ,
  ,41/12/04 ,  18 ,
* ,41/12/11 ,  19 ,First Song - So Sweet
* ,41/12/18 ,  20 ,First Song - You're Grand
* ,41/12/25 ,  21 ,First Song - I Do Do You
* ,42/01/01 ,  22 ,First Song - Until Tonight
* ,42/01/09 ,  23 ,First Song - A Sky Without Stars
* ,42/01/16 ,  24 ,First Song - Sugar Pie
