Exists, Date, #, Episode Name
* ,49/06/07 ,   1 ,Final Curtain Call
  ,49/06/14 ,   2 ,
  ,49/06/21 ,   3 ,
  ,49/06/28 ,   4 ,
  ,49/07/05 ,   5 ,
  ,49/07/12 ,   6 ,
  ,49/07/19 ,   7 ,
  ,49/07/26 ,   8 ,
  ,49/08/02 ,   9 ,
  ,49/08/09 ,  10 ,
  ,49/08/16 ,  11 ,
  ,49/08/23 ,  12 ,
  ,49/08/30 ,  13 ,
  ,49/09/06 ,  14 ,
* ,49/09/13 ,  15 , Mrs OMalley Boarding House
  ,50/06/20 ,  16 ,
* ,50/06/27 ,  17 ,Carl Carson Murdered
  ,50/07/04 ,  18 ,
  ,50/07/11 ,  19 ,
* ,50/07/18 ,  20 ,Papa Gaetano Store Burned
* ,50/07/25 ,  21 ,Carl Fortune
  ,50/08/01 ,  22 ,
  ,50/08/08 ,  23 ,
  ,50/08/15 ,  24 ,
  ,50/08/22 ,  25 ,
* ,50/08/29 ,  26 ,Judge Hardy Shot
  ,50/09/05 ,  27 ,
  ,50/09/12 ,  28 ,
  ,51/06/29 ,  29 ,
  ,51/07/06 ,  30 ,
  ,51/07/13 ,  31 ,
  ,51/07/20 ,  32 ,
  ,51/07/27 ,  33 ,
  ,51/08/03 ,  34 ,
  ,51/08/10 ,  35 ,
  ,51/08/17 ,  36 ,
  ,51/08/24 ,  37 ,
  ,51/08/31 ,  38 ,
  ,51/09/07 ,  39 ,
  ,51/09/14 ,  40 ,
  ,51/09/21 ,  41 ,
* ,52/07/10 ,  42 ,Gangster Wilmore Murdered
  ,52/07/17 ,  43 , Alderman is Murdered
* ,52/07/24 ,  44 ,Eddie Phillips Escapes Jail
* ,52/07/31 ,  45 ,Murder in The Doctors Office
* ,52/08/07 ,  46 ,Mr Crane Killed
  ,52/08/14 ,  47 , Captain Mendose Killed for Map
* ,52/08/21 ,  48 ,Professor Dose Killed for Map
* ,52/08/27 ,  49 ,An Alderman Is Murdered
  ,52/09/03 ,  50 ,
* ,52/xx/xx ,     ,Truck Engine Murder
