Exists, Date, #, Episode Name
* ,46/03/30 ,   1 ,Jezebel
* ,46/04/06 ,   2 ,Kitty Foyle
* ,46/04/13 ,   3 ,The Life of Louis Pasteur
* ,46/04/20 ,   4 ,The Great McGinty
* ,46/04/27 ,   5 ,Snow White and the Seven Dwarfs
* ,46/05/04 ,   6 ,Stagecoach
* ,46/05/11 ,   7 ,If I Were King
* ,46/05/15 ,     ,The Informer (AFRS)({different)
* ,46/05/18 ,   8 ,My Sister Eileen
* ,46/05/25 ,   9 ,The Informer
* ,46/06/01 ,  10 ,Arise, My Love
* ,46/06/08 ,  11 ,Ruggles of Red Gap
* ,46/06/15 ,  12 ,Pride of the Marines
* ,46/06/22 ,  13 ,The Front Page
* ,46/06/29 ,  14 ,A Star Is Born
* ,46/07/03 ,  15 ,The Maltese Falcon
* ,46/07/10 ,  16 ,Young Mr. Lincoln
* ,46/07/17 ,  17 ,The Prisoner of Zenda
* ,46/07/24 ,  18 ,Foreign Correspondent
* ,46/07/31 ,  19 ,Hold Back the Dawn
* ,46/08/07 ,  20 ,The Watch on the Rhine
* ,46/08/14 ,  21 ,Vivacious Lady
* ,46/08/21 ,  22 ,The Keys of the Kingdom
* ,46/08/28 ,  23 ,One Sunday Afternoon
* ,46/09/04 ,  24 ,Pinocchio
* ,46/09/11 ,  25 ,Shadow of a Doubt
* ,46/09/18 ,  26 ,The White Cliffs of Dover
* ,46/09/25 ,  27 ,Guest in the House
* ,46/10/02 ,  28 ,My Man Godfrey
* ,46/10/09 ,  29 ,It Happened Tomorrow
* ,46/10/16 ,  30 ,Blood on the Sun
* ,46/10/23 ,  31 ,The Devil and Miss Jones
* ,46/10/30 ,  32 ,Suspicion
* ,46/11/06 ,  33 ,Cheers for Miss Bishop
* ,46/11/13 ,  34 ,Night Train
* ,46/11/20 ,  35 ,Brief Encounter
* ,46/11/27 ,  36 ,Lost Horizon
* ,46/12/04 ,  37 ,Portrait of Jennie
* ,46/12/11 ,  38 ,The Enchanted Cottage
* ,46/12/18 ,  39 ,Lost Angel
