Exists, Date, #, Episode Name
* ,77/10/29 ,   0 ,episode 0
* ,77/11/05 ,   1 ,Rate Of Decline
* ,77/11/12 ,   2 ,Looking For A Job
* ,77/11/19 ,   3 ,Spanner In The Works
* ,77/11/26 ,   4 ,Holiday
* ,77/12/03 ,   5 ,Mind That Baby
* ,77/12/10 ,   6 ,Where There's A Will
* ,77/12/17 ,   7 ,The Homecoming
