Exists, Date, #, Episode Name
* ,02/07/09 ,   1 ,Homeward Bound
* ,02/07/16 ,   2 ,School's Out
* ,02/07/23 ,   3 ,Lazy Sunday
* ,02/07/30 ,   4 ,Girl's Talk
* ,02/08/06 ,   5 ,People's Parties
* ,02/08/13 ,   6 ,Waterloo Sunset
* ,02/09/20 ,   7 ,Still Crazy
* ,02/09/27 ,   8 ,Happy Together
* ,02/10/04 ,   9 ,Monday Monday
* ,02/10/11 ,  10 ,Mr Soft
* ,02/10/18 ,  11 ,Communication Breakdown
* ,02/10/25 ,  12 ,Summer Holiday
