Exists, Date, #, Episode Name
  ,53/07/10 ,   1 ,
* ,53/07/17 ,   2 ,Ben Hogan
* ,53/07/24 ,   3 ,Rocky Marciano
* ,53/07/31 ,   4 ,Jockeys
  ,53/08/07 ,   5 ,
* ,53/08/14 ,   6 ,Gen. Robert Nealand
  ,53/08/21 ,   7 ,
* ,53/08/28 ,   8 ,Babe Didrikson Zaharias
* ,53/09/04 ,   9 ,Lawn Tennis
* ,53/09/11 ,  10 ,Graham McNamee
  ,53/09/17 ,  11 ,
* ,53/09/24 ,  12 ,Brooklyn Dodgers
