Exists, Date, #, Episode Name
* ,xx/xx/xx ,   1 ,The Creation 
* ,xx/xx/xx ,   2 ,Civilisation Emerges
* ,xx/xx/xx ,   3 ,Fall of Troy
* ,xx/xx/xx ,   4 ,Scythians and Mongols
* ,xx/xx/xx ,   5 ,The Crusades
* ,xx/xx/xx ,   6 ,The Civil War 
* ,xx/xx/xx ,   7 ,The Death of Nelson
* ,xx/xx/xx ,   8 ,The 20th Century
