Exists, Date, #, Episode Name
  ,53/09/23 ,   1 ,
  ,53/09/30 ,   2 ,
* ,53/10/07 ,   3 ,A Sense of Humor
* ,53/10/14 ,   4 ,A Chronicle of Voyages
* ,53/10/21 ,   5 ,An American Rogue's Gallery
* ,53/10/28 ,   6 ,Some New World Ghosts
* ,53/11/07 ,   7 ,The Poet's Life
* ,53/11/14 ,   8 ,The United States Marines
* ,53/11/21 ,   9 ,The Boys from Mars
* ,53/11/28 ,  10 ,A Postscript on the Pilgrims
* ,53/12/05 ,  11 ,An American Sampler
* ,53/12/12 ,  12 ,Miss Stein and Friends
* ,53/12/19 ,  14 ,Dr Faustus in Tennessee
* ,53/12/26 ,  14 ,The Pleasures of Scholarship
* ,54/01/02 ,  15 ,Some Rebels, Eccentrics and Others
* ,54/01/09 ,  16 ,How to Change the World
* ,54/01/15 ,  17 ,Getting from Here to There
* ,54/01/23 ,  18 ,Chicago
* ,54/01/30 ,  19 ,The Profession of Piracy
* ,54/02/06 ,  20 ,The Writer in Person
* ,54/02/13 ,  21 ,A Study in Villainy
* ,54/02/20 ,  22 ,Great Man
* ,54/02/27 ,  23 ,Through Alien Eyes
  ,54/03/13 ,  24 ,
* ,54/03/20 ,  25 ,The Showboat and Other Pastimes
* ,54/03/27 ,  26 ,Indians and Indian Fighters
* ,54/04/03 ,  27 ,Lives of the Americans
  ,54/04/06 ,  28 ,
* ,54/04/10 ,  29 ,The Mormon Principal
* ,54/04/17 ,  30 ,Collector's Items
  ,54/10/16 ,   1 ,
  ,54/10/23 ,   2 ,
  ,54/10/30 ,   3 ,
  ,54/11/06 ,   4 ,
  ,54/11/13 ,   5 ,
  ,54/11/20 ,   6 ,
  ,54/11/27 ,   7 ,
  ,54/12/04 ,   8 ,
  ,54/12/11 ,   9 ,
  ,54/12/18 ,  10 ,
  ,54/12/25 ,  11 ,
  ,55/01/01 ,  12 ,
* ,55/01/08 ,  13 ,Fugitives from Unreason
  ,55/01/15 ,  14 ,
* ,55/01/22 ,  15 ,Stories from Home
  ,55/01/29 ,  16 ,
  ,55/02/05 ,  17 ,
  ,55/02/12 ,  18 ,
  ,55/02/19 ,  19 ,
* ,55/02/26 ,  20 ,The Wild West
* ,55/03/05 ,  21 ,The Sound of Jazz
