Exists, Date, #, Episode Name
* ,53/02/02 ,   1 ,Overture to the School for Scandal
* ,53/02/09 ,   2 ,Prelude from the Concerto Grosso for Strings and Piano
* ,53/02/16 ,   3 ,Overture to the Tempest
* ,53/02/23 ,   4 ,Morton Gould
* ,53/03/02 ,   5 ,Howard Hanson
* ,53/03/09 ,   6 ,Norman Della Joyo
* ,53/03/16 ,   7 ,Students
* ,53/03/23 ,   8 ,Roy Harris
* ,53/03/30 ,   9 ,Douglas Moore
* ,53/04/06 ,  10 ,Suite of Five Fairy Tales
* ,53/04/13 ,  11 ,Finale from Symphony #2
* ,53/04/20 ,  12 ,
