Exists, Date, #, Episode Name
  ,46/03/23 ,   1 ,Alexander Hamilton (Log originally by Martin Grams)
  ,46/03/30 ,   2 ,Thomas Jefferson
  ,46/04/06 ,   3 ,Thomas Paine
  ,46/04/13 ,   4 ,Roger Williams
  ,46/04/20 ,   5 ,James J Hill
  ,46/04/27 ,   6 ,Henry Thoreau
  ,46/05/04 ,     ,Pre-empted By The Kentucky Derby
  ,46/05/11 ,   7 ,Benjamin Franklin
  ,46/05/18 ,   8 ,Ralph Waldo Emerson
  ,46/05/25 ,   9 ,John Brown
  ,46/06/01 ,  10 ,John J Audubon
  ,46/06/08 ,  11 ,William Jennings Bryan
  ,46/06/15 ,  12 ,Mark Hanna
  ,46/06/22 ,  13 ,John And  Washington Roebling
  ,46/06/29 ,  14 ,Benjamin Rush, Physican And Patriot
  ,46/07/06 ,  15 ,Robert Owen
  ,46/07/13 ,  16 ,Benjamin Rush, Physician And Patriot (repeat)
  ,46/07/20 ,  17 ,Elizabeth Cady Stanton
  ,46/07/27 ,  18 ,John Sutter
* ,46/08/03 ,  19 ,Richard Henry Dana
  ,46/08/10 ,  20 ,William James
* ,46/08/17 ,  21 ,Cotton Mather: A Study in American Bigotry
* ,46/08/24 ,  22 ,The Story of Jane Addams
  ,46/08/31 ,  23 ,Rutherford B Haynes
* ,46/09/07 ,  24 ,Samuel J Tilton
