Exists, Date, #, Episode Name
* ,xx/xx/xx ,   1 ,Grandfather Clock
* ,xx/xx/xx ,   2 ,The Jade Cabinet
* ,xx/xx/xx ,   3 ,The Prayer Stool of Rasputin
* ,xx/xx/xx ,   4 ,The Arm Chair of the Lord
* ,xx/xx/xx ,   5 ,A Porch Swing and a Night in Spring
* ,xx/xx/xx ,   6 ,The Perfumed Rug of Omar Khayyam
* ,xx/xx/xx ,   7 ,Murder in Mahogany
* ,xx/xx/xx ,   8 ,The Rebel Couch
* ,xx/xx/xx ,   9 ,The Throne Chair of Destiny
* ,xx/xx/xx ,  10 ,Genuine Antiques
* ,xx/xx/xx ,  11 ,Please Pass the Pianos
* ,xx/xx/xx ,  12 ,The Ebony Candlestick
* ,xx/xx/xx ,  13 ,The Ghost in the Bookshelves
* ,xx/xx/xx ,  14 ,The Doge's Desk
* ,xx/xx/xx ,  15 ,The Red Lacquer Table
* ,xx/xx/xx ,  16 ,The Christmas Cradle
  ,xx/xx/xx ,  17 ,episode 17
  ,xx/xx/xx ,  18 ,episode 18
  ,xx/xx/xx ,  19 ,episode 19
  ,xx/xx/xx ,  20 ,episode 20
  ,xx/xx/xx ,  21 ,episode 21
  ,xx/xx/xx ,  22 ,episode 22
  ,xx/xx/xx ,  23 ,episode 23
  ,xx/xx/xx ,  24 ,episode 24
* ,xx/xx/xx ,  25 ,The Secret of the Rosewood Secretary
* ,xx/xx/xx ,  26 ,Home Sweet Home
