Exists, Date, #, Episode Name
  ,46/06/09 ,   1 ,--- PREMIERE (Sundays, 5pm on MUTUAL)
  ,46/06/16 ,   2 ,--- (Roger Allen employs courtroom magic to defend man on trial for murder)
  ,46/06/23 ,   3 ,--- (Series title changed to ROGER ALLEN, CRIMINAL LAWYER)
  ,46/06/30 ,   4 ,
  ,46/07/07 ,   5 ,
  ,46/07/14 ,   6 ,
  ,46/07/21 ,   7 ,--- (FINAL EPISODE)
