Exists, Date, #, Episode Name
* ,76/10/10 ,   1 ,Host - Ben Grauer - Part 1
* ,76/10/17 ,   2 ,Host - Bob Hope - Part 2
* ,76/10/24 ,   3 ,Host - Bing Crosby - Part 3
* ,76/10/31 ,   4 ,Host - Arlene Francis - Part 4
* ,76/11/07 ,   5 ,Host - John Chancellor - Part 5
* ,xx/xx/xx ,   6 ,Showbiz - George Jessel
