Exists, Date, #, Episode Name
  ,43/07/05 ,   1 ,TCOT Bloodstained Orchid (PREMIERE on the BLUE network - with Santos Ortega & Everett Sloane)
  ,43/07/12 ,   2 ,TCOT Spoiled Broth
  ,43/07/19 ,   3 ,TCOT Vacant Blonde
  ,43/07/26 ,   4 ,TCOT Noisy Ghost
  ,43/08/02 ,   5 ,TCOT Deadly Million
  ,43/08/09 ,   6 ,TCOT Stuttering Records
  ,43/08/16 ,   7 ,The Case Where Death Played Dummy
  ,43/08/23 ,   8 ,TCOT Departed Guest
  ,43/08/30 ,   9 ,TCOT Murderous Signature
  ,43/09/06 ,  10 ,TCOT Allergic Blonde
  ,43/09/13 ,  11 ,TCOT Plastered Bride
  ,43/09/20 ,  12 ,TCOT Missing Mind
  ,43/09/27 ,  13 ,TCOT Red-Headed Baby [LAST SHOW OF SUMMER SERIES]
  ,44/01/21 ,  14 ,TCOT Mountain That Came to Mahomet--- (return of 'The Adventures of Nero Wolfe' on the BLUE network)
  ,44/01/28 ,  15 ,TCOT Traveling Pajamas
  ,44/02/04 ,  16 ,
  ,44/02/11 ,  17 ,TCOT Superfluous Husband
  ,44/02/18 ,  18 ,TCOT Princess Charming
  ,44/02/25 ,  19 ,TCOT Bewildered Brothers
  ,44/03/03 ,  20 ,TCOT Two Headed Doll
  ,44/03/10 ,  21 ,--- <SYNOPSIS> (Archie lands in middle of an underworld double-cross)
  ,44/03/17 ,  22 ,TCOT Wandering Wife
  ,44/03/24 ,  23 ,TCOT Passionate Pigeon
  ,44/03/31 ,  24 ,
  ,44/04/07 ,  25 ,TCOT Tattoed Terror
  ,44/04/14 ,  26 ,TCOT Lonely Corpse
  ,44/04/21 ,  27 ,TCOT Coy Cadaver
  ,44/04/28 ,  28 ,TCOT Dying Portrait
  ,44/05/05 ,  29 ,The Million Dollar Baby
  ,44/05/12 ,  30 ,TCOT Tenth Tornado
  ,44/05/19 ,  31 ,TCOT Burning Book (Nero investigates the disappearance of a rare Shakespeare folio)
  ,44/05/26 ,  32 ,TCOT Wrong Leg Murder
  ,44/06/02 ,  33 ,TCOT Invisible Murderer
  ,44/06/09 ,  34 ,
  ,44/06/16 ,  35 ,
  ,44/06/23 ,  36 ,
  ,44/06/30 ,  37 ,
  ,44/07/07 ,  38 ,
  ,44/07/14 ,  39 ,--- (Last BLUE network show)
