Exists, Date, #, Episode Name
* ,xx/xx/xx ,     ,Confessor of Crimes
* ,xx/xx/xx ,     ,Psychosomatic Trouble aka Woman Loves Doctor
* ,xx/xx/xx ,     ,Seat Belts aka Car Accident
* ,xx/xx/xx ,     ,Society Lady Blackmailed
* ,xx/xx/xx ,     ,Son of Scuba Diver Rebels
* ,xx/xx/xx ,     ,Woman Loses Memory
