Exists, Date, #, Episode Name
  ,34/09/05 ,     ,
  ,34/09/12 ,     ,
  ,34/09/19 ,     ,
  ,34/09/26 ,     ,
  ,34/10/05 ,     ,
  ,34/10/12 ,     ,
  ,34/10/19 ,     ,
  ,34/10/26 ,     ,
  ,34/11/02 ,     ,
  ,34/11/09 ,     ,
  ,34/11/16 ,     ,
  ,34/11/23 ,     ,
  ,34/11/30 ,     ,
  ,34/12/18 ,     ,
  ,34/12/25 ,     ,
  ,35/01/01 ,     ,
  ,35/01/08 ,     ,
  ,35/01/15 ,     ,
  ,35/01/22 ,     ,
  ,35/01/29 ,     ,
  ,35/02/05 ,     ,
  ,35/02/12 ,     ,
  ,35/02/19 ,     ,
  ,35/02/26 ,     ,
  ,35/03/05 ,     ,
  ,35/03/12 ,     ,
  ,35/03/19 ,     ,
  ,35/03/26 ,     ,
  ,35/04/02 ,     ,
  ,35/04/09 ,     ,
  ,35/04/16 ,     ,
  ,35/04/23 ,     ,
  ,35/05/03 ,     ,
  ,35/05/10 ,     ,
  ,35/05/17 ,     ,
  ,35/05/24 ,     ,
  ,35/05/31 ,     ,
  ,35/06/07 ,     ,
  ,35/06/14 ,     ,
  ,35/06/21 ,     ,
  ,35/10/01 ,     ,
  ,35/10/08 ,     ,
  ,35/10/15 ,     ,Uncle Billy
  ,35/10/22 ,     ,Rendezvous at the Water Tank
  ,35/10/29 ,     ,PRE-EMPTED (Mobilization for Human Needs)
  ,35/11/05 ,     ,
  ,35/11/12 ,     ,PRE-EMPTED (Mobilization for Human Needs)
  ,35/11/19 ,     ,Rub-a-Dub
  ,35/11/26 ,     ,Turkey and ---!
  ,35/12/03 ,     ,Ballyhoo in Reverse
  ,35/12/10 ,     ,Baker's Dozen
  ,35/12/17 ,     ,A Matter of Timing
  ,35/12/24 ,     ,Christmas Comes to Santy
  ,35/12/31 ,     ,New Year's Greetings
  ,36/01/07 ,     ,
  ,36/01/14 ,     ,
  ,36/01/21 ,     ,
  ,36/01/28 ,     ,
  ,36/02/04 ,     ,
  ,36/02/11 ,     ,
  ,36/02/18 ,     ,
  ,36/02/25 ,     ,
  ,36/03/03 ,     ,
  ,36/03/10 ,     ,
  ,36/03/17 ,     ,
  ,36/03/24 ,     ,
  ,36/03/31 ,     ,
  ,36/04/07 ,     ,
  ,36/04/14 ,     ,
  ,36/04/21 ,     ,
  ,36/05/06 ,     ,--- (moves to Wednesdays)
  ,36/05/13 ,     ,
  ,36/05/20 ,     ,
  ,36/05/27 ,     ,
  ,36/06/03 ,     ,
  ,36/06/10 ,     ,
  ,36/06/17 ,     ,
  ,36/06/24 ,     ,
  ,36/09/06 ,     ,--- (moves to Sundays)
  ,36/09/13 ,     ,
  ,36/09/20 ,     ,
  ,36/09/27 ,     ,
  ,36/10/04 ,     ,
  ,36/10/11 ,     ,
  ,36/10/18 ,     ,
  ,36/10/25 ,     ,
  ,36/11/01 ,     ,
  ,36/11/08 ,     ,
  ,36/11/15 ,     ,
  ,36/11/22 ,     ,
  ,36/11/29 ,     ,
  ,36/12/06 ,     ,
  ,36/12/13 ,     ,
  ,36/12/20 ,     ,
  ,36/12/27 ,     ,
  ,37/01/03 ,     ,
  ,37/01/10 ,     ,
  ,37/01/17 ,     ,
  ,37/01/24 ,     ,
  ,37/01/31 ,     ,
  ,37/02/07 ,     ,
  ,37/02/14 ,     ,
  ,37/02/21 ,     ,
  ,37/02/28 ,     ,
  ,37/03/07 ,     ,
  ,37/03/14 ,     ,
  ,37/03/21 ,     ,
  ,37/03/28 ,     ,
  ,37/04/04 ,     ,
  ,37/04/11 ,     ,
  ,37/04/18 ,     ,
  ,37/04/25 ,     ,
  ,37/05/02 ,     ,
  ,37/05/09 ,     ,
  ,37/05/16 ,     ,
  ,37/05/23 ,     ,
  ,37/05/30 ,     ,
  ,37/06/06 ,     ,
  ,37/06/13 ,     ,
  ,37/06/20 ,     ,
  ,37/06/27 ,     ,
  ,37/07/04 ,     ,
  ,37/07/11 ,     ,
  ,37/07/18 ,     ,
  ,37/07/25 ,     ,
  ,37/08/01 ,     ,
  ,37/08/08 ,     ,
  ,37/08/15 ,     ,
  ,37/08/22 ,     ,
  ,37/08/29 ,     ,
  ,37/09/05 ,     ,
  ,37/09/12 ,     ,
  ,37/09/19 ,     ,
  ,37/09/26 ,     ,
  ,37/10/03 ,     ,
  ,37/10/10 ,     ,
  ,37/10/17 ,     ,
  ,37/10/24 ,     ,
  ,37/10/31 ,     ,
  ,37/11/07 ,     ,
  ,37/11/14 ,     ,
  ,37/11/21 ,     ,
  ,37/11/28 ,     ,
  ,37/12/05 ,     ,
  ,37/12/12 ,     ,
  ,37/12/19 ,     ,
  ,37/12/26 ,     ,
  ,38/01/02 ,     ,
  ,38/01/09 ,     ,
  ,38/01/16 ,     ,
  ,38/01/23 ,     ,
  ,38/01/30 ,     ,
  ,38/02/06 ,     ,
  ,38/02/13 ,     ,
  ,38/02/20 ,     ,
  ,38/02/27 ,     ,
  ,38/03/06 ,     ,
  ,38/03/13 ,     ,
  ,38/03/20 ,     ,
  ,38/03/27 ,     ,
  ,38/04/03 ,     ,
  ,38/04/10 ,     ,
  ,38/04/17 ,     ,
  ,38/04/24 ,     ,
  ,38/05/01 ,     ,
  ,38/05/08 ,     ,
  ,38/05/15 ,     ,
  ,38/05/22 ,     ,
  ,38/05/29 ,     ,
  ,38/06/05 ,     ,
  ,38/06/05 ,     ,
  ,38/06/12 ,     ,
  ,38/06/19 ,     ,
  ,38/06/26 ,     ,
  ,38/07/03 ,     ,
  ,38/07/10 ,     ,
  ,38/07/17 ,     ,
  ,38/07/24 ,     ,
  ,38/07/31 ,     ,
  ,38/08/07 ,     ,
  ,38/08/14 ,     ,
  ,38/08/21 ,     ,
  ,38/08/28 ,     ,
  ,38/09/04 ,     ,
  ,38/09/11 ,     ,
  ,38/09/18 ,     ,
  ,38/09/25 ,     ,
  ,38/10/02 ,     ,
  ,38/10/09 ,     ,
  ,38/10/16 ,     ,
  ,38/10/23 ,     ,--- (switch to CBS network)
  ,38/10/30 ,     ,
  ,38/11/06 ,     ,
  ,38/11/13 ,     ,
  ,38/11/20 ,     ,
  ,38/11/27 ,     ,
  ,38/12/04 ,     ,
  ,38/12/11 ,     ,
  ,38/12/18 ,     ,
  ,38/12/25 ,     ,--- (programming PRE-EMPTED for Christmas)
  ,39/01/31 ,     ,--- (switch back to NBC network on Tuesdays)
  ,39/02/07 ,     ,
  ,39/02/14 ,     ,
  ,39/02/21 ,     ,
  ,39/02/28 ,     ,
  ,39/03/07 ,     ,
  ,39/03/14 ,     ,
  ,39/03/21 ,     ,
  ,39/03/28 ,     ,
  ,39/04/04 ,     ,
  ,39/04/11 ,     ,
  ,39/04/18 ,     ,
  ,39/04/25 ,     ,
  ,39/04/30 ,     ,--- (moves to Sundays)
  ,39/05/07 ,     ,
  ,39/05/14 ,     ,
  ,39/05/21 ,     ,
  ,39/05/28 ,     ,
  ,39/06/04 ,     ,
  ,39/06/11 ,     ,
  ,39/06/18 ,     ,
  ,39/06/25 ,     ,
  ,39/07/02 ,     ,
  ,39/07/09 ,     ,
  ,39/07/16 ,     ,
  ,39/07/23 ,     ,
  ,39/07/30 ,     ,
  ,39/08/06 ,     ,
  ,39/08/06 ,     ,
  ,39/08/13 ,     ,
  ,39/08/20 ,     ,
  ,39/08/27 ,     ,
  ,39/09/03 ,     ,
  ,39/09/10 ,     ,
  ,39/09/17 ,     ,
  ,39/09/24 ,     ,
  ,39/10/01 ,     ,
  ,39/10/08 ,     ,
  ,39/10/15 ,     ,
  ,39/10/22 ,     ,
  ,39/10/29 ,     ,
  ,39/11/05 ,     ,
  ,39/11/12 ,     ,
  ,39/11/19 ,     ,
  ,39/11/26 ,     ,
  ,39/12/03 ,     ,
  ,39/12/10 ,     ,
  ,39/12/17 ,     ,
  ,39/12/24 ,     ,
  ,39/12/31 ,     ,
  ,40/01/07 ,     ,
  ,40/01/14 ,     ,
  ,40/01/21 ,     ,
  ,40/01/28 ,     ,
  ,40/02/04 ,     ,
  ,40/02/11 ,     ,
  ,40/02/18 ,     ,
  ,40/02/25 ,     ,
  ,40/03/03 ,     ,
  ,40/03/10 ,     ,
  ,40/03/17 ,     ,
  ,40/03/24 ,     ,
  ,40/03/31 ,     ,
  ,40/04/07 ,     ,
  ,40/04/14 ,     ,
  ,40/04/21 ,     ,
  ,40/04/28 ,     ,
  ,40/05/05 ,     ,
  ,40/05/12 ,     ,
  ,40/05/19 ,     ,
  ,40/05/26 ,     ,
  ,40/06/02 ,     ,
  ,40/06/09 ,     ,
  ,40/06/16 ,     ,
  ,40/06/23 ,     ,
  ,40/06/30 ,     ,
  ,40/07/07 ,     ,
  ,40/07/14 ,     ,
  ,40/07/21 ,     ,
  ,40/07/28 ,     ,
  ,40/08/04 ,     ,
  ,40/08/11 ,     ,
  ,40/08/18 ,     ,
  ,40/08/25 ,     ,
  ,40/09/01 ,     ,
  ,40/09/08 ,     ,
  ,40/09/15 ,     ,
  ,40/09/22 ,     ,
  ,40/09/29 ,     ,
  ,40/10/06 ,     ,
  ,40/10/13 ,     ,
  ,40/10/20 ,     ,
  ,40/10/27 ,     ,
  ,40/11/03 ,     ,
  ,40/11/10 ,     ,
  ,40/11/17 ,     ,
  ,40/11/24 ,     ,
  ,40/12/01 ,     ,
  ,40/12/08 ,     ,
  ,40/12/15 ,     ,
  ,40/12/22 ,     ,
  ,40/12/29 ,     ,
  ,41/01/05 ,     ,
  ,41/01/12 ,     ,
  ,41/01/19 ,     ,
  ,41/01/26 ,     ,
  ,41/02/02 ,     ,
  ,41/02/09 ,     ,
  ,41/02/16 ,     ,
  ,41/02/23 ,     ,
  ,41/03/02 ,     ,
  ,41/03/09 ,     ,
  ,41/03/16 ,     ,
  ,41/03/23 ,     ,
  ,41/03/30 ,     ,
  ,41/04/06 ,     ,
  ,41/04/13 ,     ,
  ,41/04/20 ,     ,
  ,41/04/27 ,     ,
  ,41/05/04 ,     ,
  ,41/05/11 ,     ,
  ,41/05/18 ,     ,
  ,41/05/25 ,     ,
  ,41/06/01 ,     ,
  ,41/06/08 ,     ,
  ,41/06/15 ,     ,
  ,41/06/22 ,     ,
* ,41/06/29 ,     ,The Story of Dave Cameron
  ,41/07/06 ,     ,
  ,41/07/13 ,     ,
  ,41/07/20 ,     ,
  ,42/10/01 ,     ,--- (returns - Thurdays on NBC thru 44/06/01)
* ,43/09/19 ,     ,Old Doctor Pulls Stunt <---[NOT A THURSDAY]
* ,43/09/26 ,     ,Summer Interlude <--- [NOT A THURSDAY]
  ,44/07/06 ,     ,--- (returns - Thurdays on NBC thru 44/12/21)
  ,45/05/04 ,     ,--- (returns - Fridays on NBC thru 46/09/27)
  ,45/xx/xx ,   1 ,episode 1
* ,45/xx/xx ,   2 ,Lightning Strikes Twice
  ,45/xx/xx ,   3 ,episode 3
* ,45/xx/xx ,   4 ,Important Trifle
* ,45/xx/xx ,   5 ,Appointment with Mr. Big
* ,45/xx/xx ,   6 ,Pass the Peanuts
* ,45/xx/xx ,   7 ,Schedule Subject to Change
* ,45/xx/xx ,   8 ,Big Day Tomorrow
* ,45/xx/xx ,   9 ,On the Dotted Line
* ,45/xx/xx ,  10 ,No Stone Unturned
* ,45/xx/xx ,  11 ,Point of Honor
* ,xx/xx/xx ,  12 ,Lucky Day
* ,xx/xx/xx ,  13 ,Yesterday's Glory
  ,xx/xx/xx ,  14 ,episode 14
  ,xx/xx/xx ,  15 ,episode 15
* ,xx/xx/xx ,  16 ,Desert Justice
  ,xx/xx/xx ,  17 ,episode 17
  ,xx/xx/xx ,  18 ,episode 18
  ,xx/xx/xx ,  19 ,episode 19
  ,xx/xx/xx ,  20 ,episode 20
  ,xx/xx/xx ,  21 ,episode 21
* ,xx/xx/xx ,  22 ,Care of Postmistress Clara
* ,xx/xx/xx ,  23 ,The Law's Delay
* ,xx/xx/xx ,  24 ,Time Saver
* ,xx/xx/xx ,  25 ,Adrian Sets a Trap
* ,xx/xx/xx ,  26 ,Reflection
* ,xx/xx/xx ,  27 ,Smoke Rings
* ,xx/xx/xx ,  28 ,Autumn Fever
* ,xx/xx/xx ,  29 ,For Later Delivery
* ,xx/xx/xx ,  30 ,Boomerangs Do Come Back
* ,xx/xx/xx ,  31 ,Homecoming for Two
* ,xx/xx/xx ,  32 ,Strange Judgement
* ,xx/xx/xx ,  33 ,In a Manner of Speaking
* ,xx/xx/xx ,  34 ,Deep Roots
* ,xx/xx/xx ,  35 ,One in a Thousand
  ,xx/xx/xx ,  36 ,Last Mission
  ,xx/xx/xx ,     ,--- (intermittant broadcasts 1947, 1948 and 1949 as "Nite Editor"
