Exists, Date, #, Episode Name
  ,47/09/23 ,   1 ,PREMIERE on MUTUAL Network (w Vic Perrin - 9:30pm on WOR)
* ,47/09/30 ,   2 ,The Feud
  ,47/10/07 ,   3 ,Homesteaders vs Cattle Barons
  ,47/10/14 ,   4 ,
  ,47/10/21 ,   5 ,
  ,47/10/28 ,   6 ,
  ,47/11/04 ,   7 ,
  ,47/11/11 ,   8 ,
  ,47/11/18 ,   9 ,
  ,47/11/25 ,  10 ,
  ,47/12/02 ,  11 ,
  ,47/12/09 ,  12 ,
  ,47/12/16 ,  13 ,
  ,47/12/23 ,  14 ,
  ,47/12/30 ,  15 ,
  ,48/01/06 ,  16 ,--- (rich woman's husband framed, Tex Thorne saves him)
  ,48/01/13 ,  17 ,
  ,48/01/20 ,  18 ,
  ,48/01/27 ,  19 ,
  ,48/02/03 ,  20 ,
  ,48/02/10 ,  21 ,
  ,48/02/17 ,  22 ,The Vanishing American
  ,48/02/24 ,  23 ,--- (never-ending search for 'lost' gold mines)
  ,48/03/02 ,  24 ,
