Exists, Date, #, Episode Name
* ,41/03/24 ,     , Sportsmen
* ,44/09/25 ,     ,
* ,46/11/24 ,     , The Baby
* ,47/10/06 ,     , Ben Comes Home from War, First ABC Show
  ,47/10/13 ,     ,
  ,47/10/20 ,     ,
  ,47/10/27 ,     ,
* ,47/11/03 ,     , Ben Helps a Young Couple
* ,47/11/10 ,     , Horse Race
  ,47/11/17 ,     ,
* ,47/11/24 ,     , Big Crowd For Thanksgiving Dinner
  ,47/12/01 ,     ,
* ,47/12/08 ,     , Refused Blood Transfusion
  ,47/12/15 ,     ,
* ,47/12/22 ,     , Thief has Change of Heart
* ,47/12/29 ,     , New Years Eve Show
* ,48/01/05 ,     , Willet's Mail Order Bride
* ,48/01/12 ,     , Ben Mistaken for Counterfeiter
* ,48/01/19 ,     , Scottish Girl Visits
  ,48/01/26 ,     ,
  ,48/02/02 ,     ,
  ,48/02/09 ,     ,
* ,48/02/16 ,     , Voting Contest for County Commissioner
* ,48/02/23 ,     , Ben Proposes to Evelyn
  ,48/03/01 ,     ,
  ,48/03/08 ,     ,
  ,48/03/15 ,     ,
* ,48/03/22 ,     , Men Goes to SF with War Vet
  ,48/03/29 ,     ,
* ,48/04/05 ,     , Blinded War Vet Sees
* ,48/04/12 ,     , Moonie Bitten by Love Bug
  ,48/04/19 ,     ,
* ,48/04/26 ,     , Sammy's Job as Band Singer
  ,48/05/03 ,     ,
  ,48/05/10 ,     ,
  ,48/05/17 ,     ,
  ,48/05/24 ,     ,
* ,48/05/31 ,     , The Memorial Day Dance
* ,48/xx/xx ,     , Book Salesman On Motorcycle
