Exists, Date, #, Episode Name
* ,03/09/27 ,     ,Saint Paul, Minnesota
* ,03/10/04 ,     ,Ames, Iowa
* ,03/10/11 ,     ,Phoenix, Arizona
* ,03/10/18 ,     ,Lenox, Mass
* ,03/10/25 ,     ,Atlanta, Georgia
* ,03/11/01 ,     ,Los Angeles, CA
* ,03/11/08 ,     ,Nashville, Tennessee
* ,03/11/15 ,     ,Saint Paul, Minnesota
* ,03/11/22 ,     ,New York, New York
* ,03/11/29 ,     ,Saint Paul, Minnesota
* ,03/12/06 ,     ,Saint Paul, Minnesota
* ,03/12/13 ,     ,Saint Paul, Minnesota
* ,03/12/20 ,     ,Christmas Show
* ,03/12/27 ,     ,Saint Paul, Minnesota
* ,04/01/03 ,     ,Saint Paul, Minnesota
* ,04/01/10 ,     ,Charlottesville, Virginia
* ,04/01/17 ,     ,San Diego, California
* ,04/01/24 ,     ,San Luis Obispo, CA
* ,04/01/31 ,     ,New York, New York
* ,04/02/07 ,     ,New York, New York
* ,04/02/14 ,     ,New York, New York
* ,04/02/21 ,     ,Madison, Wisconsin
* ,04/02/28 ,     ,Sioux City, Iowa
* ,04/03/06 ,     ,Erie, Pennsylvania
* ,04/03/13 ,     ,New Orleans, Louisiana
* ,04/03/20 ,     ,Hot Springs Arkansas
* ,04/03/27 ,     ,Spartanburg, South Carolina
* ,04/04/03 ,     ,Boston, MA
* ,04/04/10 ,     ,Jacksonville, Florida
* ,04/04/17 ,     ,Bend, Oregon
* ,04/04/24 ,     ,Saint Paul, Minnesota
* ,04/05/01 ,     ,Saint Paul, Minnesota
* ,04/05/08 ,     ,Saint Paul, Minnesota
* ,04/05/15 ,     ,Saint Paul, Minnesota
* ,04/05/22 ,     ,Duluth, Minnesota
* ,04/05/29 ,     ,Nashville, Tennessee
* ,04/06/05 ,     ,Saint Paul Minnesota
* ,04/06/12 ,     ,Saint Paul Minnesota
* ,04/06/19 ,     ,Wolf Trap National Park for the Performing Arts
* ,04/06/26 ,     ,Saint Paul Minnesota
* ,04/12/18 ,     ,Guest Inga Swearingen
* ,05/01/08 ,     ,Duluth, Minnesota
* ,05/01/15 ,     ,BR549
* ,05/01/22 ,     ,Guest - Rhonda Vincent
* ,05/01/29 ,     ,Guest - Ricky Skaggs
* ,05/02/05 ,     ,Guest - Vocal Essence
* ,05/02/12 ,     ,Old Crow Medicine Show
* ,05/02/19 ,     ,Annual Talent Show
* ,05/02/26 ,     ,St Catherine's Women's Choir
* ,05/03/19 ,     ,Guest - Robin & Linda Williams
* ,05/04/02 ,     ,Guest - Sam Bush
* ,05/04/09 ,     ,Guest - Vince Giordano
* ,05/04/16 ,     ,Guest - Madeleine Peyroux
* ,05/04/23 ,     ,Guest - Renee Fleming
* ,05/04/30 ,     ,Guest - Robin & Linda Williams
* ,05/05/07 ,     ,Guest - The Diddy Bops
* ,05/05/14 ,     ,Guest - Alvin Youngblood
* ,05/05/21 ,     ,Guest - Wailin' Jennys
* ,05/05/28 ,     ,Guest - Doyle Lawson
* ,05/06/04 ,     ,Guest - Leo Kottke
* ,05/06/11 ,     ,Cleveland, Ohio
* ,05/09/03 ,     ,Guest - Dirty Dozen Brass Band
* ,05/09/10 ,     ,Guest - Kelley Hunt
* ,05/09/24 ,     ,Guest - High Flyers
* ,05/10/01 ,     ,Guest - Frigg
* ,05/10/08 ,     ,Guest - Larry Sparks
* ,05/10/15 ,     ,Guest - The Tannahill Weavers
* ,05/10/22 ,     ,Guest - The Wailin' Jennys
* ,05/10/29 ,     ,Guest - Nickel Creek
* ,05/11/05 ,     ,Guest - Hopeful Gospel Quartet
* ,05/11/26 ,     ,Guest - The Battlefield Band
* ,05/12/24 ,     ,Christmas Show
* ,06/01/21 ,     ,Guest - ButchThompson
* ,06/01/28 ,     ,Guest - Jerry Douglas
* ,06/02/04 ,     ,Guest - Vince Giordano
* ,06/02/11 ,     ,Guest - Peter Oshtruchko
* ,06/04/08 ,     ,Guest - Brad Paisley
* ,06/04/22 ,     ,Guest - New Custer Brass Band
* ,06/04/29 ,     ,Guest - New Custer Brass Band
* ,06/05/06 ,     ,Guest - Halden Wofford & The Hi-Beams
* ,06/05/20 ,     ,Reykjavik, Iceland
* ,06/05/27 ,     ,Guest - Old Crow Medicine Show
* ,06/06/17 ,     ,Guest - Alice Peacock
* ,06/06/24 ,     ,Guest - Linda Ronstadt
* ,06/07/01 ,     ,Guest - Meryl Streep
* ,06/07/29 ,     ,From Chateay Ste. Michelle
