Exists, Date, #, Episode Name
  ,48/10/10 ,   1 ,
  ,48/10/17 ,   2 ,
  ,48/10/24 ,   3 ,
  ,48/10/31 ,   4 ,
  ,48/11/07 ,   5 ,
  ,48/11/14 ,   6 ,
  ,48/11/21 ,   7 ,
  ,48/11/28 ,   8 ,
  ,48/12/05 ,   9 ,
  ,48/12/12 ,  10 ,
  ,48/12/19 ,  11 ,
  ,48/12/25 ,  12 ,
  ,49/01/02 ,  13 ,
  ,49/01/09 ,  14 ,
  ,49/01/16 ,  15 ,
  ,49/01/23 ,  16 ,
  ,49/01/30 ,  17 ,
  ,49/02/06 ,  18 ,
  ,49/02/13 ,  19 ,
  ,49/02/20 ,  20 ,
  ,49/02/27 ,  21 ,
  ,49/03/06 ,  22 ,
  ,49/03/13 ,  23 ,
  ,49/03/20 ,  24 ,
  ,49/03/27 ,  25 ,
  ,49/04/03 ,  26 ,
  ,49/04/10 ,  27 ,
  ,49/04/17 ,  28 ,
  ,49/04/24 ,  29 ,
  ,49/05/01 ,  30 ,
* ,49/05/08 ,  31 ,There's no Escape
* ,49/05/15 ,  32 ,The Lady from Luxembourg
  ,49/05/22 ,  33 ,
* ,49/05/29 ,  34 ,The Magnificent Rogue
* ,49/06/05 ,  35 ,About Their Comrades
* ,49/06/12 ,  36 ,Seven Candles
  ,49/06/19 ,  37 ,
* ,49/06/26 ,  38 ,Where the Heart is
* ,49/07/03 ,  39 ,Time Out
  ,49/07/10 ,  40 ,
  ,49/07/17 ,  41 ,
  ,49/07/24 ,  42 ,
  ,49/07/31 ,  43 ,
* ,49/08/07 ,  44 ,The Fabulous Deliers
* ,49/08/14 ,  45 ,Interrupted Honeymoon
  ,49/08/21 ,  46 ,
  ,49/08/28 ,  47 ,
  ,49/09/04 ,  48 ,
  ,49/09/11 ,  49 ,
  ,49/09/18 ,  50 ,
  ,49/09/25 ,  51 ,
  ,49/10/02 ,  52 ,I Married a Fireman
* ,49/10/09 ,  53 ,All The King's Horses
  ,49/10/16 ,  54 ,I Saw Her Laughter First
  ,49/10/23 ,  55 ,Casanova had a Paint Brush
  ,49/10/30 ,  56 ,Safari
  ,49/11/06 ,  57 ,Storm Center
  ,49/11/13 ,  58 ,Forever Always
  ,49/11/20 ,  59 ,The Journey to Bethany
  ,49/11/27 ,  60 ,
  ,49/12/04 ,  61 ,
  ,49/12/11 ,  62 ,Once to Every Man
  ,49/12/18 ,  63 ,The Common Touch
* ,49/12/25 ,  64 ,My Son is a Wise Man
* ,50/01/01 ,  65 ,Objection Sustained
* ,50/01/08 ,  66 ,The Outward Voyage
* ,50/01/15 ,  67 ,Dark Dwelling
* ,50/01/22 ,  68 ,Odyssey Of Horace Glick
* ,50/01/29 ,  69 ,Black Dust
* ,50/02/05 ,  70 ,Ellen And Prince Charming
  ,50/02/12 ,  71 ,
  ,50/02/19 ,  72 ,
  ,50/02/26 ,  73 ,Apartment for Rent
  ,50/03/05 ,  74 ,The Strange Partnership
  ,50/03/12 ,  75 ,The Caravansary on the Hill
  ,50/03/19 ,  76 ,Touchdown
  ,50/03/26 ,  77 ,
  ,50/04/02 ,  78 ,
  ,50/04/09 ,  79 ,Avalanche
  ,50/04/16 ,  80 ,
* ,50/04/23 ,  81 ,History in the Making
* ,50/04/30 ,  82 ,The Triumphant Road
* ,50/05/07 ,  83 ,The Angel Of Clarksville
* ,50/05/14 ,  84 ,No Room For Divorce
* ,50/05/21 ,  85 ,Santana
* ,50/05/28 ,  86 ,The Manly Art
  ,50/06/04 ,  87 ,The Bryn Mawr Girl
  ,50/06/11 ,  88 ,
  ,50/06/18 ,  89 ,
  ,50/06/25 ,  90 ,
  ,50/07/02 ,  91 ,Pilgrimage to Nazarette
  ,50/07/09 ,  92 ,It Takes Two
* ,50/07/16 ,  93 ,Destination Found
* ,50/07/23 ,  94 ,The Rain Maker
* ,50/07/30 ,  95 ,My Big Brother
  ,50/08/06 ,  96 ,
  ,50/08/13 ,  97 ,
  ,50/08/20 ,  98 ,
  ,50/08/27 ,  99 ,
  ,50/09/03 , 100 ,
  ,50/09/10 , 101 ,
  ,50/09/17 , 102 ,
* ,50/09/24 , 103 ,Sam Cyclotron--The Cosmic Kid
* ,50/10/01 , 104 ,The Hills of Home
* ,50/10/08 , 105 ,Vagabond Dream
* ,50/10/15 , 106 ,The House on Lakewood Drive
* ,50/10/22 , 107 ,The Fabulous Deleres
* ,50/10/29 , 108 ,Follow That Man
* ,50/11/05 , 109 ,Concerto
  ,50/11/12 , 110 ,Sins of the Fathers
  ,50/11/19 , 111 ,Road to Nowhere
* ,50/11/26 , 112 ,The Magnificent Parker
* ,50/12/03 , 113 ,This Could Be Murder
  ,50/12/10 , 114 ,Variations on Melvin Brown
  ,50/12/17 , 115 ,The Other Wise Man
  ,50/12/24 , 116 ,Desert Flight
  ,50/12/31 , 117 ,White Knight, Black Rook
* ,51/01/07 , 118 ,The Dark Sea
* ,51/01/14 , 119 ,The Interlopers
* ,51/01/21 , 120 ,The Unconquered
* ,51/01/28 , 121 ,The Greatest Adventure
  ,51/02/04 , 122 ,House in the Fog
  ,51/02/11 , 123 ,Hideaway
  ,51/02/18 , 124 ,Call on Danger
  ,51/02/25 , 125 ,Innocent Bystander
* ,51/03/04 , 126 ,Raid North
* ,51/03/11 , 127 ,Forget Me Not
  ,51/03/18 , 128 ,Challenge
  ,51/03/25 , 129 ,The Long Chance
  ,51/04/01 , 130 ,The Aviation
* ,51/04/08 , 131 ,Course Unknown
* ,51/04/15 , 132 ,Mr Truly And The Horn
* ,51/04/22 , 133 ,The Road To Paradise
* ,51/04/29 , 134 ,The Link And The Chain
  ,51/05/06 , 135 ,Radius Of Action
  ,51/05/13 , 136 ,By Day and by Night
  ,51/05/20 , 137 ,Ghost in the House
  ,51/05/27 , 138 ,Ride by Night
  ,51/06/03 , 139 ,Final Choice
* ,51/06/10 , 140 ,Appointment at Capernaum
* ,51/06/17 , 141 ,Straight and Level
* ,51/06/24 , 142 ,Story at Tenderek
* ,51/07/01 , 143 ,Three Planes To Cairo
* ,51/07/08 , 144 ,The Wreckers
* ,51/07/15 , 145 ,Port of Call, Djakarta
* ,51/07/22 , 146 ,Nightmare
* ,51/07/29 , 147 ,Deadly Passage
* ,51/08/05 , 148 ,Prelude for Eva
* ,51/08/12 , 149 ,From West to East and Back Again
* ,51/08/19 , 150 ,The Last Chance
* ,51/08/26 , 151 ,Border Incident
* ,51/09/02 , 152 ,Edge of the Curtain
* ,51/09/09 , 153 ,Weekend at Kolenkov's
* ,51/09/16 , 154 ,The Key and The Cloak
* ,51/09/23 , 155 ,The Last Trap
* ,51/09/30 , 156 ,The Wanderer
* ,51/10/07 , 157 ,The Desert's Edge
* ,51/10/14 , 158 ,Lady on the Run
* ,51/10/21 , 159 ,Warpath
* ,51/10/28 , 160 ,The Trial of Gregory Winslow
* ,51/11/04 , 161 ,Action at Bou Adel
* ,51/11/11 , 162 ,The House on the Hill
* ,51/11/18 , 163 ,Highland Fling
* ,51/11/25 , 164 ,The Trial
* ,51/12/02 , 165 ,In The Dead of The Night
* ,51/12/09 , 166 ,Terror at Polgar
* ,51/12/16 , 167 ,Folk Tale
* ,51/12/23 , 168 ,Christmas Story
* ,51/12/30 , 169 ,Journey Eastward
* ,52/01/06 , 170 ,A Matter of Time
* ,52/01/13 , 171 ,Passage to Bombay
  ,52/01/20 , 172 ,Hue and Cry
  ,52/01/27 , 173 ,Fair Warning
  ,52/02/03 , 174 ,Daughter of Destiny
  ,52/02/10 , 175 ,Molly Pitcher
  ,52/02/17 , 176 ,Gallant American Woman
  ,52/02/24 , 177 ,Beyond The Blue
  ,52/03/02 , 178 ,Leading Lady
  ,52/03/09 , 179 ,A Message for The General
  ,52/03/16 , 180 ,Mission Completed
  ,52/03/23 , 181 ,When the Clock Strikes
  ,52/03/30 , 182 ,The Courage You Gave Us
* ,52/04/06 , 183 ,Jet Flight
* ,52/04/13 , 184 ,Humanity Means People
* ,52/04/20 , 185 ,Operation Wingtip
* ,52/04/27 , 186 ,The Medal of Honor
  ,52/05/04 , 187 ,Castle on the Hudson
  ,52/05/11 , 188 ,Dry Run
* ,52/05/18 , 189 ,Secret Battle
* ,52/05/25 , 190 ,A Ring of Stars
  ,52/06/01 , 191 ,Maps by the Millions
  ,52/06/08 , 192 ,Song of Glory
* ,52/06/15 , 193 ,Practice Area
* ,52/06/22 , 194 ,Flight to Freedom
* ,52/06/29 , 195 ,Magic Dust
* ,52/07/06 , 196 ,Woman of Oregon
* ,52/07/13 , 197 ,Special Mission
* ,52/07/20 , 198 ,Man of Genius
* ,52/07/27 , 199 ,Night Raiders
* ,52/08/03 , 200 ,Journey of the Long Knives
* ,52/08/10 , 201 ,Symbol of Freedom
* ,52/08/17 , 202 ,Impersonation
* ,52/08/24 , 203 ,Ride to Glory
* ,52/08/31 , 204 ,Lightning on Horseback
* ,52/09/07 , 205 ,The Eyes of Sgt. Bailey
* ,52/09/14 , 206 ,Young Man on a Powder Keg
* ,52/09/21 , 207 ,A Woman's Place
* ,52/09/28 , 208 ,The Invisible Chain
* ,52/10/05 , 209 ,Freedom Wears a Funny Hat
* ,52/10/12 , 210 ,Davy Crockett, American
* ,52/10/19 , 211 ,Operation Rescue
* ,52/10/26 , 212 ,The Ghost and Private Perkins
* ,52/11/02 , 213 ,The Patriotic Pirate
* ,52/11/09 , 214 ,Routine Patrol
  ,52/11/16 , 215 ,Dark Waters Off Kyushu
  ,52/11/23 , 216 ,No Life So Dear
  ,52/11/30 , 217 ,Courage and Determination
  ,52/12/07 , 218 ,Flood Waters
* ,52/12/14 , 219 ,Operation Baden
* ,52/12/21 , 220 ,Keeping Faith
* ,52/12/28 , 221 ,Thomas Paine
* ,53/01/04 , 222 ,A Medal for Joe
* ,53/01/11 , 223 ,Prophet With Honor
* ,53/01/18 , 224 ,Young Man in the Air
* ,53/01/25 , 225 ,Kit Carson and the Silk Hats
* ,53/02/01 , 226 ,The Bridge That Wasn't There
* ,53/02/08 , 227 ,The Father of Ohio
* ,53/02/15 , 228 ,Bring Back a MIG
* ,53/02/22 , 229 ,Once Upon a Leave
* ,53/03/01 , 230 ,Robinson Crusoe Shinz-do
* ,53/03/08 , 231 ,Let The World See You
* ,53/03/15 , 232 ,The Day Nothing Happened
* ,53/03/22 , 233 ,Line of Defense
* ,53/03/29 , 234 ,The General Builds an Army
* ,53/04/05 , 235 ,Mediterranean Rescue
* ,53/04/12 , 236 ,A Night on the Ridge
* ,53/04/19 , 237 ,Indestructable Sergeant
* ,53/04/26 , 238 ,Country Doctor
* ,53/05/03 , 239 ,The Old Pro
* ,53/05/10 , 240 ,Doctor, Soldier, Indian Chief
* ,53/05/17 , 241 ,Flight Through Sound
* ,53/05/24 , 242 ,Hundredth Night
* ,53/05/31 , 243 ,The Kid with Five Lives
* ,53/06/07 , 244 ,Orphans of the Storm
* ,53/06/14 , 245 ,Four of a Kind
* ,53/06/21 , 246 ,The General Saves a City
* ,53/06/28 , 247 ,The Gals From Dogpatch
* ,53/07/05 , 248 ,Cable Job
* ,53/07/12 , 249 ,Army Doctor
* ,53/07/19 , 250 ,Yellowstone Kelly
* ,53/07/26 , 251 ,Next to The Real Thing
* ,53/08/02 , 252 ,The Para-Pilot
* ,53/08/09 , 253 ,Skysweeper
* ,53/08/16 , 254 ,Triple Threat Team
* ,53/08/23 , 255 ,Three Strikes and Out
* ,53/08/30 , 256 ,The Silent Bomb
* ,53/09/06 , 257 ,Portrait of a Soldier
* ,53/09/13 , 258 ,Working on the Railroad
* ,53/09/20 , 259 ,Road of Return
* ,53/09/27 , 260 ,Underwater Soldiers
* ,53/10/04 , 261 ,Recipe for Deceit
* ,53/10/11 , 262 ,The Safety Factor
* ,53/10/13 , 263 ,Military Mission
* ,53/10/20 , 264 ,Wings for a Tiger
* ,53/11/01 , 265 ,Ranger Tab
* ,53/11/08 , 266 ,Fox Peter One
* ,53/11/15 , 267 ,The Big Blow
* ,53/11/22 , 268 ,Daring Young Man
* ,53/11/29 , 269 ,Lucifer Heads North
* ,53/12/06 , 270 ,Focus on MIG Alley
* ,53/12/13 , 271 ,Icebound
* ,53/12/20 , 272 ,A Story for Christmas
* ,53/12/27 , 273 ,Fly by Night
* ,54/01/03 , 274 ,One of the Boys
* ,54/01/10 , 275 ,Experiment in Space
* ,54/01/17 , 276 ,Finishing Kick
* ,54/01/24 , 277 ,Rest Cure
* ,54/01/31 , 278 ,The New Shoe
* ,54/02/07 , 279 ,The Officer Who Never Gives Orders
* ,54/02/13 , 280 ,Birthday Salute for Fort Riley
* ,54/02/21 , 281 ,Safety is no Accident
* ,54/02/28 , 282 ,Hourglass Combo
* ,54/03/07 , 283 ,Follow the Leader
* ,54/03/14 , 284 ,A Hole in the Ground
* ,54/03/21 , 285 ,My Room Mate Ruth
* ,54/03/28 , 286 ,A as in Army, B as in Boy
* ,54/04/04 , 287 ,Air Force Wife
* ,54/04/11 , 288 ,Jungle Patrol
* ,54/04/18 , 289 ,Operation Beethoven
* ,54/04/25 , 290 ,Winter Carnival
* ,54/05/02 , 291 ,The Tornado
* ,54/05/09 , 292 ,The Art of Propaganda
* ,54/05/16 , 293 ,Window in the Curtain
* ,54/05/23 , 294 ,It's a Small World
* ,54/05/30 , 295 ,Tower Team
* ,54/06/06 , 296 ,The Long Jump
* ,54/06/13 , 297 ,When No Birds Fly
* ,54/06/20 , 298 ,Skyhook One
* ,54/06/27 , 299 ,Seventy Six Hours
* ,54/07/04 , 300 ,The Saxon Shore
* ,54/07/11 , 301 ,Operation Mercy
* ,54/07/18 , 302 ,Portrait with a Future
* ,54/07/25 , 303 ,A Scramble for Lancer Red
* ,54/08/01 , 304 ,The Side of Truth
* ,54/08/08 , 305 ,Make Believe
* ,54/08/15 , 306 ,The Vital Minute
  ,54/08/22 , 307 ,Breath of Life
  ,54/08/29 , 308 ,We Are Twelve
* ,54/09/05 , 309 ,Black Market Money
* ,54/09/12 , 310 ,The Dragon Returns
* ,54/09/19 , 311 ,The Man's Army
* ,54/09/26 , 312 ,Four Find a Target
* ,54/10/03 , 313 ,School for Survival
* ,54/10/10 , 314 ,Fisherman's Luck
* ,54/10/17 , 315 ,The Flight of the Aerobee
* ,54/10/24 , 316 ,The Ten Mark Note
  ,54/10/31 , 317 ,Zone of Decision
  ,54/11/07 , 318 ,The Call of Courage
  ,54/11/14 , 319 ,A Guy Named Scott
  ,54/11/21 , 320 ,Mountain Holiday
  ,54/11/28 , 321 ,Operation Flashburn
  ,54/12/05 , 322 ,Storm Approach
* ,54/12/12 , 323 ,Appointment in Mannheim
* ,54/12/19 , 324 ,Check and Double Check
  ,54/12/26 , 325 ,The Victory
  ,55/01/02 , 326 ,Second Fiddle
* ,55/01/09 , 327 ,Milestone for the Matador
* ,55/01/16 , 328 ,The Rescue at Mecklin
* ,55/01/23 , 329 ,Emma
  ,55/01/30 , 330 ,The Spartan
* ,55/02/06 , 331 ,A Week of Sundays
* ,55/02/13 , 332 ,The Hard Way
* ,55/02/20 , 333 ,They Went Thataway
* ,55/02/27 , 334 ,Ten Days of Delay
* ,55/03/06 , 335 ,Mission Successful
* ,55/03/13 , 336 ,Two Soldiers
* ,55/03/20 , 337 ,Genius at Work
* ,55/03/27 , 338 ,The Face of the Enemy
* ,55/04/03 , 339 ,Helping Hand
* ,55/04/10 , 340 ,The Newcomers
* ,55/04/17 , 341 ,A Little More Time
* ,55/04/23 , 342 ,Pursuit in Jade
* ,55/05/01 , 343 ,The Flying Trapeze
* ,55/05/08 , 344 ,Wine to Vienna
* ,55/05/15 , 345 ,The Test
* ,55/05/22 , 346 ,The House That Eddie Won
* ,55/05/29 , 347 ,The Tell-Tale Spin
* ,55/06/05 , 348 ,Freedom's Roar
* ,55/06/12 , 349 ,Grandpa Jumps
* ,55/06/19 , 350 ,One Man's Loss
* ,55/06/26 , 351 ,One For The Book
* ,55/07/03 , 352 ,I've Got It Made
* ,55/07/10 , 353 ,Americans On Horseback
* ,55/07/17 , 354 ,Assignment In Tomorrow
* ,55/07/24 , 355 ,The Nice Quiet Weekend
* ,55/07/31 , 356 ,School For Safety
* ,55/08/07 , 357 ,Knockout Performance
* ,55/08/14 , 358 ,Danger Has Your Engines
* ,55/08/21 , 359 ,Blind Date
* ,55/08/28 , 360 ,Three Girls Named Jones
* ,55/09/04 , 361 ,The Olevsky Ambush
* ,55/09/11 , 362 ,Mama's Boy
* ,55/09/18 , 363 ,Night Holds A Surprise
* ,55/09/25 , 364 ,The Real Exam
* ,55/10/02 , 365 ,The Triple Play
* ,55/10/09 , 366 ,Conquered - The Future
* ,55/10/16 , 367 ,The Soldier's Creed
* ,55/10/23 , 368 ,Two Loves
* ,55/10/30 , 369 ,An Arm Like Iron
* ,55/11/06 , 370 ,The Flawless Flight
* ,55/11/13 , 371 ,Over The River And Through The Wood
* ,55/11/20 , 372 ,Big Man
* ,55/11/27 , 373 ,The Vanishing Peacock
* ,55/12/04 , 374 ,The Replacement
* ,55/12/11 , 375 ,Paid In Full
* ,55/12/18 , 376 ,A Day For Boys
* ,55/12/25 , 377 ,Two's A Crowd
* ,56/01/01 , 378 ,Trouble Jumpers
* ,56/01/08 , 379 ,One Little Move At A Time
* ,56/01/15 , 380 ,Wrench Jockey
* ,56/01/22 , 381 ,The Four Footed Radar
* ,56/01/29 , 382 ,A Strange Field Landing
* ,56/02/05 , 383 ,The Men From Mars
* ,56/02/12 , 384 ,Dawn Has Eyes
* ,56/02/19 , 385 ,Mama
* ,56/02/26 , 386 ,Honor Flight
* ,56/03/04 , 387 ,The Bridegroom Was Late
* ,56/03/11 , 388 ,A Letter to a Colonel
* ,56/03/18 , 389 ,The Visitor
* ,56/03/25 , 390 ,Threading the Needle
* ,56/04/01 , 391 ,The Promise
* ,56/04/08 , 392 ,Tornado Alley
* ,56/04/15 , 393 ,A Lunch Date At Clarence
* ,56/04/22 , 394 ,The Eleventh Flight
* ,56/04/29 , 395 ,Spring Is Here
* ,56/05/06 , 396 ,Goodbye Vienna
* ,56/05/13 , 397 ,The Sky Sweepers
* ,56/05/20 , 398 ,The Transfer
* ,56/05/27 , 399 ,Love And The Sergeant
* ,56/06/03 , 400 ,The Primitive Man
* ,56/06/10 , 401 ,The Captain And The Kid
* ,56/06/17 , 402 ,His Name Was Whittle
* ,56/06/24 , 403 ,The Unbeatable Mac
* ,56/07/01 , 404 ,Test Drop
* ,56/07/08 , 405 ,Collector's Item
* ,56/07/15 , 406 ,The Coolest Cat
* ,56/07/22 , 407 ,The House on Spring Street
* ,56/07/29 , 408 ,The Sergeants Disagree
* ,56/08/05 , 409 ,The Man Who Won the War
* ,56/08/12 , 410 ,Breakaway
* ,56/08/19 , 411 ,The Man Who Used His Head
* ,56/08/26 , 412 ,The Champ
  ,56/09/02 , 413 ,I'm Looking for a Girl
  ,56/09/09 , 414 ,The Worm Turns
  ,56/09/16 , 415 ,The Private World of Private Kingsley
* ,56/09/23 , 416 ,Light In The Night
  ,56/09/30 , 417 ,The Second Platoon
  ,56/10/07 , 418 ,The Unofficial Ambassadors
  ,56/10/14 , 419 ,
  ,56/10/21 , 420 ,
  ,56/10/28 , 421 ,Dandy Dick from Medicine Crick
  ,56/11/04 , 422 ,The One Most Likely to Succeed
  ,56/11/11 , 423 ,The Queen's Necklace
  ,56/11/18 , 424 ,The Baby Sitter
  ,56/11/25 , 425 ,
  ,56/12/02 , 426 ,Two Bridges for Bartlett
  ,56/12/09 , 427 ,Decision
  ,56/12/16 , 428 ,Jet Flight
* ,56/12/23 , 429 ,The Gaunt Man
* ,56/12/30 , 430 ,Operation Distraction
* ,57/01/06 , 431 ,The Private and the Paintbrush
* ,57/01/13 , 432 ,The Beautiful Blue Danube
* ,57/01/20 , 433 ,It's All in the Arm
* ,57/01/27 , 434 ,Hepzibah the Bugle
* ,57/02/03 , 435 ,The Love of Her Life
* ,57/02/10 , 436 ,An Officer and a Gentleman
* ,57/02/17 , 437 ,Spread the Alarm
* ,57/02/24 , 438 ,The Topkick
* ,57/03/03 , 439 ,The Conversion
* ,57/03/10 , 440 ,Madison's Teeth
* ,57/03/17 , 441 ,The Sky over Haddonsville
* ,57/03/24 , 442 ,The Flying Caseys
* ,57/03/31 , 443 ,Assignment: Ghosts
* ,57/04/07 , 444 ,Knights in Armor
* ,57/04/14 , 445 ,The Competitor
* ,57/04/21 , 446 ,The Quiet Sergeant
* ,57/04/28 , 447 ,The Chef
* ,57/05/05 , 448 ,Second Look
* ,57/05/12 , 449 ,The Richest Man in the Air Force
* ,57/05/19 , 450 ,The Hickory Stick
* ,57/05/26 , 451 ,The Greater Worth
* ,57/06/02 , 452 ,Mission Accomplished
* ,57/06/09 , 453 ,Hole In The Sky
* ,57/06/16 , 454 ,Some Must Watch
* ,57/06/23 , 455 ,High Target
* ,57/06/30 , 456 ,What a Day This Has Been
* ,57/07/07 , 457 ,Harry the Villain
* ,57/07/14 , 458 ,Routine Flight
* ,57/07/21 , 459 ,Topflight
* ,57/07/28 , 460 ,Visibility Zero
* ,57/08/04 , 461 ,Winter Night
* ,57/08/11 , 462 ,The Landmark
* ,57/08/18 , 463 ,The View from Katie's Hill
* ,57/08/25 , 464 ,The Battle of Beef Stew Hill
  ,57/09/02 , 465 ,
  ,57/09/09 , 466 ,
  ,57/09/16 , 467 ,
  ,57/09/23 , 468 ,
  ,57/09/30 , 469 ,
  ,57/10/07 , 470 ,
  ,57/10/14 , 471 ,
* ,57/10/21 , 472 ,Eleventh Flight (repeat of Episode 394)
* ,57/10/28 , 473 ,The Trial Of Gregory Winslow (Repeat Of Episode 160)
* ,57/11/04 , 474 ,Action At Bou Adel (Repeat Of Episode 161)
  ,xx/xx/xx ,     ,Exchange Professor
  ,xx/xx/xx ,     ,Puppy Love
* ,xx/xx/xx ,     ,The Will Of God
