Exists, Date, #, Episode Name
  ,39/09/21 ,     ,Guest - Mary Turner
  ,39/09/21 ,     ,Guest - Mary Turner
  ,39/09/21 ,     ,Guest - Mary Turner
  ,39/09/21 ,     ,Guest - Mary Turner
  ,39/09/21 ,     ,Guest - Mary Turner
* ,46/07/xx , 822 ,The Man I Love
* ,47/04/20 , 564 ,Hobnail Boogie
  ,xx/xx/xx ,   3 ,First Song - Ali Baba (Xavier Cugat)
  ,xx/xx/xx ,   3 ,First Song - Ali Baba (Xavier Cugat)
  ,xx/xx/xx ,   3 ,First Song - Ali Baba (Xavier Cugat)
  ,xx/xx/xx ,   3 ,First Song - Ali Baba (Xavier Cugat)
  ,xx/xx/xx ,   3 ,First Song - Ali Baba (Xavier Cugat)
  ,xx/xx/xx ,   4 ,First Song - Washington Whirligig (Charlie Barnet)
  ,xx/xx/xx ,   4 ,First Song - Washington Whirligig (Charlie Barnet)
  ,xx/xx/xx ,   4 ,First Song - Washington Whirligig (Charlie Barnet)
  ,xx/xx/xx ,   4 ,First Song - Washington Whirligig (Charlie Barnet)
  ,xx/xx/xx ,   4 ,First Song - Washington Whirligig (Charlie Barnet)
* ,xx/xx/xx ,   6 ,Solid Steven
  ,xx/xx/xx ,   8 ,First Song - Always (Louis Armstrong)
  ,xx/xx/xx ,   8 ,First Song - Always (Louis Armstrong)
  ,xx/xx/xx ,   8 ,First Song - Always (Louis Armstrong)
  ,xx/xx/xx ,   8 ,First Song - Always (Louis Armstrong)
  ,xx/xx/xx ,   8 ,First Song - Always (Louis Armstrong)
  ,xx/xx/xx ,   9 ,First Song - Brazil (Carlos Molina)
  ,xx/xx/xx ,   9 ,First Song - Brazil (Carlos Molina)
  ,xx/xx/xx ,   9 ,First Song - Brazil (Carlos Molina)
  ,xx/xx/xx ,   9 ,First Song - Brazil (Carlos Molina)
  ,xx/xx/xx ,   9 ,First Song - Brazil (Carlos Molina)
  ,xx/xx/xx ,  22 ,First Song - Honeysuckle Rose ( Joe Sanders)
  ,xx/xx/xx ,  22 ,First Song - Honeysuckle Rose ( Joe Sanders)
  ,xx/xx/xx ,  22 ,First Song - Honeysuckle Rose ( Joe Sanders)
  ,xx/xx/xx ,  22 ,First Song - Honeysuckle Rose ( Joe Sanders)
  ,xx/xx/xx ,  22 ,First Song - Honeysuckle Rose ( Joe Sanders)
  ,xx/xx/xx ,  23 ,First Song - Shine (Jack Teagarden)
  ,xx/xx/xx ,  23 ,First Song - Shine (Jack Teagarden)
  ,xx/xx/xx ,  23 ,First Song - Shine (Jack Teagarden)
  ,xx/xx/xx ,  23 ,First Song - Shine (Jack Teagarden)
  ,xx/xx/xx ,  23 ,First Song - Shine (Jack Teagarden)
* ,xx/xx/xx ,  98 ,Take Me in Your Arms
* ,xx/xx/xx , 103 ,Belong to My Heart
* ,xx/xx/xx , 104 ,Stompin' at the Savoy
* ,xx/xx/xx , 120 ,Robin Hood
* ,xx/xx/xx , 121 ,The Old Folks at Home
  ,xx/xx/xx , 124 ,First Song - Bell Bottom Trousers (Elliot Lawrence)
  ,xx/xx/xx , 124 ,First Song - Bell Bottom Trousers (Elliot Lawrence)
  ,xx/xx/xx , 124 ,First Song - Bell Bottom Trousers (Elliot Lawrence)
  ,xx/xx/xx , 124 ,First Song - Bell Bottom Trousers (Elliot Lawrence)
  ,xx/xx/xx , 124 ,First Song - Bell Bottom Trousers (Elliot Lawrence)
  ,xx/xx/xx , 125 ,First Song - Medley (Arnel Vandens)
  ,xx/xx/xx , 125 ,First Song - Medley (Arnel Vandens)
  ,xx/xx/xx , 125 ,First Song - Medley (Arnel Vandens)
  ,xx/xx/xx , 125 ,First Song - Medley (Arnel Vandens)
  ,xx/xx/xx , 125 ,First Song - Medley (Arnel Vandens)
  ,xx/xx/xx , 154 ,First Song - Exactly Like You (Buddy Johnson)
  ,xx/xx/xx , 154 ,First Song - Exactly Like You (Buddy Johnson)
  ,xx/xx/xx , 154 ,First Song - Exactly Like You (Buddy Johnson)
  ,xx/xx/xx , 154 ,First Song - Exactly Like You (Buddy Johnson)
  ,xx/xx/xx , 154 ,First Song - Exactly Like You (Buddy Johnson)
  ,xx/xx/xx , 159 ,I Didn't Know About You ( Bob Moore)
  ,xx/xx/xx , 159 ,I Didn't Know About You ( Bob Moore)
  ,xx/xx/xx , 159 ,I Didn't Know About You ( Bob Moore)
  ,xx/xx/xx , 159 ,I Didn't Know About You ( Bob Moore)
  ,xx/xx/xx , 159 ,I Didn't Know About You ( Bob Moore)
  ,xx/xx/xx , 160 ,First Song - Sweet Georgia Brown (Tiny Bradshaw)
  ,xx/xx/xx , 160 ,First Song - Sweet Georgia Brown (Tiny Bradshaw)
  ,xx/xx/xx , 160 ,First Song - Sweet Georgia Brown (Tiny Bradshaw)
  ,xx/xx/xx , 160 ,First Song - Sweet Georgia Brown (Tiny Bradshaw)
  ,xx/xx/xx , 160 ,First Song - Sweet Georgia Brown (Tiny Bradshaw)
* ,xx/xx/xx , 162 ,I Learned a Lesson
  ,xx/xx/xx , 183 ,First Song - Artistry Jumps (Stan Kenton)
  ,xx/xx/xx , 183 ,First Song - Artistry Jumps (Stan Kenton)
  ,xx/xx/xx , 183 ,First Song - Artistry Jumps (Stan Kenton)
  ,xx/xx/xx , 183 ,First Song - Artistry Jumps (Stan Kenton)
  ,xx/xx/xx , 183 ,First Song - Artistry Jumps (Stan Kenton)
  ,xx/xx/xx , 241 ,First Song - Rhumba Medley (Bobby Ramos)
  ,xx/xx/xx , 241 ,First Song - Rhumba Medley (Bobby Ramos)
  ,xx/xx/xx , 241 ,First Song - Rhumba Medley (Bobby Ramos)
  ,xx/xx/xx , 241 ,First Song - Rhumba Medley (Bobby Ramos)
  ,xx/xx/xx , 241 ,First Song - Rhumba Medley (Bobby Ramos)
  ,xx/xx/xx , 242 ,First Song - Perdido (Bob Crosby)
  ,xx/xx/xx , 242 ,First Song - Perdido (Bob Crosby)
  ,xx/xx/xx , 242 ,First Song - Perdido (Bob Crosby)
  ,xx/xx/xx , 242 ,First Song - Perdido (Bob Crosby)
  ,xx/xx/xx , 242 ,First Song - Perdido (Bob Crosby)
* ,xx/xx/xx , 402 ,Blue Echoes
* ,xx/xx/xx , 465 ,Over the Rainbow
  ,xx/xx/xx , 466 ,First Song - Along With Me (Joe Reichman)
  ,xx/xx/xx , 466 ,First Song - Along With Me (Joe Reichman)
  ,xx/xx/xx , 466 ,First Song - Along With Me (Joe Reichman)
  ,xx/xx/xx , 466 ,First Song - Along With Me (Joe Reichman)
  ,xx/xx/xx , 466 ,First Song - Along With Me (Joe Reichman)
* ,xx/xx/xx , 502 ,Rip Van Winkle
* ,xx/xx/xx ,     ,Will You Be My Darlin'
