Exists, Date, #, Episode Name
* ,40/06/14 ,     ,
* ,44/05/xx ,     ,First Tune - Time Waits For No One
* ,44/xx/xx ,     ,First Tune - Johnson Rag
* ,47/xx/xx ,     ,First Tune - I've Got A Lovely Bunch Of Cocoanuts
* ,50/xx/xx ,     ,First Tune - I've Got To Have My Baby Back
* ,xx/xx/xx ,   5 ,First Song - Without Music
* ,xx/xx/xx ,   6 ,First Song - Where Are You Going To Be When The Moon Shines
* ,xx/xx/xx ,     ,First Tune - A Room Full Of Roses
* ,xx/xx/xx ,     ,First Tune - Ain'tcha Glad I Love You
* ,xx/xx/xx ,     ,First Tune - Get Me One Of Those
* ,xx/xx/xx ,     ,First Tune - Let's Take An Old Fashioned Walk
* ,xx/xx/xx ,     ,First Tune - Slow Boat To China
* ,xx/xx/xx ,     ,First Tune - Someday
