Exists, Date, #, Episode Name
  ,40/11/11 ,   1 ,First Episode (of M-W-F schedule @
* ,40/11/18 ,   4 ,--- (2nd Week of M-W-F schedule)
  ,40/11/25 ,   7 ,
  ,40/12/02 ,  10 ,
  ,40/12/09 ,  13 ,
  ,40/12/16 ,  16 ,
  ,40/12/23 ,  19 ,
  ,40/12/30 ,  22 ,
* ,40/xx/xx ,     ,A Deadly Visitor to Mandrake's House
  ,41/01/02 ,  23 ,--- (moved to Thursday - this episode
  ,41/01/03 ,  24 ,
  ,41/01/06 ,  25 ,
  ,41/01/13 ,  28 ,
  ,41/01/20 ,  31 ,
  ,41/01/27 ,  34 ,
  ,41/02/03 ,  37 ,
  ,41/02/10 ,  40 ,
  ,41/02/17 ,  43 ,
  ,41/02/24 ,  46 ,
* ,41/02/26 ,  47 ,Captain X, Lothar and Tommy Escape
* ,41/02/28 ,  48 ,Mandrake Swears Revenge
  ,41/03/03 ,  49 ,
  ,41/03/05 ,  50 ,
* ,41/03/07 ,  51 ,Lothar and Tommy are Alive
* ,41/03/10 ,  52 ,Lothar and Narda are Prisoners
  ,41/03/12 ,  53 ,
  ,41/03/14 ,  54 ,
* ,41/03/17 ,  55 ,Barracuda is under Mandrake's Control
* ,41/03/19 ,  56 ,Mandrake is Tied Up
* ,41/03/21 ,  57 ,Captain X Fights Lothar
* ,41/03/24 ,  58 ,Princess Narda and Mandrake Will be
* ,41/03/26 ,  59 ,Alex Jefferson Falls Over a Cliff
* ,41/03/28 ,  60 ,Mandrake Gets the Car Keys
* ,41/03/31 ,  61 ,Dorfman is Found
* ,41/04/02 ,  62 ,Highpitch Forces Mandrake off the Road
* ,41/04/04 ,  63 ,Mandrake, Tommy and Lothar Jump From
* ,41/04/07 ,  64 ,Mr. Slade is Interested in the Red
* ,41/04/09 ,  65 ,Slade Has the Red Book
* ,41/04/11 ,  66 ,Tommy has Found Princess Narda
* ,41/04/14 ,  67 ,The Truck is Headed to the Secret Base
* ,41/04/16 ,  68 ,Highpitch is Summoned to the Boss
* ,41/04/18 ,  69 ,The Planes are Armed
* ,41/04/21 ,  70 ,Mandrake Pretends to be the New Flight
* ,41/04/23 ,  71 ,Mandrake has Paralyzed Highpitch
* ,41/04/25 ,  72 ,Dr Carvass Gets a Carrier Pigeon
  ,41/04/28 ,  73 ,
  ,41/05/05 ,  76 ,
  ,41/05/12 ,  79 ,
  ,41/05/19 ,  82 ,
  ,41/05/26 ,  85 ,
  ,41/06/02 ,  88 ,
  ,41/06/09 ,  91 ,
  ,41/06/16 ,  94 ,
  ,41/06/23 ,  97 ,
  ,41/06/25 ,  98 ,
* ,41/06/27 ,  99 ,There's A Spy Ring in Newtown, Indiana
* ,41/06/30 , 100 ,A Red Biplane Attacks Mandrake's Plane
  ,41/07/02 , 101 ,
  ,41/07/04 , 102 ,
  ,41/07/07 , 103 ,
  ,41/07/14 , 106 ,
  ,41/07/21 , 109 ,
  ,41/07/28 , 112 ,
  ,41/08/04 , 115 ,
  ,41/08/11 , 118 ,
  ,41/08/18 , 121 ,
  ,41/08/25 , 124 ,
  ,41/09/01 , 127 ,
  ,41/09/08 , 130 ,
* ,41/09/15 , 133 ,A Bomb Is About to Explode
* ,41/09/17 , 134 ,Narda And The Professor Have Survived
  ,41/09/19 , 135 ,
  ,41/09/22 , 136 ,
  ,41/09/29 , 139 ,
  ,41/10/06 , 142 ,
* ,41/10/13 , 145 ,The Green Mask Is Using A Submarine
* ,41/10/15 , 146 ,The Car Chase Continues
  ,41/10/17 , 147 ,
  ,41/10/20 , 148 ,
  ,41/10/27 , 151 ,
  ,41/11/03 , 154 ,
  ,41/11/10 , 157 ,
  ,41/11/17 , 160 ,
  ,41/11/24 , 163 ,
  ,41/12/01 , 166 ,
  ,41/12/08 , 169 ,
  ,41/12/15 , 172 ,
  ,41/12/22 , 175 ,
  ,41/12/29 , 178 ,
  ,42/01/05 , 181 ,
  ,42/01/12 , 184 ,
  ,42/01/19 , 187 ,
  ,42/01/26 , 190 ,
  ,42/02/02 , 193 ,
  ,42/02/04 , 194 ,
  ,42/02/06 , 195 ,Last Episode
