Exists, Date, #, Episode Name
* ,57/07/01 , 128 ,The Sauter-Finegan Orchestra
* ,57/10/21 , 141 ,Henry Jerome and His Orchestra
* ,57/10/xx , 142 ,Les Brown and His Orchestra (Also 57-10-21)
* ,57/10/xx , 143 ,Buddy Morrow and His Orchestra (Also 57-10-21)
* ,57/12/28 , 150 ,First Tune - Body and Soul
* ,57/12/xx , 151 ,Les and Larry Elgart and Their Orchestra (Also 57-12-28)
* ,57/12/xx , 152 ,Joe Reisman and His Orchestra (Also 57-12-28)
* ,57/xx/xx , 127 ,Ray Anthony and His Orchestra
* ,58/02/10 , 159 ,Date Is Scratched on the Disc Matrix
* ,58/10/21 , 194 ,Date Was Scratched on the Disc Matrix
* ,58/xx/xx , 172 ,First Tune - 'Whispering' Medley
* ,58/xx/xx , 173 ,First Tune - The Secret of Happiness
* ,58/xx/xx , 174 ,First Tune - Malaguena
* ,58/xx/xx , 175 ,First Tune - Daddy
* ,58/xx/xx , 176 ,First Tune - Smoke Gets in Your Eyes
* ,58/xx/xx , 191 ,First Tune - Tonight We Love
* ,58/xx/xx , 192 ,First Tune - Bye Bye Blues
* ,58/xx/xx , 195 ,First Tune -  (3)
* ,58/xx/xx , 207 ,First Tune -  (4)
* ,58/xx/xx , 210 ,First Tune -  (5)
* ,58/xx/xx , 211 ,First Tune - The Atchison, Topeka and the Santa Fe (Neil Heafty Orchestra)
* ,58/xx/xx , 212 ,First Tune - A Slow Boat to China
* ,58/xx/xx , 213 ,The Orchestra Is Billed as 'Billy May and His 'Big Fat Brass'
* ,58/xx/xx , 214 ,First Tune - Love Eyes (Rosemary Clooney)
* ,58/xx/xx , 217 ,First Tune -  (7)
* ,58/xx/xx , 217 ,Vincent Lopez and His Orchestra
* ,58/xx/xx , 222 ,First Tune -  (8)
* ,58/xx/xx , 223 ,First Tune - Stormy Weather
* ,58/xx/xx , 224 ,First Tune - No Love, No Nothing
* ,58/xx/xx , 225 ,First Tune -  (9)
* ,58/xx/xx , 226 ,First Tune - Goin' Home Train
* ,58/xx/xx , 227 ,First Tune - The Letter Medley
* ,58/xx/xx , 228 ,First Tune -  (10)
* ,58/xx/xx , 230 ,First Tune -  (11)
* ,58/xx/xx , 271 ,First Tune - Everything's Comin' Up Roses
* ,58/xx/xx , 284 ,First Tune - San Antonio Rose
* ,60/xx/xx , 235 ,First Tune -  (12)
* ,60/xx/xx , 240 ,First Tune -  (13)
* ,60/xx/xx , 247 ,First Tune - Tea for Two Cha Cha
* ,60/xx/xx , 260 ,First Tune - The St Louis Blues
* ,60/xx/xx , 268 ,First Tune - Arrivederci Roma
* ,60/xx/xx , 285 ,First Tune - Let the Rest of the World Go By
* ,60/xx/xx , 286 ,First Tune - Circle Cha Cha
* ,60/xx/xx , 287 ,First Tune - So Rare
* ,60/xx/xx , 291 ,First Tune - Hungarian Dance #5
* ,60/xx/xx , 293 ,First Tune - Soon
* ,60/xx/xx , 294 ,First Tune - Kiss Me Kate Medley
* ,60/xx/xx , 297 ,First Tune - Showtime
* ,60/xx/xx , 299 ,First Tune - Theme from the Apartment
* ,60/xx/xx , 300 ,First Tune - Stompin' at the Savoy
* ,60/xx/xx , 306 ,First Tune - Bye Bye Blackbird
* ,61/xx/xx , 309 ,First Tune - Mack the Knife
* ,xx/xx/xx ,   5 ,Russ Morgan and His Orchestra, Al Jennings (vocals), Betsy Gaye
* ,xx/xx/xx ,   9 ,A Band Remote (possibly Simulated) from the Blue Room
* ,xx/xx/xx ,  13 ,First Tune - Cat Dancin'
* ,xx/xx/xx ,  14 ,First Tune - Thunderbreak
* ,xx/xx/xx ,  20 ,First Tune - Skipping Along
* ,xx/xx/xx ,  29 ,First Tune - No Strings Attached
* ,xx/xx/xx ,  39 ,First Tune - Love Is Just Around the Corner
* ,xx/xx/xx ,  63 ,First Tune - I Guess I'll Have to Change My Plans
* ,xx/xx/xx ,  64 ,First Tune - Harold in Italy
* ,xx/xx/xx ,  66 ,First Tune - Little Rock Getaway
* ,xx/xx/xx ,  71 ,First Tune - The St Louis Blues Mambo
* ,xx/xx/xx ,  72 ,First Tune - Serenade from The Student Prince
* ,xx/xx/xx ,  73 ,First Tune - Blue Room
* ,xx/xx/xx ,  74 ,First Tune - Autumn in New York
* ,xx/xx/xx ,  75 ,First Tune - Robbins' Nest
* ,xx/xx/xx ,  76 ,First Tune - Quel Clarinet
* ,xx/xx/xx ,  85 ,First Tune - Poor Little Rich Girl
* ,xx/xx/xx ,  86 ,First Tune - Have You Met Miss Jones
* ,xx/xx/xx ,  99 ,Ralph Flanagan and His Orchestra
* ,xx/xx/xx , 100 ,Les Elgart and His Orchestra
* ,xx/xx/xx , 107 ,First Tune - The Game of Love
* ,xx/xx/xx , 108 ,First Tune - Besame Moranita
* ,xx/xx/xx , 115 ,The George Shearing Quintet
* ,xx/xx/xx , 118 ,Freddy Martin and His Orchestra
* ,xx/xx/xx , 121 ,Roger Williams and His Orchestra
* ,xx/xx/xx , 122 ,Charlie Spivak and His Orchestra
* ,xx/xx/xx , 123 ,Warren Covington and the Commanders
* ,xx/xx/xx , 125 ,The George Shearing Quintet (2)
* ,xx/xx/xx , 130 ,Tito Puente and His Orchestra
* ,xx/xx/xx , 131 ,First Tune - Hot Toddy
* ,xx/xx/xx , 132 ,First Tune - Captain Ahab
* ,xx/xx/xx , 133 ,First Tune - Ruby Lips
* ,xx/xx/xx , 134 ,Les Elgart and His Orchestra (2)
* ,xx/xx/xx , 135 ,Lionel Hampton and His Orchestra
* ,xx/xx/xx , 136 ,Frankie Carle and His Orchestra
* ,xx/xx/xx , 137 ,The George Shearing Quintet (3)
* ,xx/xx/xx , 145 ,First Tune - Dancing on the Ceiling
* ,xx/xx/xx , 157 ,First Tune - Dancing in the Dark
* ,xx/xx/xx , 158 ,First Tune - The Mexican Hat Dance
* ,xx/xx/xx , 161 ,First Tune - One O'Clock Jump
* ,xx/xx/xx , 163 ,First Tune - Kashmir
* ,xx/xx/xx , 169 ,First Tune - There Is Nothing Like a Dame
* ,xx/xx/xx , 171 ,First Tune - Mr Anthony's Boogie
* ,xx/xx/xx , 187 ,First Tune - The Second Time You Meet
* ,xx/xx/xx , 188 ,First Tune - Cuckoo in the Clock
* ,xx/xx/xx , 198 ,First Tune - Picnic
* ,xx/xx/xx , 205 ,First Tune - Love Me, Love
* ,xx/xx/xx , 231 ,First Tune - If I Could Be You
