Exists, Date, #, Episode Name
* ,39/12/06 ,   1 ,Maxine Gray Entertains 1
  ,39/12/08 ,   2 ,Maxine Gray Entertains 2
* ,39/12/13 ,   3 ,Maxine Gray Entertains 3
* ,39/12/15 ,   4 ,Maxine Gray Entertains 4
* ,39/12/20 ,   5 ,Maxine Gray Entertains 5
* ,39/12/22 ,   6 ,Maxine Gray Entertains 6
* ,39/12/27 ,   7 ,Maxine Gray Entertains 7
  ,39/12/29 ,   8 ,Maxine Gray Entertains 8
* ,40/01/03 ,   9 ,Maxine Gray Entertains 9
* ,40/01/05 ,  10 ,Maxine Gray Entertains 10
* ,40/01/10 ,  11 ,Maxine Gray Entertains 11
  ,40/01/12 ,  12 ,Maxine Gray Entertains 12
* ,40/01/17 ,  13 ,Maxine Gray Entertains 13
* ,40/01/19 ,  14 ,Maxine Gray Entertains 14
* ,40/01/24 ,  15 ,Maxine Gray Entertains 15
  ,40/01/26 ,  16 ,Maxine Gray Entertains 16
* ,40/01/31 ,  17 ,Maxine Gray Entertains 17
* ,40/02/05 ,  18 ,Maxine Gray Entertains 18
* ,40/02/07 ,  19 ,Maxine Gray Entertains 19
* ,40/02/12 ,  20 ,Maxine Gray Entertains 20
* ,40/02/14 ,  21 ,Maxine Gray Entertains 21
  ,40/02/16 ,  22 ,Maxine Gray Entertains 22
* ,40/02/26 ,  23 ,Maxine Gray Entertains 23
* ,40/02/28 ,  24 ,Maxine Gray Entertains 24
