Exists, Date, #, Episode Name
* ,99/07/26 ,   1 ,Happy Land
* ,00/12/21 ,   2 ,For Unto Us
* ,00/12/28 ,   3 ,The Trophy Club
* ,01/01/04 ,   4 ,The Second Shadow
* ,01/01/11 ,   5 ,The Burning Question
* ,02/06/19 ,   6 ,A Good Walk Spoilt
* ,02/06/26 ,   7 ,Wild Justice
* ,02/07/03 ,   8 ,The Wild Spark
* ,02/07/10 ,   9 ,Stab In The Back
* ,03/12/01 ,  10 ,Behind The Curtain
* ,03/12/08 ,  11 ,A Voice From The Grave
* ,03/12/15 ,  12 ,The Dark Shadow
* ,03/12/22 ,  13 ,Servant Of The Crown
* ,06/04/03 ,  14 ,A Piece Of Cake
* ,06/04/10 ,  15 ,The Sea Change
* ,06/04/17 ,  16 ,Sins Of The Fathers
* ,06/04/24 ,  17 ,The Devil's Disguise
* ,06/12/25 ,     ,Christmas Special
