Exists, Date, #, Episode Name
* ,61/xx/xx ,   1 ,Doctor-Patient Relationship
* ,61/xx/xx ,   2 ,Arthritis
* ,61/xx/xx ,   3 ,The Breath of Life
* ,61/xx/xx ,   4 ,Blindness
* ,61/xx/xx ,   5 ,Alcoholism
* ,61/xx/xx ,   6 ,Automobile Safety
* ,61/xx/xx ,   7 ,Premature Infants
* ,61/xx/xx ,   8 ,The Heart-Lung Machine
* ,61/xx/xx ,   9 ,Physical Rehabilitation
* ,61/xx/xx ,  10 ,The Blue Baby
