Exists, Date, #, Episode Name
* ,37/04/12 ,     , Gutenberg
* ,37/04/19 ,     , Isaac Newton
* ,37/04/26 ,     , Marco Polo
* ,37/04/30 ,     , Nero
* ,37/05/05 ,     , Roger Bacon
* ,37/05/09 ,     ,Galileo
* ,37/07/04 ,     , C. Francis Jenkins
* ,37/07/18 ,     , Theodore Roosevelt
* ,37/07/26 ,     , Thomas Young
* ,37/08/02 ,     , Benjamin Franklin
* ,37/08/15 ,     , Roger Bacon
* ,37/08/22 ,     ,Galileo
* ,38/05/12 ,     , David Brewster
* ,38/05/19 ,     , Leonardo De Vinci
* ,38/11/07 ,     , David Brewster
* ,xx/xx/xx ,     ,Andrew Guinand
* ,xx/xx/xx ,     ,Antonio Van Leeuwenheok
