Exists, Date, #, Episode Name
* ,38/07/11 ,   1 ,Dracula
* ,38/07/18 ,   2 ,Treasure Island
* ,38/07/25 ,   3 ,A Tale of Two Cities
* ,38/08/01 ,   4 ,The Thirty Nine Steps
* ,38/08/08 ,   5 ,I'm a Fool, My Little Boy, Open Window
* ,38/08/15 ,   6 ,Abraham Lincoln
* ,38/08/22 ,   7 ,The Affairs of Anatole
* ,38/08/29 ,   8 ,The Count of Monte Cristo
* ,38/09/05 ,   9 ,The Man Who Was Thursday
* ,38/09/11 ,  10 ,Julius Caesar
* ,38/09/18 ,  11 ,Jane Eyre
* ,38/09/25 ,  12 ,The Immortal Sherlock Holmes
  ,38/10/02 ,  13 ,Oliver Twist
* ,38/10/09 ,  14 ,Hell on Ice
* ,38/10/16 ,  15 ,Seventeen
* ,38/10/23 ,  16 ,Around the World in 80 Days
* ,38/10/30 ,  17 ,War of the Worlds
* ,38/11/06 ,  18 ,The Heart Of Darkness/Life With Father
* ,38/11/13 ,  19 ,A Passenger to Bali
* ,38/11/20 ,  20 ,Pickwick Papers
  ,38/11/27 ,  21 ,Clarence
  ,38/12/04 ,  22 ,Bridge of San Luis Rey
* ,38/12/09 ,  23 ,Rebecca
  ,38/12/16 ,  24 ,Call It A Day
  ,38/12/23 ,  25 ,A Christmas Carol
  ,38/12/30 ,  26 ,A Farewell To Arms
  ,39/01/06 ,  27 ,Counselor at Law
  ,39/01/13 ,  28 ,Mutiny On The Bounty
  ,39/01/20 ,  29 ,Chicken Wagon Family
  ,39/01/27 ,  30 ,I Lost My Girlish Laughter
  ,39/02/03 ,  31 ,Arrowsmith
  ,39/02/10 ,  32 ,Green Goddess
  ,39/02/17 ,  33 ,Burlesque
  ,39/02/24 ,  34 ,State Fair
  ,39/03/03 ,  35 ,Royal Regiment
  ,39/03/10 ,  36 ,The Glass Key
  ,39/03/17 ,  37 ,Beau Geste
  ,39/03/24 ,  38 ,Twentieth Century
  ,39/03/31 ,  39 ,Show Boat
  ,39/04/07 ,  40 ,Les Miserables
  ,39/04/14 ,  41 ,The Patriot
  ,39/04/21 ,  42 ,Private Lives
  ,39/04/28 ,  43 ,Black Daniel
  ,39/05/05 ,  44 ,Ordeal
  ,39/05/12 ,  45 ,Our Town
  ,39/05/19 ,  46 ,The Bad Man
  ,39/05/26 ,  47 ,American Cavalcade
  ,39/06/02 ,  48 ,Victoria Regina
  ,39/09/10 ,  49 ,Peter Ibbotsen
  ,39/09/17 ,  50 ,Ah, Wilderness
  ,39/09/24 ,  51 ,What Every Woman Wants
  ,39/10/01 ,  52 ,The Count Of Monte Cristo
  ,39/10/08 ,  53 ,Algiers
  ,39/10/15 ,  54 ,Escape
  ,39/10/22 ,  55 ,Lilliom
  ,39/10/29 ,  56 ,The Magnificent Ambersons
  ,39/11/05 ,  57 ,Hurricane
  ,39/11/12 ,  58 ,The Murder Of Roger Ackroyd
  ,39/11/19 ,  59 ,The Garden Of Allah
  ,39/11/26 ,  60 ,Dodsworth
  ,39/12/03 ,  61 ,Lost Horizon
  ,39/12/10 ,  62 ,Vanessa
  ,39/12/17 ,  63 ,There's A Woman
  ,39/12/24 ,  64 ,A Christmas Carol
  ,40/01/07 ,  65 ,Becky Sharp
  ,40/01/14 ,  66 ,Theadora Goes Wild
  ,40/01/21 ,  67 ,The Citadel
  ,40/01/28 ,  68 ,It Happened One Night
  ,40/02/04 ,  68 ,Broome Stages
  ,40/02/11 ,  69 ,Mr. Deeds Goes To Town
  ,40/02/18 ,  70 ,Dinner At Eight
  ,40/02/25 ,  71 ,Only Angels Have Wings
  ,40/03/03 ,  72 ,Rabble In Arms
  ,40/03/10 ,  73 ,Craig's Wife
