Exists, Date, #, Episode Name
  ,43/09/07 ,   1 ,Tell-Tale Heart (Log originally by Ray Standish)
  ,43/09/14 ,   2 ,The Flying Squad
  ,43/09/21 ,   3 ,The Leavenworth Case
  ,43/09/28 ,   4 ,Death Lights a Candle
  ,43/10/05 ,   5 ,Dark Eyes of London
  ,43/10/12 ,   6 ,Sunday Pigeon Murders
  ,43/10/19 ,   7 ,Murders in the Rue Morgue
  ,43/10/26 ,   8 ,Death in A Doll's House
  ,43/11/02 ,   9 ,The Big Sleep
  ,43/11/09 ,  10 ,Crime of Violence
  ,43/11/16 ,  11 ,Mourned on Sunday
  ,43/11/23 ,  12 ,File for Record
  ,43/11/30 ,  13 ,Remember The Night
  ,43/12/07 ,  14 ,Murder in the Madhouse
  ,43/12/14 ,  15 ,Lady in the Lake
  ,43/12/21 ,  16 ,Stalk the Hunter
* ,43/12/28 ,  17 ,Homicide for Hannah
  ,44/01/04 ,  18 ,The Mystery of the Seven Keys
  ,44/01/18 ,  19 ,Most Dangerous Game
  ,44/01/25 ,  20 ,Thursday Turkey Murders
  ,44/02/01 ,  21 ,Talent for Murder
  ,44/02/08 ,  22 ,The Crimson Circle
  ,44/02/15 ,  23 ,You Only Hang Once
  ,44/02/22 ,  24 ,The Gorgeous Ghoul Murder Case
  ,44/02/29 ,  25 ,Farewell, My Lovely
  ,44/03/07 ,  26 ,The Cat and the Canary
  ,44/03/14 ,  27 ,The Monkey's Paw
  ,44/03/21 ,  28 ,Going, Going, Gone
  ,44/03/28 ,  29 ,The Dead Don't Care
  ,44/04/04 ,  30 ,The Affair of the Splintered Heart
* ,44/04/11 ,  31 ,Criminal at Large
  ,44/04/18 ,  32 ,If I Die Before I Wake
  ,44/04/25 ,  33 ,Love from a Stranger
  ,44/05/02 ,  34 ,Murder Masks Miami
  ,44/05/09 ,  35 ,Sister of Cain
  ,44/05/16 ,  36 ,The Dain Curse
  ,44/05/23 ,  37 ,Home Sweet Homicide
  ,44/05/30 ,  38 ,Great Impersonation
  ,44/06/13 ,  39 ,Agony Column
* ,44/06/20 ,  40 ,Death Talks out of Turn
  ,44/06/27 ,  41 ,The Cat Saw Murder
  ,44/07/04 ,  42 ,Bunches of Knuckles
  ,44/07/11 ,  43 ,Murder Ad Lib
  ,44/07/18 ,  44 ,Gold Fish
* ,44/07/25 ,  45 ,Fifty Candles
  ,44/08/01 ,  46 ,Death in the Doghouse
  ,44/08/08 ,  47 ,The Mark of Gregory
  ,44/08/15 ,  48 ,Murder in Havana
  ,44/08/22 ,  49 ,The Case of the Talking Pillow
  ,44/08/29 ,  50 ,Crime Without Passion
  ,44/09/05 ,  51 ,Murder Through the Looking Glass
  ,44/09/12 ,  52 ,Give the Guy Rope
* ,44/09/19 ,  53 ,Murder in the City Hall
  ,44/09/26 ,  54 ,Death Rose
  ,44/10/03 ,  55 ,Insidious Dr Fu Manchu
  ,44/10/10 ,  56 ,The Wheel Spins
  ,44/10/17 ,  57 ,Murder Without Crime
* ,44/10/24 ,  58 ,Comic Strip Murder
  ,44/11/14 ,  59 ,The Interruption
* ,44/11/21 ,  60 ,The Dilemma
* ,44/11/28 ,  61 ,Nightmare
* ,44/12/05 ,  62 ,A Crime to Fit the Punishment
* ,44/12/12 ,  63 ,The Bottle Imp
* ,44/12/19 ,  64 ,The Man in the Velvet Hat
* ,44/12/26 ,  65 ,The Letter
  ,45/01/02 ,  66 ,Witness for the Prosecution
  ,45/01/09 ,  67 ,Too Busy Too Die
  ,45/01/16 ,  68 ,Rumor, Inc
  ,45/01/23 ,  69 ,Red Wine
* ,45/01/30 ,  70 ,Deadline at Dawn
  ,45/02/06 ,  71 ,The Hands of Mr Ottermoll
  ,45/02/13 ,  72 ,Two Sharp Knives
  ,45/02/20 ,  73 ,Mystery of the Blue Jar
* ,45/02/27 ,  74 ,Yours Truly, Jack the Ripper
* ,45/03/06 ,  75 ,The Man Who Murdered in Public
  ,45/03/13 ,  76 ,His Heart Could Break
  ,45/03/20 ,  77 ,After Dinner Story
  ,45/03/27 ,  78 ,The Gay Falcon
* ,45/04/03 ,  79 ,The Eleventh Juror
  ,45/04/10 ,  80 ,Journey into Fear
  ,45/04/17 ,  81 ,The Perfect Crime
* ,45/04/24 ,  82 ,Cask of Amontillado
  ,45/05/01 ,  83 ,The Clock
* ,45/05/15 ,  84 ,Lady in the Morgue
* ,45/05/22 ,  85 ,The Level Crossing
  ,45/05/29 ,  86 ,The Adaptive Ultimate
* ,45/06/05 ,  87 ,The Beckoning Fair One
* ,45/06/12 ,  88 ,Breakdown
* ,45/06/19 ,  89 ,The Gioconda Smile
* ,45/06/26 ,  90 ,Marijuana
  ,45/07/03 ,  91 ,Rex Sadler, Detective
* ,45/10/05 ,  92 ,Angel Face
* ,45/10/12 ,  93 ,A Death Is Caused
* ,45/10/19 ,  94 ,Leg Man
* ,45/10/26 ,  95 ,Ghost with the Gun
* ,45/11/02 ,  96 ,Who Took the Corpse
* ,45/11/09 ,  97 ,Not Quite Perfect
  ,45/11/16 ,  98 ,The Rat Is a Mouse
  ,45/11/23 ,  99 ,Post-Mortem
  ,45/12/07 , 100 ,Men from Yesterday
  ,45/12/14 , 101 ,I Wouldn't Be in Your Shoes
  ,45/12/21 , 102 ,The Doctor, His Wife, and the Clock
  ,45/12/28 , 103 ,Blind Man's Bluff
  ,46/01/04 , 104 ,The Blind Spot
  ,46/01/11 , 105 ,Dime a Dance
* ,46/01/18 , 106 ,Ladies in Retirement
* ,46/01/25 , 107 ,Burn, Witch, Burn
* ,46/02/01 , 108 ,Mathematics for Murder
  ,46/02/08 , 109 ,Comic Strip Murder
* ,46/02/15 , 110 ,Beautiful Silence
* ,46/02/22 , 111 ,Last Night
  ,46/03/01 , 112 ,Code #2
* ,46/03/08 , 113 ,Red Wine
  ,46/03/15 , 114 ,The Case of the Missing Mind
* ,46/03/22 , 115 ,Alibi for Murder
* ,46/03/29 , 116 ,The Creeper
* ,46/04/05 , 117 ,Murder in the City Hall
* ,46/04/12 , 118 ,Night Must Fall
* ,46/04/19 , 119 ,Follow That Cab
* ,46/04/26 , 120 ,The Doctor and the Lunatic
* ,46/05/03 , 121 ,Murder Without Crime
* ,46/05/10 , 122 ,The Further Adventures of Kenny Andrews
* ,46/05/17 , 123 ,Killer, Come Back to Me
* ,46/05/24 , 124 ,Goodbye, Darling
* ,46/05/31 , 125 ,Witness for the Prosecution
* ,46/06/07 , 126 ,Female of the Species
* ,46/06/14 , 127 ,Adventure of the Fallen Angels
* ,46/06/21 , 128 ,The Hands of Dr Ottermoll
  ,46/06/28 , 129 ,In the Balance
  ,46/07/05 , 130 ,The Puzzle of the Persian Piggy Bank
  ,46/07/12 , 131 ,Bury Me Dead
  ,46/07/19 , 132 ,Wake for a Lady
  ,46/07/26 , 133 ,Homicide, Unlimited
  ,46/08/02 , 134 ,The Man Who Murdered in Public
  ,46/08/09 , 135 ,Silent as the Grave
  ,46/08/16 , 136 ,The Wine Glass
* ,46/08/23 , 137 ,St Louis Woman
  ,46/08/30 , 138 ,Nightmare
  ,46/09/06 , 139 ,Ebbtide
  ,46/09/13 , 140 ,Now You See Her, Now You Don't
  ,46/09/20 , 141 ,Purgatory Street
* ,46/09/27 , 142 ,Two Men in a Furnished Room
  ,46/10/04 , 143 ,The Perfect Crime
  ,46/10/11 , 144 ,Black Alibi
  ,46/10/25 , 145 ,Surprise Witness
* ,46/11/01 , 146 ,The Rival Dummy
  ,46/11/08 , 147 ,Not Quite Perfect
  ,46/11/15 , 148 ,I Dreamed I Died
  ,46/11/22 , 149 ,Goodbye, Goodbye
* ,46/11/29 , 150 ,Radio Patrol
  ,46/12/06 , 151 ,Alias the Best Man
  ,46/12/13 , 152 ,The Steak Dinner
* ,46/12/20 , 153 ,Angel Face
  ,46/12/27 , 154 ,Squeeze Play
  ,47/01/03 , 155 ,A Study in Terror
  ,47/01/10 , 156 ,The Leopard Woman
* ,47/01/17 , 157 ,Corpus Delicti
  ,47/01/24 , 158 ,Blackmail
* ,47/02/07 , 159 ,The Bride Wore Black
* ,47/02/14 , 160 ,The Eleventh Juror
  ,47/02/21 , 161 ,The Third Witness
  ,47/02/28 , 162 ,Heavy Hangs the Head
  ,47/03/07 , 163 ,The Orphan Diamond
  ,47/03/14 , 164 ,Dime a Dance
  ,47/03/21 , 165 ,Don't Come Back Alive
* ,47/03/28 , 166 ,Triangle of Death
  ,47/04/04 , 167 ,The Squealer
* ,47/04/11 , 168 ,The Creeper
* ,47/04/18 , 169 ,Kenny 'Angles' Andrews Returns
  ,47/04/25 , 170 ,To the End of the World
  ,47/05/02 , 171 ,The Merry-Go-Round
  ,47/05/09 , 172 ,The Mystery of the Blue Jar
  ,47/05/16 , 173 ,Descent into Darkness
  ,47/05/23 , 174 ,The Sound of Death
* ,47/05/30 , 175 ,The Double-Cross
  ,47/06/06 , 176 ,The Beautiful Silence
  ,47/06/13 , 177 ,The Red Dog Murders
* ,47/06/27 , 178 ,Talk Them to Death
* ,47/07/04 , 179 ,Challenge to the Listener
  ,47/07/11 , 180 ,Bury Me Dead
  ,47/07/18 , 181 ,Chance
  ,47/07/25 , 182 ,Double Jeopardy
  ,47/08/01 , 183 ,Drop Me a Line
* ,47/08/08 , 184 ,Goodbye Darling
  ,47/08/15 , 185 ,Lease of Death
  ,47/08/22 , 186 ,Man Hunt
  ,47/08/29 , 187 ,Silent as the Grave
* ,47/09/05 , 188 ,Death Wears a Mask
* ,47/09/12 , 189 ,Death Goes Shopping
* ,47/09/19 , 190 ,Zelma's Boy
  ,47/09/26 , 191 ,Kiss Me Goodbye
  ,47/10/03 , 192 ,Night Must Fall
  ,47/10/10 , 193 ,Lucky Guy
  ,47/10/17 , 194 ,Rx for Murder
* ,47/10/31 , 195 ,Now You See Her, Now You Don't
  ,47/11/07 , 196 ,Primer for Murder
* ,47/11/14 , 197 ,The Four Fatal Jugglers
  ,47/11/21 , 198 ,Check B-131
* ,47/11/28 , 199 ,Two Men in a Furnished Room
  ,47/12/05 , 200 ,The World of Edmund Craig
  ,47/12/12 , 201 ,Four-Time Loser
  ,47/12/26 , 202 ,I Wouldn't Be in Your Shoes
  ,48/01/02 , 203 ,Yours Truly, Jack the Ripper
  ,48/01/09 , 204 ,Dig Your Own Grave
  ,48/01/16 , 205 ,The Last Laugh
  ,48/01/23 , 206 ,Nemesis
  ,48/01/30 , 207 ,Long Distance
* ,48/02/06 , 208 ,Triangle of Death
  ,48/02/13 , 209 ,The Long Count
  ,48/02/20 , 210 ,Murder Is a Matter of Opinion
  ,48/02/27 , 211 ,Double Disaster Clause
  ,48/03/05 , 212 ,The Earring
  ,48/03/12 , 213 ,The Pick-Up Killer
  ,48/03/19 , 214 ,The Great Mellagio
  ,48/03/26 , 215 ,A Question of Survival
* ,48/04/02 , 216 ,The Betrayer
  ,48/04/09 , 217 ,The House of a Thousand Doors
  ,48/04/16 , 218 ,Five Bullets for Baldwin
  ,48/04/23 , 219 ,Killer at Large
* ,48/04/30 , 220 ,Make No Mistake
  ,48/05/07 , 221 ,The Inescapable Corpse
* ,48/05/14 , 222 ,Close Shave
* ,48/05/21 , 223 ,Solo Performance
  ,48/05/28 , 224 ,Deadly Nuisance
  ,48/06/04 , 225 ,The Champ
  ,48/06/11 , 226 ,On Stage Murder
  ,48/06/18 , 227 ,Farewell Performance
* ,48/06/25 , 228 ,Doctor Discord
