Exists, Date, #, Episode Name
* ,39/04/02 ,   0 ,Promotional Show
* ,39/04/03 ,   1 ,The Milano Brothers
  ,39/04/04 ,   2 ,
  ,39/04/05 ,   3 ,
  ,39/04/06 ,   4 ,
* ,39/04/07 ,   5 ,The Restaurant Racket aka The Last Mile
  ,39/04/10 ,   6 ,
  ,39/04/11 ,   7 ,
  ,39/04/12 ,   8 ,
  ,39/04/13 ,   9 ,
  ,39/04/14 ,  10 ,
  ,39/04/17 ,  11 ,
  ,39/04/18 ,  12 ,
  ,39/04/19 ,  13 ,
  ,39/04/20 ,  14 ,
  ,39/04/21 ,  15 ,
  ,39/04/24 ,  16 ,
  ,39/04/25 ,  17 ,
  ,39/04/26 ,  18 ,
  ,39/04/27 ,  19 ,
  ,39/04/28 ,  20 ,
  ,39/05/01 ,  21 ,
  ,39/05/02 ,  22 ,
  ,39/05/03 ,  23 ,
  ,39/05/04 ,  24 ,
  ,39/05/05 ,  25 ,
  ,39/05/08 ,  26 ,
  ,39/05/09 ,  27 ,
  ,39/05/10 ,  28 ,
  ,39/05/11 ,  29 ,
  ,39/05/12 ,  30 ,
  ,39/05/15 ,  31 ,
  ,39/05/16 ,  32 ,
  ,39/05/17 ,  33 ,
  ,39/05/18 ,  34 ,
  ,39/05/19 ,  35 ,
  ,39/05/22 ,  36 ,
  ,39/05/23 ,  37 ,
  ,39/05/24 ,  38 ,
  ,39/05/25 ,  39 ,
  ,39/05/26 ,  40 ,
  ,39/05/29 ,  41 ,
  ,39/05/30 ,  42 ,
  ,39/05/31 ,  43 ,
  ,39/06/01 ,  44 ,
  ,39/06/02 ,  45 ,
  ,39/06/05 ,  46 ,
  ,39/06/06 ,  47 ,
  ,39/06/07 ,  48 ,
  ,39/06/08 ,  49 ,
* ,39/06/09 ,  50 ,The Ohio Kid
  ,39/06/12 ,  51 ,
* ,39/06/13 ,  52 ,The 100,000 Dollar Check
  ,39/06/14 ,  53 ,
  ,39/06/15 ,  54 ,
* ,39/06/16 ,  55 ,Case Of The Resturant Racket aka The Last Mile
  ,39/06/27 ,  56 ,
  ,39/07/04 ,  57 ,
  ,39/07/11 ,  58 ,
  ,39/07/18 ,  59 ,
  ,39/07/25 ,  60 ,
  ,39/08/01 ,  61 ,
  ,39/08/08 ,  62 ,
  ,39/08/15 ,  63 ,
  ,39/08/22 ,  64 ,
  ,39/08/29 ,  65 ,
  ,39/09/05 ,  66 ,
  ,39/09/12 ,  67 ,
  ,39/09/19 ,  68 ,
  ,39/10/01 ,  69 ,
  ,39/10/08 ,  70 ,
  ,39/10/15 ,  71 ,
  ,39/10/22 ,  72 ,
  ,39/10/29 ,  73 ,
  ,39/11/05 ,  74 ,
  ,39/11/12 ,  75 ,
  ,39/11/19 ,  76 ,
  ,39/11/26 ,  77 ,
  ,39/12/03 ,  78 ,
  ,39/12/10 ,  79 ,
  ,39/12/17 ,  80 ,
  ,39/12/24 ,  81 ,
  ,39/12/31 ,  82 ,
  ,40/01/07 ,  83 ,
  ,40/01/14 ,  84 ,
  ,40/01/21 ,  85 ,
  ,40/01/28 ,  86 ,
  ,40/02/04 ,  87 ,
  ,40/02/11 ,  88 ,
  ,40/02/18 ,  89 ,
  ,40/02/25 ,  90 ,
  ,40/03/03 ,  91 ,
  ,40/03/10 ,  92 ,
  ,40/03/17 ,  93 ,
  ,40/03/24 ,  94 ,
  ,40/03/31 ,  95 ,
  ,40/04/04 ,  96 ,
  ,40/04/11 ,  97 ,
  ,40/04/18 ,  98 ,
  ,40/04/25 ,  99 ,
  ,40/05/02 , 100 ,
  ,40/05/09 , 101 ,
  ,40/05/16 , 102 ,
  ,40/05/23 , 103 ,
  ,40/05/30 , 104 ,
  ,40/06/06 , 105 ,
  ,40/06/13 , 106 ,
  ,40/06/20 , 107 ,
  ,40/06/27 , 108 ,
  ,40/07/03 , 109 ,
  ,40/07/10 , 110 ,
  ,40/07/17 , 111 ,
  ,40/07/24 , 112 ,
  ,40/07/31 , 113 ,
  ,40/08/07 , 114 ,
  ,40/08/14 , 115 ,
  ,40/08/21 , 116 ,
  ,40/08/28 , 117 ,
  ,40/09/04 , 118 ,
  ,40/09/11 , 119 ,
  ,40/09/18 , 120 ,
  ,40/09/25 , 121 ,
  ,40/10/02 , 122 ,
  ,40/10/09 , 123 ,
  ,40/10/16 , 124 ,
  ,40/10/23 , 125 ,
  ,40/10/30 , 126 ,
  ,40/11/06 , 127 ,
  ,40/11/13 , 128 ,
  ,40/11/20 , 129 ,
  ,40/11/27 , 130 ,
  ,40/12/04 , 131 ,
  ,40/12/11 , 132 ,
  ,40/12/18 , 133 ,
  ,40/12/25 , 134 ,
  ,4x/xx/xx ,     ,Two Eccentric Old Ladies (Mystery Playhouse)
  ,41/01/01 , 135 ,
  ,41/01/08 , 136 ,
  ,41/01/15 , 137 ,
  ,41/01/22 , 138 ,
  ,41/01/29 , 139 ,
  ,41/02/05 , 140 ,
* ,41/02/12 , 141 ,The Man From Alcatraz
  ,41/02/19 , 142 ,
  ,41/02/26 , 143 ,
  ,41/03/05 , 144 ,
  ,41/03/12 , 145 ,
  ,41/03/19 , 146 ,
  ,41/03/26 , 147 ,
  ,41/04/02 , 148 ,
  ,41/04/09 , 149 ,
  ,41/04/16 , 150 ,
  ,41/04/23 , 151 ,
  ,41/04/30 , 152 ,
  ,41/05/07 , 153 ,
  ,41/05/14 , 154 ,
  ,41/05/21 , 155 ,
  ,41/05/28 , 156 ,
  ,41/06/04 , 157 ,
  ,41/06/11 , 158 ,
  ,41/06/18 , 159 ,
  ,41/06/25 , 160 ,
  ,41/07/02 , 161 ,
  ,41/07/09 , 162 ,Case of the Man in Black
  ,41/07/16 , 163 ,
  ,41/07/23 , 164 ,
  ,41/07/30 , 165 ,
  ,41/08/06 , 166 ,
  ,41/08/13 , 167 ,
  ,41/08/20 , 168 ,
  ,41/08/27 , 169 ,
  ,41/09/03 , 170 ,
  ,41/09/10 , 171 ,
  ,41/09/17 , 172 ,
  ,41/09/24 , 173 ,
  ,41/10/01 , 174 ,
  ,41/10/08 , 175 ,
  ,41/10/15 , 176 ,
  ,41/10/22 , 177 ,
  ,41/10/29 , 178 ,
  ,41/11/05 , 179 ,
  ,41/11/12 , 180 ,
  ,41/11/19 , 181 ,
  ,41/11/26 , 182 ,
  ,41/12/03 , 183 ,
* ,41/12/10 , 184 ,Case of the Priceless Miniature aka The Museum Mystery
  ,41/12/17 , 185 ,Case Of The Bitter Sweet
  ,41/12/24 ,     ,--- preempted for Red Cross show
  ,41/12/31 , 186 ,
  ,42/01/07 , 187 ,Case of the Blood Ruby
  ,42/01/14 , 188 ,Case of the Talking Corpse
  ,42/01/21 , 189 ,Case of the Rip Van Winkle Racketeer
  ,42/01/28 , 190 ,Case of the Death with Interest
  ,42/02/04 , 191 ,Case of the Saintly Sinners
  ,42/02/11 , 192 ,Case of the Knowing Child
  ,42/02/18 , 193 ,Case of the Vengeance Vittorlos
  ,42/02/25 , 194 ,Case of the Worst Double Cross
  ,42/03/04 , 195 ,Case of the Man Who Hated Red
  ,42/03/11 , 196 ,Case of the Man That Wouldn't Talk
  ,42/03/18 , 197 ,Case of the Deadly Spinster
  ,42/03/25 , 198 ,Case of the Unwelcome Guest
  ,42/04/01 , 199 ,Case of the White Walls
  ,42/04/08 , 200 ,Case of the Poker Death
  ,42/04/15 , 201 ,Case in a Wheel Chair
  ,42/04/22 , 202 ,Case of the Dangerous Hunch
  ,42/04/29 , 203 ,
  ,42/05/06 , 204 ,Case of the Whispered Word
  ,42/05/13 , 205 ,Case of the Big Fix
  ,42/05/20 , 206 ,Case of Murder in C-Sharp
  ,42/05/27 , 207 ,Case of the Death Cure
  ,42/06/03 , 208 ,Case of the Unlucky Horseshoe
  ,42/06/10 , 209 ,Case of the Ambitious Pickpocket
  ,42/06/17 , 210 ,Case of the Curious Fisherman
  ,42/06/24 , 211 ,
  ,42/07/01 , 212 ,Case of the Big Breakout
  ,42/07/08 , 213 ,Case of the Airport Robbery
  ,42/07/15 , 214 ,Case of the Last Witness
  ,42/07/22 , 215 ,Case of the Sweetest Story Ever Told
  ,42/07/29 , 216 ,Case of the Man on Top
* ,42/08/05 , 217 ,Case of the Talking Typewriter
  ,42/08/12 , 218 ,
* ,42/08/19 , 219 ,Case Of The Hijacked Worker
  ,42/08/26 , 220 ,Case of the Phoney Payoff
  ,42/09/02 , 221 ,Case of the Not So Empty House
  ,42/09/09 , 222 ,A Slight Case of Arson
  ,42/09/16 , 223 ,Case of the Wrong Colored Stamps
  ,42/09/23 , 224 ,Case of Too Many Faces
  ,42/09/30 , 225 ,Case of the Unwilling Suicide
  ,42/10/07 , 226 ,Case of the Runaway Corpse
  ,42/10/14 , 227 ,Case of the Easy Touch
  ,42/10/21 , 228 ,
  ,42/10/28 , 229 ,
  ,42/11/04 , 230 ,The Killer in Slacks
  ,42/11/11 , 231 ,Case of the Absent Worker
  ,42/11/18 , 232 ,Case of the Extra Cup of Coffee
  ,42/11/25 , 233 ,Case of the Spreaders of Doubt
  ,42/12/02 , 234 ,Case of the Madhouse Murder
  ,42/12/09 , 235 ,
  ,42/12/16 , 236 ,Case of the Extra Santa Claus
  ,42/12/23 , 237 ,Case of the Zoot Suit Killer
  ,42/12/30 , 238 ,Case of the Air-Tight Alibi
  ,43/01/06 , 239 ,Case of the King of the Black Markets
  ,43/01/13 , 240 ,
  ,43/01/20 , 241 ,Case of the Big Sneeze
  ,43/01/27 , 242 ,Case of the Talking Knave
* ,43/02/03 , 243 ,Case of the Backstage Murder
  ,43/02/10 , 244 ,Case of the Meat Hook Murder
  ,43/02/17 , 245 ,Case of the Hysterical Worker
  ,43/02/24 , 246 ,Case of the Part Time Patriot
  ,43/03/03 , 247 ,Case of the Shakedown Murder
  ,43/03/10 , 248 ,Case of the Curious Crystal Gazer
* ,43/03/17 , 249 ,Case of the Barnyard Bandit
  ,43/03/24 , 250 ,Case of the Weekend Murder
  ,43/03/31 , 251 ,Case of the Bantam Bandits
  ,43/04/07 , 252 ,Case of the Ration Stamp Murder
  ,43/04/14 , 253 ,Case of Rumor, Inc. - J. Edgar Hoover guest
  ,43/04/21 , 254 ,Case of the Bogus Sergeant
  ,43/04/28 , 255 ,Case of the Garden Weeds
  ,43/05/05 , 256 ,Case of the Talking Spirit
  ,43/05/12 , 257 ,Case of the Perfect Frameup
  ,43/05/19 , 258 ,Case of the Used Car Murders
  ,43/05/26 , 259 ,Case of the Campus Killers
  ,43/06/02 , 260 ,Case of the Innocent Hostages
  ,43/06/09 , 261 ,Case of the Seaside Murder
  ,43/06/16 , 262 ,Case of the Hi-Jacked Warehouse
  ,43/06/23 , 263 ,Case of the Poor Farm Murder
  ,43/06/30 , 264 ,Case of the War Bond Swindlers
  ,43/07/07 , 265 ,Case of the Man Who Died Twice
  ,43/07/14 , 266 ,Case of the Daughters of Crime
  ,43/07/21 , 267 ,Case of the Turned Back Clock
  ,43/07/28 , 268 ,
  ,43/08/04 , 269 ,The Case of the Meanest Racket in the World
  ,43/08/11 , 270 ,
  ,43/08/18 , 271 ,
  ,43/08/25 , 272 ,Case of the Floating Corpse
  ,43/09/01 , 273 ,
  ,43/09/08 ,     ,--- preempted for Opening of Third War Loan Drive
  ,43/09/15 , 274 ,Case of the Missing Mark
  ,43/09/22 , 275 ,Case of the Murderous Mother-in-Law
  ,43/09/29 , 276 ,Case of the Artful Draft Dodger
  ,43/10/06 , 277 ,Case of the Gaslight Murder
  ,43/10/13 , 278 ,Case of the Allotment Swindle
  ,43/10/20 , 279 ,Case of the Fatal Rose
  ,43/10/27 , 280 ,Case of the Election Frameup
  ,43/11/03 , 281 ,Case of the Book of Death
  ,43/11/10 , 282 ,Case of the Fan Club Murder
  ,43/11/17 , 283 ,Case of the Underground Murder
  ,43/11/24 , 284 ,Case of the Whiskey Scandal
  ,43/12/01 , 285 ,Case of the War Against Talk
  ,43/12/08 , 286 ,Case of the Christmas Scandal
  ,43/12/15 , 287 ,Case of the Fighting Worker
  ,43/12/22 , 288 ,Case of the False Documents
  ,43/12/29 , 289 ,Case of the Traveling Corpse
  ,44/01/05 , 290 ,Case of The Ski Trail Murder
  ,44/01/12 , 291 ,Case of the Educated Thief
  ,44/01/19 , 292 ,The Case of the Ration Point King
  ,44/01/26 , 293 ,
  ,44/02/02 , 294 ,The Case of the Wayward Children
  ,44/02/09 , 295 ,Case of the Graveyard Swindle
  ,44/02/16 , 296 ,Case of the Stolen Doll
  ,44/02/23 , 297 ,Case of the Man Outside
  ,44/03/01 , 298 ,Case of the Breeders of Hate
  ,44/03/08 , 299 ,
  ,44/03/15 , 300 ,
  ,44/03/22 , 301 ,The Case of the Nazi Fugitive
  ,44/03/29 , 302 ,
  ,44/04/05 , 303 ,
  ,44/04/12 ,     ,--- preempted for Academy of Political Science dinner
  ,44/04/19 , 304 ,
* ,44/04/26 , 305 ,The Case of the Misguided Mothers
  ,44/05/03 , 306 ,
  ,44/05/10 , 307 ,Case of the Stolen Masterpiece
  ,44/05/17 , 308 ,
  ,44/05/24 , 309 ,Case of the Fraudulent Letter
  ,44/05/31 , 310 ,
  ,44/06/07 , 311 ,
  ,44/06/14 , 312 ,Case of the Invasion Swindle
  ,44/06/21 , 313 ,Case of the Temperamental Thief
  ,44/06/28 , 314 ,Case of the Curious Crystal Gazer
  ,44/07/05 , 315 ,Case of the Scientific Heart Failure
  ,44/07/12 , 316 ,
  ,44/07/19 , 317 ,Case of the Children of Crime
  ,44/07/26 , 318 ,Case of the Honeymoon Murders
* ,44/08/02 , 319 ,The Case Of The Curious Undertaker
  ,44/08/09 , 320 ,Case of the El Train Murder
  ,44/08/16 , 321 ,The Case of the Coin Shoe
* ,44/08/23 , 322 ,The Case Of The Intimidated Jury aka Mr. Stanley's Jury Is Fixed
  ,44/08/30 , 323 ,Case of the Lonely Hearts Club
  ,44/09/06 , 324 ,Case of the Telltale Button
  ,44/09/13 , 325 ,
  ,44/09/20 , 326 ,
  ,44/09/27 , 327 ,
  ,44/10/04 ,     ,--- preempted for Republican National Committee
  ,44/10/11 , 328 ,
  ,44/10/18 , 329 ,The Case of the Delinquent Parent
  ,44/10/25 , 330 ,The Case of the Ready Made Doctors
  ,44/11/01 ,     ,---  Preempted for Republican National Committee
  ,44/11/08 , 331 ,
  ,44/11/15 , 332 ,Case of the Love Charm Worker
  ,44/11/22 , 333 ,
  ,44/11/29 , 334 ,The Case of the Cigarette Swindle
  ,44/12/06 , 335 ,
  ,44/12/13 , 336 ,Case of the Fastidious Firebug
  ,44/12/20 , 337 ,Case of the Peddlers of Prejudice
  ,44/12/27 , 338 ,
  ,45/01/03 , 339 ,
  ,45/01/10 , 340 ,Case of the Unemployed Horse Player
  ,45/01/17 , 341 ,
  ,45/01/24 , 342 ,Case of the Phony Photographer
  ,45/01/31 , 343 ,Case of the Black Market Baby
* ,45/02/07 , 344 ,The Case Of The Hospital Homicide
* ,45/02/14 , 345 ,Case Of The Stolen Slot Machines
  ,45/02/21 , 346 ,Case Of The Boogie Woogie Murder
  ,45/02/28 , 347 ,Case of Too Many Cigarettes
  ,45/03/07 , 348 ,Case of the Innocent Speakeasy
  ,45/03/14 , 349 ,Case of the Profit  by Prejudice
  ,45/03/21 , 350 ,
  ,45/03/28 , 351 ,Case of the Nostalgic Con Man
  ,45/04/04 , 352 ,Case of the Gruesome Dummy
  ,45/04/11 , 353 ,Case of the Cut Rate Babies
  ,45/04/18 , 354 ,The Case of the Unsuccessful Frame-Up
  ,45/04/25 , 355 ,The Case of the Peddlers of Peace
  ,45/05/02 , 356 ,The Case of the Unhappy Press Agent
  ,45/05/09 , 357 ,The Case of the Cut Rate Stamps
  ,45/05/16 , 358 ,The Case of the Impossible Suicide
  ,45/05/23 , 359 ,The Case of the Haunted House
  ,45/05/30 , 360 ,The Case of the Two Meanest Men in the World
  ,45/06/06 , 361 ,The Case of the Odd Doctor
  ,45/06/13 , 362 ,The Case of the Angel's Chickens
  ,45/06/20 , 363 ,The Case of the Mournful Dog
  ,45/06/27 , 364 ,The Case of the Wise Mother
  ,45/07/04 , 365 ,The Case of the Peculiar General Store
  ,45/07/11 , 366 ,The Case of the Perfumed Corpse
  ,45/07/18 , 367 ,The Case of the Pawnshop Murder
  ,45/07/25 , 368 ,The Case of the Unexpected Murder
  ,45/08/01 , 369 ,The Case of the Star Spangled Racketeer
  ,45/08/08 , 370 ,The Case of the Murderous Misers
  ,45/08/15 , 371 ,--- (SYNOPSIS - phoney school racket to get GI bill funds)
  ,45/08/22 , 372 ,The Case of the Old-Fashioned Murder
  ,45/08/29 , 373 ,The Case of the Traveling Rat
  ,45/09/05 , 374 ,The Case of the Vicious Victim
  ,45/09/12 , 375 ,The Case of the Evil Schemer
  ,45/09/19 , 376 ,The Case of the Man Who Came Back
  ,45/09/26 , 377 ,Case of the Midnight Murder
  ,45/10/03 , 378 ,Case of the Foolproof Fix
  ,45/10/10 , 379 ,Case of the Backstage Killer
  ,45/10/17 , 380 ,Case of the Deathly Welcome
  ,45/10/24 , 381 ,Case of the Sinister Swami
  ,45/10/31 , 382 ,Case of Death a La Carte
  ,45/11/07 , 383 ,The Case of the Death and Taxes
  ,45/11/14 , 384 ,The Case of the Lighted Lamp
  ,45/11/21 , 385 ,The Case of the Man Who Wanted Everything
  ,45/11/28 , 386 ,The Case of the Deadly Trapeze
* ,45/12/05 , 387 ,The Case of the Out-of-Town Thief
  ,45/12/12 , 388 ,The Case of the Learned Louser
  ,45/12/19 , 389 ,The Case of the Wrong Way to Die
  ,45/12/26 , 390 ,The Case of 'One Creature Was Stirring'
  ,46/01/02 , 391 ,The Case of No Money to You
  ,46/01/09 , 392 ,The Case of Three Steps to Death
  ,46/01/16 , 393 ,The Case of Sigma Heil
  ,46/01/23 , 394 ,The Case of the Last Drink on the House
  ,46/01/30 , 395 ,The Case of the Overly Fond Husband
  ,46/02/06 , 396 ,The Case of the Homing Pigeon
  ,46/02/13 , 397 ,The Case of the Old-fashioned Valentine
  ,46/02/20 , 398 ,The Case of the Two O'Clock Scholar
  ,46/02/27 , 399 ,The Case of the Scarlet Snowbank
  ,46/03/06 , 400 ,The Case of Death in Escrow
* ,46/03/13 , 401 ,The Case of the Deadly Train
  ,46/03/20 , 402 ,The Case of the Dangerous Clown
  ,46/03/27 , 403 ,The Case of Mother Goose's Children
  ,46/04/03 , 404 ,The Case of Unlicensed Death
  ,46/04/10 , 405 ,The Case of Needless Death
  ,46/04/17 ,     ,--- preempted for Chester Bowlen talk on Price Control Bill
  ,46/04/24 , 406 ,The Case of Murder with Love
  ,46/05/01 , 407 ,The Case of Death out of Season
  ,46/05/08 , 408 ,The Case of Murder in the Mailbox
  ,46/05/15 , 409 ,The Case of Onward and Upward to Murder
  ,46/05/22 , 410 ,The Case of the Scientific Crime
  ,46/05/29 , 411 ,The Case of Murder at Eight Bells
* ,46/06/05 , 412 ,The Case of Baby, Cradle, and All
  ,46/06/12 , 413 ,The Case of One Brother Left the Bond
  ,46/06/19 , 414 ,The Case of Sympathy C.O.D.
  ,46/06/26 , 415 ,The Case of the Blood-Stained Job
  ,46/07/03 , 416 ,The Case of Death Picked up the Option
  ,46/07/10 , 417 ,The Case of Murder on Cosmo Mountain
  ,46/07/17 , 418 ,The Case of the Tunnel of Death
  ,46/07/24 , 419 ,The Case of Everything but Love
  ,46/07/31 , 420 ,The Case of Atom and Evil
  ,46/08/07 , 421 ,The Case of the Soup Got Cold
  ,46/08/14 , 422 ,The Case of Detour to Death
  ,46/08/21 , 423 ,The Case of the Meanest Story Ever Told
  ,46/08/28 , 424 ,The Case of the Conference of Killers
  ,46/09/04 , 425 ,The Case of the Wrong Servant in the House
  ,46/09/11 , 426 ,The Case of a Warning to Veterans
  ,46/09/18 , 427 ,The Charming Killer
  ,46/09/25 , 428 ,The Case of the Last Chance at the Easy Money
  ,46/10/02 , 429 ,The Case of the Fountain of Death
  ,46/10/09 , 430 ,The Case of Very Sincerely Yours
  ,46/10/16 , 431 ,The Case of Right This Way to Murder
  ,46/10/23 , 432 ,The Case of They All Died Laughing
  ,46/10/30 , 433 ,The Case of the Man Who
  ,46/11/06 , 434 ,The Case of Before & After
  ,46/11/13 , 435 ,The Case of All Work Guaranteed
  ,46/11/20 , 436 ,The Case of the Blind Date with Murder
  ,46/11/27 , 437 ,The Case of Rockabye Murder
  ,46/12/04 , 438 ,The Case of the Too Rich, Too Long
  ,46/12/11 , 439 ,The Case of Three Squares a Day
  ,46/12/18 , 440 ,The Case of Too Quick on the Draw
  ,46/12/25 , 441 ,Case of Two Drumsticks
  ,47/01/01 , 442 ,The Case of the Unhappy New Year
  ,47/01/08 , 443 ,The Case of Sunshine and Larceny
  ,47/01/15 , 444 ,The Case of Ten Easy Lessons
  ,47/01/22 , 445 ,The Case of Past, Present, but No Future
  ,47/01/29 , 446 ,The Case of the Lonely Killer
  ,47/02/05 , 447 ,The Case of JP Didn't Have It
  ,47/02/12 , 448 ,The Case of the Unholy Reunion
  ,47/02/19 , 449 ,The Case of a Boy's Best Friend
  ,47/02/26 , 450 ,The Case of the Sickly Spider
  ,47/03/05 , 451 ,The Case of the Blundering Victim
  ,47/03/12 , 452 ,The Case of Pay-Day Never Came
  ,47/03/19 , 453 ,The Case of Purification By Fire
  ,47/03/26 , 454 ,The Case of the Deserted Boat-Yard
  ,47/04/02 , 455 ,The Case of the Psychic Eye
  ,47/04/09 , 456 ,The Case of the Name That Would Not Die
  ,47/04/16 , 457 ,The Case of When the Pie Was Opened
  ,47/04/23 , 458 ,The Case of the Other Cheek
  ,47/04/30 , 459 ,The Case of Something Good in the Fifth
* ,47/05/07 , 460 ,The Case of One Slip Meant Death
  ,47/05/14 , 461 ,The Case of Perpetual Care
  ,47/05/21 , 462 ,The Case of Death Takes a Bow
  ,47/05/28 , 463 ,The Case of Death in Green
  ,47/06/04 , 464 ,The Case of the Last Survivor
  ,47/06/11 , 465 ,The Case of the Hungry Killer
  ,47/06/18 , 466 ,The Case of Death Checked a Hat
  ,47/06/25 , 467 ,The Case of the Melody Murders
  ,47/07/02 , 468 ,The Case of to the Manner Born
  ,47/07/09 , 469 ,The Case of the Voice Murder
  ,47/07/16 , 470 ,The Case of the Corrupted Community
  ,47/07/23 , 471 ,The Case of Cabin of Death
  ,47/07/30 , 472 ,The Case of the Frightened Killer
  ,47/08/06 , 473 ,The Case of the Two Lonely Hearts
  ,47/08/13 , 474 ,The Case of the Guilty Conscience
  ,47/08/20 , 475 ,The Case of the Haunted Castle
  ,47/08/27 , 476 ,The Case of All's Fair in Love --- and Murder
  ,47/09/03 , 477 ,The Case of the Handsome Fool
  ,47/09/10 , 478 ,The Case of One, Two, Three Kick
  ,47/09/17 , 479 ,The Case of Not Quite a Murderer
  ,47/09/24 , 480 ,The Case of High, Wide, and Handsome
  ,47/10/01 , 481 ,The Case of the Thorn Boy
  ,47/10/08 , 482 ,The Case of Two Evil People
  ,47/10/15 , 483 ,The Case of Against the Wall
  ,47/10/22 , 484 ,The Case of the Breaking Point
  ,47/10/29 , 485 ,The Case of the Outside World
  ,47/11/05 , 486 ,Case of the Bad Public Servant
  ,47/11/12 , 487 ,The Case of the Murder Farm
  ,47/11/19 , 488 ,The Case of the Bell of Death
  ,47/11/26 , 489 ,The Case of the Ambitious Racketeer
  ,47/12/03 , 490 ,The Case of the Date with Death
  ,47/12/10 , 491 ,The Case of Death on Wax
  ,47/12/17 , 492 ,The Case of the Unlucky Con Man
  ,47/12/24 , 493 ,The Case of Home for Christmas
  ,47/12/31 , 494 ,The Case of the Clean Slate
  ,48/01/07 , 495 ,The Case of the Bent Twig
  ,48/01/14 , 496 ,The Case of the Blue Hand
  ,48/01/21 , 497 ,Case of the Bungling Booster
  ,48/01/28 , 498 ,Case of Death in the Open Air
  ,48/02/04 , 499 ,The Case of the Deadly Apron Strings
  ,48/02/11 , 500 ,Case of Strictly Business
  ,48/02/18 , 501 ,Case of the Half Wolf
  ,48/02/25 , 502 ,Case of the Grave Mistake
  ,48/03/03 , 503 ,The Case of the Key That Kills
  ,48/03/10 , 504 ,The Case of the Deadly Mouse
* ,48/03/17 , 505 ,The Case of Murder in Rhythm and Rhyme
  ,48/03/24 , 506 ,The Case of the Grand Old Man
  ,48/03/31 , 507 ,The Case of the Deadly Hog
  ,48/04/07 , 508 ,The Case of the Little List
  ,48/04/14 , 509 ,The Case of the Reluctant Bad Man
  ,48/04/21 , 510 ,The Case of the Small Cannon
  ,48/04/28 , 511 ,The Case of the Flop Man
* ,48/05/05 , 512 ,The Case of the Sinister Cinema
  ,48/05/12 , 513 ,The Case of Service in Silver
* ,48/05/19 , 514 ,The Case of Spring Fever
* ,48/05/26 , 515 ,The Case of the Deadly Snowflake
  ,48/06/02 , 516 ,The Case of the House of Death
  ,48/06/09 , 517 ,The Case of Monumental Murder
  ,48/06/16 , 518 ,The Case of the Iron Maiden
  ,48/06/23 , 519 ,The Case of the Deadly Answer
  ,48/06/30 , 520 ,The Case of the Green Star Knights
  ,48/07/07 , 521 ,The Case of Golden Bell Mountain
  ,48/07/14 ,     ,--- preempted for Democratic National Convention
  ,48/07/21 , 522 ,The Case of the Athletic Louse
  ,48/07/28 , 523 ,The Case of the Deadly Letter Office
  ,48/08/04 , 524 ,The Case of the Lucky Lady
  ,48/08/11 , 525 ,The Case of the Yellow Death
  ,48/08/18 , 526 ,Case of the Good Cause
* ,48/08/25 , 527 ,The Case of the Unknown Source
  ,48/09/01 , 528 ,The Case of the Wrong Kind of Honor
  ,48/09/08 , 529 ,The Case of One of the Fellows
  ,48/09/15 , 530 ,The Case of the Foolproof Getaway
  ,48/09/22 , 531 ,The Case of the One Grain of Truth
  ,48/09/29 , 532 ,The Case of the Moldy Money
  ,48/10/06 ,     ,--- preempted for Democratic National Convention
  ,48/10/13 , 533 ,The Case of Force and Violence
  ,48/10/20 , 534 ,The Case of the Last Rite
  ,48/10/27 , 535 ,The Case of Too Many Clues
  ,48/11/03 , 536 ,The Case of the Wrong Millionaire
  ,48/11/10 , 537 ,The Case of Murder and Son
  ,48/11/17 , 538 ,The Case of the Dead Man Talked
  ,48/11/24 , 539 ,The Case of the Unmurdered Corpse
  ,48/12/01 , 540 ,The Case of No Ordinary Murder
  ,48/12/08 , 541 ,The Case of Lucky Johnny
  ,48/12/15 , 542 ,The Case of Larry's Aunt
  ,48/12/22 , 543 ,The Case of Half-Way Home for Christmas
  ,48/12/29 , 544 ,The Case of the Short New Year
  ,49/01/05 , 545 ,The Case of the Hot Plug
  ,49/01/12 , 546 ,The Case of Danny's Boy
  ,49/01/19 , 547 ,The Case of Friendly Farm
  ,49/01/26 , 548 ,The Case of the Bull Sees Red
  ,49/02/02 , 549 ,The Case of the High Fever
  ,49/02/09 , 550 ,The Case of Downbeat to Death
  ,49/02/16 , 551 ,The Case of Double Jeopardy
  ,49/02/23 , 552 ,The Case of the Grip of Death
  ,49/03/02 , 553 ,The Case of the Weakest Wall
* ,49/03/09 , 554 ,The Case of Murder a la Carte
  ,49/03/16 , 555 ,Send the Homeless
  ,49/03/23 , 556 ,Case of the Bar of Soap
  ,49/03/30 , 557 ,Case of the Tough Little Apple
  ,49/04/06 , 558 ,Case of It Isn't Money
  ,49/04/13 , 559 ,The Case of the Telltale Clip
  ,49/04/20 , 560 ,Rule of Three
  ,49/04/27 , 561 ,The Case of the Dear Dead Days
  ,49/05/04 , 562 ,The Case of the Foul Fish
  ,49/05/11 , 563 ,The Case of No Law
  ,49/05/18 , 564 ,The Case of the Panel of Death
  ,49/05/25 , 565 ,The Case of the Wrong Secret
  ,49/06/01 , 566 ,The Case of Murder 28
  ,49/06/08 , 567 ,The Case of the Deadly Rabbit
  ,49/06/15 , 568 ,The Case of the Bicycle Built for Death
  ,49/06/22 , 569 ,The Case of High Octane Murder
  ,49/06/29 , 570 ,There Came a Viper
  ,49/07/06 , 571 ,The Case of the Bent Nail
  ,49/07/13 , 572 ,The Case of the All-Time High
  ,49/07/20 , 573 ,The Case of High Priced Death
  ,49/07/27 , 574 ,The Case of the Big Chance
  ,49/08/03 , 575 ,The Case of the Fatal Fix
  ,49/08/10 , 576 ,The Case of 'X' Marks the Spot
  ,49/08/17 , 577 ,The Case of the Red Robin
  ,49/08/24 , 578 ,The Case of Bon Voyage
  ,49/08/31 , 579 ,As Ye Sow
  ,49/09/07 , 580 ,The Case of the Wedding Night
  ,49/09/14 , 581 ,The Case of the Young and Fair
  ,49/09/21 , 582 ,The Case of Cut-Rate Death
  ,49/09/28 , 583 ,The Case of There's No Fool
  ,49/10/05 , 584 ,The Case of the Difference
* ,49/10/12 , 585 ,The Case of Charity Never Began
  ,49/10/19 , 586 ,The Case of the Red Leather Kid
  ,49/10/26 , 587 ,The Case of Shake the Stranger
  ,49/11/02 , 588 ,The Case of Death in Black Satin
  ,49/11/09 , 589 ,The Case of One Easy Lesson
  ,49/11/16 , 590 ,The Case of the Prime of Death
* ,49/11/23 , 591 ,The Case of Free Play
  ,49/11/30 , 592 ,The Case of the Kid in Kilts
  ,49/12/07 , 593 ,The Case of Night Years
  ,49/12/14 , 594 ,The Case of My Brother's Keeper
  ,49/12/21 , 595 ,The Case of a Present for Jim
  ,49/12/28 , 596 ,The Case of the Hot Seal
  ,50/01/04 , 597 ,The Case of the Wheels of Death
  ,50/01/11 , 598 ,The Case of the Clean and Easy
  ,50/01/18 , 599 ,The Case of 1000 Percent
  ,50/01/25 , 600 ,The Case of Two on the Aisle
  ,50/02/01 , 601 ,The Case of Johnny Came Home
  ,50/02/08 , 602 ,The Case of the Channel of Death
  ,50/02/15 , 603 ,The Case of the Big One
  ,50/02/22 , 604 ,The Case of the Moment in Red
  ,50/03/01 , 605 ,The Case of the Ill Wind
  ,50/03/08 , 606 ,The Case of the Wrong Idea
  ,50/03/15 , 607 ,The Case of the Fatal Interview
  ,50/03/22 , 608 ,The Case of the Hangman
  ,50/03/29 , 609 ,Case of the Homecoming
  ,50/04/05 , 610 ,Case of the Heart of Gold
  ,50/04/12 , 611 ,Case of the Ring of Death
  ,50/04/19 , 612 ,The Case of the Proud Parents
  ,50/04/26 , 613 ,The Case of This Is No Time for Junior
  ,50/05/03 , 614 ,The Case of the Two-Bit Difference
  ,50/05/10 , 615 ,The Case of the Ghouls
* ,50/05/17 , 616 ,The Case of Deadly Devotion
  ,50/05/24 , 617 ,The Case of the Teen Aged Terror
  ,50/05/31 , 618 ,The Case of Home to Roost
  ,50/06/07 , 619 ,The Case of All But Two
  ,50/06/14 , 620 ,Death in White Flannels
  ,50/06/21 , 621 ,The Case of Blow the Whistle
  ,50/06/28 , 622 ,The Case of the Deadly Dancer
  ,50/07/05 , 623 ,The Case of High Test Death
  ,50/07/12 , 624 ,The Case of Death Marked Down
  ,50/07/19 , 625 ,The Case of the Deadly Deal
  ,50/07/26 , 626 ,The Case of Ten Gallon Death
  ,50/08/02 , 627 ,The Case of Death in the Night
  ,50/08/09 , 628 ,The Case of Dancing Death
  ,50/08/16 , 629 ,The Case of the Deadly Coachman
  ,50/08/23 , 630 ,The Case of the Pebble of Death
  ,50/08/30 , 631 ,The Case of Deep Water
  ,50/09/06 , 632 ,The Case of the Hidden Office
  ,50/09/13 , 633 ,The Case of the Crooked Thumb
  ,50/09/20 , 634 ,Case of the Talking Pica-Pica
  ,50/09/27 , 635 ,The Case of the Cameo Locket
  ,50/10/04 , 636 ,Case of the Farewell Performance
  ,50/10/11 , 637 ,Case of the Four Steps to Death
  ,50/10/18 , 638 ,Case of the Deadly Green Hill
  ,50/10/25 , 639 ,Case of the Blue Thumb
  ,50/11/01 , 640 ,The Case of the Silent Victim
  ,50/11/08 , 641 ,The Case of Against the Middle
  ,50/11/15 , 642 ,The Case of the Highest Bidder
  ,50/11/22 , 643 ,Case of the Sentimental Double Cross
  ,50/11/29 , 644 ,The Case of the Evil Crawl
  ,50/12/06 , 645 ,The Case of the Hoods
  ,50/12/13 , 646 ,The Case of the Wrong Revenge
  ,50/12/20 , 647 ,The Case of the Three Un-Wise Men
  ,50/12/27 , 648 ,The Case of the Fatal Point-Out
  ,51/01/03 , 649 ,Case of the Ugly Picture
  ,51/01/10 , 650 ,The Case of Pure Panic
  ,51/01/17 , 651 ,The Case of the Costly Mistake
  ,51/01/24 , 652 ,The Case of the Deadly Chance
  ,51/01/31 , 653 ,The Case of the Expensive Witness
  ,51/02/07 , 654 ,
  ,51/02/14 , 655 ,The Case of the Deadly Angel
  ,51/02/21 , 656 ,Case of the Deadly Light
  ,51/02/28 , 657 ,Case of Death in White Satin
  ,51/03/07 , 658 ,The Case of Enough Rope
  ,51/03/14 , 659 ,The Case of Two Looks at Henry
  ,51/03/21 , 660 ,The Case of One Mistake
  ,51/03/28 , 661 ,The Case of the Red Rain
  ,51/04/04 , 662 ,The Case of the Simple Life
* ,51/04/11 , 663 ,Case of the Money Machine
  ,51/04/18 , 664 ,The Case of Scared to Death
  ,51/04/25 , 665 ,Case of a Deadly Mushroom
  ,51/05/02 , 666 ,The Case of Adam and Evil
  ,51/05/09 , 667 ,The Case of Keep Happy
  ,51/05/16 , 668 ,The Case of the Punk
  ,51/05/23 , 669 ,Case of a Little Imagination
  ,51/05/30 , 670 ,The Case of Backfire
  ,51/06/06 , 671 ,Reunion with Death
  ,51/06/13 , 672 ,Case of the Dealer in Death
  ,51/06/20 , 673 ,Case of the Reluctant Chicken
  ,51/06/27 , 674 ,The Case of the Deadly Couch
  ,51/07/04 , 675 ,The Case of the Last One
  ,51/07/11 , 676 ,The Case of the Last Break
  ,51/07/18 , 677 ,The Case of the Cop Killer
* ,51/07/25 , 678 ,The Case of Mother's Helper
  ,51/08/01 , 679 ,The Case of the Worst Best Man
  ,51/08/08 , 680 ,The Case of the Target
  ,51/08/15 , 681 ,The Case of Mr Know-It-All
  ,51/08/22 , 682 ,The Case of Change for a Hundred
  ,51/08/29 , 683 ,The Case of the Revolving Worm
  ,51/09/05 , 684 ,The Case of Blue Boy
  ,51/09/12 , 685 ,The Case of Death on the Half-Shell
* ,51/09/28 , 686 ,-- eccentric businessman tries suicide, fails --
  ,51/10/05 , 687 ,
  ,51/10/12 , 688 ,
  ,51/10/19 , 689 ,
  ,51/10/26 , 690 ,
  ,51/11/02 , 691 ,
  ,51/11/09 , 692 ,
  ,51/11/16 , 693 ,
  ,51/11/23 , 694 ,
  ,51/11/30 , 695 ,
  ,51/12/07 , 696 ,
  ,51/12/14 , 697 ,
  ,51/12/21 , 698 ,
  ,51/12/28 , 699 ,
  ,52/01/04 , 700 ,
  ,52/01/11 , 701 ,
  ,52/01/18 , 702 ,
  ,52/01/25 , 703 ,
  ,52/02/01 , 704 ,
  ,52/02/08 , 705 ,
  ,52/02/15 , 706 ,
  ,52/02/22 , 707 ,
  ,52/02/29 , 708 ,
  ,52/03/07 , 709 ,
  ,52/03/14 , 710 ,
  ,52/03/21 , 711 ,
  ,52/03/28 , 712 ,
  ,52/04/04 , 713 ,
  ,52/04/11 , 714 ,
  ,52/04/18 , 715 ,
  ,52/04/25 , 716 ,
  ,52/05/02 , 717 ,
  ,52/05/09 , 718 ,
  ,52/05/16 , 719 ,
  ,52/05/23 , 720 ,
  ,52/05/30 , 721 ,
  ,52/06/06 , 722 ,
  ,52/06/13 , 723 ,
* ,52/08/10 ,   1 ,Case of the Hijack Killer
* ,52/08/17 ,   2 ,Case of the Supermarket Killer
* ,52/08/24 ,   3 ,Case of the Man on the Ledge
* ,52/08/31 ,   4 ,Case of the 15 Year Old Trail
* ,52/09/07 ,   5 ,Case of the Joy Ride Murder
* ,52/09/14 ,   6 ,Case of the Murderous Hitchhiker
  ,52/09/21 ,   7 ,
  ,52/09/28 ,   8 ,
  ,52/10/05 ,   9 ,
  ,52/10/12 ,  10 ,
* ,52/10/19 ,  11 ,Case of the Staircase Killer
* ,52/10/26 ,  12 ,Case of the Charity Killer
* ,52/11/02 ,  13 ,Case of the Hit and Run Killer
* ,52/11/09 ,  14 ,Case of the Desert Killer
* ,52/11/16 ,  15 ,Case of the Missing Corpse
* ,52/11/23 ,  16 ,Case of the Bank Killer
* ,52/11/30 ,  17 ,Case of the Knifing in the Park
* ,52/12/07 ,  18 ,Case of the Hungry Hobo
* ,52/12/14 ,  19 ,The Man Who Confessed
* ,52/12/21 ,  20 ,The Hot Rod Killer
* ,52/12/28 ,  21 ,The Vanishing Runner
* ,52/xx/xx ,     ,Case of the Church Social Stabbing
* ,52/xx/xx ,     ,Case of the Hidden Money Killer
* ,53/01/04 ,  22 ,The Murder Syndicate
* ,53/01/11 ,  23 ,Case of the Lady Gamblers
* ,53/01/18 ,  24 ,Case of the Blood Harvest
* ,53/01/25 ,  25 ,Case of the Motorcycle Club Killer
* ,53/02/01 ,  26 ,Case of the Man with the Gold Teeth
* ,53/02/08 ,  27 ,Case of Death by Adoption
* ,53/02/15 ,  28 ,Case of the Cop Killer
* ,53/02/22 ,  29 ,Case of the Blackmail Murder
* ,53/03/01 ,  30 ,Case of the Frying Pan Murder
* ,53/03/08 ,  31 ,Case of the Murderous Junkman
* ,53/03/15 ,  32 ,Case of the Lover's Lane Killing
  ,53/03/22 ,  33 ,
  ,53/03/29 ,  34 ,
* ,53/04/05 ,  35 ,Case of the Dead Reporter
* ,53/04/12 ,  36 ,Case of the Wounded Killer
* ,53/04/19 ,  37 ,Case of the Murderous Good Samaritans
* ,53/04/26 ,  38 ,Case of the Silent Killer
* ,53/05/03 ,  39 ,Case of the Murder by Amateurs
* ,53/05/10 ,  40 ,Case of the Assassin in the Dark
* ,53/05/17 ,  41 ,Case of the Park Murders
* ,53/05/24 ,  42 ,Case of the Moving Van Murders
* ,53/05/31 ,  43 ,Case of the Bridal Path Murders
* ,53/06/07 ,  44 ,Case of the Canned Death
* ,53/06/14 ,  45 ,Case of the Preview Murder
* ,53/06/21 ,  46 ,Case of the Country Club Murder
* ,53/06/28 ,  47 ,Case of the Perfect Alibi
* ,53/07/05 ,  48 ,Case of the Hungry Killer
* ,53/07/12 ,  49 ,Case of the Body on the Freight Train
* ,53/07/19 ,  50 ,Case of the Land Swindle Murder
* ,53/07/26 ,  51 ,Case of the Living Dead Man
* ,53/08/04 ,  52 ,Case of the Pyromaniac Murder
  ,53/10/04 ,     ,
* ,53/10/11 ,     ,Set-Up For Re-Entry
* ,53/10/18 ,     ,Case of the Jury Killer
  ,53/10/25 ,     ,
* ,53/11/01 ,     ,Case of the Forgery Proof Note
  ,53/11/08 ,     ,Case of the Date With Death
  ,53/11/15 ,     ,Case of the Deserted Boatyard
* ,53/11/22 ,     ,Case of the Living Corpse
  ,53/11/29 ,     ,
  ,53/12/06 ,     ,
  ,53/12/13 ,     ,
* ,53/12/20 ,     ,Case of the Mother's Helper(Last Episode)
* ,53/xx/xx ,     ,I Hate Killers
* ,53/xx/xx ,     ,Missing Doctor
