Exists, Date, #, Episode Name
  ,56/09/04 ,   1 ,Title Unknown (PREMIERE)
  ,56/09/11 ,   2 ,Title Unknown
  ,56/09/18 ,   3 ,Title Unknown
  ,56/09/25 ,   3 ,Title Unknown
  ,56/10/02 ,   4 ,Title Unknown
  ,56/10/02 ,   5 ,Title Unknown
  ,56/10/09 ,   6 ,Title Unknown
  ,56/10/16 ,   7 ,Title Unknown
  ,56/10/23 ,   8 ,Title Unknown
  ,56/10/30 ,   9 ,Title Unknown
  ,56/11/06 ,  10 ,Title Unknown
  ,56/11/13 ,  11 ,Title Unknown
  ,56/11/20 ,  12 ,Title Unknown
  ,56/11/27 ,  13 ,Title Unknown
  ,56/12/04 ,  14 ,Title Unknown
  ,56/12/11 ,  15 ,Title Unknown
  ,56/12/18 ,  16 ,Title Unknown
  ,56/12/25 ,     ,--Pre-empted
  ,57/01/01 ,  17 ,Title Unknown
  ,57/01/08 ,  18 ,Title Unknown
  ,57/01/15 ,  19 ,Title Unknown
  ,57/01/22 ,  20 ,Title Unknown
  ,57/01/29 ,  21 ,Title Unknown
  ,57/02/05 ,  22 ,Title Unknown
  ,57/02/12 ,  23 ,Title Unknown
  ,57/02/19 ,  24 ,Title Unknown
  ,57/02/26 ,  25 ,Title Unknown
  ,57/03/05 ,  22 ,Title Unknown
  ,57/03/12 ,  23 ,Title Unknown
  ,57/03/19 ,  24 ,Title Unknown
  ,57/03/26 ,  25 ,Title Unknown
  ,57/04/02 ,  26 ,Title Unknown
  ,57/04/09 ,  27 ,Title Unknown
  ,57/04/16 ,  28 ,Title Unknown
  ,57/04/23 ,  29 ,Title Unknown
  ,57/04/30 ,  30 ,Title Unknown
  ,57/05/07 ,  31 ,Title Unknown
  ,57/05/14 ,  32 ,Title Unknown
  ,57/05/21 ,  33 ,Title Unknown
  ,57/05/28 ,  34 ,Title Unknown
  ,57/06/04 ,  35 ,Title Unknown
  ,57/06/11 ,  36 ,Title Unknown
  ,57/06/18 ,  37 ,Title Unknown
