Exists, Date, #, Episode Name
* ,47/11/25 ,     ,Old Favorites to Listen to While Having a Falstaff Beer
* ,48/02/05 ,     ,The First Tune Is, 'When Hearts Are Young' by Sigmund Romberg
* ,48/02/26 ,     ,The First Tune Is, 'Stout Hearted Men'
* ,48/03/04 ,     ,The First Tune Is, 'Oklahoma'
* ,48/03/11 ,     ,The First Tune Is, 'Song of the Vagabond'
* ,48/03/25 ,     ,The First Tune Is, 'Rise and Shine'
* ,48/04/08 ,     ,The First Tune Is, 'Hallelujah'
* ,48/04/15 ,     ,The First Tune Is, 'Marching Along Together'
* ,48/04/22 ,     ,The First Selection Is, 'I Know That You Know'
* ,48/05/13 ,     ,The First Tune Is, 'Good News'
* ,48/06/10 ,     ,The First Tune Is, 'Say It with Music'
* ,48/07/22 ,     ,The First Tune Is, 'Swanee'
* ,48/08/05 ,     ,The First Tune Is, 'Valencia'
* ,48/08/19 ,     ,The First Tune Is, 'Great Day'
* ,48/09/02 ,     ,The First Tune Is, 'It's a Good Day'
* ,48/09/09 ,     ,The First Tune Is, 'Hallelujah'
* ,48/09/23 ,     ,The First Tune Is, 'Fine and Dandy'
* ,48/09/30 ,     ,The First Tune Is, 'Jericho'
* ,48/10/07 ,     ,The First Tune Is, 'I'm Just Wild About Harry'
* ,48/10/14 ,     ,The First Tune Is, 'Alabamy Bound'
* ,48/11/11 ,     ,The First Tune Is, 'Zip-a-dee-doo-dah'
* ,48/11/18 ,     ,The First Tune Is, 'This Is My Lucky Day'
* ,48/12/02 ,     ,The First Tune Is, 'Rise and Shine'
* ,48/12/09 ,     ,The First Tune Is, 'The Big Back Yard'
* ,48/12/16 ,     ,The First Tune Is, 'The Ranger Song'
* ,48/12/23 ,     ,The First Tune Is, 'Heigh Ho,' from 'Snow White'
* ,48/12/30 ,     ,The First Tune Is, 'I Know That You Know'
* ,49/01/06 ,     ,The First Tune Is, 'The Song of the Vagabond'
* ,49/01/13 ,     ,The First Tune Is, 'Smiles'
* ,49/01/27 ,     ,The First Tune Is, 'When You Wore a Tulip'
* ,49/02/03 ,     ,Jonelle James Replaces Ann Hershey
* ,49/02/10 ,     ,The First Tune Is, 'Stout Hearted Men'
* ,49/02/17 ,     ,The First Tune Is, 'The Best Things in Life Are Free'
* ,49/02/24 ,     ,The First Tune Is, 'Lucky in Love'
* ,49/03/03 ,     ,The First Tune Is, 'Swanee'
* ,49/03/10 ,     ,The First Tune Is, 'Three Little Words'
* ,49/03/24 ,     ,The First Tune Is, 'Who Cares'
* ,49/04/07 ,     ,The First Tune Is, 'I'm Sitting on Top of the World'
* ,49/04/21 ,     ,The First Tune Is, 'Marching Along Together'
* ,49/04/29 ,     ,Ann Hershey Replaces Jonelle James
* ,49/05/05 ,     ,The First Tune Is, 'I Love a Parade'
* ,49/05/12 ,     ,Jonelle James Replaces Ann Hershey
* ,49/06/02 ,     ,The First Tune Is, 'Circus Day'
* ,49/06/09 ,     ,The First Tune Is, 'Give Me a June Night'
* ,49/06/16 ,     ,The First Tune Is, 'You're a Grand Old Flag'
* ,49/06/30 ,     ,The First Tune Is, 'Highways Are Happy Ways'
* ,49/07/14 ,     ,The First Tune Is, 'Who'
* ,49/07/21 ,     ,The First Tune Is, 'Of Thee I Sing'
* ,49/07/28 ,     ,The First Tune Is, 'Californ-i-a'
* ,49/09/08 ,     ,The First Tune Is, 'Swanee'
