Exists, Date, #, Episode Name
* ,53/01/25 ,   1 ,Jeep Is In Love With A Substitute Teacher
* ,53/02/01 ,   2 ,Jeep Has The Measles
  ,53/02/08 ,   3 ,
* ,53/02/15 ,   4 ,Jeep Does Good Deeds
  ,53/02/22 ,   5 ,
* ,53/03/01 ,   6 ,Peggy Is Going On Date
* ,53/03/08 ,   7 ,Jeeps Sees A Charles Atlas Ad
  ,53/03/15 ,   8 ,
  ,53/03/22 ,   9 ,
  ,53/03/29 ,  10 ,
  ,53/04/05 ,  11 ,
  ,53/04/12 ,  12 ,
  ,53/04/19 ,     ,Preempted
* ,53/04/26 ,  13 ,Jeep Is Given Ten Dollars
* ,53/05/03 ,  14 ,The Fight
  ,53/05/10 ,  15 ,
  ,53/05/17 ,  16 ,
  ,53/05/24 ,  17 ,
  ,53/05/31 ,  18 ,
* ,53/06/07 ,  19 ,Peggy's New Dress
* ,53/06/14 ,  20 ,Father Says No
  ,55/10/03 ,     ,
* ,55/10/04 ,     ,Jeep Tries To Raise Money for a Present
* ,55/10/05 ,     ,Jeep Is Upset Because His Sister Bought the Same Pipe Rack
* ,55/10/06 ,     ,Jeep Finally Gets the Present Exchanged
* ,55/10/07 ,     ,Jeep Volunteers Dr Allison for the Main Speaker
  ,56/11/09 ,     ,Last Episode
