Exists, Date, #, Episode Name
* ,57/12/01 ,     ,The Old Nurses Story
* ,66/11/xx ,     ,Tell Tale Heart
* ,67/05/xx ,     ,Kitchen Table
* ,67/11/xx ,     ,Sight Unseen
* ,67/12/xx ,     ,Double Strip
* ,67/xx/xx ,     ,The Cable Car Experiment
* ,67/xx/xx ,     ,The Duel
* ,67/xx/xx ,     ,The Hitch Hiker
* ,67/xx/xx ,     ,The Sandman
* ,68/04/01 ,     ,The Screaming Skull
* ,68/05/01 ,     ,Dream Woman
* ,68/06/01 ,     ,The Wendigo
* ,68/07/xx ,     ,Monkey's Paw
* ,68/08/xx ,     ,The Mines of Fallun
* ,68/12/xx ,     ,Adventure Of The Noble Bachelor
* ,68/xx/xx ,     ,A Perfectly Happy Life
* ,68/xx/xx ,     ,Breaking Strain
* ,68/xx/xx ,     ,Champagne Safari
* ,68/xx/xx ,     ,Dr Heidegger's Experiment
* ,68/xx/xx ,     ,Mr Higginbottom's Catastrophe
* ,68/xx/xx ,     ,The Signal Man
* ,68/xx/xx ,     ,The Strange History of David Swann
