Exists, Date, #, Episode Name
  ,48/06/29 ,   1 ,Good Deed for the Day
  ,48/07/06 ,   2 ,Elephant's Tail
  ,48/07/13 ,   3 ,Silent as the Grave (Myron McCormick)
  ,48/07/20 ,   4 ,The Reading of the Will (James Meighan)
  ,48/07/27 ,   5 ,The Honest Cop
  ,48/08/03 ,   6 ,The Woman I Married
  ,48/08/10 ,   7 ,The Squealer
  ,48/08/17 ,   8 ,Newstand Maggie (Anne Elstner)
  ,48/08/24 ,   9 ,Death and the Weeping Bride (Alfred Shirley)
  ,48/08/31 ,  10 ,Murder in the Family (Alfred Shirley)
  ,48/09/07 ,  11 ,The Garden of Death (Alfred Shirley)
  ,48/09/14 ,  12 ,TCOT Clock Strikes Murder (James Meighan)
  ,48/09/21 ,  13 ,TCO Death and the Fourth Man (Ned Wever)
  ,48/09/28 ,  14 ,TCOT Helping Hand (Ray Johnson)
  ,48/10/05 ,  15 ,TCO Murder in High Places (Mary Jane Higby)
  ,48/10/12 ,  16 ,Murder and the Housing Shortage (Anne Elstner)
  ,48/10/19 ,  17 ,TCOT Dead Man's Gun (Ned Wever)
  ,48/10/26 ,  18 ,The Alimony Murder Case (Elizabeth Morgan)
  ,48/11/02 ,     ,PRE-EMPTED [election returns]
  ,48/11/09 ,  19 ,The Step-Mother Murder Case (Mitzi Gould)
  ,48/11/16 ,  20 ,TCOT Touch of Death ( (Alfred Shirley)
  ,48/11/23 ,  21 ,The Tip-Off Murder Case (Alfred Shirley)
  ,48/11/30 ,  22 ,TCOT Death's End Honeymoon (Alfred Shirley)
  ,48/12/07 ,  23 ,The Marriage of Convenience Murder Case
  ,48/12/14 ,  24 ,The Windfall Murder Case
  ,48/12/21 ,  25 ,The Wedding Anniversary Murder Case
  ,48/12/28 ,  26 ,Murder and the Banker's Wife
  ,49/01/04 ,  27 ,The Fabulous Garage Murder Case
  ,49/01/11 ,  28 ,The Double Motive Murder Case
  ,49/01/18 ,  29 ,The Fifty Dollar Murder Case (James Meighan)
  ,49/01/25 ,  30 ,The Meat Market Murder Case
  ,49/02/01 ,  31 ,The Musical Clue Murder Case
  ,49/02/08 ,  32 ,The One Hundred Thousand  Dollar Reward Murder (Alfred Shirley)
  ,49/02/15 ,  33 ,TCOT Mother Who Said No
  ,49/02/22 ,  34 ,The Big Fence Murder Case
  ,49/03/01 ,  35 ,The Career Woman Murder Case
  ,49/03/08 ,  36 ,Murder and the Lonely Man
  ,49/03/15 ,  37 ,The Trained Nurse Murder Club
  ,49/03/22 ,  38 ,The Genial Host Murder Case
  ,49/03/29 ,  39 ,The Scrap of Paper Murder Case
  ,49/04/05 ,  40 ,The Secret Marriage Murder Case
  ,49/04/12 ,  41 ,TCO Murder and the Milk-and-Water Clerk
  ,49/04/19 ,  42 ,The Twin Bed Murder Case
  ,49/04/26 ,  43 ,The Book of Death Murder Case
  ,49/05/03 ,  44 ,The Masked Men Murder Case
  ,49/05/10 ,  45 ,The Gas Oven Murder Case
  ,49/05/17 ,  46 ,The Message of Death Murder Case
  ,49/05/24 ,  47 ,The Rich Widow Murder Case
  ,49/05/31 ,  48 ,The Clue from the Past Murder Case [Insp Hearthstone]
  ,49/06/07 ,  49 ,The Murder Clue of the Overflowing Mailbox
  ,49/06/14 ,  50 ,The Mysterious Murder at Clefton Hotel
  ,49/06/21 ,  51 ,Murder at High Noon
  ,49/06/28 ,  52 ,The Dead Cat Murder Case
  ,49/07/05 ,  53 ,The Man Who Was Murdered Twice
  ,49/07/12 ,  54 ,The Stick-Up Murder Case
  ,49/07/19 ,  55 ,Wheel of Death Murder Case
  ,49/07/26 ,  56 ,The Murder Clue of the New Shoes
  ,49/08/02 ,  57 ,The Sleeping Dog Murder Case
  ,49/08/09 ,  58 ,The Man Who Looked Like an Ape
  ,49/08/16 ,  59 ,TCOT Old Woman's False Teeth
  ,49/08/23 ,  60 ,The Dream Girl Murder Case
  ,49/08/30 ,  61 ,Hunted (Alfred Shirley)
  ,49/09/06 ,  62 ,The Second Wife Murder Case (Alfred Shirley)
  ,49/09/13 ,  63 ,TCOT Girls Who Were Slaves (Alfred Shirley)
  ,49/09/20 ,  64 ,TCOT Blackberry Jam Murder Clue [Insp Hearthstone] (Alfred Shirley)
  ,49/09/27 ,  65 ,The Girl Who Laughed at Murder
  ,49/10/04 ,  66 ,The Stamp of the Scarlet Heart
  ,49/10/11 ,  67 ,The Girl Meets Boy Murder Case
  ,49/10/18 ,  68 ,The Rented Bungalow Murder Case [Insp Hearthstone]
  ,49/10/25 ,  69 ,The Crystal Gazer Murder Case
  ,49/11/01 ,  70 ,TCOT Man Who Came Home Murdered
  ,49/11/08 ,  71 ,The Broken Date Murder Clue
  ,49/11/15 ,  72 ,Murder in High Society
  ,49/11/22 ,  73 ,The Funeral Wreath Murder Case
  ,49/11/29 ,  74 ,The Missing Heiress Murder Case [Insp Hearthstone]
  ,49/12/06 ,  75 ,The Adopted Daughter Murder Case
  ,49/12/13 ,  76 ,The Glamorous Pickpocket Murder Case
  ,49/12/20 ,  77 ,The Empty House Murder Case
  ,49/12/27 ,  78 ,The Wedding Eve Murder Case [Insp Hearthstone]
  ,50/01/03 ,  79 ,The Brass Bed Murder Case
  ,50/01/10 ,  80 ,The Instant Poison Murder Case
  ,50/01/17 ,  81 ,The Birthday Gift Murder Case
  ,50/01/24 ,  82 ,The Other Woman Murder Case
  ,50/01/31 ,  83 ,The Four of Diamonds Murder Case
  ,50/02/07 ,  84 ,The Beautiful Nurse Murder Case
  ,50/02/14 ,  85 ,The Forbidden Romance Murder Case
  ,50/02/21 ,  86 ,The Friend in Need Murder Case
  ,50/02/28 ,  87 ,The Homely Bride Murder Case
  ,50/03/07 ,  88 ,The New Stepfather Murder Case
  ,50/03/14 ,  89 ,The Mysterious Stranger Murder Case
  ,50/03/21 ,  90 ,The Beautiful Doll Murder Case
  ,50/03/28 ,  91 ,The Jealous Husband Murder Case
  ,50/04/04 ,  92 ,The Mother-in-Law Murder Case
  ,50/04/11 ,  93 ,The Wedding Picture Murder Case
  ,50/04/18 ,  94 ,The Best Dressed Woman Murder Case
  ,50/04/25 ,  95 ,The Nice Young Man Murder Case
  ,50/05/02 ,  96 ,The Shanghai Dance Murder Case
  ,50/05/09 ,  97 ,The Forbidden Garden Murder Case
  ,50/05/16 ,  98 ,The Jilted Bride Murder Case
  ,50/05/23 ,  99 ,The Devoted Husband Murder Case
  ,50/05/30 , 100 ,The Lonely Widow Murder Case
  ,50/06/06 , 101 ,The Separate Bedroom Murder Case
  ,50/06/13 , 102 ,The Out-of-Town Girl Murder
  ,50/06/20 , 103 ,The Rich Dowager Murder Case
  ,50/06/27 , 104 ,The Handsome Millionaire Murder Case
  ,50/07/04 , 105 ,The Blue Thread Murder Case
  ,50/07/11 , 106 ,The Screaming Parrot Murder Case
  ,50/07/18 , 107 ,The Mallory Mansion Murder Case
  ,50/07/25 , 108 ,The Divorce Agreement Murder Case ('launches MT's 3rd year')
  ,50/08/01 , 109 ,The Missing Women Murder Case
  ,50/08/08 , 110 ,The House They Rented Murder Case
  ,50/08/15 , 111 ,The Glamour Girl Murder Case
  ,50/08/22 , 112 ,The Pointing Finger Murder Case
  ,50/08/29 , 113 ,The Dream-Come-True Murder Case
  ,50/09/05 , 114 ,The Evil Man Murder Case
  ,50/09/12 , 115 ,The Boss Comes to Dinner Murder Case
  ,50/09/19 , 116 ,The Vanishing Necklace Murder Case
  ,50/09/26 , 117 ,The Poisoned Pigeon Murder Clue [Insp Hearthstone]
  ,50/10/03 , 118 ,The Divorce Mill Murder Clue [Insp Hearthstone]
  ,50/10/10 , 119 ,The Poisoned Room Murder Case
  ,50/10/17 , 120 ,The Woman Told Murder Case
  ,50/10/24 , 121 ,The High Voltage Murder Case
  ,50/10/31 , 122 ,The Snapshot Clew Murder Case
  ,50/11/07 , 123 ,--- (lawsuit leads to clever murder)
  ,50/11/14 , 124 ,The Terrified Witness Murder Case
  ,50/11/21 , 125 ,The Marry Me or Else Murder Case
  ,50/11/28 , 126 ,The Poison Pen Letter Murder Case
  ,50/12/05 , 127 ,The Child-for-Sale Murder Case
  ,50/12/12 , 128 ,The Orphaned Sisters Murder Case (Alfred Shirley)
  ,50/12/19 , 129 ,The Glamorous Model Murder Case
  ,50/12/26 , 130 ,The Rich Heiress Murder Case
  ,51/01/02 , 131 ,The Horrible Daughter-in-Law Murder Case
  ,51/01/09 , 132 ,The Famous Star Murder Case
  ,51/01/16 , 133 ,The Gold-Digger Murder Case
  ,51/01/23 , 134 ,The Thirty Days to Live Murder Case
  ,51/01/30 , 135 ,The Last Meeting Murder Case
  ,51/02/06 , 136 ,The Wife Swapping Murder Case
  ,51/02/13 , 137 ,The Stingy Aunt Murder Case
  ,51/02/20 , 138 ,The Prince Charming Murder Case
  ,51/02/27 , 139 ,The Chorus Girl's Dream Murder Case
  ,51/03/06 , 140 ,
  ,51/03/13 , 141 ,The Cinderella Murder Case
  ,51/03/20 , 142 ,The Invisible Hand Murder Case
  ,51/03/27 , 143 ,The Kiss in the Dark Murder Case
  ,51/04/03 , 144 ,The Concrete Floor Murder Case
  ,51/04/10 , 145 ,The Trained Nurse Murder Case
  ,51/04/17 , 146 ,The Wrong Number Murder Case
  ,51/04/24 , 147 ,The Unpaid Rent Murder Case
  ,51/05/01 , 148 ,The Wife's Confession Murder Case
  ,51/05/08 , 149 ,The Drug of Forgetfulness Murder Case
  ,51/05/15 , 150 ,The Wife's Confession Murder Case (Alfred Shirley)
  ,51/05/22 , 151 , The Departed Husband Murder Case <or> The Deserted Husband Murder Case (Alfred Shirley)
  ,51/05/29 , 152 ,The Empty House Murder Case (Alfred Shirley)
  ,51/06/05 , 153 ,The Guilty Secret Murder Case (Alfred Shirley)
  ,51/06/12 , 154 ,The New Wife Murder Case (Alfred Shirley)
  ,51/06/19 , 155 ,The Broken Date Murder Case
