Exists, Date, #, Episode Name
* ,44/xx/xx ,   1 ,Sales Audition and Intro to Uncle Ezra
* ,44/xx/xx ,   2 ,The Word 'together' and the American Way of Living
* ,44/xx/xx ,   3 ,Ed Judson Takes Pleasure in Performing Honest Labor
* ,44/xx/xx , 277 ,Cousin Horley, the Medicine Tester
* ,44/xx/xx , 278 ,An Unsung Hero; the Carrier Pigeon
* ,44/xx/xx , 279 ,A Salute to the Farmer
* ,44/xx/xx , 280 ,Rankin Good and the Battleship Fund
* ,44/xx/xx , 281 ,Rowdy and the Church Bells
* ,44/xx/xx , 282 ,The Cannonball Is Delayed on Lookout Hill
* ,44/xx/xx , 283 ,Driving Automobiles Safely
