Exists, Date, #, Episode Name
* ,43/10/02 ,     ,Anvil Chorus
* ,43/10/09 ,     ,Jeep Jockey Jump
* ,43/12/04 ,     ,Tail-End Charlie
* ,43/12/11 ,     ,American Patrol (2)
* ,43/12/11 ,     ,Don't Be That Way
* ,43/xx/xx ,  31 ,Ay, Ay, Ay, Ay
* ,43/xx/xx ,  32 ,The Program Is an Uninterrupted Medley of Tunes by Hoagy Carmichael
* ,43/xx/xx ,  46 ,Dinah
* ,43/xx/xx ,  47 ,The River Saint Marie
* ,44/02/12 ,     ,Jeep Jockey Jump
* ,44/03/04 ,     ,In the Mood (2)
* ,44/03/18 ,     ,Anvil Chorus
* ,44/03/25 ,     ,I Hear You Screamin'
* ,44/04/22 ,     ,Mission to Moscow
* ,44/xx/xx ,     ,In the Mood
