Exists, Date, #, Episode Name
* ,01/07/14 ,     ,Pt1of7
* ,01/07/21 ,     ,Pt2of7
* ,01/07/28 ,     ,Pt3of7
* ,01/08/04 ,     ,Pt4of7
* ,01/08/11 ,     ,Pt5of7
* ,01/08/18 ,     ,Pt6of7
* ,01/08/28 ,     ,Pt7of7
