Exists, Date, #, Episode Name
* ,57/01/29 ,     ,Sentence of Death
* ,57/02/22 ,     ,The Long Way 'round
* ,57/03/12 ,     ,What You Don't Know
* ,57/03/15 ,     ,The Bribe
* ,58/09/19 ,  43 ,The Man Is Always Right
* ,59/04/xx , 121 ,Sit in the Sun
* ,59/05/15 , 145 ,You're Not Funny Dear
* ,59/05/29 , 151 ,Forbidden Ritual
* ,59/05/xx , 136 ,You're a Pal
* ,59/06/05 , 154 ,Young and Scared
* ,60/11/11 , 386 ,Lost Memory
* ,60/12/02 , 397 ,The Prime of Life - Chapter One
* ,60/12/02 , 398 ,The Prime of Life - Chapter Two
* ,60/12/02 , 399 ,The Prime of Life - Chapter Three
* ,60/12/02 , 400 ,The Prime of Life - Chapter Four
* ,60/12/02 , 401 ,The Prime of Life - Chapter Five
* ,xx/xx/xx ,  81 ,Conscience of the Cop
* ,xx/xx/xx ,  81 ,The Night of the Robbery
* ,xx/xx/xx ,  83 ,The Girl We Left Behind
* ,xx/xx/xx ,  84 ,Bumpkin in Hollywood
* ,xx/xx/xx , 172 ,Forgive Us Our Debts
* ,xx/xx/xx ,     ,Mrs O'brien Enters High Society
