Exists, Date, #, Episode Name
  ,46/11/30 ,   1 ,First Episode
  ,46/12/07 ,   2 ,Title Unknown
  ,46/12/14 ,   3 ,Title Unknown
* ,46/12/21 ,   4 ,Did Justice Triumph
* ,46/12/28 ,   5 ,Obsession
* ,47/01/04 ,   6 ,The Billy Gilbert Show
  ,47/01/11 ,   7 ,Title Unknown
* ,47/01/18 ,   8 ,This Is Jazz
  ,47/06/28 ,     ,Last Episode
  ,47/12/28 ,  44 ,Obsession
