Exists, Date, #, Episode Name
* ,47/12/27 ,     ,Special Education - Maladjusted Children
* ,52/12/xx ,  12 ,First Tune - Here Comes Santa Claus
* ,52/12/xx ,     ,First Tune - Why Do Bells on Christmas Ring
* ,52/xx/xx ,   1 ,First Tune - Wish You Were Here
* ,52/xx/xx ,   2 ,First Tune - I'm Yours
* ,52/xx/xx ,   3 ,First Tune - Wish You Were Here (2)
* ,52/xx/xx ,   4 ,First Tune - The Hand of Fate
* ,52/xx/xx ,   5 ,First Tune - Forgive Me
* ,52/xx/xx ,   6 ,First Tune - Summertime
* ,52/xx/xx ,   7 ,First Tune - You'll Never Know
* ,52/xx/xx ,   8 ,First Tune - Just a Little Prayer for Me
* ,52/xx/xx ,   9 ,First Tune - Here Comes Santa Claus (2)
* ,52/xx/xx ,  10 ,First Tune - Lady of Spain
* ,52/xx/xx ,  11 ,First Tune - You're All I Want for Christmas
* ,52/xx/xx ,  13 ,First Tune - Everything I Have Is Yours
* ,52/xx/xx ,  14 ,First Tune - Full Moon and Empty Arms
* ,52/xx/xx ,  15 ,First Tune - Everything I Have Is Yours (2)
* ,52/xx/xx ,  16 ,First Tune - Wish You Were Here (3)
* ,52/xx/xx ,  17 ,First Tune - Let a Smile Be Your Umbrella (3)
* ,52/xx/xx ,  18 ,First Tune - We Are the All-Army Team
* ,52/xx/xx ,  19 ,First Tune - It's a Good Day
* ,52/xx/xx ,  20 ,First Tune - Hesitation
* ,52/xx/xx ,  21 ,First Tune - There's No Business Like Show Business
* ,52/xx/xx ,  22 ,First Tune - Marching Along Together
* ,52/xx/xx ,  23 ,First Tune - Who Cares
* ,52/xx/xx ,  24 ,First Tune - Hesitation (2)
* ,52/xx/xx ,  25 ,First Tune - Who Cares (2)
* ,52/xx/xx ,  26 ,First Tune - Zing Went the Strings of My Heart
* ,52/xx/xx ,  27 ,First Tune - Downhearted
* ,52/xx/xx ,  28 ,First Tune - The Second Star to the Right
* ,52/xx/xx ,  29 ,First Tune - The Second Star to the Right (2)
* ,52/xx/xx ,  30 ,First Tune - Remember
* ,52/xx/xx ,  31 ,First Tune - Dancing Cheek to Cheek
* ,52/xx/xx ,  32 ,First Tune - I'll See You in My Dreams
* ,52/xx/xx ,  33 ,First Tune - In the Good Old Summertime
* ,52/xx/xx ,  34 ,First Tune - Zing Went the Strings of My Heart  (2)
* ,52/xx/xx ,  35 ,First Tune - You'll Never Grow Old
* ,52/xx/xx ,  36 ,First Tune - Let a Smile Be Your Umbrella
* ,52/xx/xx ,  37 ,First Tune - The Second Star to the Right (3)
* ,52/xx/xx ,  38 ,First Tune - She Wore a Yellow Ribbon
* ,52/xx/xx ,  39 ,First Tune - It Isn't Heaven Without Havin' You
* ,52/xx/xx ,  40 ,First Tune - Dry Bones (3)
* ,52/xx/xx ,  41 ,First Tune - The Whiffenpoof Song
* ,52/xx/xx ,  42 ,First Tune - Ole Buttermilk Sky
* ,52/xx/xx ,  43 ,First Tune - Blow Gabriel, Blow
* ,52/xx/xx ,  44 ,First Tune - If I Loved You
* ,52/xx/xx ,  45 ,First Tune -
* ,52/xx/xx ,  46 ,First Tune -  (2)
* ,52/xx/xx ,  47 ,First Tune - Dry Bones
* ,52/xx/xx ,  48 ,First Tune - The Whiffenpoof Song (2)
* ,52/xx/xx ,  49 ,First Tune - Don't Blame Me
* ,52/xx/xx ,  50 ,First Tune - The Love of My Life
* ,52/xx/xx ,  51 ,First Tune - Black-Eyed Susie
* ,52/xx/xx ,  52 ,First Tune - Dry Bones (2)
* ,52/xx/xx ,  53 ,First Tune - Ole Buttermilk Sky (2)
* ,52/xx/xx ,  54 ,First Tune - I Never Was Loved by Anyone Else
* ,52/xx/xx ,  55 ,First Tune - Let a Smile Be Your Umbrella (2)
* ,52/xx/xx ,  56 ,First Tune - Who
  ,52/xx/xx ,  56 ,Who
* ,54/xx/xx ,     ,Special New Year's 1954 Show
* ,xx/xx/xx ,  71 ,First Tune -  (3)
* ,xx/xx/xx ,  72 ,First Tune -  (4)
