Exists, Date, #, Episode Name
* ,xx/xx/xx ,   1 ,Part 01
* ,xx/xx/xx ,   2 ,Part 02
* ,xx/xx/xx ,   3 ,Part 03
* ,xx/xx/xx ,   4 ,Part 04
* ,xx/xx/xx ,   5 ,Part 05
* ,xx/xx/xx ,   6 ,Part 06
* ,xx/xx/xx ,   7 ,Part 07
* ,xx/xx/xx ,   8 ,Part 08
* ,xx/xx/xx ,   9 ,Part 09
* ,xx/xx/xx ,  10 ,Part 10
* ,xx/xx/xx ,  11 ,Part 11
* ,xx/xx/xx ,  12 ,Part 12
* ,xx/xx/xx ,  13 ,Part 13
