Exists, Date, #, Episode Name
* ,40/01/xx ,2011 ,By Kurt Schriever and Mike Harron from Primary Sources
  ,40/01/xx ,     ,This log compiled February 2011 by Kurt Schriever and Mike Harron from primary sources
  ,40/02/xx ,     ,supplemented by the work of David Goldin and Jerry Valburn.
  ,40/03/xx ,     ,Notes on usage:  The networks' numbering scheme was discontinued as of 46/03/29, after which
  ,40/04/xx ,     ,AFRS' numbering applies.  However, network assigned numbers
  ,40/05/xx ,     ,are uncertain between 45/07/04 and 45/08/10 and are thus left blank.
  ,40/06/xx ,     ,As important differences exist in this series between the network and AFRS versions of broadcasts,
  ,40/07/xx ,     ,differences which cannot be easily reflected in Otter, it's recommended that Otter not
  ,40/08/xx ,     ,be used for file renaming as AFRS/NET file name distinctions will necessarily be lost.
  ,41/11/03 ,     ,Kay Kyser
  ,41/11/04 ,     ,Guy Lombardo
  ,41/11/05 ,     ,Sammy Kaye
  ,41/11/06 ,     ,Tommy Dorsey
  ,41/11/07 ,     ,Eddy Duchin
  ,41/11/08 ,     ,Freddy Martin
  ,41/11/10 ,     ,Harry James
  ,41/11/11 ,     ,Pre-empted by "Second Annual Red Cross Roll Call"
  ,41/11/12 ,     ,band unknown
  ,41/11/13 ,     ,Jimmie Lunceford
  ,41/11/14 ,     ,Benny Goodman
  ,41/11/15 ,     ,band unknown
  ,41/11/17 ,     ,Johnny Long
  ,41/11/18 ,     ,Sammy Kaye
  ,41/11/19 ,     ,Matty Malneck
  ,41/11/20 ,     ,Shep Fields
* ,41/11/22 ,     ,Glenn Miller, First Song - In the Mood
  ,41/11/24 ,     ,Bob Chester
  ,41/11/25 ,     ,Gene Krupa
  ,41/11/26 ,     ,Raymond Scott
  ,41/11/27 ,     ,Glen Gray
  ,41/11/28 ,     ,Frankie Masters
  ,41/11/29 ,     ,Freddy Martin
  ,41/12/01 ,     ,band unknown
  ,41/12/02 ,     ,Eddy Duchin
  ,41/12/03 ,     ,Tommy Tucker
  ,41/12/04 ,     ,Johnny Messner
* ,41/12/05 ,     ,Benny Goodman, Songs - Limehouse Blues, Meet The Earl
  ,41/12/06 ,     ,Glenn Miller
  ,41/12/08 ,     ,Artie Shaw
  ,41/12/09 ,     ,Pre-empted by FDR Address
  ,41/12/10 ,     ,Guy Lombardo
  ,41/12/11 ,     ,Ina Ray Hutton
  ,41/12/12 ,     ,Charlie Spivak
  ,41/12/13 ,     ,band unknown
  ,41/12/15 ,     ,Pre-empted by 150th Anniversary of Bill of Rights broadcast
  ,41/12/16 ,     ,Jimmy Dorsey
  ,41/12/17 ,     ,Orrin Tucker
  ,41/12/18 ,     ,Alvino Rey
  ,41/12/19 ,     ,Dick Jurgens
* ,41/12/20 ,     ,Tommy Dorsey, First Song - Free For All
  ,41/12/22 ,     ,Tommy Dorsey
  ,41/12/23 ,     ,Nat Brandwynne
  ,41/12/24 ,     ,Skinnay Ennis
  ,41/12/25 ,     ,Ray Noble
* ,41/12/26 ,     ,Horace Heidt, First Song - The Shepherd's Serenade
  ,41/12/27 ,     ,Tommy Dorsey
  ,41/12/29 ,     ,Xavier Cugat
  ,41/12/30 ,     ,Count Basie
  ,41/12/31 ,     ,Harry James
  ,42/01/01 ,     ,Benny Goodman
  ,42/01/02 ,     ,Sammy Kaye
  ,42/01/03 ,     ,Tommy Dorsey
  ,42/01/05 ,     ,Kay Kyser
  ,42/01/06 ,     ,Ray Noble
  ,42/01/07 ,     ,Jan Garber
  ,42/01/08 ,     ,Tommy Dorsey
* ,42/01/09 ,     ,Horace Heidt, Song - Eyes of Love
  ,42/01/10 ,     ,Tommy Dorsey
  ,42/01/12 ,     ,Eddy Duchin
  ,42/01/13 ,     ,Vaughn Monroe
  ,42/01/14 ,     ,Freddy Martin
  ,42/01/15 ,     ,Will Bradley
* ,42/01/16 ,     ,Bob Chester, First Song - The Octave Jump
* ,42/01/17 ,     ,Tommy Dorsey, Songs - I'll Get By, Quiet Please, This Love Of Mine
  ,42/01/19 ,     ,Les Brown
  ,42/01/20 ,     ,Art Jarrett
  ,42/01/21 ,     ,Eddy Howard
  ,42/01/22 ,     ,Jack Teagarden
  ,42/01/23 ,     ,Griff Williams
  ,42/01/24 ,     ,Sammy Kaye
  ,42/01/26 ,     ,Dick Jurgens
  ,42/01/27 ,     ,Jan Savitt
  ,42/01/28 ,     ,Art Kassel
  ,42/01/29 ,     ,Xavier Cugat
  ,42/01/30 ,     ,Charlie Barnet
* ,42/01/31 ,     ,Sammy Kaye, First Song - Elmer's Tune
  ,42/02/02 ,     ,Benny Goodman
  ,42/02/03 ,     ,Freddy Martin
  ,42/02/04 ,     ,Lionel Hampton
  ,42/02/05 ,     ,Glen Gray
* ,42/02/06 ,     ,Harry James, First Song - B-19
  ,42/02/07 ,     ,Sammy Kaye
  ,42/02/09 ,     ,Freddy Martin
  ,42/02/10 ,     ,Horace Heidt
  ,42/02/11 ,     ,Horace Heidt
  ,42/02/12 ,     ,Claude Thornhill
  ,42/02/13 ,     ,Alvino Rey
  ,42/02/14 ,     ,Sammy Kaye
  ,42/02/16 ,     ,Eddy Duchin
  ,42/02/17 ,     ,Benny Goodman
  ,42/02/18 ,     ,Lou Breese
  ,42/02/19 ,     ,Freddy Martin
  ,42/02/20 ,     ,Gene Krupa
  ,42/02/21 ,     ,Woody Herman
  ,42/02/23 ,     ,Richard Himber
  ,42/02/24 ,     ,Charlie Spivak
  ,42/02/25 ,     ,Horace Heidt
  ,42/02/26 ,     ,Bob Crosby
  ,42/02/27 ,     ,Tommy Tucker
* ,42/02/28 ,     ,Alvino Rey, First Song - Hindustan (New York City, NY)
  ,42/03/02 ,     ,Richard Himber
  ,42/03/03 ,     ,Guy Lombardo
  ,42/03/04 ,     ,Henry King
  ,42/03/05 ,     ,Woody Herman
  ,42/03/06 ,     ,Raymond Scott
  ,42/03/07 ,     ,Harry James
  ,42/03/09 ,     ,Kay Kyser
  ,42/03/10 ,     ,Orrin Tucker
* ,42/03/11 ,     ,Russ Morgan, First Song - How Long Did I Dream
  ,42/03/12 ,     ,Sammy Kaye
  ,42/03/13 ,     ,Horace Heidt
  ,42/03/14 ,     ,Horace Heidt
  ,42/03/16 ,     ,Dick Jurgens
  ,42/03/17 ,     ,Pre-empted by address by head of the War Production Board
  ,42/03/18 ,     ,Earl Hines
  ,42/03/19 ,     ,Vaughn Monroe
  ,42/03/20 ,     ,Freddy Martin
  ,42/03/21 ,     ,Harry James
  ,42/03/23 ,     ,Glen Gray
  ,42/03/24 ,     ,Sonny Dunham
  ,42/03/25 ,     ,Woody Herman
  ,42/03/26 ,     ,Claude Thornhill
  ,42/03/27 ,     ,Tommy Dorsey
  ,42/03/28 ,     ,Horace Heidt
  ,42/03/30 ,     ,Horace Heidt
  ,42/03/31 ,     ,Eddy Duchin
* ,42/04/01 ,     ,Xavier Cugat, First Song - The Ali Baba Rhumba
  ,42/04/02 ,     ,Stan Kenton
  ,42/04/03 ,     ,Sammy Kaye
  ,42/04/04 ,     ,Harry James
  ,42/04/06 ,     ,Sammy Kaye
  ,42/04/07 ,     ,Woody Herman
  ,42/04/08 ,     ,Tommy Tucker
  ,42/04/09 ,     ,Russ Brown
  ,42/04/10 ,     ,Claude Thornhill
  ,42/04/11 ,     ,Harry James
  ,42/04/13 ,     ,Richard Himber
  ,42/04/14 ,     ,Charlie Spivak
  ,42/04/15 ,     ,Sammy Kaye
  ,42/04/16 ,     ,Freddy Martin
  ,42/04/17 ,     ,Claude Thornhill
  ,42/04/18 ,     ,Harry James
  ,42/04/20 ,     ,Vaughn Monroe
  ,42/04/21 ,     ,Hal McIntyre
  ,42/04/22 ,     ,Alfredo Gonzales
  ,42/04/23 ,     ,Horace Heidt
  ,42/04/24 ,     ,Benny Goodman
  ,42/04/25 ,     ,Harry James
  ,42/04/27 ,     ,Horace Heidt
  ,42/04/28 ,     ,Claude Thornhill
  ,42/04/29 ,     ,Dominguez Brothers
  ,42/04/30 ,     ,Benny Goodman
  ,42/05/01 ,     ,Charlie Spivak
* ,42/05/02 ,     ,Harry James
  ,42/09/21 ,   1 ,Harry James
  ,42/09/22 ,   2 ,Freddy Martin
  ,42/09/23 ,   3 ,Horace Heidt
  ,42/09/24 ,   4 ,Kay Kyser
  ,42/09/25 ,   5 ,Alvino Rey
  ,42/09/26 ,   6 ,Glenn Miller
  ,42/09/28 ,   7 ,Harry James
  ,42/09/29 ,   8 ,Abe Lyman
  ,42/09/30 ,   9 ,Sammy Kaye
  ,42/10/01 ,  10 ,Jan Savitt
  ,42/10/02 ,  11 ,Ted Lewis
  ,42/10/03 ,  12 ,Horace Heidt
  ,42/10/05 ,  13 ,Glen Gray
  ,42/10/06 ,  14 ,Jan Garber
* ,42/10/07 ,  15 ,Sammy Kaye, First Song - You Can't Say No To A Soldier (Detroit, MI)
  ,42/10/08 ,  16 ,Herbie Kay
  ,42/10/09 ,  17 ,Russ Morgan
  ,42/10/10 ,  18 ,Tommy Dorsey
  ,42/10/12 ,  19 ,Gene Krupa
  ,42/10/13 ,  20 ,Lionel Hampton
* ,42/10/14 ,  21 ,Sammy Kaye, First Song - Gobs of Love
  ,42/10/15 ,  22 ,Charlie Spivak
  ,42/10/16 ,  23 ,Art Jarrett
  ,42/10/17 ,  24 ,Benny Goodman
  ,42/10/19 ,  25 ,Vaughn Monroe
  ,42/10/20 ,  26 ,Ted Weems
* ,42/10/21 ,  27 ,Sammy Kaye, First Song - This Is The Army, Mr. Jones
  ,42/10/22 ,  28 ,Jack Teagarden
  ,42/10/23 ,  29 ,Claude Thornhill
  ,42/10/24 ,  30 ,Harry James
  ,42/10/26 ,  31 ,Les Brown
  ,42/10/27 ,  32 ,Leo Reisman
* ,42/10/28 ,  33 ,Sammy Kaye, First Song - You Can't Say No To A Soldier
  ,42/10/29 ,  34 ,Horace Heidt
  ,42/10/30 ,  35 ,Joe Reichman
  ,42/10/31 ,  36 ,Xavier Cugat
  ,42/11/02 ,  37 ,Vaughn Monroe
  ,42/11/03 ,  38 ,Jan Garber
  ,42/11/04 ,  39 ,Sammy Kaye
  ,42/11/05 ,  40 ,Tommy Tucker
  ,42/11/06 ,  41 ,Horace Heidt
  ,42/11/07 ,  42 ,Jan Garber
  ,42/11/09 ,  43 ,Dick Stabile
  ,42/11/10 ,  44 ,Stan Kenton
  ,42/11/11 ,  45 ,Sammy Kaye
  ,42/11/12 ,  46 ,Ted Fio Rito
  ,42/11/13 ,  47 ,Benny Goodman
  ,42/11/14 ,  48 ,Richard Himber
  ,42/11/16 ,  49 ,Freddy Martin
  ,42/11/17 ,  50 ,Bobby Byrne
  ,42/11/18 ,  51 ,Sammy Kaye
  ,42/11/19 ,  52 ,Duke Ellington
  ,42/11/20 ,  53 ,Ted Weems
  ,42/11/21 ,  54 ,Horace Heidt
  ,42/11/23 ,  55 ,Glen Gray
  ,42/11/24 ,  56 ,Tony Pastor
  ,42/11/25 ,  57 ,Sammy Kaye
  ,42/11/26 ,  58 ,Tommy Dorsey
  ,42/11/27 ,  59 ,Gene Krupa
  ,42/11/28 ,  60 ,Harry James
  ,42/11/30 ,  61 ,Will Osborne
  ,42/12/01 ,  62 ,Gene Krupa
  ,42/12/02 ,  63 ,Sammy Kaye
* ,42/12/03 ,  64 ,Bob Crosby, First Song - King Porter Stomp
  ,42/12/04 ,  65 ,Frankie Masters
  ,42/12/05 ,  66 ,Horace Heidt
  ,42/12/07 ,  67 ,Bob Chester
  ,42/12/08 ,  68 ,Jimmie Lunceford
  ,42/12/09 ,  69 ,Sammy Kaye
  ,42/12/10 ,  70 ,Gene Krupa
  ,42/12/11 ,  71 ,Benny Goodman
  ,42/12/12 ,  72 ,Ted Lewis
  ,42/12/14 ,  73 ,Charlie Spivak
  ,42/12/15 ,  74 ,Louis Armstrong
  ,42/12/16 ,  75 ,Sammy Kaye
  ,42/12/17 ,  76 ,Jack Teagarden
* ,42/12/18 ,  77 ,Gene Krupa, First Song - The Wire Brush Stomp
  ,42/12/19 ,  78 ,Benny Goodman
  ,42/12/21 ,  79 ,Dick Jurgens
  ,42/12/22 ,  80 ,Count Basie
* ,42/12/23 ,  81 ,Sammy Kaye, First Song - Gobs Of Love For The Navy
* ,42/12/24 ,  82 ,Frankie Masters, First Song - Dearly Beloved
  ,42/12/25 ,  83 ,Uncle Sam's Christmas Tree (12 hours, multiple bands)
  ,42/12/26 ,  84 ,Harry James
* ,42/12/28 ,  85 ,Tony Pastor, Song - Swanee River
  ,42/12/29 ,  86 ,Benny Goodman
  ,42/12/30 ,  87 ,Sammy Kaye
  ,42/12/31 ,  88 ,Alvino Rey
  ,43/01/01 ,  89 ,Henry Busse
  ,43/01/02 ,  90 ,Sammy Kaye
  ,43/01/04 ,  91 ,Vaughn Monroe
  ,43/01/05 ,  92 ,Will Osborne
  ,43/01/06 ,  93 ,Sammy Kaye
  ,43/01/07 ,  94 ,Jack Teagarden
  ,43/01/08 ,  95 ,Johnny Davis
  ,43/01/09 ,  96 ,Gene Krupa
  ,43/01/11 ,  97 ,Xavier Cugat
  ,43/01/12 ,  98 ,Chico Marx
* ,43/01/13 ,  99 ,Sammy Kaye, First Song - Please Think Of Me
  ,43/01/14 , 100 ,Gene Krupa
  ,43/01/15 , 101 ,Richard Himber
  ,43/01/16 , 102 ,Ted Lewis
  ,43/01/18 , 103 ,Tommy Tucker
* ,43/01/19 , 104 ,Ina Ray Hutton, First Song - Splendid, Tender and Tall
  ,43/01/20 , 105 ,Hal McIntyre
* ,43/01/21 , 106 ,George Olsen, First Song - Manhattan Serenade
  ,43/01/22 , 107 ,Bob Crosby
* ,43/01/23 , 108 ,Leo Reisman, First Song - Grieg's Piano Concerto in A Minor
  ,43/01/25 , 109 ,Johnny Long
* ,43/01/26 , 110 ,Art Kassel, First Song - Are You Spoken For
  ,43/01/27 , 111 ,Joe Sanders
  ,43/01/28 , 112 ,Lionel Hampton
  ,43/01/29 , 113 ,Skinnay Ennis
  ,43/01/30 , 114 ,Horace Heidt
  ,43/02/01 , 115 ,band unknown
  ,43/02/02 , 116 ,Russ Morgan
  ,43/02/03 , 117 ,Louis Armstrong
  ,43/02/04 , 118 ,Louis Prima
  ,43/02/05 , 119 ,Eddy Howard
  ,43/02/06 , 120 ,Benny Goodman
  ,43/02/08 , 121 ,Alvino Rey
  ,43/02/09 , 122 ,Charlie Barnet
  ,43/02/10 , 123 ,Chuck Foster
  ,43/02/11 , 124 ,Andy Kirk
  ,43/02/12 , 125 ,Pre-empted for FDR address
  ,43/02/13 , 126 ,Benny Goodman
  ,43/02/15 , 127 ,Les Brown
  ,43/02/16 , 128 ,Charlie Spivak
  ,43/02/17 , 129 ,Jan Garber
  ,43/02/18 , 130 ,Henry King
  ,43/02/19 , 131 ,Bernie Cummins
  ,43/02/20 , 132 ,Benny Goodman
  ,43/02/22 , 133 ,Bobby Byrne
  ,43/02/23 , 134 ,Tommy Tucker
  ,43/02/24 , 135 ,Skinnay Ennis
  ,43/02/25 , 136 ,Jan Savitt
  ,43/02/26 , 137 ,Teddy Powell
  ,43/02/27 , 138 ,Horace Heidt
  ,43/03/01 , 139 ,Horace Heidt
  ,43/03/02 , 140 ,Bernie Cummins
  ,43/03/03 , 141 ,Jerry Wald
  ,43/03/04 , 142 ,Andy Kirk
  ,43/03/05 , 143 ,Johnny Long
  ,43/03/06 , 144 ,Lawrence Welk
  ,43/03/08 , 145 ,Bobby Sherwood
* ,43/03/09 , 146 ,Ina Ray Hutton, First Song - Blue Skies
  ,43/03/10 , 147 ,Frankie Masters
  ,43/03/11 , 148 ,Henry King
  ,43/03/12 , 149 ,Horace Heidt
  ,43/03/13 , 150 ,Harry James
  ,43/03/15 , 151 ,Tommy Tucker
  ,43/03/16 , 152 ,Jimmie Lunceford
  ,43/03/17 , 153 ,Vaughn Monroe
  ,43/03/18 , 154 ,Jan Garber
  ,43/03/19 , 155 ,Tommy Dorsey
  ,43/03/20 , 156 ,Sammy Kaye
  ,43/03/22 , 157 ,Hal McIntyre
  ,43/03/23 , 158 ,Richard Himber
  ,43/03/24 , 159 ,Pre-empted for Metropolitan Life 75th Anniversary program
  ,43/03/25 , 160 ,Tommy Dorsey
* ,43/03/26 , 161 ,Bob Strong
  ,43/03/27 , 162 ,Richard Himber
* ,43/03/29 , 163 ,Tommy Dorsey, First Song - March Of The Toys
* ,43/03/30 , 164 ,Joe Reichman, First Song - Begin The Beguine
  ,43/03/31 , 165 ,Xavier Cugat
* ,43/04/01 , 166 ,Andy Kirk, First Song - Ridin' Along
  ,43/04/02 , 167 ,Richard Himber
  ,43/04/03 , 168 ,Jan Savitt
  ,43/04/05 , 169 ,Ted Lewis
  ,43/04/06 , 170 ,Gene Krupa
  ,43/04/07 , 171 ,Count Basie
  ,43/04/08 , 172 ,Horace Heidt
  ,43/04/09 , 173 ,Pre-empted for address by Navy Secretary Frank Knox
  ,43/04/10 , 174 ,Tommy Dorsey
* ,43/04/12 , 175 ,Bob Chester, First Song - Blue Skies
* ,43/04/13 , 176 ,Ina Ray Hutton, First Song - Hallelujah
  ,43/04/14 , 177 ,Jack Teagarden
  ,43/04/15 , 178 ,Horace Heidt
  ,43/04/16 , 179 ,Gene Krupa
  ,43/04/17 , 180 ,Raymond Paige
  ,43/04/19 , 181 ,Ted Fio Rito
  ,43/04/20 , 182 ,Jan Garber
  ,43/04/21 , 183 ,Les Brown
  ,43/04/22 , 184 ,Lou Breese
  ,43/04/23 , 185 ,Blue Barron
  ,43/04/24 , 186 ,Will Osborne
  ,43/04/26 , 187 ,Pre-empted for address by Undersecretary of War Patterson
  ,43/04/27 , 188 ,Les Brown
  ,43/04/28 , 189 ,Jan Garber
  ,43/04/29 , 190 ,Richard Himber
  ,43/04/30 , 191 ,Frankie Masters
  ,43/05/01 , 192 ,Tony Pastor
  ,43/05/03 , 193 ,Frankie Masters
  ,43/05/04 , 194 ,Abe Lyman
  ,43/05/05 , 195 ,Jan Garber
  ,43/05/06 , 196 ,Richard Himber
  ,43/05/07 , 197 ,Carmen Cavallaro
  ,43/05/08 , 198 ,Ozzie Nelson
  ,43/05/10 , 199 ,Abe Lyman
  ,43/05/11 , 200 ,Cab Calloway
* ,43/05/12 , 201 ,Bob Chester, First Song - Blue Skies
  ,43/05/13 , 202 ,Blue Barron
* ,43/05/14 , 203 ,Sonny Dunham, First Song - unknown
  ,43/05/15 , 204 ,Vincent Lopez
  ,43/05/17 , 205 ,Woody Herman
  ,43/05/18 , 206 ,Bob Strong
  ,43/05/19 , 207 ,Tony Pastor
  ,43/05/20 , 208 ,Johnny Long
* ,43/05/21 , 209 ,Ina Ray Hutton, First Song - Johnny Zero
  ,43/05/22 , 210 ,Abe Lyman
  ,43/05/24 , 211 ,Hal McIntyre
  ,43/05/25 , 212 ,Ted Fio Rito
  ,43/05/26 , 213 ,Tommy Tucker
  ,43/05/27 , 214 ,Richard Himber
* ,43/05/28 , 215 ,Mitchell Ayres, First Song - Beyond The Blue Horizon
* ,43/05/29 , 216 ,Tommy Tucker, First Song - No, No, No
* ,43/05/31 , 217 ,Teddy Powell, First Song - Limehouse Blues
* ,43/06/01 , 218 ,Ina Ray Hutton, First Song - Remember
  ,43/06/02 , 219 ,Eddy Howard
  ,43/06/03 , 220 ,Will Osborne
  ,43/06/04 , 221 ,Horace Heidt
  ,43/06/05 , 222 ,Lionel Hampton
  ,43/06/07 , 223 ,Bobby Sherwood
  ,43/06/08 , 224 ,Russ Morgan
  ,43/06/09 , 225 ,Bernie Cummins
  ,43/06/10 , 226 ,Horace Heidt
  ,43/06/11 , 227 ,Joe Reichman
  ,43/06/12 , 228 ,Buddy Franklin
  ,43/06/14 , 229 ,Louis Prima
  ,43/06/15 , 230 ,Frankie Masters
  ,43/06/16 , 231 ,Ted Fio Rito
  ,43/06/17 , 232 ,Tommy Dorsey
  ,43/06/18 , 233 ,Shep Fields
  ,43/06/19 , 234 ,Jan Savitt
  ,43/06/21 , 235 ,Abe Lyman
  ,43/06/22 , 236 ,Russ Morgan
  ,43/06/23 , 237 ,Tommy Tucker
  ,43/06/24 , 238 ,Blue Barron
* ,43/06/25 , 239 ,Richard Himber
* ,43/06/26 , 240 ,Benny Goodman
  ,43/06/28 , 241 ,George Olsen
  ,43/06/29 , 242 ,Andy Kirk
* ,43/06/30 , 243 ,Ina Ray Hutton, First Song - Blue Skies
  ,43/07/01 , 244 ,Eddy Howard
  ,43/07/02 , 245 ,Juan Garcia Esquivel
  ,43/07/03 , 246 ,Alvino Rey
  ,43/07/05 , 247 ,Blue Barron
  ,43/07/06 , 248 ,George Olsen
  ,43/07/07 , 249 ,Charlie Barnet
  ,43/07/08 , 250 ,Louis Armstrong
  ,43/07/09 , 251 ,Tony Pastor
  ,43/07/10 , 252 ,Richard Himber
* ,43/07/12 , 253 ,Louis Prima
* ,43/07/13 , 254 ,George Olsen
  ,43/07/14 , 255 ,Eddy Howard
* ,43/07/15 , 256 ,Vincent Lopez, First Song - I'm Going Back To Where I Come From
  ,43/07/16 , 257 ,George Olsen
  ,43/07/17 , 258 ,Tommy Tucker
  ,43/07/19 , 259 ,George Olsen
* ,43/07/20 , 260 ,Les Brown, First Song - Wonderful, Worrisome Feeling
* ,43/07/21 , 261 ,Shep Fields, First Song - Sheik of Araby
  ,43/07/22 , 262 ,Frankie Masters
  ,43/07/23 , 263 ,George Olsen
* ,43/07/24 , 264 ,Xavier Cugat, First Song - Bim Bam Boom
* ,43/07/26 , 265 ,Ozzie Nelson, First Song - You'll Never Know
* ,43/07/27 , 266 ,Al Donahue, First Song - Russian Lullaby
  ,43/07/28 , 267 ,Pre-empted by FDR address
  ,43/07/29 , 268 ,Kay Kyser
  ,43/07/30 , 269 ,Frankie Masters
* ,43/07/31 , 270 ,Teddy Powell, First Song - Pale Moon
  ,43/08/02 , 271 ,Xavier Cugat
  ,43/08/03 , 272 ,Richard Himber
  ,43/08/04 , 273 ,Jan Savitt
  ,43/08/05 , 274 ,Russ Morgan
  ,43/08/06 , 275 ,Hal McIntyre
  ,43/08/07 , 276 ,Gracie Barrie
  ,43/08/09 , 277 ,Freddy Martin
  ,43/08/10 , 278 ,Les Brown
  ,43/08/11 , 279 ,Bobby Sherwood
* ,43/08/12 , 280 ,Jerry Wald, First Song - Canteen Bounce
  ,43/08/13 , 281 ,Joe Sanders
  ,43/08/14 , 282 ,Will Osborne
  ,43/08/16 , 283 ,Tony Pastor
* ,43/08/17 , 284 ,Louis Armstrong, First Song - I Never Knew
* ,43/08/18 , 285 ,Jack Teagarden, First Song - Wolverine Blues
* ,43/08/19 , 286 ,Russ Morgan, First Song - Hold Everything
* ,43/08/20 , 287 ,Tommy Tucker, First Song - Begin The Beguine
  ,43/08/21 , 288 ,Louis Armstrong
* ,43/08/23 , 289 ,Bob Chester, First Song - The Bounce
  ,43/08/24 , 290 ,Stan Kenton
  ,43/08/25 , 291 ,Sonny Dunham
* ,43/08/26 , 292 ,Will Osborne
  ,43/08/27 , 293 ,Raymond Paige
* ,43/08/28 , 294 ,Bob Crosby, First Song - They're Either Too Young Or Too Old
  ,43/08/30 , 295 ,Xavier Cugat
  ,43/08/31 , 296 ,Tommy Tucker
  ,43/09/01 , 297 ,Del Courtney
* ,43/09/02 , 298 ,Jan Savitt, First Song - George
  ,43/09/03 , 299 ,Vincent Lopez
* ,43/09/04 , 300 ,Tommy Dorsey, First Song - I Found A New Baby
  ,43/09/06 , 301 ,Woody Herman
  ,43/09/07 , 302 ,Les Brown
  ,43/09/08 , 303 ,Pre-empted by Third War Loan Drive program
  ,43/09/09 , 304 ,Pre-empted by War Bond Drive program from Carnegie Hall
  ,43/09/10 , 305 ,Jan Savitt
  ,43/09/11 , 306 ,Richard Himber
* ,43/09/13 , 307 ,Jan Garber, First Song - San Fernando Valley
* ,43/09/14 , 308 ,Richard Himber, First Song - Hallelujah
  ,43/09/15 , 309 ,Will Osborne
  ,43/09/16 , 310 ,Tony Pastor
  ,43/09/17 , 311 ,Bob Allen
* ,43/09/18 , 312 ,Ina Ray Hutton, Songs - In My Arms, Star Eyes, King Porter Stomp
  ,43/09/20 , 313 ,Jack Teagarden
* ,43/09/21 , 314 ,Alvino Rey, First Song - Lullaby of Broadway
  ,43/09/22 , 315 ,Jan Garber
* ,43/09/23 , 316 ,Bobby Sherwood, First Song - Don't Worry
* ,43/09/24 , 317 ,Bob Strong, First Song - Close To You
* ,43/09/25 , 318 ,Benny Goodman, First Song - After You've Gone
  ,43/09/27 , 319 ,Blue Barron
* ,43/09/28 , 320 ,Alvino Rey, First Song - The Man I Love
* ,43/09/29 , 321 ,Benny Goodman, First Song - Sugar Foot Stomp
  ,43/09/30 , 322 ,Eddy Howard
  ,43/10/01 , 323 ,Al Donahue
  ,43/10/02 , 324 ,Jerry Wald
  ,43/10/04 , 325 ,Tommy Dorsey
  ,43/10/05 , 326 ,Teddy Powell
  ,43/10/06 , 327 ,Lionel Hampton
  ,43/10/07 , 328 ,Richard Himber
  ,43/10/08 , 329 ,Les Brown
  ,43/10/09 , 330 ,George Olsen
* ,43/10/11 , 331 ,Tommy Dorsey, First Song - Song Of India
* ,43/10/12 , 332 ,Ted Fio Rito, First Song - C-Jam Blues
  ,43/10/13 , 333 ,Stan Kenton
  ,43/10/14 , 334 ,Shep Fields
  ,43/10/15 , 335 ,Russ Morgan
  ,43/10/16 , 336 ,Abe Lyman
  ,43/10/18 , 337 ,Tommy Dorsey
  ,43/10/19 , 338 ,Alvino Rey
  ,43/10/20 , 339 ,Russ Morgan
  ,43/10/21 , 340 ,Abe Lyman
  ,43/10/22 , 341 ,Jan Savitt
  ,43/10/23 , 342 ,Boyd Raeburn
  ,43/10/25 , 343 ,Tommy Dorsey
  ,43/10/26 , 344 ,Joe Reichman
  ,43/10/27 , 345 ,Ray Andrada
* ,43/10/28 , 346 ,Jan Savitt, First Song - Georgia On My Mind
  ,43/10/29 , 347 ,George Olsen
  ,43/10/30 , 348 ,Freddie Slack
  ,43/11/01 , 349 ,Tommy Dorsey
  ,43/11/02 , 350 ,Jan Savitt
  ,43/11/03 , 351 ,Shep Fields
* ,43/11/04 , 352 ,Teddy Powell, First Song - Limehouse Blues
* ,43/11/05 , 353 ,Jack Teagarden, First Song - Swingin' On A Teagarden Gate
  ,43/11/06 , 354 ,Herbie Kay
* ,43/11/08 , 355 ,Tommy Dorsey, First Song - Three Little Words
* ,43/11/09 , 356 ,Ted Fio Rito, First Song - I Never Knew
* ,43/11/10 , 357 ,Al Donahue, First Song - Alabamy Bound
* ,43/11/11 , 358 ,Will Osborne, First Song - Shoo Shoo Baby
* ,43/11/12 , 359 ,Hal McIntyre, First Song - Sheep in the Meadow
* ,43/11/13 , 360 ,Richard Himber, First Song - Carioca
  ,43/11/15 , 361 ,Tommy Dorsey
  ,43/11/16 , 362 ,Eddy Howard
  ,43/11/17 , 363 ,Johnny Long
  ,43/11/18 , 364 ,Frankie Masters
  ,43/11/19 , 365 ,Glen Gray
* ,43/11/20 , 366 ,Hal McIntyre, Songs - Moon Dreams, Speak Low, more
* ,43/11/22 , 367 ,Freddy Martin, First Song - They're Either Too Young Or Too Old
  ,43/11/23 , 368 ,Vincent Lopez
* ,43/11/24 , 369 ,Mitchell Ayres, First Song - King Porter Stomp
  ,43/11/25 , 370 ,Jan Garber
  ,43/11/26 , 371 ,Russ Morgan
* ,43/11/27 , 372 ,Duke Ellington, First Song - Blue Skies
* ,43/11/29 , 373 ,Tommy Dorsey, First Song - Opus #1
  ,43/11/30 , 374 ,Russ Morgan
  ,43/12/01 , 375 ,Les Brown
  ,43/12/02 , 376 ,Mart Kenney
  ,43/12/03 , 377 ,Jose Sabre Marroquin
  ,43/12/04 , 378 ,Boyd Raeburn
* ,43/12/06 , 379 ,Tommy Dorsey, First Song - Somebody Loves Me
  ,43/12/07 , 380 ,Louis Armstrong
* ,43/12/08 , 381 ,Duke Ellington, First Song - Three-Cent Stomp
* ,43/12/09 , 382 ,Tony Pastor, Song - C-Jam Blues
* ,43/12/10 , 383 ,Les Brown, First Song - Caravan
  ,43/12/11 , 384 ,Bobby Sherwood
  ,43/12/13 , 385 ,Tommy Dorsey
  ,43/12/14 , 386 ,George Olsen
  ,43/12/15 , 387 ,Benny Goodman
* ,43/12/16 , 388 ,Hal McIntyre, First Song - Hairless Joe
  ,43/12/17 , 389 ,Richard Himber
* ,43/12/18 , 390 ,Dean Hudson, First Song - Swing With The Dean
* ,43/12/20 , 391 ,Freddy Martin, First Song - They're Either Too Young Or Too Old
  ,43/12/21 , 392 ,Louis Prima
  ,43/12/22 , 393 ,Mitchell Ayres
  ,43/12/23 , 394 ,Buddy Franklin
  ,43/12/24 , 395 ,Jan Savitt
  ,43/12/25 , 396 ,Vincent Lopez
  ,43/12/27 , 397 ,Jan Garber
  ,43/12/28 , 398 ,Mal Hallett
  ,43/12/29 , 399 ,Alvino Rey
  ,43/12/30 , 400 ,Art Kassel
  ,43/12/31 , 401 ,Teddy Powell
  ,44/01/01 , 402 ,Tony Pastor
  ,44/01/03 , 403 ,Charlie Spivak
  ,44/01/04 , 404 ,Johnny Long
  ,44/01/05 , 405 ,Vaughn Monroe
  ,44/01/06 , 406 ,Carmen Cavallaro
  ,44/01/07 , 407 ,Andy Kirk
* ,44/01/08 , 408 ,Jan Savitt, First Song - 720 In The Books
* ,44/01/10 , 409 ,Jan Garber
  ,44/01/11 , 410 ,Eddie Oliver
  ,44/01/12 , 411 ,Louis Prima
* ,44/01/13 , 412 ,Frankie Masters, First Song - Mississippi Dreamboat
  ,44/01/14 , 413 ,pre-empted for address by Secretary of the Navy Knox
  ,44/01/15 , 414 ,Jan Savitt
  ,44/01/17 , 415 ,Pre-empted for "Let's All Back the Attack" Fourth War Loan Drive program
* ,44/01/18 , 416 ,Esquire's All-American Jazz Band
  ,44/01/19 , 417 ,Frankie Masters
  ,44/01/20 , 418 ,Les Brown
  ,44/01/21 , 419 ,Abe Lyman
  ,44/01/22 , 420 ,Vincent Lopez
  ,44/01/24 , 421 ,Tommy Tucker
  ,44/01/25 , 422 ,Les Brown
  ,44/01/26 , 423 ,Frankie Masters
  ,44/01/27 , 424 ,Vaughn Monroe
  ,44/01/28 , 425 ,Boyd Raeburn
  ,44/01/29 , 426 ,Ted Fio Rito
  ,44/01/31 , 427 ,Sammy Kaye
* ,44/02/01 , 428 ,Ted Fio Rito, First Song - I Found A New Baby
  ,44/02/02 , 429 ,Alvino Rey
  ,44/02/03 , 430 ,Jan Savitt
  ,44/02/04 , 431 ,Jerry Wald
  ,44/02/05 , 432 ,Louis Armstrong
  ,44/02/07 , 433 ,Jan Garber
* ,44/02/08 , 434 ,Noble Sissle, First Song - The Skater's Waltz
  ,44/02/09 , 435 ,pre-empted by "It's Happening to Me", special Treasury show
* ,44/02/10 , 436 ,Bob Chester
  ,44/02/11 , 437 ,Alvino Rey
  ,44/02/12 , 438 ,Richard Himber
  ,44/02/14 , 439 ,Jan Garber
  ,44/02/15 , 440 ,Bob Strong
  ,44/02/16 , 441 ,Chet Sykes
* ,44/02/17 , 442 ,Frankie Masters, First Song - Paducah
* ,44/02/18 , 443 ,Bob Chester, First Song - Rollo Get With It
  ,44/02/19 , 444 ,Jan Savitt
  ,44/02/21 , 445 ,Les Brown
  ,44/02/22 , 446 ,Dean Hudson
  ,44/02/23 , 447 ,Stan Kenton
  ,44/02/24 , 448 ,Tommy Tucker
  ,44/02/25 , 449 ,Jan Savitt
  ,44/02/26 , 450 ,Frankie Masters
  ,44/02/28 , 451 ,Tommy Tucker
  ,44/02/29 , 452 ,Johnny Richards
* ,44/03/01 , 453 ,Frankie Masters, First Song - What Do You Do In The Infantry
  ,44/03/02 , 454 ,Teddy Powell
  ,44/03/03 , 455 ,Frankie Masters
  ,44/03/04 , 456 ,Stan Kenton
  ,44/03/06 , 457 ,Frankie Masters
  ,44/03/07 , 458 ,Mal Hallett
* ,44/03/08 , 459 ,Charlie Agnew, First Song - Liza
  ,44/03/09 , 460 ,Stan Kenton
  ,44/03/10 , 461 ,Les Brown
  ,44/03/11 , 462 ,Louis Prima
* ,44/03/13 , 463 ,Ina Ray Hutton, First Song - Rose Room
  ,44/03/14 , 464 ,Bob Chester
  ,44/03/15 , 465 ,Hal McIntyre
  ,44/03/16 , 466 ,Jan Garber
  ,44/03/17 , 467 ,Jan Savitt
* ,44/03/18 , 468 ,Denny Beckner, First Song - Anvil Chorus
  ,44/03/20 , 469 ,Gonzalo Curiel
  ,44/03/21 , 470 ,Frankie Masters
  ,44/03/22 , 471 ,Lawrence Welk
* ,44/03/23 , 472 ,Shep Fields, First Song - Shoo Shoo Baby
* ,44/03/24 , 473 ,Tommy Dorsey, First Song - Shoo Shoo Baby
  ,44/03/25 , 474 ,Louis Armstrong
  ,44/03/27 , 475 ,Tommy Dorsey
* ,44/03/28 , 476 ,Jan Savitt, First Song - 720 In The Books
  ,44/03/29 , 477 ,Blue Barron
* ,44/03/30 , 478 ,Denny Beckner, First Song - Three Little Words
* ,44/03/31 , 479 ,Les Brown, First Song - A Fine Romance
  ,44/04/01 , 480 ,Richard Himber
  ,44/04/03 , 481 ,Tommy Tucker
  ,44/04/04 , 482 ,Eddie Oliver
* ,44/04/05 , 483 ,Ina Ray Hutton, First Song - King Porter Stomp
* ,44/04/06 , 484 ,Denny Beckner, First Song - Cherokee
* ,44/04/07 , 485 ,Tommy Dorsey, First Song - Song Of India
* ,44/04/08 , 486 ,Russ Morgan, First Song - Poinciana
* ,44/04/10 , 487 ,Henry King, First Song - San Fernando Valley
  ,44/04/11 , 488 ,Louis Prima
* ,44/04/12 , 489 ,Shep Fields, First Song - Pizzacata
  ,44/04/13 , 490 ,Jan Garber
  ,44/04/14 , 491 ,Frankie Masters
  ,44/04/15 , 492 ,Alfonso D'Artega
* ,44/04/17 , 493 ,Tommy Dorsey, First Song - Minor Goes A'Muggin'
  ,44/04/18 , 494 ,Bob Wills
  ,44/04/19 , 495 ,Shep Fields
  ,44/04/20 , 496 ,Russ Morgan
  ,44/04/21 , 497 ,Carl Ravazza
* ,44/04/22 , 498 ,Eddy Howard, First Song - Of Thee I Sing
* ,44/04/24 , 499 ,Tommy Dorsey, First Song - Opus #1
  ,44/04/25 , 500 ,Bob Strong
  ,44/04/26 , 501 ,Francis Craig
* ,44/04/27 , 502 ,Will Osborne, First Song - Hindu Tea Dance
* ,44/04/28 , 503 ,Bernie Cummins, First Song - Everybody Loves My Baby
  ,44/04/29 , 504 ,Les Brown
  ,44/05/01 , 505 ,Tommy Dorsey
* ,44/05/02 , 506 ,Frankie Masters, First Song - Kentucky
  ,44/05/03 , 507 ,Hal McIntyre
  ,44/05/04 , 508 ,Frankie Masters
  ,44/05/05 , 509 ,Sammy Kaye
* ,44/05/06 , 510 ,Ted Fio Rito, First Song - My Heart Filled With Love
* ,44/05/08 , 511 ,Tommy Dorsey, First Song - Somebody Loves Me
  ,44/05/09 , 512 ,Eddy Howard
  ,44/05/10 , 513 ,Sammy Kaye
  ,44/05/11 , 514 ,Jan Savitt
  ,44/05/12 , 515 ,Lawrence Welk
  ,44/05/13 , 516 ,Gus Arnheim
* ,44/05/15 , 517 ,Tommy Dorsey, First Song - It's Love, Love, Love
* ,44/05/16 , 518 ,Frankie Masters, First Song - Medley - I'll Be Seeing You, I Only Have Eyes For You
  ,44/05/17 , 519 ,Johnny Long
  ,44/05/18 , 520 ,Frankie Masters
  ,44/05/19 , 521 ,Tommy Tucker
* ,44/05/20 , 522 ,Mal Hallett, First Song - Margie
* ,44/05/22 , 523 ,Russ Morgan, First Song - Flower of Dawn
  ,44/05/23 , 524 ,Les Brown
  ,44/05/24 , 525 ,Eddy Howard
* ,44/05/25 , 526 ,Les Brown, First Song - 9:20 Special
  ,44/05/26 , 527 ,Bernie Cummins
* ,44/05/27 , 528 ,Tommy Dorsey, First Song - Song of India
  ,44/05/29 , 529 ,Russ Morgan
  ,44/05/30 , 530 ,Shep Fields
  ,44/05/31 , 531 ,Jan Savitt
  ,44/06/01 , 532 ,Bob Chester
  ,44/06/02 , 533 ,Frankie Masters
  ,44/06/03 , 534 ,Louis Prima
  ,44/06/05 , 535 ,Russ Morgan
  ,44/06/06 , 536 ,Frankie Masters
  ,44/06/07 , 537 ,Louis Armstrong
  ,44/06/08 , 538 ,Tommy Tucker
  ,44/06/09 , 539 ,Shep Fields
  ,44/06/10 , 540 ,Clyde Lucas
  ,44/06/12 , 541 ,band unknown, possibly pre-empted
* ,44/06/13 , 542 ,Harry James, First Song - Perdido
  ,44/06/14 , 543 ,Will Osborne
  ,44/06/15 , 544 ,Teddy Powell
  ,44/06/16 , 545 ,Jerry Wald
  ,44/06/17 , 546 ,Will Osborne
  ,44/06/19 , 547 ,band unknown, possibly pre-empted
  ,44/06/20 , 548 ,Louis Prima
  ,44/06/21 , 549 ,Charlie Barnet
  ,44/06/22 , 550 ,Tommy Tucker
* ,44/06/23 , 551 ,Ina Ray Hutton, First Song - All Of Me
* ,44/06/24 , 552 ,Mitchell Ayres, First Song - Everybody Loves My Baby
  ,44/06/26 , 553 ,Tommy Tucker
* ,44/06/27 , 554 ,Jan Garber, First Song - Swanee River
* ,44/06/28 , 555 ,Henry King, First Song - I'll Walk Alone
  ,44/06/29 , 556 ,George Olsen
  ,44/06/30 , 557 ,Denny Beckner
  ,44/07/01 , 558 ,Will Osborne
  ,44/07/03 , 559 ,Russ Morgan
* ,44/07/04 , 560 ,Harry James, First Song - Wildcat Stomp
* ,44/07/05 , 561 ,George Olsen, First Song - Bubbles In The Wine
* ,44/07/06 , 562 ,Jan Garber, First Song - Margie
* ,44/07/07 , 563 ,Frankie Carle, First Song - Pretty Kitty Blue Eyes
* ,44/07/08 , 564 ,Duke Ellington, First Song - GI Jive
  ,44/07/10 , 565 ,Glen Gray
* ,44/07/11 , 566 ,Jan Garber, First Song - When The Red, Red Robin Comes Bob, Bob, Bobbin' Along
* ,44/07/12 , 567 ,Abe Lyman, First Song - I Found A New Baby
  ,44/07/13 , 568 ,Harry James
  ,44/07/14 , 569 ,Johnny Long
* ,44/07/15 , 570 ,Chuck Foster, First Song - Lullaby of Broadway
* ,44/07/17 , 571 ,Frankie Masters
* ,44/07/18 , 572 ,Frankie Carle, First Song - Missouri Waltz
* ,44/07/19 , 573 ,Jan Garber, First Song - Swanee River
* ,44/07/20 , 574 ,Vaughn Monroe, First Song - Dardanella
* ,44/07/21 , 575 ,Freddy Martin, First Song - Limehouse Blues
  ,44/07/22 , 576 ,Cab Calloway
  ,44/07/24 , 577 ,Ted Weems
* ,44/07/25 , 578 ,Lionel Hampton, First Song - Amor
* ,44/07/26 , 579 ,Al Donahue, First Song - In A Little Spanish Town
  ,44/07/27 , 580 ,Harry James
* ,44/07/28 , 581 ,Del Courtney, First Song - Come Out, Wherever You Are
  ,44/07/29 , 582 ,Eddy Howard
  ,44/07/31 , 583 ,Henry King
  ,44/08/01 , 584 ,Shep Fields
  ,44/08/02 , 585 ,Andy Kirk
  ,44/08/03 , 586 ,Harry James
  ,44/08/04 , 587 ,Ted Fio Rito
  ,44/08/05 , 588 ,Stan Kenton
  ,44/08/07 , 589 ,Bob Strong
  ,44/08/08 , 590 ,Jan Savitt
  ,44/08/09 , 591 ,Tony Pastor
* ,44/08/10 , 592 ,Harry James, First Song - Jump Town
* ,44/08/11 , 593 ,Louis Prima, First Song - Dolly With A Hole In Her Stocking
  ,44/08/12 , 594 ,Xavier Cugat
* ,44/08/14 , 595 ,Eddie Oliver, First Song - Swingin' On A Star
  ,44/08/15 , 596 ,Jan Garber
  ,44/08/16 , 597 ,George Olsen
* ,44/08/17 , 598 ,Harry James
* ,44/08/18 , 599 ,Louis Armstrong, First Song - Louise
  ,44/08/19 , 600 ,Boyd Raeburn
  ,44/08/21 , 601 ,George Olsen
* ,44/08/22 , 602 ,Bob Chester, First Song - Blue Skies
* ,44/08/23 , 603 ,Bobby Sherwood, First Song - Softly, As In The Morning Sunrise
* ,44/08/24 , 604 ,Harry James, First Song - Somebody Loves Me
* ,44/08/25 , 605 ,Bob Chester, First Song - Speak Low
  ,44/08/26 , 606 ,Jan Garber
  ,44/08/28 , 607 ,Bob Strong
  ,44/08/29 , 608 ,Harry James
  ,44/08/30 , 609 ,Eddie Oliver
  ,44/08/31 , 610 ,Clyde Lucas
  ,44/09/01 , 611 ,Bob Chester
  ,44/09/02 , 612 ,Mal Hallett
  ,44/09/04 , 613 ,Del Courtney
* ,44/09/05 , 614 ,Les Brown, First Song - Out Of Nowhere
  ,44/09/06 , 615 ,Louis Prima
* ,44/09/07 , 616 ,Jimmy Dorsey, First Song - King Porter Stomp
* ,44/09/08 , 617 ,Jan Garber, First Song - Old Black Joe
  ,44/09/09 , 618 ,Jimmy Joy
  ,44/09/11 , 619 ,Jimmy Dorsey
  ,44/09/12 , 620 ,Louis Armstrong
  ,44/09/13 , 621 ,Frankie Masters
  ,44/09/14 , 622 ,Harry James
  ,44/09/15 , 623 ,Bobby Sherwood
  ,44/09/16 , 624 ,Louis Prima
  ,44/09/18 , 625 ,Dean Hudson
  ,44/09/19 , 626 ,Sonny Dunham
  ,44/09/20 , 627 ,Harry James
  ,44/09/21 , 628 ,Tommy Tucker
  ,44/09/22 , 629 ,Glen Gray
* ,44/09/23 , 630 ,Tommy Tucker, First Song - Swanee River
* ,44/09/25 , 631 ,Xavier Cugat, First Song - Tico Tico
  ,44/09/26 , 632 ,Clyde Lucas
  ,44/09/27 , 633 ,Tommy Tucker
* ,44/09/28 , 634 ,Harry James, First Song - Just You, Just Me
* ,44/09/29 , 635 ,Bob Strong, First Song - What Is This Thing Called Love
* ,44/09/30 , 636 ,Louis Prima, First Song - Robin Hood
* ,44/10/02 , 637 ,Gene Krupa, First Song - Blue Moon
  ,44/10/03 , 638 ,Jan Garber
  ,44/10/04 , 639 ,Frankie Masters
  ,44/10/05 , 640 ,Tommy Tucker
  ,44/10/06 , 641 ,Louis Armstrong
* ,44/10/07 , 642 ,Les Brown, First Song - Mexican Hat Dance
  ,44/10/09 , 643 ,Gene Krupa
* ,44/10/10 , 644 ,Xavier Cugat, First Song - Chiu Chiu
* ,44/10/11 , 645 ,Tommy Dorsey, First Song - There'll Be A Hot Time In The Town Of Berlin
  ,44/10/12 , 646 ,Les Brown
  ,44/10/13 , 647 ,George Hamilton
  ,44/10/14 , 648 ,Tommy Tucker
  ,44/10/16 , 649 ,Dean Hudson
  ,44/10/17 , 650 ,Les Brown
  ,44/10/18 , 651 ,pre-empted by Gov. Dewey address to NY Herald Tribune forum
  ,44/10/19 , 652 ,Gene Krupa
  ,44/10/20 , 653 ,Al Donahue
  ,44/10/21 , 654 ,pre-empted by FDR address to foreign policy association
* ,44/10/23 , 655 ,Gene Krupa, First Song - Futurama
  ,44/10/24 , 656 ,Vincent Lopez
  ,44/10/25 , 657 ,pre-empted by Democratic campaign talk by Quentin Reynolds
* ,44/10/26 , 658 ,Louis Armstrong, First Song - Louise
  ,44/10/27 , 659 ,band unknown, possible pre-emption for Navy Day Celebration
  ,44/10/28 , 660 ,Jerry Wald
  ,44/10/30 , 661 ,Charlie Barnet
  ,44/10/31 , 662 ,Tommy Dorsey
* ,44/11/01 , 663 ,Lionel Hampton, First Song - Overtime
  ,44/11/02 , 664 ,George Hamilton
  ,44/11/03 , 665 ,pre-empted for Gov. John W. Bricker campaign address
  ,44/11/04 , 666 ,Jerry Wald
  ,44/11/06 , 667 ,Gene Krupa
  ,44/11/07 , 668 ,pre-empted for election returns
* ,44/11/08 , 669 ,Jack Teagarden, First Song - Shine
  ,44/11/09 , 670 ,Shep Fields
  ,44/11/10 , 671 ,Freddy Martin
* ,44/11/11 , 672 ,Tommy Tucker, First Song - Is You Is Or Is You Ain't My Baby
* ,44/11/13 , 673 ,Gene Krupa, First Song - Whispering
  ,44/11/14 , 674 ,Xavier Cugat
  ,44/11/15 , 675 ,Freddie Slack
  ,44/11/16 , 676 ,Jack Teagarden
  ,44/11/17 , 677 ,Lionel Hampton
* ,44/11/18 , 678 ,Ted Fio Rito
* ,44/11/20 , 679 ,Les Brown
  ,44/11/21 , 680 ,Xavier Cugat
  ,44/11/22 , 681 ,Eddie Oliver
  ,44/11/23 , 682 ,Tony Pastor
  ,44/11/24 , 683 ,Ted Fio Rito
* ,44/11/25 , 684 ,Tommy Dorsey
  ,44/11/27 , 685 ,Gene Krupa
  ,44/11/28 , 686 ,Charlie Spivak
  ,44/11/29 , 687 ,Ted Fio Rito
* ,44/11/30 , 688 ,Harry James, First Song - Blue Skies
  ,44/12/01 , 689 ,Lawrence Welk
  ,44/12/02 , 690 ,Jack Teagarden
  ,44/12/04 , 691 ,Louis Prima
* ,44/12/05 , 692 ,Harry James, First Song - Perdido
  ,44/12/06 , 693 ,George Olsen
* ,44/12/07 , 694 ,Ted Weems, First Song - Dark Eyes
* ,44/12/08 , 695 ,Les Brown, First Song - Blue Skies
  ,44/12/09 , 696 ,Eddy Howard
  ,44/12/11 , 697 ,Harry James
  ,44/12/12 , 698 ,Bob Strong
  ,44/12/13 , 699 ,Denny Beckner
  ,44/12/14 , 700 ,Ted Weems
  ,44/12/15 , 701 ,Art Kassel
  ,44/12/16 , 702 ,Sammy Kaye
  ,44/12/18 , 703 ,Russ Morgan
  ,44/12/19 , 704 ,Jack Teagarden
  ,44/12/20 , 705 ,Jan Garber
  ,44/12/21 , 706 ,Jan Savitt
  ,44/12/22 , 707 ,Eddy Howard
  ,44/12/23 , 708 ,Gene Krupa
  ,44/12/25 , 709 ,Gene Krupa
  ,44/12/26 , 710 ,Frankie Masters
  ,44/12/27 , 711 ,Emil Vandas
  ,44/12/28 , 712 ,Bobby Meeker
* ,44/12/29 , 713 ,Jan Savitt, First Song - Together
  ,44/12/30 , 714 ,Jack Teagarden
* ,45/01/01 , 715 ,Tony Pastor, First Song - Avalon
* ,45/01/02 , 716 ,Bobby Sherwood, First Song - The Girl Friend
  ,45/01/03 , 717 ,Jan Savitt
  ,45/01/04 , 718 ,Henry King
  ,45/01/05 , 719 ,Denny Beckner
* ,45/01/06 , 720 ,Jimmy Joy, First Song - Blue Skies
* ,45/01/08 , 721 ,Will Osborne, First Song - Whispering
* ,45/01/09 , 722 ,Bob Strong, First Song - What Is This Thing Called Love
* ,45/01/10 , 723 ,Lawrence Welk, First Song - I'm Gonna See My Baby
* ,45/01/11 , 724 ,Tommy Tucker, First Song - On The Sunny Side Of The Street
* ,45/01/12 , 725 ,Clyde Lucas, First Song - Somebody Loves Me
* ,45/01/13 , 726 ,Jan Savitt, First Song - Lullaby of Broadway
* ,45/01/15 , 727 ,Louis Prima, First Song - Robin Hood
* ,45/01/16 , 728 ,Frankie Masters, First Song - Please Don't Say No
  ,45/01/17 , 729 ,Charlie Barnet
* ,45/01/18 , 730 ,Bobby Sherwood, First Song - Lover Come Back To Me
* ,45/01/19 , 731 ,Charlie Spivak, First Song - Into Each Life A Little Rain Must Fall
  ,45/01/20 , 732 ,Sonny Dunham
  ,45/01/22 , 733 ,Shep Fields
  ,45/01/23 , 734 ,Bob Strong
  ,45/01/24 , 735 ,Lawrence Welk
  ,45/01/25 , 736 ,Jan Garber
  ,45/01/26 , 737 ,band unknown
  ,45/01/27 , 738 ,Jan Savitt
  ,45/01/29 , 739 ,Tommy Dorsey
  ,45/01/30 , 740 ,Tommy Tucker
  ,45/01/31 , 741 ,Ted Lewis
  ,45/02/01 , 742 ,Johnny Long
  ,45/02/02 , 743 ,Tommy Tucker
  ,45/02/03 , 744 ,Bernie Cummins
  ,45/02/05 , 745 ,Tommy Dorsey
* ,45/02/06 , 746 ,Vincent Lopez, First Song - Don't Fence Me In
* ,45/02/07 , 747 ,Tommy Tucker, First Song - On The Sunny Side Of The Street
  ,45/02/08 , 748 ,Ted Lewis
  ,45/02/09 , 749 ,Andy Kirk
* ,45/02/10 , 750 ,Jimmy Dorsey, First Song - King Porter Stomp
* ,45/02/12 , 751 ,Tommy Dorsey, First Song - I'm Beginning To See The Light
* ,45/02/13 , 752 ,Jan Garber, First Song - Carolina Moon
  ,45/02/14 , 753 ,Louis Prima
* ,45/02/15 , 754 ,Tommy Tucker, First Song - Tabu
  ,45/02/16 , 755 ,Del Courtney
  ,45/02/17 , 756 ,Eddie Stone
  ,45/02/19 , 757 ,Frankie Masters
  ,45/02/20 , 758 ,Clyde Lucas
  ,45/02/21 , 759 ,Ted Fio Rito
* ,45/02/22 , 760 ,Frankie Masters, First Song - Please Don't Say No
* ,45/02/23 , 761 ,Jan Garber, First Song - Swanee River
  ,45/02/24 , 762 ,Count Basie
  ,45/02/26 , 763 ,Tommy Dorsey
  ,45/02/27 , 764 ,Les Brown
  ,45/02/28 , 765 ,Denny Beckner
* ,45/03/01 , 766 ,Ted Weems
* ,45/03/02 , 767 ,Les Brown
  ,45/03/03 , 768 ,Sonny Dunham
  ,45/03/05 , 769 ,Tommy Dorsey
  ,45/03/06 , 770 ,Frankie Masters
  ,45/03/07 , 771 ,Jan Garber
* ,45/03/08 , 772 ,Lionel Hampton, First Song - Rockin' In Rhythm
  ,45/03/09 , 773 ,George Olsen
* ,45/03/10 , 774 ,Johnny Richards, First Song - Always
* ,45/03/12 , 775 ,Tommy Dorsey, First Song - Saturday Night
  ,45/03/13 , 776 ,Tony Pastor
* ,45/03/14 , 777 ,Charlie Barnet, First Song - Rockin' In Rhythm
* ,45/03/15 , 778 ,Benny Goodman, First Song - Frenesi
  ,45/03/16 , 779 ,Joe Sanders
* ,45/03/17 , 780 ,George Olsen, First Song - Poor Little Rhode Island
* ,45/03/19 , 781 ,Tommy Dorsey, First Song - You're Driving Me Crazy
* ,45/03/20 , 782 ,Benny Goodman, First Song - Spring Song
  ,45/03/21 , 783 ,Johnny Long
  ,45/03/22 , 784 ,Charlie Barnet
  ,45/03/23 , 785 ,George Olsen
  ,45/03/24 , 786 ,Mal Hallett
* ,45/03/26 , 787 ,Tommy Dorsey, First Song - On The Sunny Side Of The Street
  ,45/03/27 , 788 ,Bob Strong
  ,45/03/28 , 789 ,Tommy Tucker
* ,45/03/29 , 790 ,Lawrence Welk
* ,45/03/30 , 791 ,Gene Krupa
  ,45/03/31 , 792 ,Bob Strong
  ,45/04/02 , 793 ,Clyde Lucas
* ,45/04/03 , 794 ,Eddie Oliver, First Song - Saturday Night
* ,45/04/04 , 795 ,Bob Strong, First Song - Take The 'A' Train
  ,45/04/05 , 796 ,Stan Kenton
  ,45/04/06 , 797 ,Jerry Wald
* ,45/04/07 , 798 ,Les Brown, First Song - By The River Sainte Marie
  ,45/04/09 , 799 ,Ted Straeter
  ,45/04/10 , 800 ,Mal Hallett
  ,45/04/11 , 801 ,Gene Krupa
  ,45/04/12 , 802 ,Ted Fio Rito
  ,45/04/13 , 803 ,Nat Brandwynn
  ,45/04/14 , 804 ,pre-empted for coverage of death of FDR
  ,45/04/16 , 805 ,Jan Savitt
  ,45/04/17 , 806 ,Frankie Masters
  ,45/04/18 , 807 ,Louis Prima
* ,45/04/19 , 808 ,Les Brown, First Song - My Blue Heaven
* ,45/04/20 , 809 ,Charlie Spivak, First Song - Sweetheart Of All My Dreams
* ,45/04/21 , 810 ,Johnny Long, First Song - It's A Sin To Tell A Lie
* ,45/04/23 , 811 ,Ted Fio Rito, First Song - After You've Gone
* ,45/04/24 , 812 ,Gene Krupa, First Song - Blue Moon
* ,45/04/25 , 813 ,Les Brown, First Song - Blue Skies
* ,45/04/26 , 814 ,Tommy Tucker, First Song - Perdido
* ,45/04/27 , 815 ,Tommy Dorsey, First Song - You're Driving Me Crazy
* ,45/04/28 , 816 ,Ray Bauduc, First Song - Saturday Night
* ,45/04/30 , 817 ,Bernie Cummins, First Song - I've Got Rhythm
  ,45/05/01 , 818 ,Louis Prima
  ,45/05/02 , 819 ,Frankie Masters
  ,45/05/03 , 820 ,Tommy Dorsey
  ,45/05/04 , 821 ,Frankie Masters
  ,45/05/05 , 822 ,Charlie Barnet
  ,45/05/07 , 823 ,Bobby Sherwood
  ,45/05/08 , 824 ,Louis Prima
  ,45/05/09 , 825 ,Frankie Masters
* ,45/05/10 , 826 ,Tommy Dorsey, First Song - Any Old Time
  ,45/05/11 , 827 ,Charlie Barnet
  ,45/05/12 , 828 ,Mal Hallett
  ,45/05/14 , 829 ,Vincent Lopez
* ,45/05/15 , 830 ,Louis Prima, First Song - Caldonia
* ,45/05/16 , 831 ,Charlie Barnet, First Song - Caravan
  ,45/05/17 , 832 ,Frankie Masters
* ,45/05/18 , 833 ,Bobby Sherwood, First Song - T'aint Me
* ,45/05/19 , 834 ,Tommy Dorsey, First Song - Saturday Night
* ,45/05/21 , 835 ,Tommy Dorsey, First Song - I'm Beginning To See The Light
  ,45/05/22 , 836 ,Louis Prima
  ,45/05/23 , 837 ,Vincent Lopez
* ,45/05/24 , 838 ,Al Donahue, First Song - Laura
* ,45/05/25 , 839 ,Frankie Masters, First Song - I Don't Care Who Knows It
  ,45/05/26 , 840 ,Johnnie Morris
* ,45/05/28 , 841 ,George Olsen, First Song - What'cha Say
  ,45/05/29 , 842 ,Jan Garber
* ,45/05/30 , 843 ,Jerry Wald, First Song - A Friend Of Yours
* ,45/05/31 , 844 ,Bob Strong, First Song - Take The 'A' Train
* ,45/06/01 , 845 ,Tommy Tucker, First Song - unannounced
  ,45/06/02 , 846 ,Will Osborne
  ,45/06/04 , 847 ,George Olsen
  ,45/06/05 , 848 ,Jan Garber
* ,45/06/06 , 849 ,Ted Weems, First Song - My Baby Said Yes
  ,45/06/07 , 850 ,Mal Hallett
  ,45/06/08 , 851 ,Jan Garber
* ,45/06/09 , 852 ,Johnny Long, First Song - It's A Sin To Tell A Lie
* ,45/06/11 , 853 ,Ray Bauduc, First Song - Blue Moon
* ,45/06/12 , 854 ,Mal Hallett, First Song - My Buddy
* ,45/06/13 , 855 ,Louis Prima, First Song - Robin Hood
  ,45/06/14 , 856 ,Ted Weems
  ,45/06/15 , 857 ,Ted Weems
  ,45/06/16 , 858 ,Eddie Oliver
  ,45/06/18 , 859 ,Tommy Dorsey
  ,45/06/20 , 860 ,Vincent Lopez
  ,45/06/22 , 861 ,pre-empted for Double or Nothing followed by boxing
  ,45/06/25 , 862 ,Jan Savitt
  ,45/06/27 , 863 ,Duke Ellington
  ,45/06/29 , 864 ,pre-empted for address by Treasury Secretary Morgenthau
* ,45/07/02 , 865 ,Clyde Lucas, First Song - The One I Love Belongs To Somebody Else
  ,45/07/04 ,     ,Will Osborne
  ,45/07/06 ,     ,pre-empted for Double or Nothing followed by boxing
* ,45/07/09 ,     ,Glen Gray
  ,45/07/11 ,     ,Clyde Lucas
  ,45/07/13 ,     ,Charlie Barnet
  ,45/07/16 ,     ,Bob Strong
  ,45/07/18 ,     ,Al Donahue
* ,45/07/20 ,     ,Ted Fio Rito, First Song - Sun Valley Jump
* ,45/07/23 ,     ,Ted Weems, First Song - Good, Good, Good
  ,45/07/25 ,     ,Art Kassel
  ,45/07/27 ,     ,band unknown
* ,45/07/30 ,     ,Vincent Lopez, First Song - Warsaw Concerto
  ,45/08/01 ,     ,Charlie Barnet
* ,45/08/03 ,     ,Tommy Tucker, First Song - Taboo
* ,45/08/06 ,     ,Ted Fio Rito, First Song - After You've Gone
  ,45/08/08 ,     ,Johnnie Morris
* ,45/08/10 ,     ,Charlie Barnet, First Song - Skyliner
* ,45/08/13 , 881 ,Ted Fio Rito, First Song - Oklahoma
  ,45/08/15 , 882 ,Jimmy Palmer
* ,45/08/17 , 883 ,Gene Krupa, First Song - Lover
  ,45/08/20 , 884 ,Vincent Lopez
  ,45/08/22 , 885 ,Ted Fio Rito
* ,45/08/24 , 886 ,Jan Savitt, First Song - Rose Room
* ,45/08/27 , 887 ,Johnny Long, First Song - It's A Sin To Tell A Lie
  ,45/08/29 , 888 ,Bob Chester
* ,45/08/31 , 889 ,Joe Sanders, First Song - Blue Moon
  ,45/09/03 , 890 ,Vincent Lopez
  ,45/09/05 , 891 ,Tommy Dorsey
* ,45/09/07 , 892 ,Will Osborne, First Song - On The Atchison, Topeka And The Santa Fe
  ,45/09/10 , 893 ,Johnny Long
* ,45/09/12 , 894 ,Artie Shaw, First Song - Tabu
  ,45/09/14 , 895 ,Dean Hudson
  ,45/09/17 , 896 ,Lawrence Welk
* ,45/09/19 , 897 ,Artie Shaw, First Song - My Heart Stood Still
* ,45/09/21 , 898 ,Tony Pastor, First Song - Rosalie
* ,45/09/24 , 899 ,Louis Prima, First Song - St. Louis Blues
* ,45/09/26 , 900 ,Artie Shaw, First Song - Blue Skies
  ,45/09/28 , 901 ,Ray Bauduc
* ,45/10/01 , 902 ,Joe Reichman, First Song - On The Atchison, Topeka And The Santa Fe
* ,45/10/03 , 903 ,Artie Shaw, First Song - Bedford Drive
  ,45/10/05 , 904 ,Tommy Tucker
  ,45/10/08 , 905 ,Bob Chester
* ,45/10/10 , 906 ,Artie Shaw, First Song - Hindustan
* ,45/10/12 , 907 ,George Paxton, First Song - It Don't Mean A Thing
* ,45/10/15 , 908 ,Charlie Barnet, First Song - Back In Your Own Backyard
* ,45/10/17 , 909 ,Johnnie Morris, First Song - Who
  ,45/10/19 , 910 ,Frankie Masters
* ,45/10/22 , 911 ,Tommy Dorsey, First Song - You're Driving Me Crazy
  ,45/10/24 , 912 ,Frankie Masters
  ,45/10/26 , 913 ,Skinnay Ennis
  ,45/10/29 , 914 ,Tommy Tucker
* ,45/10/31 , 915 ,Louis Armstrong, First Song - Perdido
* ,45/11/02 , 916 ,Bob Strong, First Song - Cocktails For Two
* ,45/11/05 , 917 ,Tommy Dorsey, First Song - The Atchison, Topeka and the Santa Fe
  ,45/11/07 , 918 ,Ray Herbeck
* ,45/11/09 , 919 ,Eddy Howard, First Song - Whispering
* ,45/11/12 , 920 ,Lawrence Welk, First Song - Tampico
* ,45/11/14 , 921 ,Jan Garber, First Song - Paper Moon
* ,45/11/16 , 922 ,Buddy Morrow, First Song - Avalon
* ,45/11/19 , 923 ,Gene Krupa, First Song - Lover
  ,45/11/21 , 924 ,Bernie Cummins
* ,45/11/23 , 925 ,Jimmie Lunceford, First Song - Jeep Rhythm
* ,45/11/26 , 926 ,Bobby Sherwood, First Song - Elks Parade
* ,45/11/28 , 927 ,Tommy Tucker
  ,45/11/30 , 928 ,Henry King
  ,45/12/03 , 929 ,Frankie Masters
  ,45/12/05 , 930 ,Joe Reichman
* ,45/12/07 , 931 ,Frankie Masters, First Song - I Never Knew
* ,45/12/10 , 932 ,Les Brown, First Song - Please Don't Talk About Me When I'm Gone
  ,45/12/12 , 933 ,Frankie Masters
* ,45/12/14 , 934 ,Ted Lewis, First Song - Carle Boogie
  ,45/12/17 , 935 ,Frankie Masters
  ,45/12/19 , 936 ,Al Donahue
  ,45/12/21 , 937 ,Bob Crosby
* ,45/12/24 , 938 ,Buddy Rich, First Song - Cool Breeze
  ,45/12/26 , 939 ,Ted Fio Rito
  ,45/12/28 , 940 ,Will Osborne
  ,45/12/31 , 941 ,Joe Sanders
  ,46/01/02 , 942 ,Bob Chester
  ,46/01/04 , 943 ,Bob Crosby
  ,46/01/07 , 944 ,Louis Prima
  ,46/01/09 , 945 ,Jan Savitt
  ,46/01/11 , 946 ,Tommy Tucker
  ,46/01/14 , 947 ,Bob Strong
  ,46/01/16 , 948 ,Bob Crosby
  ,46/01/18 , 949 ,Vincent Lopez
  ,46/01/21 , 950 ,Bob Strong
* ,46/01/23 , 951 ,Alvino Rey, First Song - Come To Baby, Do
  ,46/01/25 , 952 ,Buddy Rich
* ,46/01/28 , 953 ,Frankie Masters, First Song - Dig You Later
* ,46/01/30 , 954 ,Lawrence Welk, First Song - I'm Always Chasing Rainbows
  ,46/02/01 , 955 ,Shep Fields
* ,46/02/04 , 956 ,Alvino Rey, First Song - Hindustan
  ,46/02/06 , 957 ,Clyde McCoy
  ,46/02/08 , 958 ,Bobby Sherwood
  ,46/02/11 , 959 ,Gene Krupa
  ,46/02/13 , 960 ,Eddy Howard
  ,46/02/15 , 961 ,Johnny Long
  ,46/02/18 , 962 ,Buddy Morrow
  ,46/02/20 , 963 ,Jan Garber
* ,46/02/22 , 964 ,Vincent Lopez, First Song - Chickery Chick
* ,46/02/25 , 965 ,George Paxton, First Song - All Of Me
  ,46/02/27 , 966 ,Gene Krupa
* ,46/03/01 , 967 ,Orrin Tucker, First Song - Walkin' With My Honey
* ,46/03/04 , 968 ,Charlie Barnet, First Song - Symphony
  ,46/03/06 , 969 ,George Paxton
  ,46/03/08 , 970 ,Bobby Sherwood
* ,46/03/11 , 971 ,Sonny Dunham, First Song - La Rosita
  ,46/03/13 , 972 ,Dean Hudson
* ,46/03/15 , 973 ,George Olsen, First Song - Josephine
  ,46/03/18 , 974 ,Jack Teagarden
  ,46/03/20 , 975 ,Lawrence Welk
  ,46/03/22 , 976 ,Orrin Tucker
  ,46/03/25 , 977 ,Les Brown
  ,46/03/27 , 978 ,Johnny Long
  ,46/03/29 , 979 ,Ray Herbeck (end network numbering)
  ,46/04/01 , 827 ,Guy Lombardo
* ,46/04/03 , 828 ,Xavier Cugat, First Song - La Ola Marina
* ,46/04/05 , 829 ,Harry James, First Song - The Man I Love
  ,46/04/08 , 830 ,Guy Lombardo
  ,46/04/10 , 831 ,Xavier Cugat
* ,46/04/12 , 832 ,Harry James, First Song - All Of Me
  ,46/04/15 , 833 ,Guy Lombardo
  ,46/04/17 , 834 ,Xavier Cugat
* ,46/04/19 , 835 ,Harry James, First Song - Temptation
  ,46/04/22 , 836 ,Guy Lombardo
  ,46/04/24 , 837 ,Xavier Cugat
* ,46/04/26 , 838 ,Harry James, First Song - Blue Skies
  ,46/04/29 , 839 ,Guy Lombardo
  ,46/05/01 , 840 ,Xavier Cugat
  ,46/05/03 , 841 ,Harry James
  ,46/05/06 , 842 ,Guy Lombardo
  ,46/05/08 , 843 ,Xavier Cugat
* ,46/05/10 , 844 ,Harry James, First Song - Loveless Love
  ,46/05/13 , 845 ,Guy Lombardo
* ,46/05/15 , 846 ,Xavier Cugat, First Song - You Never Say Yes
  ,46/05/17 , 847 ,Harry James
  ,46/05/20 , 848 ,Guy Lombardo
* ,46/05/22 , 849 ,Xavier Cugat, First Song - The Continental
  ,46/05/24 , 850 ,Harry James
  ,46/05/27 , 851 ,Guy Lombardo
* ,46/05/29 , 852 ,Xavier Cugat, First Song - Miami Beach Rhumba
* ,46/05/31 , 853 ,Harry James, First Song - The Mole
* ,46/05/xx ,     ,Harry James, rehearsal
  ,46/06/03 , 854 ,Guy Lombardo
  ,46/06/05 , 855 ,Xavier Cugat
  ,46/06/07 , 856 ,Harry James
  ,46/06/10 , 857 ,Guy Lombardo
  ,46/06/12 , 858 ,Xavier Cugat
  ,46/06/14 , 859 ,Harry James
  ,46/06/17 , 860 ,Guy Lombardo
  ,46/06/19 , 861 ,Xavier Cugat
* ,46/06/21 , 862 ,Harry James, First Song - Loveless Love
  ,46/06/24 , 863 ,Guy Lombardo
  ,46/06/26 , 864 ,Xavier Cugat
  ,46/06/28 , 865 ,Harry James
  ,46/07/01 , 866 ,Guy Lombardo
  ,46/07/03 , 867 ,Xavier Cugat
* ,46/07/05 , 868 ,Harry James, First Song - K Block
  ,46/07/08 , 869 ,Guy Lombardo
  ,46/07/10 , 870 ,Xavier Cugat
  ,46/07/12 , 871 ,Harry James
  ,46/07/15 , 872 ,Guy Lombardo
* ,46/07/17 , 873 ,Xavier Cugat, First Song - Linda Mujer
* ,46/07/19 , 874 ,Harry James, First Song - Easy
  ,46/07/22 , 875 ,Guy Lombardo
  ,46/07/24 , 876 ,Xavier Cugat
  ,46/07/26 , 877 ,Harry James
  ,46/07/29 , 878 ,Guy Lombardo
  ,46/07/31 , 879 ,Xavier Cugat
* ,46/08/02 , 880 ,Harry James, First Song - All Of Me
  ,46/08/05 , 881 ,Guy Lombardo
  ,46/08/07 , 882 ,Xavier Cugat
* ,46/08/09 , 883 ,Harry James, First Song - Sneak Into Easy
  ,46/08/12 , 884 ,Guy Lombardo
  ,46/08/14 , 885 ,Xavier Cugat
* ,46/08/16 , 886 ,Harry James, First Song - The Man I Love
  ,46/08/19 , 887 ,Guy Lombardo
* ,46/08/21 , 888 ,Xavier Cugat, First Song - The Continental
  ,46/08/23 , 889 ,pre-empted for College All-Stars vs. Los Angeles Rams football game
  ,46/08/26 , 890 ,Guy Lombardo
  ,46/08/28 , 891 ,Xavier Cugat
  ,46/08/30 , 892 ,Harry James
  ,46/09/02 , 893 ,Guy Lombardo
  ,46/09/04 , 894 ,Xavier Cugat
  ,46/09/06 , 895 ,Harry James
  ,46/09/09 , 896 ,Guy Lombardo
  ,46/09/11 , 897 ,Xavier Cugat
  ,46/09/13 , 898 ,Harry James
  ,46/09/16 , 899 ,Guy Lombardo
  ,46/09/18 , 900 ,Xavier Cugat
  ,46/09/20 , 901 ,Harry James
  ,46/09/23 , 902 ,Guy Lombardo
  ,46/09/25 , 903 ,Xavier Cugat
* ,46/09/27 , 904 ,Harry James, First Song - Headlock
  ,46/09/30 , 905 ,Guy Lombardo
  ,46/10/02 , 906 ,Xavier Cugat
  ,46/10/04 , 907 ,Harry James
  ,46/10/07 , 908 ,Guy Lombardo
* ,46/10/09 , 909 ,Xavier Cugat, First Song - Rhumba, Rhumba
  ,46/10/11 , 910 ,Harry James
  ,46/10/14 , 911 ,Guy Lombardo
  ,46/10/16 , 912 ,Xavier Cugat
* ,46/10/18 , 913 ,Harry James, First Song - Lover Come Back To Me
  ,46/10/21 , 914 ,Guy Lombardo
  ,46/10/23 , 915 ,Xavier Cugat
  ,46/10/25 , 916 ,Harry James
  ,46/10/28 , 917 ,Guy Lombardo
  ,46/10/30 , 918 ,Xavier Cugat
  ,46/11/01 , 919 ,Harry James
  ,46/11/04 , 920 ,Guy Lombardo
  ,46/11/06 , 921 ,Xavier Cugat
  ,46/11/08 , 922 ,Harry James
  ,46/11/11 , 923 ,Guy Lombardo
  ,46/11/13 , 924 ,Xavier Cugat
  ,46/11/15 , 925 ,Harry James
  ,46/11/18 , 926 ,Guy Lombardo
  ,46/11/20 , 927 ,Xavier Cugat
  ,46/11/22 , 928 ,Harry James
* ,46/xx/xx ,   2 ,episode 2
* ,46/xx/xx ,     ,Xavier Cugat, First Song - Chiu Chiu (2)
* ,46/xx/xx ,     ,Xavier Cugat, First Song - Coax Me A Little Bit
* ,46/xx/xx ,     ,Xavier Cugat, First Song - Jealousy
* ,46/xx/xx ,     ,Xxxx) Xavier Cugat, First Song - Coax Me a Little Bit
* ,46/xx/xx ,     ,Xxxx) Xavier Cugat, First Song - Jealousy
* ,47/01/xx ,     ,Xavier Cugat, First Song - Guadalajara
* ,47/05/21 ,1016 ,Xavier Cugat, First Song - Miami Beach Rhumba
* ,47/05/28 ,1019 ,Xavier Cugat, First Song - Hokey Joe
* ,47/06/04 ,1046 ,Xavier Cugat, First Song - Miami Beach Rhumba
* ,47/07/25 ,1047 ,Duke Ellington, First Song - Feel A Little Tomorrow Like I Feel Today
* ,47/08/03 ,1076 ,Xavier Cugat, First Song - Tico Tico
* ,47/08/10 ,1091 ,Xavier Cugat, First Song - Jack, Jack, Jack
* ,47/08/17 ,1094 ,Xavier Cugat, First Song - title unknown
* ,47/10/24 ,1108 ,Guy Lombardo, First Song - Coquette
* ,47/11/02 ,1109 ,Xavier Cugat, First Song - Latin American Serenade
* ,47/xx/xx , 959 ,Harry James, First Song - They Say It's Wonderful
* ,47/xx/xx ,     ,Xavier Cugat, First Song - Besame Mucho
* ,47/xx/xx ,     ,Xxxx) Xavier Cugat, First Song - Besame Mucho
* ,48/xx/xx ,     ,Jan Savitt, First Song - Sunday Kind Of Love
* ,xx/xx/xx ,1128 ,Freddy Martin, First Song - Too Marvelous For Words
* ,xx/xx/xx ,1180 ,Freddy Martin, First Song - The First Time I Kissed You
* ,xx/xx/xx ,1180 ,Freddy Martin, First Song - the First Time I Kissed You (2)
* ,xx/xx/xx ,1183 ,Freddy Martin, First Song - Someone Cares
* ,xx/xx/xx ,1183 ,Freddy Martin, First Song - Someone Cares (2)
* ,xx/xx/xx ,1186 ,Freddy Martin, First Song - But None Like You
* ,xx/xx/xx ,     ,Gene Krupa, First Song - Leave Us Leap (transcribed filler) (MUT)
* ,xx/xx/xx ,     ,Jan Garber, First Song - Bach's Little Fugue
* ,xx/xx/xx ,     ,Les Brown, First Song - Please Don't Talk About Me When I'm Gone (transcribed filler) (MUT)
* ,xx/xx/xx ,     ,Xxxx) Gene Krupa, First Song - Leave Us Leap (transcribed Filler) ( M U T)
* ,xx/xx/xx ,     ,Xxxx) Les Brown, First Song - Please Don't Talk About Me When I'm Gone (transcribed Filler) ( M U T)
