Exists, Date, #, Episode Name
* ,45/07/03 ,   1 ,First Show of the Series
* ,45/07/10 ,   2 ,First Song - Gotta Be This Or That
  ,45/07/17 ,   3 ,
* ,45/07/24 ,   4 ,
  ,45/07/31 ,   5 ,
  ,45/08/04 ,   6 ,
* ,45/08/14 ,   7 ,First Song - Stars In Your Eyes
  ,45/08/21 ,   8 ,
  ,45/08/28 ,   9 ,
  ,45/09/04 ,  10 ,
  ,45/09/11 ,  11 ,
  ,45/09/18 ,  12 ,
  ,45/09/25 ,  13 ,
  ,46/09/09 ,  14 ,
  ,46/09/16 ,  15 ,
  ,46/09/23 ,  16 ,
  ,46/09/30 ,  17 ,
  ,46/10/07 ,  18 ,
  ,46/10/14 ,  19 ,
  ,46/10/21 ,  20 ,
  ,46/10/28 ,  21 ,
  ,46/11/04 ,  22 ,
  ,46/11/11 ,  23 ,
  ,46/11/18 ,  24 ,
  ,46/11/25 ,  25 ,
  ,46/12/02 ,  26 ,
  ,46/12/09 ,  27 ,
  ,46/12/16 ,  28 ,
  ,46/12/23 ,  29 ,
  ,46/12/30 ,  30 ,
  ,47/01/06 ,  31 ,
  ,47/01/13 ,  32 ,
  ,47/01/20 ,  33 ,
  ,47/01/27 ,  34 ,
  ,47/02/03 ,  35 ,
  ,47/02/10 ,  36 ,
  ,47/02/17 ,  37 ,
  ,47/02/24 ,  38 ,
  ,47/03/03 ,  39 ,
  ,47/03/10 ,  40 ,
  ,47/03/17 ,  41 ,
  ,47/03/24 ,  42 ,
* ,47/03/31 ,  43 ,Gangbusters
  ,47/04/07 ,  44 ,
* ,47/04/14 ,  45 ,Alexander's Ragtime Band
  ,47/04/21 ,  46 ,
  ,47/04/28 ,  47 ,
  ,47/05/05 ,  48 ,
  ,47/05/12 ,  49 ,
  ,47/05/19 ,  50 ,
  ,47/05/26 ,  51 ,
  ,47/06/02 ,  52 ,
  ,47/06/09 ,  53 ,
  ,47/06/16 ,  54 ,
  ,47/06/23 ,  55 ,
  ,47/06/30 ,  56 ,
* ,xx/xx/xx ,  20 ,Command Performance - Broadcast of 42-06-30
* ,xx/xx/xx , 183 ,Command Performance - Broadcast of 45-07-12
* ,xx/xx/xx , 189 ,Command Performance - Broadcast of 45-08-30
* ,xx/xx/xx ,     ,A Mozart Opera
* ,xx/xx/xx ,     ,All the Right Notes, Not Necessarily in the Right Order
* ,xx/xx/xx ,     ,Brahms Lullaby
* ,xx/xx/xx ,     ,Comedy in Music, Pt 1
* ,xx/xx/xx ,     ,Comedy in Music, Pt 2
* ,xx/xx/xx ,     ,Denmark, My Native Land
* ,xx/xx/xx ,     ,Family Background
* ,xx/xx/xx ,     ,Friedmann Wiener Tanz 2
* ,xx/xx/xx ,     ,Happy Birthday
* ,xx/xx/xx ,     ,Hungarian Rhapsody
* ,xx/xx/xx ,     ,In London
* ,xx/xx/xx ,     ,Inflationary Language
* ,xx/xx/xx ,     ,Johann Sibelius Bach & Family
* ,xx/xx/xx ,     ,Live at the London Paladium
* ,xx/xx/xx ,     ,Live in Boston in 1953
* ,xx/xx/xx ,     ,Mail Call
* ,xx/xx/xx ,     ,Medley of Popular Songs
* ,xx/xx/xx ,     ,Minute Waltz
* ,xx/xx/xx ,     ,Mozart Opera by Borge
* ,xx/xx/xx ,     ,Phonetic Punctuation
* ,xx/xx/xx ,     ,Rachmaninov Excerpts
* ,xx/xx/xx ,     ,Requests
* ,xx/xx/xx ,     ,Saliere Opera
* ,xx/xx/xx ,     ,Sweetheart
* ,xx/xx/xx ,     ,Three Borge Favorites
  ,xx/xx/xx ,     ,x - Listen To A Love Song - Guest - Victor Borge (46-08-03)
