Exists, Date, #, Episode Name
* ,48/06/10 ,   1 ,The Devil and Daniel Webster
* ,48/06/17 ,   2 ,Mrs Union Station
* ,48/06/24 ,   3 ,Unless Love Is Music
* ,48/07/01 ,   4 ,Penny Serenade
* ,48/07/08 ,   5 ,Pride And Prejudice
* ,48/07/15 ,   6 ,Girls Are Like Boats
* ,48/07/22 ,   7 ,The Citadel
* ,48/07/29 ,   8 ,The Phantom Filly
* ,48/08/05 ,   9 ,Afterward
* ,48/08/12 ,  10 ,The Old Nest
* ,48/08/19 ,  11 ,Drums Along the Mohawk
* ,48/08/26 ,  12 ,State Fair
* ,48/09/02 ,  13 ,To Mary, with Love
* ,48/09/09 ,  14 ,Cimarron
* ,48/09/16 ,  15 ,Goodbye, Mr Chips
* ,48/09/23 ,  16 ,Captain January
  ,48/09/30 ,  17 ,
* ,48/10/07 ,  18 ,Elmer the Great
* ,48/10/14 ,  19 ,Arrowsmith
* ,48/10/21 ,  20 ,Mrs Parkington
* ,48/10/28 ,  21 ,O'Halloran's Luck
* ,48/11/04 ,  22 ,My Friend Flicka
* ,48/11/11 ,  23 ,The Wild Swans
* ,48/11/18 ,  24 ,My Financial Career
* ,48/11/25 ,  25 ,Free Land
* ,48/12/02 ,  26 ,Old Man Minick
* ,48/12/09 ,  27 ,Woman with a Sword
* ,48/12/16 ,  28 ,The Desert Shall Rejoice
* ,48/12/23 ,  29 ,Silent Night
* ,48/12/30 ,  30 ,Lost Horizon
* ,49/01/06 ,  31 ,McLeod's Folly
* ,49/01/13 ,  32 ,Clay Shuttered Doors
* ,49/01/20 ,  33 ,Parnassus on Wheels
* ,49/01/27 ,  34 ,The Failure
* ,49/02/03 ,  35 ,The Prairie Years
* ,49/02/10 ,  36 ,Smilin' Through
* ,49/02/17 ,  37 ,Random Harvest
* ,49/02/24 ,  38 ,So Big
* ,49/03/03 ,  39 ,Berkeley Square
* ,49/03/10 ,  40 ,And There I Stood with My Piccolo
* ,49/03/17 ,  41 ,Our Own Kind
* ,49/03/24 ,  42 ,Wyatt Earp
* ,49/03/31 ,  43 ,Immortal Wife
* ,49/04/07 ,  44 ,Morning Glory
* ,49/04/14 ,  45 ,One Foot in Heaven
* ,49/04/21 ,  46 ,Kitty Foyle
* ,49/04/28 ,  47 ,A Tree Grows in Brooklyn
* ,49/05/05 ,  48 ,Mother
* ,49/05/12 ,  49 ,You Could Look It Up
* ,49/05/19 ,  50 ,The Enchanted Cottage
* ,49/05/26 ,  51 ,The Barker
* ,49/06/02 ,  52 ,I Like It Here
* ,49/09/08 ,  53 ,Yankee from Olympus
  ,49/09/15 ,  54 ,Anna and the King of Siam
* ,49/09/22 ,  55 ,So Well Remembered
* ,49/09/29 ,  56 ,August Heat
* ,49/10/06 ,  57 ,National Velvet
* ,49/10/13 ,  58 ,The Virginian
* ,49/10/20 ,  59 ,Let the Hurricane Roar
* ,49/10/27 ,  60 ,The Story of Dr Sericold
* ,49/11/03 ,  61 ,Col Effingsham's Raid
* ,49/11/10 ,  62 ,Bride of Fortune
* ,49/11/17 ,  63 ,A Letter to Mr Priest
* ,49/11/24 ,  64 ,The Courtship of Miles Standish
* ,49/12/01 ,  65 ,Miss Bishop
* ,49/12/08 ,  66 ,Christopher and Columbus
* ,49/12/15 ,  67 ,Wedding Morning
* ,49/12/22 ,  68 ,The Story of Silent Night
* ,49/12/29 ,  69 ,Father Flanagan Of Boy's Town
* ,50/01/05 ,  70 ,The Egg and I
* ,50/01/12 ,  71 ,The Way West
* ,50/01/19 ,  72 ,Around the World in 80 Days
* ,50/01/26 ,  73 ,Green Grass of Wyoming
* ,50/02/02 ,  74 ,The Love Story of Elizabeth Barrett
* ,50/02/09 ,  75 ,Lincoln and the Baltimore Plot
* ,50/02/16 ,  76 ,April 25th, as Usual
* ,50/02/23 ,  77 ,The Autobiography of Will Rogers
* ,50/03/02 ,  78 ,The Indestructible Julia
* ,50/03/09 ,  79 ,Home to the Hermitage
* ,50/03/16 ,  80 ,The Three Wishes of Jamie McRuin
* ,50/03/23 ,  81 ,Richard Carvel
* ,50/03/30 ,  82 ,Pioneer Preacher
* ,50/04/06 ,  83 ,The Arbutus Bonnet
* ,50/04/13 ,  84 ,Appassionata
* ,50/04/20 ,  85 ,My Sister Eileen
* ,50/04/27 ,  86 ,They Came to a River
* ,50/05/04 ,  87 ,Victoria Regina
* ,50/05/11 ,  88 ,Marmee
* ,50/05/18 ,  89 ,The Wayfarers
* ,50/05/25 ,  90 ,Knee Pants
* ,50/06/01 ,  91 ,The Story Of Kansas City
* ,50/09/07 ,  92 ,The Story of Thomas Edison
* ,50/09/14 ,  93 ,The Big Buildup
* ,50/09/21 ,  94 ,West of the Hill
* ,50/09/28 ,  95 ,The Barefoot Mailman
* ,50/10/05 ,  96 ,The Story of Florence Nightingale
* ,50/10/12 ,  97 ,Final Tribute
* ,50/10/19 ,  98 ,Not Wanted
* ,50/10/26 ,  99 ,The Legend of Sleepy Hollow
* ,50/11/02 , 100 ,Mistress of the White House
* ,50/11/09 , 101 ,Great Expections
  ,50/11/16 , 102 ,Enchanted April
* ,50/11/23 , 103 ,Home For Thanksgiving
* ,50/11/30 , 104 ,Decatur
* ,50/12/07 , 105 ,The Third Ingredient
* ,50/12/14 , 106 ,The Promise
  ,50/12/21 , 107 ,Silent Night
* ,50/12/28 , 108 ,Patrick Calls Me Mother
* ,51/01/04 , 109 ,The Life of Theodore Roosevelt
* ,51/01/11 , 110 ,Farmer in the Dell
* ,51/01/18 , 111 ,Old Soldiers Never Die
* ,51/01/25 , 112 ,The Golden Herd
* ,51/02/01 , 113 ,Goodbye, Mr Chips
* ,51/02/08 , 114 ,A Man for the Ages
* ,51/02/15 , 115 ,Cinderella
* ,51/02/22 , 116 ,Valley Forge
* ,51/03/01 , 117 ,Monsieur Beaucaire
* ,51/03/08 , 118 ,Deepwood
* ,51/03/15 , 119 ,The Long Winter
* ,51/03/22 , 120 ,The Long Love
* ,51/03/29 , 121 ,Elizabeth, Captive Princess
* ,51/04/05 , 122 ,Rest and Be Thankful
* ,51/04/12 , 123 ,Joy Street
* ,51/04/19 , 124 ,F.O.B. America
* ,51/04/26 , 125 ,Two Years Before the Mast
* ,51/05/03 , 126 ,A Breath of Air
* ,51/05/10 , 127 ,A Man's Mother
* ,51/05/17 , 128 ,Benjamin Franklin
* ,51/05/24 , 129 ,Scudda Hoo, Scudda Hay
* ,51/05/31 , 130 ,The Story Of Johnny Appleseed
  ,51/06/07 , 131 ,Whistling in the Dark
  ,51/06/14 , 132 ,True Confession
  ,51/06/21 , 133 ,Payment Deferred
  ,51/06/28 , 134 ,Double Indemnity
  ,51/07/05 , 135 ,Bachelor Mother
  ,51/07/12 , 136 ,Front Page
  ,51/07/19 , 137 ,Night Must Fall
  ,51/07/26 , 138 ,No Time for Comedy
  ,51/08/02 , 139 ,A Double Life
  ,51/08/09 , 140 ,Petrified Forest
  ,51/08/16 , 141 ,Ball of Fire
  ,51/08/23 , 142 ,An Inspector Calls
  ,51/08/30 , 143 ,Accent on Youth
* ,51/09/06 , 144 ,Quality Street
* ,51/09/13 , 145 ,Francis Scott Key
* ,51/09/20 , 146 ,The Prisoner of Zenda
* ,51/09/27 , 147 ,Web of Destiny
* ,51/10/04 , 148 ,Country Lawyer
* ,51/10/11 , 149 ,Wild Orchard
* ,51/10/18 , 150 ,Cashel Byron's Profession
* ,51/10/25 , 151 ,John Adams and the American Revolution
* ,51/11/01 , 152 ,Evangeline
* ,51/11/08 , 153 ,20,000 Leagues Under the Sky
* ,51/11/15 , 154 ,Mississippi Bubble
* ,51/11/22 , 155 ,Widened Heart
* ,51/11/29 , 156 ,Salad Days
* ,51/12/06 , 157 ,The Night of the Hayride
* ,51/12/13 , 158 ,Story of John Hancock
* ,51/12/20 , 159 ,Silent Night
* ,51/12/27 , 160 ,Stephen Foster
* ,52/01/03 , 161 ,The Tamarack Tree
* ,52/01/10 , 162 ,Horse and Buggy Doctor
* ,52/01/17 , 163 ,Madame Claire
* ,52/01/24 , 164 ,James Audubon
* ,52/01/31 , 165 ,Westward Ho
* ,52/02/07 , 166 ,Persuasion
* ,52/02/14 , 167 ,The Story of Clara and Robert Schumann
* ,52/02/21 , 168 ,Powder Mission
* ,52/02/28 , 169 ,The Mother of the Groom
* ,52/03/06 , 170 ,Man Without a Home
* ,52/03/13 , 171 ,This Pleasant Leave
* ,52/03/20 , 172 ,Time Remembered
* ,52/03/27 , 173 ,Yankee Storekeeper
* ,52/04/03 , 174 ,Lisa Lilywhite
* ,52/04/10 , 175 ,Ben Hur
* ,52/04/17 , 176 ,Doubtful Valley
* ,52/04/24 , 177 ,The Professor
* ,52/05/01 , 178 ,Lorna Doone
* ,52/05/08 , 179 ,Whistler's Mother
* ,52/05/15 , 180 ,The Marquis de Lafayette
* ,52/05/22 , 181 ,Marsha Burns
* ,52/05/29 , 182 ,Forward The Nation
  ,52/09/07 , 183 ,Treasure Island
* ,52/09/14 , 184 ,The Pathfinder
  ,52/09/21 ,     ,Pre-empted
* ,52/09/28 , 185 ,Nebraska Coast
* ,52/10/05 , 186 ,Mansfield Park
* ,52/10/12 , 187 ,Young Mr Disraeli
* ,52/10/19 , 188 ,Lady of the Lake
* ,52/10/26 , 189 ,Preble's Boys
* ,52/11/02 , 190 ,Daniel Webster
* ,52/11/09 , 191 ,The Covered Bridge
* ,52/11/16 , 192 ,Thunder Shower
* ,52/11/23 , 193 ,Standish Of Standish
  ,52/11/30 , 194 ,The Secret Road
* ,52/12/07 , 195 ,A Miracle on The Blotter
* ,52/12/14 , 196 ,Home for Christmas
* ,52/12/21 , 197 ,A Christmas Carol
* ,52/12/28 , 198 ,A Man Called Peter
* ,53/01/04 , 199 ,Wave High the Banner
* ,53/01/11 , 200 ,January Thaw
* ,53/01/18 , 201 ,Forty Odd
* ,53/01/25 , 202 ,Big Family
* ,53/02/01 , 203 ,Trenton '76
