Exists, Date, #, Episode Name
* ,63/10/07 ,     ,The Insurance Stamps
* ,63/10/14 ,     ,The Televison Set
* ,63/xx/xx ,     ,The Holiday
* ,63/xx/xx ,     ,The Request
* ,76/09/15 ,   1 ,The Blackmail Letter
* ,76/09/22 ,   2 ,Take a Chance
  ,76/09/27 ,   3 ,
  ,76/10/06 ,   4 ,
* ,76/10/13 ,   5 ,It Never Rains
* ,76/10/20 ,   6 ,Should Auld Acquaintance Be Forgot
* ,76/10/27 ,   7 ,And So to Bed
* ,76/11/03 ,   8 ,The 10-15 to Gatwick
* ,76/11/10 ,   9 ,The Wedding
* ,76/11/17 ,  10 ,The Visit
  ,76/11/24 ,  11 ,
  ,76/12/01 ,  12 ,
* ,76/12/08 ,  13 ,All at Sea
* ,88/09/25 ,   1 ,Life Begins at 40
* ,88/10/02 ,   2 ,The Doctor
* ,88/10/09 ,   3 ,The Camera
* ,88/10/16 ,   4 ,The Play
* ,88/10/23 ,   5 ,Agnes Latimer
* ,88/10/30 ,   6 ,The Alarm Call
