Exists, Date, #, Episode Name
  ,46/07/05 ,   1 ,--- (1st six episodes under title 'HAWK DURANGO')
  ,46/07/12 ,   2 ,
  ,46/07/19 ,   3 ,
  ,46/07/26 ,   4 ,
* ,46/08/02 ,   5 ,Brazos John and Eastern Bride
  ,46/08/09 ,   6 ,--- Hawk saved from murder charge by Chuck-A-Luck Jones' hearing
  ,46/08/16 ,   7 ,--- (Series title changes to 'HAWK LARABEE')
  ,46/10/03 ,   8 ,
  ,46/10/10 ,   9 ,
  ,46/10/17 ,  10 ,
  ,46/10/24 ,  11 ,
  ,46/10/31 ,  12 ,
* ,46/11/07 ,  13 ,Deputy Preacher aka Tillie Mc Goon and the Preacher
  ,46/11/14 ,  14 ,
  ,46/11/21 ,  15 ,
  ,46/11/28 ,  16 ,
  ,46/12/05 ,  17 ,
  ,46/12/12 ,  18 ,
* ,47/05/17 ,  19 ,Fred Collins Shot
* ,47/05/22 ,  20 ,Gold Camp At Mulberry Creek
  ,47/05/31 ,  21 ,Historic Range War
  ,47/06/07 ,  22 ,
  ,47/06/13 ,  23 ,
  ,47/06/20 ,  24 ,
* ,47/06/27 ,  25 ,Superstitions (Women On Cattle Drives)
  ,47/07/04 ,  26 ,
  ,47/07/11 ,  27 ,
* ,47/07/18 ,  28 ,Mountain Central Railroad aka Race To Build 2 Railroads
  ,47/07/25 ,  29 ,
  ,47/08/02 ,  30 ,The Return of Hawk Larabee
  ,47/08/09 ,  31 ,The House at Black Mesa
  ,47/08/16 ,  32 ,The Affair at Silver Bow
  ,47/08/23 ,  33 ,Brush Fire!
  ,47/08/30 ,  34 ,The Rodeo at Silver Bow
* ,47/09/06 ,  35 ,
  ,47/09/13 ,  36 ,Stampede
  ,47/09/20 ,  37 ,Smoke Signal!
  ,47/09/27 ,  38 ,Gold Fever
  ,47/10/04 ,  39 ,The Wagon Train (Bad Man)
  ,47/10/11 ,  40 ,Clementine
* ,47/10/18 ,  41 ,The California Kid
  ,47/10/25 ,  42 ,The Return Of Edwin Crane
  ,47/11/01 ,  43 ,
  ,47/11/08 ,  44 ,
  ,47/11/15 ,  45 ,
  ,47/11/22 ,  46 ,
  ,47/11/29 ,  47 ,
  ,47/12/06 ,  48 ,
  ,47/12/13 ,  49 ,
  ,47/12/20 ,  50 ,
* ,47/12/27 ,  51 ,Brannigan aka The Pilgrim
  ,48/01/03 ,  52 ,
  ,48/01/10 ,  53 ,
  ,48/01/17 ,  54 ,
  ,48/01/24 ,  55 ,
  ,48/01/31 ,  56 ,
  ,48/02/07 ,  57 ,Last Episode
