Exists, Date, #, Episode Name
* ,42/11/15 ,   1 ,Brazil
* ,42/11/22 ,   2 ,Andes
* ,42/11/29 ,   3 ,The Islands
* ,42/12/06 ,   4 ,Alphabet 'A to C'
* ,42/12/13 ,   5 ,Alphabet 'C to S'
* ,42/12/20 ,   6 ,Abednego
* ,42/12/27 ,   7 ,The Bad Will Ambassador
* ,43/01/03 ,     ,Latin Music (Special Program)
* ,43/01/10 ,   8 ,Mexico
* ,43/01/17 ,   9 ,Feed The World
* ,43/01/24 ,     ,Ritmos de las Americas (Special Program)
* ,43/01/31 ,  10 ,Bolivar's Idea
