Exists, Date, #, Episode Name
* ,46/05/23 ,   1 ,First Song - Hit Parade Extra
  ,46/05/28 ,   7 ,Great Moments In Music
* ,46/05/31 ,   2 ,First Song - The Gypsy
  ,46/06/03 ,   9 ,Highways In Melody
* ,46/06/16 ,   3 ,First Song - Sioux City Sue
* ,46/xx/xx ,  16 ,First Song - Song of India
* ,46/xx/xx ,     ,First Song - Rosalee
* ,47/01/10 ,  39 ,First Song -
* ,47/01/17 ,  30 ,Fibber McGee and Molly - Mayor Latrivia
* ,47/01/xx ,     ,Gerald and Hortense
  ,47/02/20 ,  36 ,Duffy's Tavern
* ,47/04/04 ,  47 ,Baby Snooks
* ,47/04/18 ,  40 ,Lum And Abner
* ,47/04/xx ,  48 ,First Song - A Good Day
* ,47/05/xx ,  50 ,First Song - All The Things You Are
* ,47/05/xx ,  51 ,Music America Loves Best
  ,47/06/02 ,  52 ,Truth Or Consequences
* ,47/06/22 ,  41 ,Abbott and Costello - Moby Dick
* ,47/07/05 ,     ,The Baby Snooks Show
  ,47/07/16 ,  56 ,The Frances Langford Show
* ,47/07/19 ,  53 ,First Song - In My Merry Oldsmobile
* ,47/07/xx ,  54 ,The Alec Templeton Show (Note: Date also 47/7/19)
* ,47/07/xx ,  55 ,The Breakfast Club (Note: Date also 47/7/16)
  ,47/10/21 ,  70 ,The Great Gildersleeve
* ,47/10/xx ,  71 ,The Contented Hour (Note: Date also 47/10/21)
* ,47/11/01 ,  75 ,The Jack Benny Show (3)
  ,47/11/09 ,  77 ,American Album Of Familiar Music
* ,47/11/25 ,     ,Lum & Abner
* ,47/11/xx ,  76 ,Fibber McGee and Molly
* ,47/12/08 ,     ,First Song - In My Merry Oldsmobile
  ,47/12/19 ,  83 ,The Dick Haymes Show
* ,47/12/xx ,  84 ,The Jimmy Durante Show
* ,47/xx/xx ,  49 ,The Garry Moore-Jimmy Durante Show
  ,48/01/07 ,  86 ,The Al Jolson Show
  ,48/03/04 ,  98 ,The Pause That Refreshes...On The Air
  ,48/03/13 ,  92 ,Songs By Morton Downey
  ,48/03/16 ,  99 ,The Jack Smith Show
  ,48/03/19 ,  96 ,The Tony Martin Show
* ,48/05/xx , 107 ,Carle Comes Calling
* ,48/06/xx , 111 ,Your Song and Mine
* ,48/07/xx , 117 ,The Ray Noble Show
* ,48/08/xx , 120 ,The Contented Hour
* ,48/11/23 , 133 ,The Music Hall
* ,48/12/xx , 130 ,Your Hit Parade
* ,48/xx/xx ,  74 ,The Bing Crosby Show
* ,48/xx/xx ,  90 ,The Bob Hope Show
* ,48/xx/xx ,  93 ,The Martin Block Show
* ,48/xx/xx ,  97 ,The Milton Berle Show
* ,48/xx/xx , 108 ,Hoagy Carmichael
* ,48/xx/xx , 118 ,The Gene Autry Show
* ,48/xx/xx , 119 ,Bob Crosby
* ,48/xx/xx , 121 ,The Milton Berle Show
* ,48/xx/xx , 122 ,Vaughn Monroe
* ,48/xx/xx , 123 ,Manhattan Merry-Go-Round  (2)
* ,48/xx/xx , 124 ,The American Album Of Familiar Music
* ,49/xx/xx , 146 ,Frankie Masters Orchestra
* ,49/xx/xx , 147 ,Frankie Carle Orchestra
* ,49/xx/xx , 150 ,Lawrence Welk Orchestra
* ,49/xx/xx , 151 ,Griff Williams Orchestra
* ,49/xx/xx , 154 ,Band Of America
* ,49/xx/xx , 155 ,Sammy Kaye Orchestra
* ,49/xx/xx , 221 ,Alvino Rey
* ,50/xx/xx , 185 ,Larry Fotine
* ,50/xx/xx , 186 ,Matty Malneck
* ,50/xx/xx , 189 ,Henry Jerome
* ,50/xx/xx , 190 ,Harry Owens
* ,50/xx/xx , 203 ,First Song - Somebody Stole My Gal
* ,51/03/08 ,     ,Spike Jones
* ,51/09/xx , 258 ,First Song - You Were Meant For Me
* ,51/09/xx ,     ,First Song - Hallucinations
* ,52/07/xx , 275 ,First Song - Dancing In The Dark
* ,52/07/xx ,     ,First Song - Jump For Joe
* ,52/xx/xx ,     ,First Song - Everybody kiss your Partner
* ,53/09/xx , 339 ,First Song - Please Don't Talk About Me When I'm Gone
* ,53/09/xx , 340 ,First Song - Silas Lee from Tennessee
* ,53/xx/xx , 319 ,First Song - Dancing Cheek To Cheek
* ,53/xx/xx , 321 ,First Song - S'Wonderful
* ,53/xx/xx , 341 ,First Song - Mr. Callahan
* ,53/xx/xx , 342 ,First Song - Indian Love Call
* ,54/xx/xx , 346 ,First Song - At The Jazz Band Ball
* ,54/xx/xx , 375 ,First Song - Delicado
* ,54/xx/xx , 437 ,First Song - At Maxim's
* ,54/xx/xx , 519 ,First Song - Idaho
* ,54/xx/xx ,     ,Stan Freberg
* ,60/xx/xx , 690 ,First Song - You Made Me Love You
* ,6x/xx/xx ,     ,First Song - Free Again
* ,61/xx/xx , 706 ,First Song - Peteney Petite
* ,61/xx/xx , 713 ,Les Baxter and His Orchestra
* ,61/xx/xx , 741 ,Nancy Wilson
* ,61/xx/xx , 760 ,Ray Anthony
* ,61/xx/xx , 764 ,Les Baxter and His Orchestra
* ,61/xx/xx , 765 ,First Song - Stop, Look and Listen
* ,61/xx/xx , 784 ,Nat King Cole
* ,61/xx/xx , 787 ,Glen Gray and The Casa Loma Orchestra
* ,61/xx/xx , 789 ,Jonah Jones
* ,61/xx/xx , 790 ,The Nancy Wilson Show
* ,62/xx/xx , 816 ,Les Brown and His Orchestra
* ,62/xx/xx , 819 ,Nat King Cole
* ,62/xx/xx , 820 ,First Song - Let's Twist
* ,62/xx/xx , 821 ,The Glen Gray Show
* ,62/xx/xx , 842 ,Woody Herman and His Orchestra
* ,62/xx/xx , 843 ,Gordon MacRae
* ,62/xx/xx , 850 ,Pete Fountain
* ,62/xx/xx , 851 ,First Song - Here In My Heart
* ,62/xx/xx , 852 ,First Song - Wolverton Mountain
* ,62/xx/xx , 853 ,First Song - Route 66
* ,62/xx/xx , 873 ,First Song - Jean's Song
* ,68/xx/xx ,1166 ,First Song - Octaroon
* ,7x/xx/xx ,1412 ,First Song - Whole Lotta Shakin' Going On
* ,7x/xx/xx ,1413 ,First Song - Wooly Bully
* ,xx/xx/xx ,   4 ,First Song - Donkey Serenade
* ,xx/xx/xx ,   5 ,First Song - Full Moon and Empty Arms
* ,xx/xx/xx ,   6 ,First Song - Little Augie Is A Natural Man
* ,xx/xx/xx ,   7 ,Great Moments in Music
* ,xx/xx/xx ,   8 ,The Kate Smith Show
* ,xx/xx/xx ,  14 ,Meredith Willson
* ,xx/xx/xx ,  15 ,Ezio Pinza
* ,xx/xx/xx ,  18 ,Sigmund Romberg's Orchestra
* ,xx/xx/xx ,  19 ,Dick Haymes
* ,xx/xx/xx ,  20 ,First Song - Without You
* ,xx/xx/xx ,  21 ,The Chicago Theatre Of The Air
* ,xx/xx/xx ,  22 ,The Voice Of Firestone
* ,xx/xx/xx ,  23 ,The American Melody Hour
* ,xx/xx/xx ,  24 ,The Jack Smith Show  (2)
* ,xx/xx/xx ,  25 ,First Song - My Wonderful One
* ,xx/xx/xx ,  27 ,Burns and Allen
* ,xx/xx/xx ,  31 ,Dinah Shore
* ,xx/xx/xx ,  32 ,First Song - Cumanchero
* ,xx/xx/xx ,  33 ,The Bickersons
* ,xx/xx/xx ,  34 ,First Tune - Got A Gal In Calico
* ,xx/xx/xx ,  35 ,The Family Hour
* ,xx/xx/xx ,  37 ,The Phil Harris Bandwagon
* ,xx/xx/xx ,  38 ,First Song - Rose Room
* ,xx/xx/xx ,  42 ,The Great Gildersleeve (2)
* ,xx/xx/xx ,  44 ,Kenny Baker
* ,xx/xx/xx ,  45 ,Dennis Day
* ,xx/xx/xx ,  57 ,The Jack Paar Show
* ,xx/xx/xx ,  58 ,King Cole Trio Time
* ,xx/xx/xx ,  61 ,David Rose & Georgia Gibbs
* ,xx/xx/xx ,  62 ,Harvest of Stars
* ,xx/xx/xx ,  63 ,Eve Arden
* ,xx/xx/xx ,  64 ,First Song - I'm Ain't A Gonna Be Treated This-a-way
* ,xx/xx/xx ,  66 ,First Song - I Wanna Be Happy
* ,xx/xx/xx ,  67 ,First Song - Look Me In The Eyes
* ,xx/xx/xx ,  68 ,Great Artist Series
* ,xx/xx/xx ,  69 ,Fred Waring and The Pennsylvanians
* ,xx/xx/xx ,  72 ,First Song - Peg O' My Heart
* ,xx/xx/xx ,  73 ,The Henry Morgan Show
* ,xx/xx/xx ,  78 ,Your Hit Parade (2)
* ,xx/xx/xx ,  79 ,Eddy Howard
* ,xx/xx/xx ,  80 ,First Song - Zing! Went The Strings Of My Heart
* ,xx/xx/xx ,  85 ,My Friend Irma
* ,xx/xx/xx ,  87 ,The Bill Goodwin Show
* ,xx/xx/xx ,  88 ,Music America Loves Best
* ,xx/xx/xx ,  89 ,Sammy Kaye Sunday Serenade
* ,xx/xx/xx ,  91 ,First Song - Who's Sorry Now?
* ,xx/xx/xx ,  95 ,The Dennis Day Show
* ,xx/xx/xx , 100 ,The Judy Canova Show
* ,xx/xx/xx , 101 ,The Beulah Show
* ,xx/xx/xx , 102 ,The American Melody Hour
* ,xx/xx/xx , 103 ,The Phil Harris-Alice Faye Show
* ,xx/xx/xx , 104 ,First Song - Never Say Goodbye
* ,xx/xx/xx , 105 ,The Jack Berch Show
* ,xx/xx/xx , 106 ,The Fred Waring Show
* ,xx/xx/xx , 109 ,Great Artists Series
* ,xx/xx/xx , 110 ,The Kraft Music Hall
* ,xx/xx/xx , 112 ,The Band Of America
* ,xx/xx/xx , 113 ,The Family Hour
* ,xx/xx/xx , 114 ,The Dick Jurgens Show
* ,xx/xx/xx , 115 ,Saturday Night Serenade
* ,xx/xx/xx , 116 ,Carmen Cavallero
* ,xx/xx/xx , 125 ,First Song - Ezekiel Saw the Wheel
* ,xx/xx/xx , 126 ,The Jack Carson Show
* ,xx/xx/xx , 127 ,Songs by Morton Downey
* ,xx/xx/xx , 128 ,First Song - Tell Me
* ,xx/xx/xx , 129 ,First Song - The Night Has A Thousand Eyes
* ,xx/xx/xx , 131 ,First Song - All The Cats Join In
* ,xx/xx/xx , 132 ,First Song - The Touch Of Your Hand
* ,xx/xx/xx , 137 ,The Jack Benny Show (2)
* ,xx/xx/xx , 139 ,The Spike Jones Show
* ,xx/xx/xx , 140 ,The Jack Smith Show
* ,xx/xx/xx , 141 ,Guest - Frank Sinatra (2)
* ,xx/xx/xx , 142 ,The Jack Berch Show
* ,xx/xx/xx , 143 ,The Morey Amsterdam Show
* ,xx/xx/xx , 144 ,Shep Fields
* ,xx/xx/xx , 145 ,Louis Prima
* ,xx/xx/xx , 148 ,Eddie Condon
* ,xx/xx/xx , 149 ,Chuck Foster
* ,xx/xx/xx , 156 ,The Four Piano Ensemble
* ,xx/xx/xx , 161 ,Alvino Rey
* ,xx/xx/xx , 162 ,Hal McIntyre
* ,xx/xx/xx , 163 ,First Song - Lost April
* ,xx/xx/xx , 164 ,First Song - Pussy Willow
* ,xx/xx/xx , 167 ,First Song - Skyliner
* ,xx/xx/xx , 168 ,First Song - Donald Voorhees Orchestra
* ,xx/xx/xx , 170 ,Orrin Tucker and his Orchestra
* ,xx/xx/xx , 172 ,First Song - Stardust
* ,xx/xx/xx , 175 ,First Song - Dancing in the Dark
* ,xx/xx/xx , 176 ,First Song - Pennsylvania 6-5000
* ,xx/xx/xx , 177 ,First Song - The Ritual Fire Dance
* ,xx/xx/xx , 178 ,First Song - I Hear Music
* ,xx/xx/xx , 179 ,First Song - Zing! Went the Strings of My Heart (2)
* ,xx/xx/xx , 180 ,First Song - Patterns In Lace
* ,xx/xx/xx , 187 ,First Song - My Heart Stood Still
* ,xx/xx/xx , 188 ,First Song - Limehouse Blues
* ,xx/xx/xx , 191 ,Whittemore And Lowe
* ,xx/xx/xx , 192 ,Dave Cavanaugh
* ,xx/xx/xx , 193 ,First Song - The Talkin' Boogie
* ,xx/xx/xx , 194 ,First Song - Oh Katarina
* ,xx/xx/xx , 197 ,First Song - Just One Of Those Things
* ,xx/xx/xx , 198 ,First Song - I've Got A Loverly Bunch Of Cocoanuts
* ,xx/xx/xx , 199 ,First Song - On The Beach At Waikiki
* ,xx/xx/xx , 200 ,Guest - Ray Anthony Orchestra
* ,xx/xx/xx , 202 ,First Song - If I Had You
* ,xx/xx/xx , 206 ,First Song - Serenade To A Coyote
* ,xx/xx/xx , 207 ,First Song - Lady Be Good
* ,xx/xx/xx , 208 ,The Sons of the Pioneers
* ,xx/xx/xx , 209 ,First Song - Holiday For Strings
* ,xx/xx/xx , 210 ,First Song - Cielito Lindo
* ,xx/xx/xx , 211 ,First Song - Zaggin' With Zig
* ,xx/xx/xx , 212 ,First Song - Country Junction
* ,xx/xx/xx , 213 ,First Song - Darktown Strutter's Ball
* ,xx/xx/xx , 214 ,First Song - Kitten On The Keys
* ,xx/xx/xx , 217 ,First Song - Lost Love
* ,xx/xx/xx , 218 ,First Song - Mambo Jambo
* ,xx/xx/xx , 219 ,First Song - If You're Irish, Come Into The Parlor
* ,xx/xx/xx , 220 ,First Song - When Your Old Wedding Ring Was New
* ,xx/xx/xx , 222 ,First Song - Speak To Me Of Love
* ,xx/xx/xx , 223 ,The Les Paul Program
* ,xx/xx/xx , 224 ,First Song - Sam's Song
* ,xx/xx/xx , 225 ,First Song - Muttonleg
* ,xx/xx/xx , 226 ,First Song - Let's Do It Again
* ,xx/xx/xx , 227 ,First Song - Cocktails For Two
* ,xx/xx/xx , 228 ,First Song - I'm Gonna Hang Your Picture In The Post Office
* ,xx/xx/xx , 229 ,First Song - Can I Canoe You Up The River?
* ,xx/xx/xx , 230 ,First Song - Wild Card
* ,xx/xx/xx , 231 ,First Song - Mr. Anthony's Boogie
* ,xx/xx/xx , 232 ,First Song - Thirty Flirty Redheads and Fifty Nifty Blondes
* ,xx/xx/xx , 233 ,First Song - Love For Sale
* ,xx/xx/xx , 234 ,First Song - Pink Champagne
* ,xx/xx/xx , 235 ,First Song - Poor Butterfly
* ,xx/xx/xx , 236 ,First Song - Tam Pearce
* ,xx/xx/xx , 237 ,First Song - Crewcut
* ,xx/xx/xx , 238 ,First Song - They Didn't Believe Me
* ,xx/xx/xx , 239 ,First Song - Nature Boy
* ,xx/xx/xx , 240 ,First Song - This Can't Be Love
* ,xx/xx/xx , 241 ,First Song - Toyland
* ,xx/xx/xx , 242 ,First Song - Carico Mambo
* ,xx/xx/xx , 243 ,First Song - Lazybones
* ,xx/xx/xx , 244 ,First Song - Tea For Two
* ,xx/xx/xx , 245 ,First Song - Bile That Cabbage Down
* ,xx/xx/xx , 246 ,First Song - Stout Hearted Men
* ,xx/xx/xx , 247 ,First Song - They Can't Take That Away From Me
* ,xx/xx/xx , 248 ,First Song - Old Man Harlem
* ,xx/xx/xx , 249 ,The Sons Of The Pioneers (2)
* ,xx/xx/xx , 250 ,First Song - Rag Mop Samba
* ,xx/xx/xx , 251 ,First Song - Crosstown
* ,xx/xx/xx , 252 ,First Song - Makin' Whopee
* ,xx/xx/xx , 253 ,First Song - Big Boy
* ,xx/xx/xx , 254 ,First Song - Mr. and Mrs. Sippi
* ,xx/xx/xx , 255 ,First Song - Blue Moon
* ,xx/xx/xx , 256 ,First Song - The Number Move
* ,xx/xx/xx , 257 ,First Song - Southern Fried Boogie
* ,xx/xx/xx , 259 ,The George Shearing Quintet
* ,xx/xx/xx , 260 ,First Song - Medley from Oklahoma
* ,xx/xx/xx , 263 ,First Song - Holiday for Strings
* ,xx/xx/xx , 269 ,First Song - Tea For Two
* ,xx/xx/xx , 270 ,Claude Gordon
* ,xx/xx/xx , 273 ,Guest - Victor Young
* ,xx/xx/xx , 274 ,First Song - Jump For Joe
* ,xx/xx/xx , 276 ,First Song - The Old Piano Roll Blues
* ,xx/xx/xx , 277 ,First Song - That's The Solid South
* ,xx/xx/xx , 279 ,Guest - Ray Anthony Orchestra (2)
* ,xx/xx/xx , 283 ,First Song - S'Wonderful
* ,xx/xx/xx , 284 ,First Song - Roller Coaster
* ,xx/xx/xx , 288 ,First Song - Ooh, Look-A There, Ain't She Pretty
* ,xx/xx/xx , 289 ,Claude Gordon  (2)
* ,xx/xx/xx , 290 ,First Song - Bumble Boogie
* ,xx/xx/xx , 291 ,Barclay Allen
* ,xx/xx/xx , 292 ,Chuy Reyes
* ,xx/xx/xx , 293 ,First Song - Introduction To A Waltz
* ,xx/xx/xx , 294 ,First Song - Tear It Down
* ,xx/xx/xx , 295 ,Hoagy Carmichael (2)
* ,xx/xx/xx , 296 ,First Song - The Greatest Show On Earth
* ,xx/xx/xx , 300 ,First Song - The Winky Dink
* ,xx/xx/xx , 306 ,First Song - Silver Moon
* ,xx/xx/xx , 307 ,First Song - Avalon
* ,xx/xx/xx , 308 ,Guest - Ray Turner
* ,xx/xx/xx , 309 ,First Song - Sweet Leilani
* ,xx/xx/xx , 310 ,First Song - There's No Tomorrow
* ,xx/xx/xx , 311 ,Jimmy Dorsey
* ,xx/xx/xx , 312 ,First Song - Easy Come, Easy Go
* ,xx/xx/xx , 315 ,First Song - Ballin' The Jack
* ,xx/xx/xx , 316 ,First Song - I Want My Mama
* ,xx/xx/xx , 317 ,Claude Gordon
* ,xx/xx/xx , 318 ,First Song - Festival
* ,xx/xx/xx , 321 ,First Song - S' Wonderful
* ,xx/xx/xx , 322 ,Benny Strong
* ,xx/xx/xx , 323 ,The Plainsmen
* ,xx/xx/xx , 324 ,Buddy Morrow
* ,xx/xx/xx , 325 ,First Song - Vanessa
* ,xx/xx/xx , 326 ,The George Shearing Quintet (2)
* ,xx/xx/xx , 327 ,Billy Eckstine
* ,xx/xx/xx , 328 ,First Song - That Old Diesel Iron Horse (Sons Of The Pioneers)
* ,xx/xx/xx , 330 ,First Song - The Winky Dink
* ,xx/xx/xx , 331 ,First Song - For Me and My Gal
* ,xx/xx/xx , 334 ,Guest - Pete Daily
* ,xx/xx/xx , 335 ,First Song - Rock On
* ,xx/xx/xx , 336 ,Guest - Eddy Arnold
* ,xx/xx/xx , 337 ,Guest - LeRoy Anderson
* ,xx/xx/xx , 338 ,First Song - I'd Do Anything For You
* ,xx/xx/xx , 339 ,Guest - Mulcays
* ,xx/xx/xx , 340 ,Guest - Phil Harris
* ,xx/xx/xx , 343 ,Guest - Paul Weston
* ,xx/xx/xx , 344 ,Guest - Tennessee Ernie Ford
* ,xx/xx/xx , 345 ,Guest - Henri Rene
* ,xx/xx/xx , 350 ,Guest - Victor Young (2)
* ,xx/xx/xx , 351 ,Guest - Ziggy Elfman
* ,xx/xx/xx , 354 ,First Song - Clodhopper
* ,xx/xx/xx , 355 ,First Song - Paducah Parade
* ,xx/xx/xx , 358 ,First Song - Three Little Words
* ,xx/xx/xx , 359 ,First Song - After You've Gone
* ,xx/xx/xx , 360 ,First Song - Blue Violins
* ,xx/xx/xx , 361 ,The Three Suns
* ,xx/xx/xx , 362 ,First Song - The Oriental Polka
* ,xx/xx/xx , 363 ,Music From The Quiet Man
* ,xx/xx/xx , 364 ,First Song - Lullaby Of Broadway
* ,xx/xx/xx , 367 ,First Song - Rhythm On The Raindrops
* ,xx/xx/xx , 368 ,First Song - Sweet Adeline
* ,xx/xx/xx , 369 ,Al Goodman
* ,xx/xx/xx , 370 ,First Song - Sleepy Time Gal
* ,xx/xx/xx , 371 ,First Song  I Didn't Want To Love You
* ,xx/xx/xx , 373 ,First Song - No Help Wanted
* ,xx/xx/xx , 374 ,First Song - From This Moment On
* ,xx/xx/xx , 376 ,First Song - Thunderbird
* ,xx/xx/xx , 378 ,Ward Kimball, The Firehouse Five Plus Two
* ,xx/xx/xx , 379 ,Lawrence Welk and His Orchestra
* ,xx/xx/xx , 384 ,First Song - Jesusita En Chihuahua
* ,xx/xx/xx , 385 ,First Song - Deep Night
* ,xx/xx/xx , 387 ,First Song - Mayfly
* ,xx/xx/xx , 388 ,First Song - The Maiden's Wish Samba
* ,xx/xx/xx , 389 ,First Song - Fantasy Staccato
* ,xx/xx/xx , 390 ,First Song - Drivin'
* ,xx/xx/xx , 391 ,First Song - Blackberry Boogie
* ,xx/xx/xx , 392 ,Guest - Victor Young (3)
* ,xx/xx/xx , 393 ,First Song - Won't You Come Home Bill Bailey?
* ,xx/xx/xx , 394 ,First Song - Cornflakes
* ,xx/xx/xx , 395 ,First Song - The West Is As Wild As Ever
* ,xx/xx/xx , 397 ,First Song - Caressing You...Caressima
* ,xx/xx/xx , 399 ,Guest - David Rose
* ,xx/xx/xx , 400 ,Guest - Tony Romero
* ,xx/xx/xx , 402 ,First Song - Mister, You've Gone and Got The Blues
* ,xx/xx/xx , 403 ,First Song - I Love Paris
* ,xx/xx/xx , 404 ,First Song - Kangaroo
* ,xx/xx/xx , 405 ,First Song - Gimme Money, Money, Money
* ,xx/xx/xx , 406 ,Guest - Henri Rene (2)
* ,xx/xx/xx , 407 ,First Song - C-Jam Blues
* ,xx/xx/xx , 408 ,First Song - Young At Heart
* ,xx/xx/xx , 409 ,First Song - Hey Barmaid
* ,xx/xx/xx , 410 ,Guest - Andre Kostelanetz
* ,xx/xx/xx , 411 ,First Song - Stranger In Paradise
* ,xx/xx/xx , 412 ,First Song - That Old Black Magic
* ,xx/xx/xx , 413 ,Guest - Percy Faith
* ,xx/xx/xx , 414 ,First Song - Under Paris Skies
* ,xx/xx/xx , 415 ,First Song - Turn Around Boy
* ,xx/xx/xx , 416 ,First Song - Destiny
* ,xx/xx/xx , 417 ,The Sauter-Finegan Orchestra
* ,xx/xx/xx , 418 ,Dave Cavanaugh
* ,xx/xx/xx , 419 ,Stan Kenton and his Orchestra
* ,xx/xx/xx , 420 ,Hank Thompson
* ,xx/xx/xx , 421 ,First Song - Mr. Peepers
* ,xx/xx/xx , 422 ,First Song - It's Been Said
* ,xx/xx/xx , 423 ,First Song - What Makes A Gopher Leave His Home?
* ,xx/xx/xx , 424 ,First Song - Crawdads
* ,xx/xx/xx , 425 ,First Song - Double Gaited
* ,xx/xx/xx , 426 ,First Song - Twelfth Street Rag
* ,xx/xx/xx , 427 ,First Song - Nobody's Sweetheart Now
* ,xx/xx/xx , 428 ,First Song - The Sunny Side Of The Street
* ,xx/xx/xx , 430 ,First Song - The One I Love Belongs To Somebody Else
* ,xx/xx/xx , 432 ,First Tune - I Don't Know
* ,xx/xx/xx , 433 ,First Song - Malamba
* ,xx/xx/xx , 434 ,First Song - It's Lonely On The Western Trail Tonight
* ,xx/xx/xx , 435 ,The Spencer-Hagen Orchestra
* ,xx/xx/xx , 438 ,Barclay Allen
* ,xx/xx/xx , 439 ,First Song - Muskrat Ramble
* ,xx/xx/xx , 440 ,Morris Stoloff and His Orchestra
* ,xx/xx/xx , 441 ,Dean Martin
* ,xx/xx/xx , 442 ,First Song - Money, Honey!
* ,xx/xx/xx , 444 ,First Song - The Lillies Grow High
* ,xx/xx/xx , 449 ,Frankie Carle and His Orchestra
* ,xx/xx/xx , 450 ,Jeff Chandler
* ,xx/xx/xx , 451 ,Stan Kenton and His Orchestra
* ,xx/xx/xx , 453 ,First Song - The Saddle Show Shuffle
* ,xx/xx/xx , 454 ,First Song - Please Remember
* ,xx/xx/xx , 455 ,The Four Freshmen
* ,xx/xx/xx , 456 ,Guest - Walter Schuman
* ,xx/xx/xx , 457 ,The Crew Cuts
* ,xx/xx/xx , 459 ,Guest - George Auld
* ,xx/xx/xx , 460 ,Guest - Four Knights
* ,xx/xx/xx , 461 ,First Song - The Water Tumbler Tune
* ,xx/xx/xx , 462 ,First Song - Whatever Lola Wants
* ,xx/xx/xx , 463 ,First Song - Kinsfolks In Carolina
* ,xx/xx/xx , 464 ,Florian Zabach
* ,xx/xx/xx , 465 ,Lawrence Welk and His Orchestra
* ,xx/xx/xx , 467 ,First Song - Walkin' Down The Road
* ,xx/xx/xx , 468 ,Guest - Gloria Wood
* ,xx/xx/xx , 469 ,First Song - Simplicity
* ,xx/xx/xx , 472 ,First Song - Sidewalks Of Cuba
* ,xx/xx/xx , 475 ,First Song - The Blue Tail Fly
* ,xx/xx/xx , 476 ,First Song - The Fish
* ,xx/xx/xx , 477 ,First Song - The Yellow Rose Of Texas
* ,xx/xx/xx , 478 ,First Song - Alexander's Ragtime Band
* ,xx/xx/xx , 479 ,First Song - The Breeze That Brings My Baby Back To Me
* ,xx/xx/xx , 480 ,First Song - The Fiddlin' Bullfighter
* ,xx/xx/xx , 481 ,Artie Wayne
* ,xx/xx/xx , 482 ,Bob Hope
* ,xx/xx/xx , 484 ,Felicia Sanders
* ,xx/xx/xx , 485 ,First Song - Satan Takes A Holiday
* ,xx/xx/xx , 486 ,Dick Stewart
* ,xx/xx/xx , 487 ,Roger Wagner Chorale
* ,xx/xx/xx , 490 ,Don Cherry
* ,xx/xx/xx , 491 ,First Song - The Old Chisholm Trail
* ,xx/xx/xx , 492 ,First Song - Rose Marie
* ,xx/xx/xx , 493 ,Ralph Marterie
* ,xx/xx/xx , 494 ,Danger, Heartbreak Ahead
* ,xx/xx/xx , 497 ,Someone On Your Mind
* ,xx/xx/xx , 498 ,Margaret Whiting
* ,xx/xx/xx , 499 ,Sam Hinton
* ,xx/xx/xx , 502 ,First Song - Lullaby Of Birdland
* ,xx/xx/xx , 503 ,First Song - Love Is Just Around The Corner
* ,xx/xx/xx , 504 ,Herb Jeffries
* ,xx/xx/xx , 505 ,The Mulcays
* ,xx/xx/xx , 515 ,First Song - Dream Of You
* ,xx/xx/xx , 522 ,First Song - The Prince and The Princess Waltz
* ,xx/xx/xx , 523 ,Teri York
* ,xx/xx/xx , 530 ,Billy May and His Orchestra
* ,xx/xx/xx , 531 ,Harry Zimmerman and His Orchestra
* ,xx/xx/xx , 532 ,Morris Stoloff
* ,xx/xx/xx , 533 ,Coleman Hawkins
* ,xx/xx/xx , 534 ,Lou Busch and His Orchestra
* ,xx/xx/xx , 535 ,Tommy Reynolds and His Orchestra, Billy Butterfield
* ,xx/xx/xx , 536 ,First Song - The Railroad Comes Through the Middle Of The House
* ,xx/xx/xx , 537 ,First Song - When You Wish Upon A Star
* ,xx/xx/xx , 538 ,First Song - When The White Lilacs Bloom Again
* ,xx/xx/xx , 539 ,Diahann Carroll
* ,xx/xx/xx , 540 ,Les Elgart
* ,xx/xx/xx , 545 ,Mitch Miller
* ,xx/xx/xx , 546 ,Kathy Johnson
* ,xx/xx/xx , 547 ,First Song - Le Cheval Blanc
* ,xx/xx/xx , 551 ,First Tune - The Sheik Of Araby
* ,xx/xx/xx , 561 ,First Song - Plymouth Rock
* ,xx/xx/xx , 562 ,First Song - Timber Train
* ,xx/xx/xx , 563 ,First Song - American Patrol
* ,xx/xx/xx , 569 ,First Song - Love Is A Gamble
* ,xx/xx/xx , 570 ,First Song - Pennies From Heaven
* ,xx/xx/xx , 573 ,Alfred Antonioni
* ,xx/xx/xx , 574 ,First Song - They Didn't Believe Me
* ,xx/xx/xx , 575 ,Dennis Farnon
* ,xx/xx/xx , 576 ,First Song - So Beats My Heart For You
* ,xx/xx/xx , 577 ,First Song - Come And Get It
* ,xx/xx/xx , 578 ,First Song - Lonesome Road
* ,xx/xx/xx , 579 ,First Song - On The South Side
* ,xx/xx/xx , 580 ,First Song - The Great Pretender
* ,xx/xx/xx , 581 ,First Song - You're A Great Little Girl
* ,xx/xx/xx , 582 ,First Song - Love Every Moment You Live
* ,xx/xx/xx , 583 ,First Song - Doc's Blues
* ,xx/xx/xx , 586 ,First Song - Ain't She Sweet
* ,xx/xx/xx , 587 ,Dick Maltby
* ,xx/xx/xx , 588 ,Tony Romano
* ,xx/xx/xx , 589 ,First Song - On My Way West
* ,xx/xx/xx , 590 ,First Song - I Just Don't Know
* ,xx/xx/xx , 593 ,The Lane Brothers
* ,xx/xx/xx , 594 ,Bernie Nee with Percy Faith and His Orchestra
* ,xx/xx/xx , 595 ,Easy Williams
* ,xx/xx/xx , 596 ,Elliott Lawrence and his Orchestra
* ,xx/xx/xx , 600 ,Halloran Singers
* ,xx/xx/xx , 601 ,Leo Diamond
* ,xx/xx/xx , 602 ,Dick Wilson
* ,xx/xx/xx , 603 ,Martha Carson
* ,xx/xx/xx , 604 ,Guest - Ray Ellis
* ,xx/xx/xx , 605 ,Guest - June Christy
* ,xx/xx/xx , 606 ,First Song - Marcelino
* ,xx/xx/xx , 607 ,First Song - On The Sunny Side Of The Street
* ,xx/xx/xx , 611 ,First Song - Nice Work If You Can Get It
* ,xx/xx/xx , 613 ,First Song - Josephine
* ,xx/xx/xx , 614 ,Dennis Farnon & The Sabres
* ,xx/xx/xx , 615 ,Sonny Burke and His Orchestra
* ,xx/xx/xx , 616 ,Guest - George Cates
* ,xx/xx/xx , 618 ,First Song - All You Need Is A Song
* ,xx/xx/xx , 619 ,First Song - The Flaming Rose
* ,xx/xx/xx , 622 ,Guest - Matt Dennis
* ,xx/xx/xx , 623 ,Guest - Ray Anthony Orchestra (3)
* ,xx/xx/xx , 625 ,First Song - Yellow Rose Of Texas
* ,xx/xx/xx , 632 ,First Song - Life Is Just A Bowl Of Cherries
* ,xx/xx/xx , 635 ,Red Nichols and His New Pennies
* ,xx/xx/xx , 636 ,Guest - Percy Faith (2)
* ,xx/xx/xx , 637 ,Guest - Nelson Riddle
* ,xx/xx/xx , 638 ,Meredith Willson
* ,xx/xx/xx , 639 ,First Song - Anna
* ,xx/xx/xx , 640 ,First Song - Linda
* ,xx/xx/xx , 641 ,Guest - Morris Stoloff
* ,xx/xx/xx , 642 ,First Song - Sand In My Shoes
* ,xx/xx/xx , 645 ,Guest - Nat King Cole (2)
* ,xx/xx/xx , 646 ,Guest - Bill Loose
* ,xx/xx/xx , 647 ,First Song - On Top Of The World Alone
* ,xx/xx/xx , 648 ,First Song - Wagon Trains
* ,xx/xx/xx , 649 ,Guest - Dick Maltby
* ,xx/xx/xx , 650 ,Guest - Salli Terri
* ,xx/xx/xx , 653 ,First Song - Big Man
* ,xx/xx/xx , 654 ,Guest - Tutii Camarata
* ,xx/xx/xx , 655 ,Guest - Pam Garner
* ,xx/xx/xx , 656 ,First Song - There's A Small Hotel
* ,xx/xx/xx , 657 ,First Song - Valencia
* ,xx/xx/xx , 660 ,First Song - The St. Louis Blues March
* ,xx/xx/xx , 663 ,Frankie Carle and His Orchestra
* ,xx/xx/xx , 664 ,Guest - Paul Weston (2)
* ,xx/xx/xx , 665 ,Gordon MacRae
* ,xx/xx/xx , 666 ,Jimmy McHugh
* ,xx/xx/xx , 667 ,Guest - Si Zinter
* ,xx/xx/xx , 668 ,Guest - Stuart Hamlin
* ,xx/xx/xx , 669 ,First Song - It's A Good Day
* ,xx/xx/xx , 670 ,First Song - This Will Be My Shining Hour
* ,xx/xx/xx , 671 ,Guest - Ray Anthony (3)
* ,xx/xx/xx , 672 ,Guest - Mulkays
* ,xx/xx/xx , 675 ,Guest - Stan Jones
* ,xx/xx/xx , 676 ,First Song - Blue, Turning Gray Over You
* ,xx/xx/xx , 677 ,The Commanders
* ,xx/xx/xx , 679 ,Jeanette MacDonald
* ,xx/xx/xx , 680 ,George Brunis and His Orchestra
* ,xx/xx/xx , 681 ,Henri Rene & Gogi Grant
* ,xx/xx/xx , 682 ,First Song - She Was Five and He Was Ten
* ,xx/xx/xx , 683 ,Al Nevins Orchestra
* ,xx/xx/xx , 686 ,Nelson Eddy
* ,xx/xx/xx , 688 ,First Song - Sabre Dance
* ,xx/xx/xx , 691 ,First Song - Lazy Mary
* ,xx/xx/xx , 692 ,First Song - The Wang-Wang Blues
* ,xx/xx/xx , 693 ,First Song - Swinging On A Star
* ,xx/xx/xx , 694 ,First Song - Stardust Cha Cha
* ,xx/xx/xx , 695 ,First Song - The Hep Kats Summer Talk
* ,xx/xx/xx , 696 ,First Song - Ain't She Sweet  (2)
* ,xx/xx/xx , 697 ,An Evening With Lerner And Loewe
* ,xx/xx/xx , 698 ,First Song - Look, Look
* ,xx/xx/xx , 699 ,First Song - Before I Reach The Town-O
* ,xx/xx/xx , 700 ,First Song - You Gotta Look Up
* ,xx/xx/xx , 701 ,First Song - Yours Is My Heart Alone
* ,xx/xx/xx , 702 ,First Song - Hawaii Calls
* ,xx/xx/xx , 708 ,First Song - The World Is Waiting For The Sunrise
* ,xx/xx/xx , 709 ,First Song - Seven League Boots
  ,xx/xx/xx , 716 ,First Song - Timber Trail (Sons Of The Pioneers)
* ,xx/xx/xx , 719 ,First Song - Get Happy
* ,xx/xx/xx , 720 ,First Song - Do Nothing Till You Hear From Me
* ,xx/xx/xx , 721 ,First Song - Dixie
* ,xx/xx/xx , 722 ,First Song - Ain't She Sweet
* ,xx/xx/xx , 727 ,First Song - Mexican Jumping Bean
* ,xx/xx/xx , 732 ,First Song - Gesundheit Polka
* ,xx/xx/xx , 738 ,First Song - Opus In Chartreuse
* ,xx/xx/xx , 749 ,First Song - Yankee Doodle
* ,xx/xx/xx , 751 ,First Song - Smoke, Smoke That Cigarette
* ,xx/xx/xx , 752 ,First Song - Lonesome Road
* ,xx/xx/xx , 754 ,First Song - Pick Yourself Up, Start All Over Again
* ,xx/xx/xx , 755 ,First Song - Mack The Knife
* ,xx/xx/xx , 757 ,First Song - Git Along You Little Dogies
* ,xx/xx/xx , 759 ,First Song - Warmin' Up
* ,xx/xx/xx , 761 ,First Song - Old Man River
* ,xx/xx/xx , 768 ,First Song - The Hawaiian War Chant
* ,xx/xx/xx , 769 ,First Song - Oh By Jingo!
* ,xx/xx/xx , 774 ,First Song - Bernie's Tune
* ,xx/xx/xx , 775 ,First Song - Paper Moon
* ,xx/xx/xx , 779 ,First Song - Baked Alaska
* ,xx/xx/xx , 781 ,First Song - Fascinating Rhythm
* ,xx/xx/xx , 782 ,First Song - Officer Krupke
* ,xx/xx/xx , 785 ,First Song - You Can Depend On Me
* ,xx/xx/xx , 791 ,First Song - Little Old New York
* ,xx/xx/xx , 794 ,A chat with the 2000 year old man
* ,xx/xx/xx , 799 ,First Song - Maverick Is The Name (Sons Of The Pioneers)
* ,xx/xx/xx , 802 ,The Milt Kamen Show
* ,xx/xx/xx , 804 ,First Song - I've Got Spurs That Jingle Jangle Jingle
* ,xx/xx/xx , 806 ,First Song - Thinking Of You
* ,xx/xx/xx , 812 ,First Song - Won't You Tell Me Molly Darlin'
* ,xx/xx/xx , 817 ,First Song - Linger Awhile
* ,xx/xx/xx , 818 ,First Song - As Time Goes By
* ,xx/xx/xx , 822 ,First Song - Three Little Fishes
* ,xx/xx/xx , 823 ,First Song - Warmin' Up
* ,xx/xx/xx , 824 ,First Song - You Are My Sunshine
* ,xx/xx/xx , 825 ,First Song - Annie Laurie
* ,xx/xx/xx , 826 ,First Song - I Cry For You
* ,xx/xx/xx , 830 ,First Song - Too Much
* ,xx/xx/xx , 831 ,First Song - The Yellow Rose Of Texas (2)
* ,xx/xx/xx , 844 ,First Song - Seventy Six Trombones
* ,xx/xx/xx , 846 ,First Song - Western Wind
* ,xx/xx/xx , 847 ,First Song - Just A Closer Walk To Thee
* ,xx/xx/xx , 855 ,First Song - Serenata
* ,xx/xx/xx , 856 ,First Song - Silly Boy
* ,xx/xx/xx , 858 ,First Song - All Through The Night
* ,xx/xx/xx , 860 ,First Song - Fascination
* ,xx/xx/xx , 861 ,First Song - South Rampart Street Parade
* ,xx/xx/xx , 865 ,First Song - In The Mood
* ,xx/xx/xx , 866 ,First Song - Surfin' Safari
* ,xx/xx/xx , 868 ,First Song - Sally Was A Good Old Girl
* ,xx/xx/xx , 872 ,First Song - Jersey Bounce
* ,xx/xx/xx , 874 ,First Song - Waitin' For The Robert E. Lee
* ,xx/xx/xx , 876 ,First Song - Camelot
* ,xx/xx/xx , 879 ,First Song - The Hukilau
* ,xx/xx/xx , 881 ,First Song - California Here I Come
* ,xx/xx/xx , 882 ,First Song - I Was Born To The Saddle
* ,xx/xx/xx , 885 ,First Song - Bossa Nova Casanova
* ,xx/xx/xx , 887 ,First Song - Crawdads
* ,xx/xx/xx , 888 ,The Bill Loose Show
* ,xx/xx/xx , 889 ,A Re-visit With The 2000 Year Old Man
* ,xx/xx/xx , 890 ,First Song - Green Dolphin Street
* ,xx/xx/xx , 893 ,First Song - Michael Row The Boat Ashore
* ,xx/xx/xx , 894 ,First Song - Tough Jack
* ,xx/xx/xx , 896 ,First Song - Magpie
* ,xx/xx/xx , 897 ,Vardi, A Trip around New York
* ,xx/xx/xx , 898 ,First Song - Don't Look At Me That Way
* ,xx/xx/xx , 899 ,First Song - Sincerely Yours
* ,xx/xx/xx , 900 ,First Song - When The World Was Young
* ,xx/xx/xx , 901 ,First Song - Getting Sentimental
* ,xx/xx/xx , 904 ,First Song - In The Old Cotton Fields Of Home
* ,xx/xx/xx , 908 ,First Song - Just A Closer Walk With Thee
* ,xx/xx/xx , 910 ,First Song - Raggy Waltz
* ,xx/xx/xx , 911 ,First Song - Turkey In The Straw
* ,xx/xx/xx , 912 ,First Song - Hush Little Baby
* ,xx/xx/xx , 913 ,First Song - I've Got A Lot Of Living To Do
* ,xx/xx/xx , 914 ,First Song - Around The World In Eighty Days
* ,xx/xx/xx , 916 ,First Song - Accentuate The Positive
* ,xx/xx/xx , 918 ,First Song - Get On Board Little Children
* ,xx/xx/xx , 920 ,First Song - The Rhumba Boogie
* ,xx/xx/xx , 921 ,First Song - Let The Good Times Roll
* ,xx/xx/xx , 923 ,First Song - Puddle Jumpin'
* ,xx/xx/xx , 924 ,First Song - How Great Thou Art
* ,xx/xx/xx , 925 ,First Song - Getting Sentimental Over You
* ,xx/xx/xx , 927 ,First Song - She's Just A Painted Rose
* ,xx/xx/xx , 929 ,First Song - The Finale Of The G Minor Symphony By Mozart
* ,xx/xx/xx , 930 ,First Song - The Organ Twist
* ,xx/xx/xx , 931 ,First Song - My Funny Way Of Laughing
* ,xx/xx/xx , 932 ,First Song - Capricious
* ,xx/xx/xx , 933 ,First Song - I Love Paris
* ,xx/xx/xx , 934 ,First Song - This Nearly Was Mine
* ,xx/xx/xx , 935 ,First Song - On and On
* ,xx/xx/xx , 936 ,First Song - Big Noise From Winnetka
* ,xx/xx/xx , 937 ,First Song - Stop, Look and Listen
* ,xx/xx/xx , 938 ,First Song - It's A Darn Good Thing
* ,xx/xx/xx , 940 ,The Nat King Cole Show
* ,xx/xx/xx , 941 ,Henry Jerome's Folk Music
* ,xx/xx/xx , 944 ,Guest - Buddy Hackett
* ,xx/xx/xx , 945 ,Guest - Goodtime Singers
* ,xx/xx/xx , 949 ,Guest - Frank Miller and the Easy Riders
* ,xx/xx/xx , 950 ,The Carmen Dragon Show
* ,xx/xx/xx , 953 ,First Song - I'll Cry Instead
* ,xx/xx/xx , 954 ,Guest - Freddie Martin
* ,xx/xx/xx ,1006 ,First Song - Tonight
* ,xx/xx/xx ,1007 ,First Song - A Girl Is Someone To Love
* ,xx/xx/xx ,1025 ,First Song - Scarlet Ribbons
* ,xx/xx/xx ,1026 ,First Song - Walking My Baby Back Home
* ,xx/xx/xx ,1038 ,First Song - May The Bird Of Paradise Fly Up Your Nose
* ,xx/xx/xx ,1040 ,First Song - The Gallows Pole
* ,xx/xx/xx ,1041 ,First Song - April Showers
* ,xx/xx/xx ,1066 ,First Song - Hey There
* ,xx/xx/xx ,1067 ,Guest - Pat Boone
* ,xx/xx/xx ,1126 ,First Song - Over and Over
* ,xx/xx/xx ,1132 ,First Song - The Ol' Boll Weevil Song
* ,xx/xx/xx ,1144 ,First Song - Please Release Me
* ,xx/xx/xx ,1147 ,First Song - Fiddler On The Roof
* ,xx/xx/xx ,1291 ,Guest - Charlie Louvin
* ,xx/xx/xx ,1292 ,Guest - Jean Shepard
* ,xx/xx/xx ,1294 ,First Song - Seems Like Only Yesterday
* ,xx/xx/xx ,1302 ,Guest - Gov Jimmy Davis
* ,xx/xx/xx ,1303 ,Guest - Merle Haggard
* ,xx/xx/xx ,1305 ,Guest - Billy Vaughn
* ,xx/xx/xx ,1307 ,Guest - Eddie Jason and the Cowsills
* ,xx/xx/xx ,1308 ,Guest - Lawrence Welk
* ,xx/xx/xx ,1310 ,Guest - George Hamilton
* ,xx/xx/xx ,1311 ,Guest - Guy Lombardo
* ,xx/xx/xx ,1312 ,Guest - Eddie Heywood
* ,xx/xx/xx ,1313 ,Guest - Frank Sinatra
* ,xx/xx/xx ,1314 ,Guest - Nat King Cole
* ,xx/xx/xx ,1315 ,Guest - Jerry Gray
* ,xx/xx/xx ,1320 ,Guest - Lou Rawls
* ,xx/xx/xx ,1323 ,Guest - Buck Owens
* ,xx/xx/xx ,1324 ,Guest - Nancy Wilson
* ,xx/xx/xx ,1325 ,Guest - Tommy Leonetti
* ,xx/xx/xx ,1338 ,Guest - Josh White, Jr
* ,xx/xx/xx ,1339 ,Guest - Andy Russell
* ,xx/xx/xx ,1340 ,Guest - Helen Reddy
* ,xx/xx/xx ,1341 ,Guest - Al Martino
* ,xx/xx/xx ,1343 ,Guest - Lawrence Welk
* ,xx/xx/xx ,1345 ,Guest - Dale Evans
* ,xx/xx/xx ,1347 ,First Song - Heartbreak Mountain
* ,xx/xx/xx ,1348 ,Guest - Miles Davis
* ,xx/xx/xx ,1349 ,Guest - Vicki Carr
* ,xx/xx/xx ,1350 ,Guest - Stan Kenton
* ,xx/xx/xx ,1351 ,Guest - Buddy Merrill
* ,xx/xx/xx ,1352 ,Guest - Marty Robbins
* ,xx/xx/xx ,1353 ,Guest - Art Tatum
* ,xx/xx/xx ,1355 ,Guest - Jazz Classics All Stars
* ,xx/xx/xx ,1357 ,Guest - Coleman Hawkins
* ,xx/xx/xx ,1359 ,Guest - Gerry Mulligan
* ,xx/xx/xx ,1360 ,Guest - Dorsey Burnett
* ,xx/xx/xx ,1362 ,Jazz Classics - Woody Herman
* ,xx/xx/xx ,1364 ,Guest - Jazz Classics - Nat King Cole
* ,xx/xx/xx ,1365 ,Guest - Buddy Merrill
* ,xx/xx/xx ,1366 ,Guest -  Tina Turner
* ,xx/xx/xx ,1374 ,Guest - Charlie Pride
* ,xx/xx/xx ,1376 ,Guest - Cootie Williams
* ,xx/xx/xx ,1381 ,Guest - Great Jazz Classics Duke Ellington
* ,xx/xx/xx ,1382 ,First Song - A Sunshiney Day
* ,xx/xx/xx ,1384 ,Guest - Charlie Barnett
* ,xx/xx/xx ,1393 ,The Jack Benny Show
* ,xx/xx/xx ,1394 ,First Song - Overture to Tommy
* ,xx/xx/xx ,1399 ,Guest - Burns and Allen
* ,xx/xx/xx ,1400 ,First Song - Goodtime Charlies Got The Blues
* ,xx/xx/xx ,1401 ,Duffys Tavern
* ,xx/xx/xx ,1408 ,Guest - Don Ellis
* ,xx/xx/xx ,1409 ,Guest - Jud Strunk
* ,xx/xx/xx ,1410 ,Guest - Vaughn Monroe
* ,xx/xx/xx ,1414 ,Guest - Ray Stevens
* ,xx/xx/xx ,1415 ,Fibber McGee & Molly
* ,xx/xx/xx ,1416 ,First Song - Way Out There (Sons Of The Pioneers)
* ,xx/xx/xx ,1418 ,Guest - Bing Crosby
* ,xx/xx/xx ,1419 ,First Song - You Will Be My Music
* ,xx/xx/xx ,1420 ,The Bickersons
* ,xx/xx/xx ,1421 ,Guest - The Wilburn Brothers
* ,xx/xx/xx ,1422 ,Guest - Ray Anthony
* ,xx/xx/xx ,1423 ,Contented Hour
* ,xx/xx/xx ,1425 ,First Song - Everybody's Had The Blues Sometime
* ,xx/xx/xx ,1426 ,Guest - Jimmy Durante
* ,xx/xx/xx ,1430 ,First Song - Sweet Caroline
* ,xx/xx/xx ,1431 ,Club 15
* ,xx/xx/xx ,1433 ,Guest - Jack Carson
* ,xx/xx/xx ,1436 ,Guest - Dinah Shore
* ,xx/xx/xx ,1438 ,First Song - There Used To Be
* ,xx/xx/xx ,1440 ,The Great Gildersleeve
* ,xx/xx/xx ,1443 ,Guest - Milton Berle
* ,xx/xx/xx ,1446 ,Guest - Jolson
* ,xx/xx/xx ,1450 ,Lum and Abner
* ,xx/xx/xx ,1452 ,Guest - Duke Ellington
* ,xx/xx/xx ,1459 ,Guest - Tex Beneke
* ,xx/xx/xx ,1462 ,Guest - The Four Freshmen
* ,xx/xx/xx ,1467 ,Guest - Jackie Gleason's Orchestra
* ,xx/xx/xx ,1468 ,First Song - You're As Right As Rain
* ,xx/xx/xx ,1469 ,First Song - One Upon A Time
* ,xx/xx/xx ,1476 ,First Song - I Want To Hold Your Hand
* ,xx/xx/xx ,1478 ,First Song - Here's That Rainy Day
* ,xx/xx/xx ,1479 ,Guest - Joe Fingers Carr
* ,xx/xx/xx ,1482 ,Guest - Johnny Mercer
* ,xx/xx/xx ,1485 ,Guest - Kay Starr
* ,xx/xx/xx ,1490 ,Guest - Red Nichols
* ,xx/xx/xx ,1493 ,Guest - Stan Kenton
* ,xx/xx/xx ,1494 ,Guest - Artie Shaw
* ,xx/xx/xx ,1496 ,Guest - Les Baxter
* ,xx/xx/xx ,1501 ,Guest - Julia Lee
* ,xx/xx/xx ,1504 ,Guest - Jack Teagarden
* ,xx/xx/xx ,     ,Buddy DeFranco
* ,xx/xx/xx ,     ,First Song - Free Again (2)
* ,xx/xx/xx ,     ,First Song - Lost Faces
* ,xx/xx/xx ,     ,First Song - Melody In F
* ,xx/xx/xx ,     ,First Song - Straighten Up And Fly Right
  ,xx/xx/xx ,     ,First Song - Yes Sir, That's My Baby
* ,xx/xx/xx ,     ,Frank Sinatra
* ,xx/xx/xx ,     ,Guest - Helen Reddy
* ,xx/xx/xx ,     ,Guests - Abbott And Costello
  ,xx/xx/xx ,     ,The Flight Of Friendship 7
