Exists, Date, #, Episode Name
  ,44/06/13 ,     ,Guest - Leo Durocher, Jack Pepper
  ,44/06/20 ,     ,Guest - Eddie Cantor
  ,44/06/27 ,     ,
  ,44/07/04 ,     ,
  ,44/07/11 ,     ,Guest - Alexander de Seversky, Jack Pepper
  ,44/07/18 ,     ,Guest - Eddie Howard, Leonard Sues
  ,44/07/25 ,     ,Guest - George Jessel, Annamary Dickey
  ,44/08/01 ,     ,Guest - Constance Bennett, Patsy Flick, Minerva Pious
  ,44/08/08 ,     ,Guest - Victor Jory, John Sebastian
  ,44/08/15 ,     ,Guest - Jane Wyman, Patsy Flick, Minerva Pious
  ,44/08/22 ,     ,Guest - Block and Sully
  ,44/08/29 ,     ,Guest - Willie Howard, Al Kelly
  ,44/09/05 ,     ,Guest - Frank Fay
  ,44/10/03 ,     ,Guest - Harry Hershfield, Joe Laurie, Jr., "Senator" Ed Ford
  ,44/12/19 ,     ,Guest - Ethel Merman, John Mason Brown
  ,45/01/02 ,     ,Guest - Tallulah Bankhead
  ,45/01/09 ,     ,Guest - Edward Everett Horton
  ,45/01/16 ,     ,Guest - Clifton Webb, Tallulah Bankhead
  ,45/01/23 ,     ,Guest - Mayor Edward Kelly, Don McNeill
  ,45/01/30 ,     ,Guest - Oscar Levant, Russell Swann
  ,45/02/06 ,     ,Guest - Jane Wyman, Maxie Rosenbloom, Victor Moore
  ,45/02/13 ,     ,Guest - Virginia Mayo, Willie Howard, Dana Suesse
  ,45/02/20 ,     ,Guest - Shirley Booth, Stuart Erwin, Clifton Webb
  ,45/02/27 ,     ,Guest - Betty Smith, Patsy Kelly, Barry Wood
  ,45/03/06 ,     ,Guest - Binnie Barnes, Hugh Herbert
  ,45/03/13 ,     ,Guest - Dick Powell, Andy DeVine
  ,45/03/20 ,     ,Guest - Lou Holtz, Gypsy Rose Lee
  ,45/03/27 ,     ,Guest - Mary Boland, Willie Shore
  ,45/04/03 ,     ,Guest - Chico Marx, Roland Young
  ,45/04/10 ,     ,Guest - Patsy Kelly, Woody Herman
  ,45/04/17 ,     ,Guest - Lou Holtz
  ,45/04/24 ,     ,Guest - Xavier Cugat, Phil Silvers
  ,45/05/01 ,     ,Guest - Oscar Levant
  ,45/05/08 ,     ,Guest - Milton Berle, J. Carrol Naish
* ,45/05/15 ,     ,Guest - Patsy Kelly, Xavier Cugat, Clifton Webb
  ,45/05/22 ,     ,Guest - Ann Sheridan, Bert Lahr
  ,45/05/29 ,     ,
  ,45/06/05 ,     ,Guest - Sigmund Romberg, Herbert and Dorothy Fields
  ,45/09/11 ,     ,Guest - Tallulah Bankhead (New Season)
  ,45/09/18 ,     ,Guest - Lou Holtz, Lewis J. Valentine
* ,45/09/25 ,     ,Guest - Willie Howard, Paulette Goddard
  ,45/10/02 ,     ,Guest - Bill Stern, George Jessel
  ,45/10/09 ,     ,Guest - Burgess Meredith, Walter Abel, Patsy Kelly
* ,45/10/16 ,     ,Guest -  Claudia Morgan, Les Tremayne, Paul McGrath
* ,45/10/23 ,     ,Guest - Oscar Levant, Boris Karloff
  ,45/10/30 ,     ,Guest - Miriam Hopkins, Robert Benchley
  ,45/11/06 ,     ,Guest - Walter Huston, Earl Wilson
  ,45/11/13 ,     ,Guest - Tommy Harmon, Herny Morgan, Stroud Twins
  ,45/11/20 ,     ,Guest - Henny Youngrham, Buddy Rich
  ,45/11/27 ,     ,Guest - Bert Lahr, George McManus
  ,45/12/05 ,     ,Guest - Eddie Cantor
  ,45/12/12 ,     ,Guest - Judy Canova, Irving Pichel
  ,45/12/19 ,     ,Guest - Buddy Clark, Robert Crum
  ,45/12/26 ,     ,Guest - Burgess Meredith, Paulette Goddard
  ,46/01/02 ,     ,Guest - Jay Joston, Carmel Myers
  ,46/01/09 ,     ,Guest - Neil Hamilton, Sigmund Romberg, Buddy Lester
  ,46/01/16 ,     ,Guest - Walter Abel, Stuart Erwin, Vera Vague
  ,46/01/23 ,     ,Guest - Gypsy Rose Lee, Arlene Francis
  ,46/01/30 ,     ,Guest - Paul Winchell, Johnny Norgan, Lynn Duddy
  ,46/02/06 ,     ,Guest - Lauritz Melchior
  ,46/02/13 ,     ,Guest - Paul Regan, Gil Lamb, Romo Vincent
  ,46/02/20 ,     ,Guest - Col Stoopnagle, Buddy Lester
  ,46/02/27 ,     ,Guest - Victor Moore, Phil Regan
* ,46/03/06 ,     ,Guest - Jackie Gleason, Rosemarie
  ,46/03/13 ,     ,Guest - Tallulah Bankhead, John Conte
  ,46/03/20 ,     ,Guest - Henry Youngman, Jacqueline Horner, Charles MacArthur, Ben Hecht
  ,46/03/27 ,     ,Guest - Odette Myrtle
  ,46/04/03 ,     ,Guest - Lauritz Melchior, Milton Berle
  ,46/04/10 ,     ,Guest - Willie Howard, Al Kelly, John Conte
  ,46/04/17 ,     ,Guest - Alec -Templeton, Jan Murray, Bud Collyer
  ,46/04/24 ,     ,Guest - Patsy Kelly, Irving Berlin
  ,46/05/01 ,     ,Guest - Paulette Goddard, Burgess Meredith, George Jessel
  ,46/05/08 ,     ,Guest - Ted Lewis, Guy Lornbardo
* ,46/05/15 ,     ,Guest - Tallulah Bankhead, Victor Moore
  ,46/05/22 ,     ,Guest - Elliott Roosevelt, Faye Emerson Roosevelt, Gene Kelly
  ,46/05/29 ,     ,Guest - Buddy Clark, Lawrence and Marley
  ,46/06/05 ,     ,Guest - Art Linkletter
  ,46/06/12 ,     ,Guest - Ella Logan, Rags Ragland
  ,46/06/19 ,     ,Guest - Harvey Stone, Jan Murray, Patsy Kelly
  ,46/06/26 ,     ,Guest - Patsy Kelly, Jan Murray
  ,46/07/03 ,     ,Guest - Bert Lahr
  ,46/07/10 ,     ,Guest - Paul Winchell, Jan Murray
  ,46/07/17 ,     ,Guest - Jan Murray, Patsy Kelly, Alan Stephen
  ,46/07/24 ,     ,Guest - Jan Murray, Cliff Edwards, David Saperton
  ,46/10/06 ,     ,
  ,46/10/13 ,     ,Guest - Basil Rathbone, Tito Guizar
  ,46/10/20 ,     ,Guest - Virginia Weidler, Roddy McDowell, Jackie Kelk
  ,46/10/27 ,     ,Guest - Elisabeth Bergner, John Carradine
  ,46/11/03 ,     ,Guest - Henry Daniell, Walter Abel
  ,46/11/10 ,     ,Guest - Ethel Merman, George Jessel
  ,46/11/17 ,     ,Guest - Henny Youngman, Jan Murray, Frankie Myers
  ,46/11/24 ,     ,Guest - Tallulah Bankhead, Basil Rathbone, Maura Laverty
  ,46/12/01 ,     ,Guest - Gracie Fields, Bert Lahr
  ,46/12/08 ,     ,Guest - Dean Murphy, Herb Shriner
  ,46/12/15 ,     ,Guest - Ethel Merman, Victor Moore
  ,46/12/22 ,     ,Guest - Paulist Choristers of New York, Buddy Clark
  ,46/12/29 ,     ,Guest - Marlene Dietrich, Willie Howard
  ,47/01/05 ,     ,Guest - Moss Hart, Kitty Carlisle, Edward Everett Horton
  ,47/01/12 ,     ,Guest - Oscar Levant, Sandra Gould
  ,47/01/19 ,     ,Guest - Florence Desmond, Josef Marais and Miranda
  ,47/01/26 ,     ,Guest - Patsy Kelly, Barry Wood
  ,47/02/02 ,     ,Guest - Abbott and Costello
  ,47/02/09 ,     ,Guest - Donald Richards, David Wayne
  ,47/02/16 ,     ,Guest - Lauritz Melchior, Sigmund Spaeth
  ,47/02/23 ,     ,Guest - Elliott Roosevelt, Faye Emerson, Peter Lorre
  ,47/03/02 ,     ,Guest - Kay Kyser, John Conte
  ,47/03/09 ,     ,Guest - Bert Lahr, Lucienne Boyer
  ,47/03/16 ,     ,Guest - Phil Regan, Henry Morgan
  ,47/03/23 ,     ,Guest - Norman Cordon, Polyna Stoska, Rolly Rolls
  ,47/03/30 ,     ,Guest - Tallulah Bankhead, Herb Shriner
