Exists, Date, #, Episode Name
  ,43/03/18 ,   1 ,
  ,43/03/25 ,   2 ,The Big Mitten
  ,43/04/01 ,   3 ,
  ,43/04/08 ,   4 ,
  ,43/04/15 ,   5 ,
  ,43/04/22 ,   6 ,
  ,43/04/29 ,   7 ,
  ,43/05/06 ,   8 ,
  ,43/05/13 ,   9 ,
  ,43/05/20 ,  10 ,
  ,43/05/27 ,  11 ,
  ,43/06/03 ,     ,--- PRE-EMPTED
  ,43/06/10 ,  12 ,Nosegay for Judith
  ,43/06/17 ,  13 ,
  ,43/06/24 ,  14 ,
  ,43/07/01 ,  15 ,
  ,43/07/08 ,  16 ,
  ,43/07/15 ,  17 ,People Don't Talk Like That
  ,43/07/22 ,  18 ,Doubleplay
  ,43/07/29 ,  19 ,
  ,43/08/05 ,  20 ,
  ,43/08/12 ,  21 ,
  ,43/08/19 ,  22 ,
  ,43/08/26 ,  23 ,
  ,43/09/02 ,  24 ,
  ,43/09/06 ,  25 ,
  ,43/09/13 ,  26 ,
  ,43/09/20 ,  27 ,
  ,43/09/27 ,  28 ,Snow Man
  ,43/10/04 ,  29 ,Quest of the Tropic Bird
  ,43/10/11 ,  30 ,White Camellias
  ,43/10/18 ,  31 ,
  ,43/10/25 ,  32 ,
  ,43/11/01 ,  33 ,The Man, the Mission and the Maid
  ,43/11/08 ,  34 ,
  ,43/11/15 ,  35 ,The Amazing Ritchie Price
  ,43/11/22 ,  36 ,Queen of Hearts
  ,43/11/29 ,  37 ,Second Choice
  ,43/12/06 ,  38 ,Debutante
  ,43/12/13 ,  39 , Legacy of Happiness
  ,43/12/20 ,  40 ,
  ,43/12/27 ,  41 ,Miss Pinkerton, Inc
  ,44/01/03 ,  42 ,Spats McCann
  ,44/01/10 ,  43 ,Three Days Leave
  ,44/01/17 ,  44 ,Light of Land's End
  ,44/01/24 ,  45 ,Society Page
  ,44/01/31 ,  46 ,Riptide
  ,44/02/07 ,  47 ,Badge of Courage
  ,44/02/14 ,  48 ,Appointment at Eight
  ,44/02/21 ,  49 ,Murder for Fun
  ,44/02/28 ,  50 ,Tam O'Shanter Mystery
  ,44/03/06 ,  51 ,Double Day for Marsha
  ,44/03/13 ,  52 ,Manhattan Serenade
  ,44/03/20 ,  53 ,New York Yankee
  ,44/03/27 ,  54 ,Castle of San Maria
  ,44/04/03 ,  55 ,Hold Back the Clock
  ,44/04/10 ,  56 ,Ghost of Croydon Manor
  ,44/04/17 ,  57 ,Romance Is Where You Find It
  ,44/04/24 ,  58 ,The Wrong Mr Wright
  ,44/05/01 ,  59 ,Little Miss Fortune
  ,44/05/08 ,  60 ,Samson Unshorn
  ,44/05/15 ,  61 ,Wagon Wheels Rolling
  ,44/05/22 ,  62 ,His Wife's Husband
  ,44/05/29 ,  63 ,Welcome Stranger (2)
  ,44/06/05 ,  64 ,Evenlode
  ,44/06/12 ,     ,--- PRE-EMPTED
  ,44/06/19 ,  65 ,House of KilKare
  ,44/06/26 ,     ,--- PRE-EMPTED
  ,44/07/03 ,  66 ,The Twain Shall Meet
  ,44/07/10 ,  67 ,Sponsor Wanted
  ,44/07/17 ,  68 ,The Law Comes to Sundown
  ,44/07/24 ,  69 ,Judgment Deferred
  ,44/07/31 ,  70 ,Tomorrow and Tomorrow
  ,44/08/07 ,  71 ,Purely Elementary
  ,44/08/14 ,  72 ,Assignment Finished
  ,44/08/21 ,  73 ,That's My Husband
  ,44/08/28 ,  74 ,
  ,44/09/04 ,  75 ,They Shall Rise Again
  ,44/09/11 ,  76 ,Who Tied the Can on Puddiekin's Tail
  ,44/09/18 ,  77 ,For the Love of Pete
  ,44/09/25 ,  78 ,
  ,44/10/02 ,  79 ,Little Miss Muffett and the Spider
  ,44/10/09 ,  80 ,
  ,44/10/16 ,  81 ,Meet Mrs Chandler
  ,44/10/23 ,  82 ,
  ,44/10/30 ,  83 ,Mr Carter's Conscience
  ,44/11/06 ,  84 ,--- PRE-EMPTED
  ,44/11/13 ,  85 ,Ashes of Victory
  ,44/11/20 ,  86 ,
  ,44/11/27 ,  87 ,
  ,44/12/04 ,  88 ,
  ,44/12/11 ,  89 ,
  ,44/12/18 ,  90 ,
  ,44/12/25 ,  91 ,
