Exists, Date, #, Episode Name
* ,46/04/14 ,   3 ,Victor
* ,49/10/12 ,  78 ,An Old Fashioned Walk
* ,50/02/22 , 101 ,Copper Canyon
* ,50/04/12 , 106 ,I'll Follow My Secret Heart
* ,50/05/10 , 114 ,I've Told Every Little Star
* ,50/05/17 , 111 ,Way Back Home
* ,50/06/07 , 113 ,Midnight in Paris
* ,51/09/11 , 224 ,Getting to Know You
* ,52/01/01 , 191 ,Je Vous Adore
* ,52/02/19 , 198 ,Guest - Francis Archer
* ,52/04/08 , 205 ,Guest - The Mello-Men
* ,52/08/19 , 225 ,The Second Hungarian Rhapsody
