Exists, Date, #, Episode Name
* ,52/xx/xx ,  60 ,Army D J Show with Fred Grimes and Guest Freddy Martin
* ,xx/xx/xx ,  62 ,Fred Grimes Interviews Jo Stafford About Her Latest Record, 'Pretty Boy,'
* ,xx/xx/xx ,  75 ,Ray Anthony Introduces Airchecks from 1940 and 1941 Glenn Miller
* ,xx/xx/xx ,  96 ,Fred Grimes Interviews Mickey Katz, Whose Great Record of 'Tiger Rag,'
* ,xx/xx/xx ,  98 ,Fred Grimes Hosts Mickey Katz as Guest D J
* ,xx/xx/xx , 100 ,First Record Is 'Friendship,' by Tommy Dorsey and His Orchestra
* ,xx/xx/xx , 101 ,Guest D J Is Woody Herman, Who Starts out with 'Woodchopper's Ball'
* ,xx/xx/xx , 102 ,Guest D J Is Woody Herman, Who Begins with His Own Record of 'Jumpin' the Line'
* ,xx/xx/xx , 103 ,Fred Grimes Hosts, Guest D J Is Woody Herman, Who Introduces His
* ,xx/xx/xx , 104 ,Fred Grimes and Guest D J Woody Herman
* ,xx/xx/xx , 105 ,Fred Grimes and Guest D J Woody Herman (2)
* ,xx/xx/xx , 151 ,Fred Grimes Introduces Guest D J Stan Freberg
* ,xx/xx/xx , 152 ,Fred Grimes Introduces Guest D J Stan Freberg (2)
* ,xx/xx/xx , 153 ,Fred Grimes Introduces Guest D J Stan Freberg (3)
* ,xx/xx/xx , 154 ,Fred Grimes Hosts and Introduces Guest D J Stan Freberg
* ,xx/xx/xx , 155 ,Fred Grimes Hosts and Introduces Guest D J Stan Freberg (2)
* ,xx/xx/xx , 166 ,Fred Grimes Hosts Guest D J Stan Kenton
* ,xx/xx/xx , 167 ,Fred Grimes Hosts Guest D J Stan Kenton (2)
* ,xx/xx/xx , 168 ,Fred Grimes Hosts Guest D J Stan Kenton (3)
* ,xx/xx/xx , 169 ,Fred Grimes Hosts Guest D J Stan Kenton (4)
* ,xx/xx/xx , 170 ,Fred Grimes (host), with Guest D J Stan Kenton
* ,xx/xx/xx , 176 ,The First Record Is 'The Atchison, Topeka and the Santa Fe'
* ,xx/xx/xx , 177 ,Fred Grimes (host), with Guest D J Johnny Mercer
* ,xx/xx/xx , 177 ,Johnny Mercer Is the Guest D J, Fred Grimes Is Host
* ,xx/xx/xx , 178 ,Fred Grimes (host), and Guest D J Johnny Mercer Start with 'Blues in the Night,'
* ,xx/xx/xx , 178 ,Fred Grimes Is the Host, Johnny Mercer Is Guest D J
* ,xx/xx/xx , 179 ,Fred Grimes Is the Host, Johnny Mercer Is Guest D J (2)
* ,xx/xx/xx , 180 ,Fred Grimes Is Host, Johnny Mercer Is Guest D J
* ,xx/xx/xx , 191 ,The First Record Is, 'Does Your Heart Beat for Me'
* ,xx/xx/xx , 192 ,Sergeant Fred Grimes and Guest D J Russ Morgan Play the Latest
* ,xx/xx/xx , 193 ,The First Record Is, 'The Laughing Trombone Polka,' by Russ Morgan
* ,xx/xx/xx , 194 ,The First Record Is, 'Tell Me You're Mine,' by Russ Morgan And
* ,xx/xx/xx , 195 ,The Last Show of the Series
