Exists, Date, #, Episode Name
* ,67/11/27 ,   1 ,Code Name Joseph
* ,67/11/30 ,   2 ,Find The Lady
* ,67/12/04 ,   3 ,The Faceless Ones
* ,67/12/07 ,   4 ,The Blackmailer
* ,67/12/11 ,   5 ,Cold Blood
* ,67/12/14 ,   6 ,Behind The Mask
* ,67/12/18 ,   7 ,White Cat
* ,67/12/21 ,   8 ,Write Off
