Exists, Date, #, Episode Name
* ,xx/xx/xx ,   1 ,Ep01
  ,xx/xx/xx ,   2 ,episode 2
  ,xx/xx/xx ,   3 ,episode 3
  ,xx/xx/xx ,   4 ,episode 4
* ,xx/xx/xx ,   5 ,Ep05
* ,xx/xx/xx ,   6 ,Ep06
* ,xx/xx/xx ,   7 ,Ep07
* ,xx/xx/xx ,   8 ,Ep08
  ,xx/xx/xx ,   9 ,episode 9
* ,xx/xx/xx ,  10 ,Ep10
* ,xx/xx/xx ,  11 ,Ep11
* ,xx/xx/xx ,  12 ,Ep12
* ,xx/xx/xx ,  13 ,Ep13
* ,xx/xx/xx ,  14 ,Ep14
* ,xx/xx/xx ,  15 ,Ep15
* ,xx/xx/xx ,  16 ,Ep16
* ,xx/xx/xx ,  17 ,Ep17
* ,xx/xx/xx ,  18 ,Ep18
* ,xx/xx/xx ,  19 ,Ep19
* ,xx/xx/xx ,  20 ,Ep20
* ,xx/xx/xx ,  21 ,Ep21
* ,xx/xx/xx ,  22 ,Ep22
* ,xx/xx/xx ,  23 ,Ep23
* ,xx/xx/xx ,  24 ,Ep24
* ,xx/xx/xx ,  25 ,Ep25
* ,xx/xx/xx ,  26 ,Ep26
* ,xx/xx/xx ,  27 ,Ep27
  ,xx/xx/xx ,  28 ,episode 28
  ,xx/xx/xx ,  29 ,episode 29
  ,xx/xx/xx ,  30 ,episode 30
* ,xx/xx/xx ,  31 ,Ep31
* ,xx/xx/xx ,  32 ,Ep32
* ,xx/xx/xx ,  33 ,Ep33
* ,xx/xx/xx ,  34 ,Ep34
* ,xx/xx/xx ,  35 ,Ep35
* ,xx/xx/xx ,  36 ,Ep36
