Exists, Date, #, Episode Name
  ,50/06/06 ,   1 ,PREMIERE SHOW (evil love potion is concocted to get 3 people into a jealous rage)
  ,50/06/13 ,   2 ,Title Unknown (marriage for money; Lucille; Gordon; aunt)
  ,50/06/20 ,   3 ,Title Unknown
  ,50/06/27 ,   4 ,Title Unknown
  ,50/07/04 ,   5 ,Title Unknown
  ,50/07/11 ,   6 ,Title Unknown
  ,50/07/18 ,   7 ,Soldier of Fortune
  ,50/07/25 ,   8 ,Title Unknown
  ,50/08/01 ,   9 ,Title Unknown (Marshall Blake's alibi; missing corpse
  ,50/08/08 ,  10 ,Title Unknown
  ,50/08/15 ,  11 ,Title Unknown
  ,50/08/22 ,  12 ,Title Unknown (gangster in hills of Mexico; dire need of medical attention gets him)
  ,50/08/29 ,  13 ,Title Unknown (FINAL EPISODE)
