Exists, Date, #, Episode Name
* ,xx/xx/xx ,   1 ,Kindred -  Part 1 of 4.mp3
* ,xx/xx/xx ,   2 ,Kindred - Part 2 of 4.mp3
* ,xx/xx/xx ,   3 , Kindred - Part 3 of 4.mp3
* ,xx/xx/xx ,   3 ,A Good Knight's Work - Part 1.mp3
* ,xx/xx/xx ,   4 , Kindred - Part 4 of 4.mp3
* ,xx/xx/xx ,   5 ,History of the Devil - Part 1.mp3
* ,xx/xx/xx ,   6 ,History of the Devil - Part 2.mp3
* ,xx/xx/xx ,   7 ,History of the Devil - Part 3.mp3
* ,xx/xx/xx ,   8 ,History of the Devil - Part 4.mp3
* ,xx/xx/xx ,   9 ,History of the Devil - Part 5.mp3
* ,xx/xx/xx ,  10 ,Snow Glass Apples - Part 1.mp3
* ,xx/xx/xx ,  11 ,Snow Glass Apples - Part 2.mp3
* ,xx/xx/xx ,  12 ,An Elevator and a Pole - Part 1.mp3
* ,xx/xx/xx ,  13 ,An Elevator and a Pole - Part 2.mp3
* ,xx/xx/xx ,  14 ,The Martian Crown Jewels.mp3
* ,xx/xx/xx ,  15 ,The Time Machine - Part 1.mp3
* ,xx/xx/xx ,  16 ,The Time Machine - Part 2.mp3
* ,xx/xx/xx ,  17 ,Black Canoes.mp3
* ,xx/xx/xx ,  18 ,Titanic Dreams.mp3
* ,xx/xx/xx ,  19 ,The Moon Moth - Part 1.mp3
* ,xx/xx/xx ,  20 ,The Moon Moth - Part 2.mp3
* ,xx/xx/xx ,  21 ,The Lucky Strike - Part 1.mp3
* ,xx/xx/xx ,  22 ,The Lucky Strike - Part 2.mp3
* ,xx/xx/xx ,  24 ,A Good Knight's Work - Part 2.mp3
* ,xx/xx/xx ,  25 ,The Jaguar Hunter - Part 1.mp3
* ,xx/xx/xx ,  26 ,The Jaguar Hunter - Part 2.mp3
* ,xx/xx/xx ,  27 ,Fire Watch - Part 1.mp3
* ,xx/xx/xx ,  28 ,Fire Watch - Part 2.mp3
* ,xx/xx/xx ,  29 ,Facade
* ,xx/xx/xx ,  30 ,Legend of Sleepy Hollow
* ,xx/xx/xx ,  31 ,A Dry Quiet War - Part 1
* ,xx/xx/xx ,  32 ,A Dry Quiet War - Part 2
* ,xx/xx/xx ,  33 ,Diary of A Mad Deity - Part 2
* ,xx/xx/xx ,  34 ,Diary of A Mad Deity - Part 1
* ,xx/xx/xx ,  35 ,Child's Play
* ,xx/xx/xx ,  36 ,In The Shade of the Slowboat Man
* ,xx/xx/xx ,  37 ,Greedy Choke Puppy
* ,xx/xx/xx ,  38 ,The Nostalgianauts
* ,xx/xx/xx ,  39 ,Knock
* ,xx/xx/xx ,  40 ,The Man Who Could Work Miracles
* ,xx/xx/xx ,  41 ,Derelick
* ,xx/xx/xx ,  42 ,Breakaway, Breakdown
* ,xx/xx/xx ,  43 ,Emily 501 - Part 1.mp3
* ,xx/xx/xx ,  44 ,Emily 501 - Part 2.mp3
* ,xx/xx/xx ,  45 ,Marilyn or the Monster - Part 1
* ,xx/xx/xx ,  46 ,Marilyn or the Monster - Part 2
* ,xx/xx/xx ,  47 ,Sorry, Wrong Number
* ,xx/xx/xx ,  48 ,Jumping Niagara Falls
* ,xx/xx/xx ,  49 ,Feel The Zaz - Part 1
* ,xx/xx/xx ,  50 ,Feel The Zaz - Part 2
* ,xx/xx/xx ,  51 ,Neil Gaiman's Murder Mysteries - Part 1
* ,xx/xx/xx ,  52 ,Neil Gaiman's Murder Mysteries - Part 2
* ,xx/xx/xx ,  53 ,Propagation of Light in a Vacuum - Part 1
* ,xx/xx/xx ,  54 ,Propagation of Light in a Vacuum - Part 2.mp3
* ,xx/xx/xx ,  55 ,Meet The Neighbor
* ,xx/xx/xx ,  56 ,Orson The Alien
* ,xx/xx/xx ,  57 ,The Wheel - Part 1
* ,xx/xx/xx ,  58 ,The Wheel - Part 2
* ,xx/xx/xx ,  59 ,Daughter Earth - Part 1
* ,xx/xx/xx ,  60 ,Daughter Earth - Part 2
* ,xx/xx/xx ,  61 ,Other Worlds
* ,xx/xx/xx ,  62 ,Times Arrow, Time's Spiral
* ,xx/xx/xx ,  63 ,Alice In Wonderland - Part 1
* ,xx/xx/xx ,  64 ,Alice In Wonderland - Part 2
* ,xx/xx/xx ,  65 ,The Flat Edge of the Earth - Part 1
* ,xx/xx/xx ,  66 ,The Flat Edge of the Earth - Part 2
* ,xx/xx/xx ,  67 ,The Country Doctor
* ,xx/xx/xx ,  68 ,The First (and Last) Musical on Mars - Part 1
* ,xx/xx/xx ,  69 ,The First (and Last) Musical on Mars - Part 2
* ,xx/xx/xx ,  70 ,The First (and Last) Musical on Mars - Part 3
* ,xx/xx/xx ,  71 ,George and the Red Giant - Part 1
* ,xx/xx/xx ,  72 ,George and the Red Giant - Part 2
* ,xx/xx/xx ,  73 ,The Bigger One
* ,xx/xx/xx ,  74 ,Too Late - An Experiment in Sound
* ,xx/xx/xx ,  75 ,Comedy Trilogy
* ,xx/xx/xx ,  76 ,The Signal-Man
* ,xx/xx/xx ,  77 ,A Clean Escape
* ,xx/xx/xx ,  78 ,Herd Mentality - Part 1
* ,xx/xx/xx ,  79 ,Herd Mentality - Part 2
* ,xx/xx/xx ,  80 ,Death Of Captain Future - Part 1
* ,xx/xx/xx ,  81 ,Death Of Captain Future - Part 2
* ,xx/xx/xx ,  82 ,Think Like a Dinosaur - Part 1
* ,xx/xx/xx ,  83 ,Think Like a Dinosaur - Part 2
* ,xx/xx/xx ,  84 ,Wanted In Surgery
* ,xx/xx/xx ,  85 ,The Oblivion Syndrome
* ,xx/xx/xx ,  86 ,Monkeys Paw
* ,xx/xx/xx ,  87 ,The Tell-Tale Heart
* ,xx/xx/xx ,  88 ,Into The Sun
* ,xx/xx/xx ,     ,A Good Knights Work - Part 2
* ,xx/xx/xx ,     ,Come Hammering (UNVERIFIED)
* ,xx/xx/xx ,     ,Fight Or Flight (UNVERIFIED)
