Exists, Date, #, Episode Name
* ,xx/xx/xx ,   1 ,episode 1
* ,xx/xx/xx ,   2 ,episode 2
* ,xx/xx/xx ,   3 ,episode 3
* ,xx/xx/xx ,   4 ,episode 4
* ,xx/xx/xx ,   5 ,episode 5
* ,xx/xx/xx ,   6 ,episode 6
