Exists, Date, #, Episode Name
* ,xx/xx/xx ,   1 ,Brer Fox and the Carrot Trap
* ,xx/xx/xx ,   2 ,The Unhappy Stable
* ,xx/xx/xx ,   3 ,Brer Rabbit and Brer Bear - The Big Snow
* ,xx/xx/xx ,   4 ,Brer Snake's Christmas Gift
* ,xx/xx/xx ,   5 ,The Time Brer Rabbit Was Picked Off
* ,xx/xx/xx ,   6 ,Brer Rabbit's Surprise
* ,xx/xx/xx ,   7 ,Brer Fox and the Christmas Turkey
* ,xx/xx/xx ,   8 ,Brer Rabbit Loses an Address
* ,xx/xx/xx ,   9 ,Brer Beaver's Christmas Dinner
* ,xx/xx/xx ,  10 ,Brer Fox and Brer Rabbit's Lesson
* ,xx/xx/xx ,  11 ,Jack in the Box
* ,xx/xx/xx ,  12 ,How Brer Rabbit Lost His Tail
* ,xx/xx/xx ,  13 ,Mr Rabbit's Christmas
* ,xx/xx/xx ,  14 ,Brer Fox and the Christmas Packages
* ,xx/xx/xx ,  15 ,Santa Claus Comes to the Brier Patch
* ,xx/xx/xx ,  16 ,The Night Before Christmas
* ,xx/xx/xx ,  17 ,The Building of the World
* ,xx/xx/xx ,  18 ,Brer Fox and His Christmas Hate
* ,xx/xx/xx ,  19 ,Brer Rabbit's Mistake
* ,xx/xx/xx ,  20 ,Brer Rabbit's Goose
* ,xx/xx/xx ,  21 ,Brer Fox And Brer Goat
* ,xx/xx/xx ,  22 ,Brer Fox In the Brier Patch
* ,xx/xx/xx ,  23 ,Brer Fox's Toothache
* ,xx/xx/xx ,  24 ,The Tattlin' Snake
