Exists, Date, #, Episode Name
* ,49/xx/xx ,   5 ,First Song - Living on the Sunny Side
* ,49/xx/xx ,   5 ,First Song - Living On The Sunny Side
* ,49/xx/xx ,   6 ,First Song - He Bore It All
* ,49/xx/xx ,   6 ,First Song - He Bore It All
* ,49/xx/xx ,  17 ,First Song - I Love My Saviour
* ,49/xx/xx ,  17 ,First Song - I Love My Saviour
* ,49/xx/xx ,  18 ,First Song - Wayside Wells
* ,49/xx/xx ,  18 ,First Song - Wayside Wells
* ,49/xx/xx ,  19 ,episode 19
* ,49/xx/xx ,  19 ,First Song - Right Will Always Win
* ,49/xx/xx ,  23 ,First Song - Wear a Smile
* ,49/xx/xx ,  23 ,First Song - Wear A Smile
* ,49/xx/xx ,  24 ,First Song - A Little More
* ,49/xx/xx ,  24 ,First Song - A Little More
