Exists, Date, #, Episode Name
  ,49/01/02 ,   1 ,Guest - Joan Davis, Buddy Clark
* ,49/01/09 ,   2 ,Guest - Dinah Shore, Fred Astaire
  ,49/01/16 ,   3 ,Guest - Bob Crosby, Celeste Holm
* ,49/01/23 ,   4 ,Guest - Peggy Mann, Alec Templeton
* ,49/01/30 ,   5 ,Guest - Lina Romay,  Basil Rathbone
* ,49/02/06 ,   6 ,Guest - Eddy Arnold, Janis Paige
* ,49/02/13 ,   7 ,Guest - Tony Martin, Cyd Charisse
* ,49/02/20 ,   8 ,Guest - Alec Templeton, Monica Lewis
* ,49/02/27 ,   9 ,Guest - Hildegarde
* ,49/03/06 ,  10 ,Guest - Burgess Meredith, Peggy Mann
* ,49/03/12 ,  11 ,Guest - Gene Tierney
* ,49/03/19 ,  12 ,Guest - Jack Carson
  ,49/03/26 ,  13 ,Guest - Madeleine Carroll
* ,49/04/02 ,  14 ,Guest - Charles Boyer, Kitty Kallen
* ,49/04/09 ,  15 ,Guest - Boris Karloff
  ,49/04/16 ,  16 ,Guest - Basil Rathbone, Fran Warren
  ,49/04/23 ,  17 ,Guest - Marlene Dietrich
  ,49/04/30 ,  18 ,Guest - Don McNeill, Dinning Sisters
  ,49/05/07 ,  19 ,Guest - Frances Langford
  ,49/05/14 ,  20 ,Guest - Kay Starr, Richard Widmaark
  ,49/05/21 ,  21 ,Guest - Dorothy Lamour
* ,49/05/28 ,  22 ,Guest - Lassie
  ,49/06/04 ,  23 ,Guest - Dan Dailey
  ,49/06/11 ,  24 ,Guest - Kirk Douglas, Kay Starr
* ,49/06/18 ,  25 ,Guest - Diana Lynn
* ,49/06/25 ,  26 ,Guest - Don Ameche
