Exists, Date, #, Episode Name
  ,07/06/16 ,   1 ,The Magic of the Movies
  ,07/06/16 ,   1 ,The Magic of the Movies
  ,07/06/16 ,   1 ,The Magic of the Movies
  ,07/06/30 ,   2 ,The Crasher
  ,07/06/30 ,   2 ,The Crasher
  ,07/06/30 ,   2 ,The Crasher
  ,07/08/11 ,   5 ,Id0
  ,07/08/11 ,   5 ,Id0
  ,07/08/11 ,   5 ,Id0
  ,07/08/25 ,   6 ,Slick Bracer and the Giant Nap
  ,07/08/25 ,   6 ,Slick Bracer and the Giant Nap
  ,07/08/25 ,   6 ,Slick Bracer and the Giant Nap
  ,09/05/29 ,   7 ,The Knightmare (1 of 2)
  ,09/05/29 ,   7 ,The Knightmare (1 of 2)
  ,09/05/29 ,   7 ,The Knightmare (1 of 2)
  ,09/06/12 ,   8 ,The Knightmare (2 of 2)
  ,09/06/12 ,   8 ,The Knightmare (2 of 2)
  ,09/06/12 ,   8 ,The Knightmare (2 of 2)
  ,09/06/26 ,   9 ,Blaze Bing Rodeo King
  ,09/06/26 ,   9 ,Blaze Bing Rodeo King
  ,09/06/26 ,   9 ,Blaze Bing Rodeo King
  ,09/07/10 ,  10 ,Tales of the Rodeo King
  ,09/07/10 ,  10 ,Tales of the Rodeo King
  ,09/07/10 ,  10 ,Tales of the Rodeo King
  ,09/07/24 ,  11 ,Spotlight on Icebox
  ,09/07/24 ,  11 ,Spotlight on Icebox
  ,09/07/24 ,  11 ,Spotlight on Icebox
  ,09/08/07 ,  12 ,Thinking in Ternary
  ,09/08/07 ,  12 ,Thinking in Ternary
  ,09/08/07 ,  12 ,Thinking in Ternary
  ,09/08/21 ,  13 ,Shinkei
  ,09/08/21 ,  13 ,Shinkei
  ,09/08/21 ,  13 ,Shinkei
