Exists, Date, #, Episode Name
* ,75/06/14 ,     ,Operation Vega
* ,76/10/03 ,     ,Listening
* ,76/10/10 ,     ,JB
* ,76/10/17 ,     ,Man And Superman
* ,76/10/24 ,     ,A Visit With John Howard Griffin
* ,76/10/31 ,     ,Cause Celebre
* ,76/11/07 ,     ,A Doll's House
* ,76/11/14 ,     ,My Name Is Bird Mckai
* ,76/11/21 ,     ,The Disagreeable Oyster/The Little Black Hole
* ,76/11/28 ,     ,The Day John William Fell Down The Stairs And Died
* ,76/12/05 ,     ,Kowalski's Last Chance/Tiger
* ,76/12/12 ,     ,Another Visit with John Howard Griffin
* ,76/12/19 ,     ,Mr Luby's Fear Of Heaven
* ,76/12/26 ,     ,The Austere Gwendoline Parker Elliott
* ,77/01/02 ,     ,The Old One-Two
* ,77/01/09 ,     ,Random Moments In A May Garden
* ,77/01/16 ,     ,The Maze by Stewart Ferrar
* ,77/01/23 ,     ,The Midnight Mocker/Scat Melisma
* ,77/01/30 ,     ,Haywire At Humbleford Flag
* ,77/02/06 ,     ,The Codicil To Mary Purty's Will
* ,77/02/13 ,     ,Crime and Punishment by Dostoevski - Part 1
* ,77/02/20 ,     ,Crime and Punishment by Dostoevski - Part 2
* ,77/02/27 ,     ,Crime and Punishment by Dostoevski - Part 3
* ,77/03/06 ,     ,The Grappling Court by David Kranes
* ,77/03/13 ,     ,Under The Loofah Tree/Dinosaur
* ,77/03/20 ,     ,Good Causes by Gamble Rogers
* ,77/03/27 ,     ,The Summer Of Timothy Once
* ,78/01/01 ,     ,Wings by Aurthur Kopit
* ,78/01/08 ,     ,The Tempation Game by John Gardner
* ,78/01/15 ,     ,The Water Engine by David Mamet
* ,78/01/22 ,     ,Dancin to the Calliope by Jack Gilhooley
* ,78/01/29 ,     ,The Lesson of the Master by Richard Howard
* ,78/02/05 ,     ,The Last Phone-In by Keith Waterhouse
* ,78/02/12 ,     ,Porch by Jack Hefner
* ,78/02/18 ,     ,Girls of the Golden West by Ann Leeton
* ,78/02/26 ,     ,American Modern by Joanna M Glass
* ,78/03/05 ,     ,Death of a Pig by John Kirkmorris
* ,78/03/12 ,     ,A Phoenix Too Frequent
* ,78/03/19 ,     ,The Disintegration of Aaron Weiss by Mark Medoff
* ,78/03/26 ,     ,Chinaman's Chance by Roy London
* ,78/04/02 ,     ,Judgement  Part 1
* ,78/04/09 ,     ,Judgement Part 2
* ,78/04/16 ,     ,The Sun City Chronicles
* ,78/04/30 ,     ,A Game of Dice by Dimitri Kehaidis
* ,78/05/14 ,     ,Stones by Shirley Gee
* ,78/05/22 ,     ,Murder Therapy by David Kranes
* ,78/05/29 ,     ,The Dissolution of Marcus Fleishman by Stephen David
* ,78/06/04 ,     ,The General Brutus by Jeff Wonshell
* ,78/06/11 ,     ,Priest Penitent by Wally K Daly
* ,78/06/18 ,     ,The Hunter Gracchus by John Robinson
* ,78/07/09 ,     ,J B by Archibald Macleish
* ,78/08/13 ,     ,My Name Is Bird Mc Kai by Anne Leaton
* ,79/01/07 ,     ,I Never Sang for My Father by Robert Anderson
* ,79/01/14 ,     ,Fire in the Hole by Tim Obrian
* ,79/01/21 ,     ,Custer by Robert Ingham
* ,79/01/28 ,     ,Stevie by Hugh Whitmore
* ,79/02/04 ,     ,Stuffings by James Purdo - I Hope I Never Get to Monmouth by Kay Kinion
* ,79/02/11 ,     ,Later
* ,79/02/18 ,     ,Absent Friends
* ,79/02/25 ,     ,The Antique Bearers
* ,79/03/04 ,     ,The Sign Of The Scarab
* ,79/03/11 ,     ,When The Time Comes
* ,79/03/18 ,     ,You Wouldn't Remember
* ,79/03/25 ,     ,Manhattan Transference
* ,79/04/01 ,     ,Attracta
* ,79/04/08 ,     ,Ladyhouse Blues
* ,79/04/15 ,     ,Lame Duck
* ,79/04/22 ,     ,The 75th
* ,79/04/29 ,     ,A Question of Benefit by Dave Simpson
* ,79/05/06 ,     ,Third and Oak - The Laundomat by Marsha Norman
* ,79/05/13 ,     ,Third and Oak - The Pool Hall by Marsha Norman
* ,79/05/20 ,     ,Cold Earth Travelling by Mike Walker
* ,79/05/27 ,     ,Thaw by Michael Kennedy
* ,79/06/10 ,     ,Tthe Dog in the Alley - The Child in the Sky by John Irving - The Lie by John Antrobu
* ,79/06/17 ,     ,Monk by John Kirkmorris
* ,79/06/24 ,     ,Sweet Potatoes by Rochelle Owens - Station to Station by Peter Mc Nichol
* ,80/01/06 ,     ,The Man In 605
* ,80/01/13 ,     ,Middleman out by Dick Riley
* ,80/01/20 ,     ,In Camera by Robert Pinger
* ,80/01/27 ,     ,Lone Star by James Mc Lure
* ,80/02/10 ,     ,Laundry And Bourbon
* ,80/02/17 ,     ,The Deerslayer by John Ghem
* ,80/03/02 ,     ,The Stolen Jew by Jay Neugeboren
* ,80/03/09 ,     ,Canadian Gothic by Joanna Glass
* ,80/03/23 ,     ,Hotdogs and Soda Pop by Thomas Babe
* ,80/03/30 ,     ,Holidays - a Quartet of Plays
* ,80/04/13 ,     ,Beggar's Choice by Kathleen Betsko
* ,80/04/20 ,     ,Private Wars by James Mc Lure
* ,80/04/27 ,     ,The Desert by Janet Niepris
* ,80/05/04 ,     ,Prairie Du Chien/Pardon
* ,80/05/18 ,     ,Madonna
* ,80/05/25 ,     ,Kennedy's Children by Robert Patrick
* ,80/06/01 ,     ,Children of the Night by Neil Bell
* ,80/06/08 ,     ,The Blood Jet - Portrait of Sylvia Plath by Barry Kyle
* ,80/06/15 ,     ,Great Days - Three Dialogues by Donald Barthelme
* ,80/06/22 ,     ,Right Between the Ears by Dudley Riggs
* ,80/06/29 ,     , Anything You Want to by the Firesign Theater
* ,80/07/06 ,     ,Polaris
* ,80/07/13 ,     ,Giving up by J C W Brook - Falling by Jonathan Baban
* ,80/07/20 ,     ,Korsakov's Psychosis by Geoffrey Parkinson
* ,80/07/27 ,     ,Fate of a Cockroach by Tewfik a L-Hakim
* ,80/08/10 ,     ,Don't Be Cruel by Rose Tremain
* ,80/08/17 ,     ,Hope by David Cregan
* ,80/08/24 ,     ,Nightingale's Defense by Peter Whalley
* ,80/08/31 ,     ,Microcosm/Rough For Radio/ Always In Love With Amy
* ,80/09/07 ,     ,The Real Inspector Hound
* ,80/09/14 ,     ,The Island: A Fantasy
* ,80/09/21 ,     ,Flood
* ,80/09/28 ,     ,Under Milk Wood - Part 1
* ,80/10/05 ,     ,Under Miilk Wood - Part 2
* ,xx/xx/xx ,     ,The Party
