Exists, Date, #, Episode Name
* ,44/03/11 ,     ,First Song - Darktown Strutters Ball
* ,44/05/20 ,   1 ,First Song - Sweet Georgia Brown
* ,44/05/27 ,   2 ,First Song - At The Jazz Band Ball
* ,44/06/03 ,   3 ,First Song - Ballin' The Jack
* ,44/06/10 ,   4 ,First Song - Muskrat Ramble
* ,44/06/17 ,   5 ,Tribute To Fats Waller
* ,44/06/24 ,   6 ,First Song - I Found A New Baby
* ,44/07/01 ,   7 ,First Song - This Lady's In Love With You
* ,44/07/08 ,   8 ,First Song - Struttin' With Some Barbecue
* ,44/07/15 ,   9 ,First Song - That's A Plenty
* ,44/07/22 ,  10 ,First Song - Fidgety Feet
* ,44/07/29 ,  11 ,First Song - Swing That Rhythm
* ,44/08/05 ,  12 ,First Song - I Got Rhythm
* ,44/08/12 ,  13 ,First Song - Everybody Loves My Baby
* ,44/08/19 ,  14 ,First Song - Clarinet Marmalade
* ,44/08/26 ,  15 ,First Song - California, Here I Come!
* ,44/09/02 ,  16 ,First Song - Walking The Dog
* ,44/09/09 ,  17 ,First Song - Love Nest
* ,44/09/16 ,  18 ,First Song - Rosetta
* ,44/09/23 ,  19 ,First Song - Poor As A Churchmouse
* ,44/09/30 ,  20 ,First Song - At The Jazz Band Ball
* ,44/10/07 ,  21 ,First Song - At Sundown
* ,44/10/14 ,  22 ,First Song - Muskrat Ramble
* ,44/10/21 ,  23 ,First Song - Royal Garden Blues
* ,44/10/28 ,  24 ,First Song - Sweet Georgia Brown
* ,44/11/04 ,  25 ,First Song - My Blue Heaven
* ,44/11/11 ,  26 ,First Song - Easter Parade
* ,44/11/18 ,  27 ,First Song - Way Down Yonder In New Orleans
* ,44/11/25 ,  28 ,First Song - September In The Rain
* ,44/12/02 ,  29 ,First Song - Makin' Friends
* ,44/12/16 ,  30 ,First Song - Ballin' The Jack
* ,44/12/23 ,  31 ,First Song - Jingle Bells
* ,44/12/30 ,  32 ,First Song - Walking The Dog
* ,45/01/06 ,  33 ,First Song - Sunday
* ,45/01/13 ,  34 ,First Song - September In The Rain
* ,45/01/20 ,  35 ,First Song - Jazz Me Blues
* ,45/01/27 ,  36 ,First Song - St Louis Blues
* ,45/02/03 ,  37 ,First Song - It's Been So Long
* ,45/02/10 ,  38 ,First Song - Should I?
* ,45/02/17 ,  39 ,First Song - Strut Miz Lizzie
* ,45/02/24 ,  40 ,First Song - Honeysuckle Rose
* ,45/03/03 ,  41 ,First Song - I Found A New Baby
* ,45/03/10 ,  42 ,First Song - Sweet Georgia Brown
* ,45/03/17 ,  43 ,First Song - When Irish Eyes Are Smiling
* ,45/03/24 ,  44 ,First Song - Struttin' With Some Barbecue
* ,45/03/31 ,  45 ,First Song - Easter Parade
* ,45/04/07 ,  46 ,First Song - Ballin' The Jack(Last Episode)
