Exists, Date, #, Episode Name
* ,5x/xx/xx ,  31 ,Blackmailed Spy Affair
* ,5x/xx/xx ,  32 ,Missing Bullfighter Affair
* ,5x/xx/xx ,  33 ,Weinriche Affair
* ,5x/xx/xx ,  34 ,Judy Diamond Affair
* ,5x/xx/xx ,  35 ,Senator Payne Affair
* ,5x/xx/xx ,  36 ,Spaniard Affair
* ,5x/xx/xx ,  37 ,Jane Ferris Affair
* ,5x/xx/xx ,  38 ,Whiplash Steele Affair
* ,5x/xx/xx ,  39 ,Henri DuBois Affair
* ,5x/xx/xx ,  40 ,Silver Monkey Affair
* ,5x/xx/xx ,  41 ,Stolen Van Gogh Affair
* ,5x/xx/xx ,  42 ,Air Race Affair
* ,5x/xx/xx ,  43 ,Paul Winfield Affair
* ,5x/xx/xx ,  44 ,Desert Gold Affair
* ,5x/xx/xx ,  45 ,Time Machine Affair
* ,5x/xx/xx ,  46 ,Sniper Affair
* ,5x/xx/xx ,  47 ,Football Pool Affair
* ,5x/xx/xx ,  48 ,Circus Clown Affair
* ,5x/xx/xx ,  49 ,Brett Monahan Affair
* ,5x/xx/xx ,  50 ,Raymond Shortly Affair
* ,5x/xx/xx ,  51 ,Museum Break-in Affair
* ,5x/xx/xx ,  52 ,Fountain Affair
