Exists, Date, #, Episode Name
  ,46/xx/xx ,   1 ,episode 1
  ,46/xx/xx ,   2 ,episode 2
  ,46/xx/xx ,   3 ,episode 3
  ,46/xx/xx ,   4 ,episode 4
* ,46/xx/xx ,   5 ,What Happened To Low Price Clothes?
* ,46/xx/xx ,   6 ,Durables At Durable Prices
* ,46/xx/xx ,   7 ,Price Pressures of '46
* ,46/xx/xx ,   8 ,Buying An Automobile
* ,46/xx/xx ,   9 ,Your Price Control Board
* ,46/xx/xx ,  10 ,Rent Rackets
* ,46/xx/xx ,  11 ,Americans Eat Meat
* ,46/xx/xx ,  12 ,Production For Plenty
* ,46/xx/xx ,  13 ,More Everyday Clothes Are On the Way
* ,46/xx/xx ,  14 ,Your Sugar Bowl
* ,46/xx/xx ,  15 ,The Veteran Looks At Price Control
* ,46/xx/xx ,  16 ,The American Standard Of Living
* ,46/xx/xx ,  17 ,A Home You Can Afford
* ,46/xx/xx ,  18 ,Your Family's Future
* ,46/xx/xx ,  19 ,Business Looks At Price Control
* ,46/xx/xx ,  20 ,The Farmer Looks At Price Control
* ,46/xx/xx ,  21 ,A Place To Live
* ,46/xx/xx ,  22 ,Where's Our Roast Beef?
* ,46/xx/xx ,  23 ,On The Last Lap
* ,46/xx/xx ,  24 ,Rent Control Protects You
* ,46/xx/xx ,  25 ,Looking For The O P A Price Tag
* ,46/xx/xx ,  26 ,Our Daily Bread
* ,46/xx/xx ,  27 ,America In 1948
* ,46/xx/xx ,  28 ,A Day At The O P A Rent Office
* ,46/xx/xx ,  29 ,Making Price Controls Work
* ,46/xx/xx ,  30 ,Sucker Money
