Exists, Date, #, Episode Name
  ,49/01/08 ,   1 ,The Strange Mr Smith
  ,49/01/15 ,   2 ,Mystery at Mirador
  ,49/01/22 ,   3 ,The Fires at Schuyler Square
  ,49/01/29 ,   4 ,The Frozen Forest
  ,49/02/05 ,   5 ,The Cairo Curse
  ,49/02/12 ,   6 ,The Twisted Talisman
  ,49/02/19 ,   7 ,The Jilted Juvenile
  ,49/02/26 ,   8 ,The Invisible Caballero
  ,49/03/05 ,   9 ,The Cry for a Cat
  ,49/03/12 ,  10 ,The Tower of Ice
  ,49/03/19 ,  11 ,Design for Death
  ,49/03/26 ,  12 ,Murder on Stage
  ,49/04/02 ,  13 ,The Biggest Game
  ,49/04/09 ,  14 ,Murder at the Circus
  ,49/04/16 ,  15 ,Duet and Death
  ,49/04/23 ,  16 ,Country Killing
  ,49/04/30 ,  17 ,The Cautious Corpse
  ,49/05/07 ,  18 ,Murder at the Ball Game
  ,49/05/14 ,  19 ,Over My Dead Body
* ,49/05/21 ,  20 ,A Much Expected Murder
* ,49/05/28 ,  21 ,Time to Kill
  ,49/06/04 ,  22 ,One Foot in the Grave
  ,49/06/11 ,  23 ,Murder in Pig Latin
  ,49/06/18 ,  24 ,Death Sits with the Baby
  ,49/06/25 ,  25 ,Dead or Alive
  ,49/07/02 ,  26 ,The Dark Secret
  ,49/07/09 ,  27 ,The Sleeping Dog
  ,49/07/16 ,  28 ,Cargo of Death
  ,49/07/23 ,  29 ,Memory of Murder
  ,49/07/30 ,  30 ,Next of Kin
  ,49/08/06 ,  31 ,Portrait of Death
  ,49/08/13 ,  32 ,Dead and Buried
  ,49/08/20 ,  33 ,Prescription for Death
  ,49/08/27 ,  34 ,Intent to Kill
  ,49/09/03 ,  35 ,A Dose of Death
  ,49/09/10 ,  36 ,The Men in the Shadows
  ,49/09/17 ,  37 ,The Bend Sinister
  ,49/09/24 ,  38 ,The Most Dangerous Game
  ,49/10/01 ,  39 ,Study in Suspicion
