Exists, Date, #, Episode Name
  ,46/06/07 ,   1 ,Premiere
* ,46/06/14 ,   2 ,Story of the Blacklist of Nazi Firms
* ,46/06/21 ,   3 ,Our State Department Courier Service Aka Henry Coleman
* ,46/06/28 ,   4 ,Foreign Service Wives
* ,46/07/05 ,   5 ,The Phillippines Are Independent
* ,46/07/12 ,   6 ,Disaster At Sea Aka Athenian Disaster
* ,46/07/19 ,   7 ,Secret War for Wolfram
* ,46/07/26 ,   8 ,Protection Of American Life And Property In China Aka Nelson Johnson In China
* ,46/08/02 ,   9 ,The Waiting Game
* ,46/08/09 ,  10 ,Death & Rebirth of an American Embassy
* ,46/08/16 ,  11 ,Non Career Diplomat aka Islands Of Home
  ,46/08/23 ,  12 ,Unsung Heroes
  ,46/08/30 ,  13 ,Government in Limbo, Yugoslavia, 1941
* ,46/09/06 ,  14 ,Story of George Messersmith - Career Diplomat
* ,46/09/13 ,  15 ,The Gripsholm
* ,46/09/20 ,  16 ,Foreign Service Clerks
* ,46/09/27 ,  17 ,The Making of An Ambassador
* ,46/10/04 ,  18 ,Tom Estes, Foreign Service Officer
  ,46/10/11 ,  19 ,Good Neighbors To The North
* ,46/10/18 ,  20 ,Special Assignment, North Africa
* ,46/10/25 ,  21 ,Elihu Root, Secretary of State
* ,46/xx/xx ,     ,Walter Orebaugh
* ,xx/xx/xx ,     ,Blacklist
