Exists, Date, #, Episode Name
* ,xx/xx/xx , 391 ,Flying School
* ,xx/xx/xx , 392 ,City That Moved
* ,xx/xx/xx , 393 ,Glass Floats
* ,xx/xx/xx , 394 ,Thompson's Mill
* ,xx/xx/xx , 395 ,Ida Oerdling
* ,xx/xx/xx , 396 ,Survival School
* ,xx/xx/xx , 397 ,Jean Goedicke
* ,xx/xx/xx , 398 ,Birdseye House
* ,xx/xx/xx , 399 ,Willamette Meteor
* ,xx/xx/xx , 400 ,Wy' East Legend
* ,xx/xx/xx , 401 ,Nesbitt Brothers
* ,xx/xx/xx , 402 ,John Wolford
* ,xx/xx/xx , 403 ,Covered Bridge
* ,xx/xx/xx , 404 ,Robin Goodfellow
* ,xx/xx/xx , 405 ,Thomas Taliaferro
* ,xx/xx/xx , 406 ,John Day
* ,xx/xx/xx , 407 ,Hay Palace Fair
* ,xx/xx/xx , 408 ,Miller and Lux
* ,xx/xx/xx , 409 ,J Neils
* ,xx/xx/xx , 410 ,Echo
* ,xx/xx/xx , 411 ,Howard Collins
* ,xx/xx/xx , 412 ,Madame Dorion
* ,xx/xx/xx , 413 ,Pony Express
* ,xx/xx/xx , 414 ,Dolly Varden
* ,xx/xx/xx , 415 ,Castle, The
* ,xx/xx/xx , 416 ,Pioneer Museum
* ,xx/xx/xx , 417 ,Vernon Jackson
* ,xx/xx/xx , 418 ,Lt Mullan's Diary
* ,xx/xx/xx , 419 ,Forest Products Lab
* ,xx/xx/xx , 420 ,Robert Beck
* ,xx/xx/xx , 421 ,First Woman Jury
* ,xx/xx/xx , 422 ,Captain Elfying
* ,xx/xx/xx , 423 ,Lefty Wildeagle
* ,xx/xx/xx , 424 ,Walter Granger
* ,xx/xx/xx , 425 ,Mrs Powers
* ,xx/xx/xx , 426 ,Dr Earnest Fine
* ,xx/xx/xx , 427 ,T J Starke
* ,xx/xx/xx , 428 ,Broughton Flume
* ,xx/xx/xx , 429 ,Red Cloud
* ,xx/xx/xx , 430 ,Eugene Bennett
* ,xx/xx/xx , 431 ,Reuben Long
* ,xx/xx/xx , 432 ,Glacier Park
* ,xx/xx/xx , 433 ,Henry Felling
* ,xx/xx/xx , 434 ,Bob Lockwood
* ,xx/xx/xx , 435 ,Rye Grass
