Exists, Date, #, Episode Name
* ,xx/xx/xx ,   1 ,Junior Wants A Horse
* ,xx/xx/xx ,   2 ,Mary's Father To Visit
* ,xx/xx/xx ,   3 ,Borrowed Lawnmower
* ,xx/xx/xx ,   4 ,Junior Taken To Broadcast
* ,xx/xx/xx ,   5 ,To Take A Trip
* ,xx/xx/xx ,   6 ,Oliver Gives A Speech
* ,xx/xx/xx ,   7 ,New Car
* ,xx/xx/xx ,   8 ,Cowboy Boots
* ,xx/xx/xx ,   9 ,Another Woman
* ,xx/xx/xx ,  10 ,Late For Meeting
* ,xx/xx/xx ,  11 ,Junior's Club
* ,xx/xx/xx ,  12 ,Mary's Present
* ,xx/xx/xx ,  13 ,New Roomer
* ,xx/xx/xx ,  14 ,Oliver Argues
* ,xx/xx/xx ,  15 ,Perch Or Bass
* ,xx/xx/xx ,  16 ,Roses
* ,xx/xx/xx ,  17 ,Mary's Friend Visits
* ,xx/xx/xx ,  18 ,Going Fishing
* ,xx/xx/xx ,  19 ,Losing The Saw
* ,xx/xx/xx ,  20 ,Remodeling The House
* ,xx/xx/xx ,  21 ,Getting Rid Of Uncle Oskar
* ,xx/xx/xx ,  22 ,Junior Has 150.00
* ,xx/xx/xx ,  23 ,Voice Lessons
* ,xx/xx/xx ,  24 ,Mr Tuttle Wants Investors
* ,xx/xx/xx ,  25 ,Hens For Eggs
* ,xx/xx/xx ,  26 ,Trouble With Husband
* ,xx/xx/xx ,  27 ,Father Leaving
* ,xx/xx/xx ,  28 ,Mary Wants A Maid
* ,xx/xx/xx ,  29 ,Home Wants Oliver To Help
* ,xx/xx/xx ,  30 ,Homer's Wife Is Leaving Him
* ,xx/xx/xx ,  31 ,Oliver And The Lovelorn Club
* ,xx/xx/xx ,  32 ,Homer And Oliver At Odds
* ,xx/xx/xx ,  33 ,Turkey
* ,xx/xx/xx ,  34 ,Lead In Play
* ,xx/xx/xx ,  35 ,Mary's Father Wants House Nearby
* ,xx/xx/xx ,  36 ,Gift For Gussie
* ,xx/xx/xx ,  37 ,Oliver Wants A Fifty Dollar Suit
* ,xx/xx/xx ,  38 ,Mary Wants Oliver To Take Her To A Symphony
