Exists, Date, #, Episode Name
  ,39/07/02 ,   1 ,First Tune -
* ,40/02/24 ,     ,Music and Drama from the Gaslight Era
* ,40/05/25 ,     ,First Tune - Old
* ,41/08/18 ,     ,First Tune - O, Dem Golden Slippers
* ,41/09/22 ,     ,First Tune - Peek-A-Boo
* ,41/10/26 ,     ,First Tune - I'm the Candy (2)
* ,41/10/xx ,     ,First Tune - I'm the Candy
* ,41/11/10 ,     ,First Tune - I Want a Girl
* ,41/11/16 ,     ,First Tune - Oh, You Beautiful Doll
* ,41/11/24 ,     ,First Tune - He'd Row, Row, Row
* ,41/12/08 ,     ,First Tune - After the Ball
* ,42/01/05 ,     ,First Tune - When You Were Sweet Sixteen
* ,42/01/12 ,     ,First Tune - I Wonder Who's Kissing Her Now
* ,42/01/19 ,     ,First Tune - In My Merry Oldsmobile
* ,42/02/16 ,     ,First Tune - In the Shade of the Old Apple Tree
* ,42/02/23 ,     ,First Tune - Goodbye Dolly, I Must Leave You
* ,42/03/09 ,     ,First Tune - New York Town - Take Me There
* ,42/03/16 ,     ,First Tune - I'm Lonesome for You
* ,42/03/23 ,     ,First Tune - When Johnny Comes Marching Home
* ,42/05/04 ,     ,First Tune - There Was No Bridegroom There
* ,42/06/15 ,     ,First Tune - Arrowana
* ,42/12/29 ,     ,First Tune - Hail, Hail, the Gang's All Here
  ,44/11/11 ,     ,First Tune -
  ,44/11/13 ,     ,First Tune -
  ,45/04/28 ,     ,First Tune -
  ,46/08/14 ,     ,First Tune -
  ,46/09/04 ,     ,First Tune -
  ,46/09/04 ,     ,
* ,xx/xx/xx ,   1 ,First Tune - Dream of the U S A
