Exists, Date, #, Episode Name
* ,49/03/xx ,   6 ,The Date Is Subject to Correction (2)
* ,49/03/xx ,  19 ,The Date Is Subject to Correction
* ,xx/xx/xx ,   1 ,Paul Weston and His Orchestra, the Starlighters, Tom Reddy (announcer) (11)
* ,xx/xx/xx ,   2 ,Paul Weston and His Orchestra, the Starlighters, Tom Reddy (announcer) (10)
* ,xx/xx/xx ,   3 ,Paul Weston and His Orchestra, the Starlighters, Tom Reddy (announcer) (9)
* ,xx/xx/xx ,   4 ,Paul Weston and His Orchestra, the Starlighters, Tom Reddy (announcer) (7)
* ,xx/xx/xx ,   5 ,Paul Weston and His Orchestra, the Starlighters, Tom Reddy (announcer) (8)
* ,xx/xx/xx ,   7 ,Paul Weston and His Orchestra, the Starlighters, Tom Reddy (announcer) (6)
* ,xx/xx/xx ,   8 ,Paul Weston and His Orchestra, the Starlighters, Tom Reddy (announcer) (5)
* ,xx/xx/xx ,   9 ,Paul Weston and His Orchestra, the Starlighters, Tom Reddy (announcer) (3)
* ,xx/xx/xx ,  10 ,Paul Weston and His Orchestra, the Starlighters, Tom Reddy (announcer) (4)
* ,xx/xx/xx ,  11 ,Paul Weston and His Orchestra, the Starlighters, Tom Reddy (announcer) (2)
* ,xx/xx/xx ,  12 ,Paul Weston and His Orchestra, the Starlighters, Tom Reddy (announcer)
* ,xx/xx/xx ,  13 ,Pauline Byrne (vocal), Charles Nelson (vocal), Paul Weston And
* ,xx/xx/xx ,  14 ,Jo Stafford, Paul Weston and His Orchestra
* ,xx/xx/xx ,  15 ,Johnny Mercer, Paul Weston and His Orchestra
* ,xx/xx/xx ,  16 ,Margaret Whiting, Paul Weston and His Orchestra
* ,xx/xx/xx ,  17 ,Gordon Mac Rae, Paul Weston and His Orchestra
* ,xx/xx/xx ,  18 ,Connie Haines, Paul Weston and His Orchestra
* ,xx/xx/xx ,  20 ,Clark Dennis, Paul Weston and His Orchestra
* ,xx/xx/xx ,  21 ,Dorothy Shay, Paul Weston and His Orchestra
* ,xx/xx/xx ,  22 ,Curt Massey, Paul Weston and His Orchestra
* ,xx/xx/xx ,  23 ,Avalon
* ,xx/xx/xx ,  23 ,Dinah Shore, Paul Weston and His Orchestra
* ,xx/xx/xx ,  24 ,Martha Tilton (vocals), Paul Weston and His Orchestra
* ,xx/xx/xx ,  25 ,Andy Russell, Paul Weston and His Orchestra
* ,xx/xx/xx ,  26 ,The Last Show of the Series
* ,xx/xx/xx ,     ,I've Got My Love to Keep Me Warm
