Exists, Date, #, Episode Name
* ,47/03/21 ,     ,Dinner at Eight
* ,47/05/17 ,     ,A Situation Comedy in Which Bill Plays an Insurance Salesman
* ,57/03/18 ,     ,A Pleasant Music-variety Show
* ,57/04/09 ,     ,A Music-variety Show from Hollywood
* ,58/04/18 ,     ,One of the Strangest Business in Town
* ,58/05/16 ,     ,Them There Eyes
