Exists, Date, #, Episode Name
* ,34/04/06 ,     ,The First Show of the Series Sponsored by General Tire
* ,34/04/13 ,     ,Don Wilson Tells About His Home Town
* ,34/04/27 ,     ,The Cast Members Tell Their Favorite Jokes
* ,34/05/04 ,     ,Jack Decides to Place a Bet on the Kentucky Derby
* ,34/05/11 ,     ,Jack and Don Wilson Have an Argument
* ,34/05/18 ,     ,Jack and Mary Go to Visit Frank Parker's Very Musical Family
* ,34/07/20 ,     ,The First Tune Is, 'Valencia'
* ,34/08/03 ,     ,While Aboard a Train, Jack and the Gang Solve, 'The Stooge Murder Case'
* ,34/08/24 ,     ,The Cast Does, 'The Rise of the the House of Rawchild'
* ,34/08/31 ,     ,The Cast Does Jack's Life Story, 'The House of Benny'
* ,34/09/14 ,     ,A 'School Days' Program Dedicated to Kids
* ,34/09/21 ,     ,The Cast Does 'School Days,' a Visit to the Old School House
* ,34/09/28 ,     ,
