Exists, Date, #, Episode Name
* ,74/xx/xx ,   1 ,A Tribute to Duke Ellington
* ,74/xx/xx ,   1 ,Duke Ellington Introduces and Comments on Recorded Selections
* ,74/xx/xx ,   2 ,The First Tune Is, 'Mood Indigo'
* ,74/xx/xx ,   3 ,The First Record Is 'Satin Doll'
* ,74/xx/xx ,   4 ,The First Record Is 'I Let a Song Go out of My Heart'
* ,74/xx/xx ,   5 ,The First Record Is 'I'm Just a Lucky So-and-So'
* ,74/xx/xx ,   5 ,The First Tune Is, 'Red Carpet'
* ,74/xx/xx ,   6 ,The First Record Is 'The Star-Crossed Lovers'
* ,74/xx/xx ,   6 ,The First Tune Is, 'Don't Get Around Much Any More'
* ,74/xx/xx ,   7 ,The First Tune Is, 'It Don't Mean a Thing'
* ,74/xx/xx ,   7 ,The First Tune Is, 'The Little Purple Flower'
* ,74/xx/xx ,   8 ,The First Record Is 'Chico Cuatradino'
* ,74/xx/xx ,   8 ,The First Tune Is, 'Creole Love Call'
* ,74/xx/xx ,   9 ,The First Record Is a Medley of 'All Too Soon,' and 'Things Ain't What They Used to Be'
* ,74/xx/xx ,   9 ,The First Tune Is 'In a Mellotone'
* ,74/xx/xx ,  10 ,The First Record Is 'Portrait of Wellman Braud'
* ,74/xx/xx ,  10 ,The First Tune Is 'Sophisticated Lady'
* ,74/xx/xx ,  11 ,The First Record Is 'Caravan'
* ,74/xx/xx ,  11 ,The First Record Is, 'Rockin' in Rhythm'
* ,74/xx/xx ,  12 ,The First Record Is 'Brasilliance'
* ,74/xx/xx ,  12 ,The First Record Is 'Solitude'
* ,74/xx/xx ,  13 ,The First Record Is 'Concerto for Cookie'
* ,74/xx/xx ,  13 ,The First Record Is 'Up Jump'
* ,74/xx/xx ,  14 ,The First Record Is 'Eque'
* ,74/xx/xx ,  15 ,The First Record Is 'The Beautiful American'
* ,74/xx/xx ,  16 ,The First Record Is 'The Intimacy of the Blues'
* ,74/xx/xx ,  17 ,The First Record Is 'Theme from the Asphalt Jungle'
* ,74/xx/xx ,  18 ,The First Record Is 'Happy Reunion'
* ,74/xx/xx ,  19 ,The First Record Is 'Swamp Goo'
* ,74/xx/xx ,  20 ,The First Record Is 'The Mysterious Chick'
* ,74/xx/xx ,  23 ,The First Tune Is 'Fiddle on the Diddle'
* ,74/xx/xx ,  24 ,The First Tune Is 'Chelsea Bridge'
* ,74/xx/xx ,     ,A Tribute to Duke Ellington (2)
