Exists, Date, #, Episode Name
* ,46/09/03 ,   1 ,Birthday Cards
* ,46/09/10 ,   2 ,Efficiency Expert
* ,46/09/17 ,   3 ,The Cake Contest
* ,46/09/24 ,   4 ,Mel Tries to Fix a Water Heater
* ,46/10/01 ,   5 ,Muscle Man Contest
* ,46/10/08 ,   6 ,Sally and Marylou
* ,46/10/15 ,   7 ,Postman's Ball
* ,46/10/22 ,   8 ,Songwriter
* ,46/10/29 ,   9 ,Community Chest Show
* ,46/11/05 ,  10 ,The New Radio
* ,46/11/12 ,  11 ,Lodge Invitation
* ,46/11/19 ,  12 ,The Astrologer
* ,46/11/26 ,  13 ,Thanksgiving Party
* ,46/12/03 ,  14 ,The Elopement
* ,46/12/10 ,  15 ,Christmas Present
* ,46/12/17 ,  16 ,Christmas Shopping
* ,46/12/24 ,  17 ,Mel Plays Santa Claus
* ,46/12/31 ,  18 ,Zebra of the Year
* ,47/01/07 ,  19 ,The Broken Caruso Record
* ,47/01/14 ,  20 ,UNTITLED --- (tries to help his prospective father-in-law from eviction)
* ,47/01/21 ,  21 ,Foreign Relatives
* ,47/01/28 ,  22 ,Masquerade Ball
* ,47/02/04 ,  23 ,Betty's Suitors
* ,47/02/11 ,  24 ,Mel's Birthday
* ,47/02/18 ,  25 ,The Missing Slice of Bread
* ,47/02/25 ,  26 ,Vaudeville Team
* ,47/03/04 ,  27 ,Councilman Colby
* ,47/03/11 ,  28 ,The Art Critic
* ,47/03/18 ,  29 ,Two Loves Has Mel
* ,47/03/25 ,  30 ,Miss Ugga Ugga Boo
* ,47/04/01 ,  31 ,April Fools
* ,47/04/08 ,  32 ,Easter Egg Hunt
* ,47/04/15 ,  33 ,Society Party
* ,47/04/22 ,  34 ,Literary Discussion
* ,47/04/29 ,  35 ,James Mason Movies
* ,47/05/06 ,  36 ,Oil Stock
* ,47/05/13 ,  37 ,Supermarket Journal Editor
* ,47/05/20 ,  38 ,Trial Separation
* ,47/05/27 ,  39 ,The French Interior Decorator
* ,47/06/03 ,  40 ,To Rent a Summer Cottage
* ,47/06/10 ,  41 ,The Chinese Philosopher
* ,47/06/17 ,  42 ,Show at the Market
* ,47/06/24 ,  43 ,The Missing Bread Slices (Poss a repeat of #25)
