Exists, Date, #, Episode Name
* ,46/10/09 ,     ,First Song - I'd Be Lost Without You
* ,46/10/16 ,     ,The First Tune Is 'It's a Pity to Say Goodnight'
* ,46/11/06 ,     ,The First Tune Is, 'Exactly Like You'
* ,46/11/27 ,     ,The First Tune Is, 'Sooner or Later'
* ,46/12/04 ,     ,The First Tune Is, 'The Coffee Song'
* ,46/12/11 ,     ,The First Tune Is, 'The Other End of a Kiss'
* ,46/12/18 ,     ,The First Tune Is, 'Gal in Calico'
* ,47/01/01 ,     ,The First Tune Is, 'Zip a Dee Doo Dah'
* ,47/02/12 ,     ,The First Tune Is, 'Zip A Dee Doo Dah'
* ,47/03/19 ,     ,The First Tune Is, 'Why Did I Ever Leave Wyoming'
* ,47/03/26 ,     ,The First Tune Is, 'What Am I Gonna Do About You'
* ,47/04/02 ,     ,The First Tune Is, 'Take My Word for It, Baby'
* ,47/05/28 ,     ,The First Tune Is, 'You Can Take My Word for It, Baby'
