Exists, Date, #, Episode Name
  ,47/01/25 ,     ,El Rancho Rio Grande
  ,47/02/01 ,     ,Back Home In Indiana
  ,47/02/08 ,     ,Sunny
  ,47/02/15 ,     ,Marching Along Together
  ,47/03/01 ,     ,Glow Worm
  ,47/03/08 ,     ,My Blue Heaven
  ,47/03/15 ,     ,That Gal In Calico
  ,48/12/25 ,     ,Winter Wonderland
  ,49/04/02 ,     ,It's So Nice To Be Nice To Your Neighbor
  ,49/04/30 ,     ,It is only when men begin to worship that they begin to grow
  ,49/08/06 ,     ,Avalon
  ,49/11/26 ,     ,It's a Beautiful Day in Chicago!
  ,50/01/07 ,     ,Smiles
  ,50/01/14 ,     ,When That Midnight Choo Choo Leaves For Alabam'
  ,50/04/29 ,     ,rural women
  ,50/06/03 ,     ,Round and Round Old Joe Clark
  ,50/10/14 ,     ,
  ,50/10/28 ,     ,Keep Smiling At Trouble
  ,51/07/29 ,     ,It's a beautiful day in Germany!
  ,51/10/13 ,     ,The Surrey With The Fringe On Top
  ,51/12/15 ,     ,
  ,51/12/22 ,     ,Sleighride
  ,52/01/26 ,     ,This Is The Army, Mr. Jones
  ,52/06/14 ,     ,Atoms For Agriculture
  ,52/08/16 ,     ,
  ,52/10/18 ,     ,
  ,53/04/18 ,     ,It's a Beautiful Day In Chicago
  ,53/08/01 ,     ,In The Good Old Summertime
  ,53/12/05 ,     ,Carolina In The Morning
  ,53/12/12 ,     ,Here Comes The Showboat
  ,54/06/12 ,     ,
  ,54/07/03 ,     ,Your Land and My Land
  ,54/07/03 ,     ,
  ,54/07/10 ,     ,Strike Up The Band
  ,55/10/29 ,     ,The Kerry Dance
  ,55/12/03 ,     ,We Are The Youth Of Our Nation
  ,55/12/17 ,     ,plant exploration
  ,55/12/24 ,     ,Santa Claus Is Coming To Town
  ,55/12/31 ,     ,There'll Be A Hot Time In The Old Town Tonight
  ,56/04/07 ,     ,Glow Worm
  ,56/09/01 ,     ,
  ,56/09/22 ,     ,Swanee
  ,56/10/06 ,     ,Nola
  ,56/10/20 ,     ,support prices for corn announced, winter wheat price supports, the government is buying surplus cabbages.
  ,56/11/10 ,     ,Miss Batonier March
  ,56/11/23 ,     ,
  ,56/12/01 ,     ,
  ,56/12/15 ,     ,Rudolph The Red-Nosed Reindeer
  ,56/12/22 ,     ,Monitor
  ,56/12/29 ,     ,Marching Along Together
  ,57/01/13 ,     ,Fiddle Faddle
  ,59/02/28 ,     ,Everybody Kiss Your Partner
  ,59/03/07 ,     ,National Fenceables
