Exists, Date, #, Episode Name
  ,37/08/19 ,   1 ,Mystery of the Penguin Palace (Log originally by Randy Eidemiller)
  ,37/08/26 ,   2 ,The Franciscan Cross
  ,37/09/02 ,   3 ,
  ,37/09/09 ,   4 ,The Strange Case of Sister Filomena
  ,37/09/16 ,   5 ,Dr Roumanoff's Marvelous Microbe
  ,37/09/23 ,   6 ,The Mystery of the Black Lagoon
  ,37/09/30 ,   7 ,The Strange Case of Abigail Norton
  ,37/10/07 ,   8 ,Reincarnation of Vilma Bordoni
  ,37/10/14 ,   9 ,The Strange Case of the Mad Alchemist
  ,37/10/21 ,  10 ,The Strange Case of the Seven Dead Cats
  ,37/10/28 ,  11 ,Voice from the Dead
  ,37/11/04 ,  12 ,Mystery of the Black Sepulchre
  ,37/11/11 ,  13 ,The Horrible Case of Dame Weatherbee's Curse
  ,37/11/18 ,  14 ,The Horrible Case of the Seven Floating Bodies
  ,37/11/25 ,  15 ,The Strange Case of the Vampire Bats
  ,37/12/02 ,  16 ,The Strange Case of the Esmeralda Taylor
  ,37/12/09 ,  17 ,The Strange Case of the Evil Eye
  ,37/12/16 ,  18 ,The Horrible Case of Anthony Graves
  ,37/12/23 ,  19 ,
  ,37/12/30 ,  20 ,
  ,38/01/06 ,  21 ,The Horrible Case of the Head Without a Body
  ,38/01/13 ,  22 ,The Case of the Madman's Formula
  ,38/01/20 ,  23 ,The Weird Case of the Werewolf Killings
  ,38/01/27 ,  24 ,The Gruesome Case of the Murderous Mechanic
  ,38/02/03 ,  25 ,The Ghastly Case of the Shipwrecked Scientist
  ,38/02/10 ,  26 ,The Terrifying Case of the Plague-Ridden Village
  ,38/02/17 ,  27 ,
  ,38/02/24 ,  28 ,The Strange Case of the Partners in Crime
  ,38/03/10 ,  29 ,The Horrible Case of the Cat and the Bride
  ,38/03/17 ,  30 ,The Eerie Case of the Fisherman's Dream
  ,38/03/24 ,  31 ,The Weird Case of the Parisian Music Lover
  ,38/03/31 ,  32 ,Mysterious Case of Black Magic
  ,38/04/07 ,  33 ,The Gruesome Case of the Jaguar's Eyes
  ,38/04/14 ,  34 ,The Uncanny Case of the Lost Indian Treasure
  ,38/04/21 ,  35 ,The Case of the Castle of Murdered Men
  ,38/04/28 ,  36 ,Six Men on a Treadmill
  ,38/05/05 ,  37 ,The Macabre Case of the Two Old Friends
  ,38/05/12 ,  38 ,The Ghastly Case of the Forbidden City
  ,38/05/19 ,  39 ,The Horrible Case of the Gila Monster Hill
  ,38/05/26 ,  40 ,The Fearful Case of the Trapper's Ghost
  ,38/06/02 ,  41 ,The Horrible Case of the Climax of Discord
  ,38/06/09 ,  42 ,The Weird Mystery of the Catacombs
  ,38/06/16 ,  43 ,The Weird Case of the White Witch Doctor
  ,38/06/23 ,  44 ,The Grisly Case of Ebenezer Children
  ,38/06/30 ,  45 ,The Terrifying Case of the Murder on Lonely Lake
  ,38/07/07 ,  46 ,The Diabolic Case of the Devil's Point Pirates
  ,38/07/14 ,  47 ,The Horrible Case of the Man Without a Memory
  ,38/07/21 ,  48 ,The Grotesque Case of the Man Who Couldn't Be Killed
  ,38/07/28 ,  49 ,The Macabre Case of the Seven of Spades
  ,38/08/04 ,  50 ,The Mysterious Case of the Ghost of Hangman's Gulch
  ,38/08/11 ,  51 ,The Ghastly Case of the Man Who Wasn't Dead
  ,38/08/18 ,  52 ,The Sardonic Case of the Twin Sisters
  ,38/08/25 ,  53 ,The Mystifying Case of Jonathan Gray
  ,38/09/01 ,  54 ,The Gruesome Case of the Suicide Pact
  ,38/09/08 ,  55 ,The Fantastic Case of the Whistling Parrot
  ,38/09/15 ,  56 ,The Incredible Case of the Living Head
  ,38/09/22 ,  57 ,The Dismal Case of the Deserted Monastery
  ,38/09/29 ,  58 ,The Case of Even Money on Murder
  ,38/10/07 ,  59 ,The Uncanny Case of the Third Murder
  ,38/10/14 ,  60 ,The Gruesome Case of the Wolf Man
  ,38/10/21 ,  61 ,The Hideous Case of the White Dungeon
  ,38/10/28 ,  62 ,The Gruesome Case of the Halloween Joke
  ,38/11/04 ,  63 ,The Weird Case of the Parisian Music Lover
  ,38/11/11 ,  64 ,The Strange Case of Elias Wick
  ,38/11/18 ,  65 ,The Mysterious Case of the Man in Gray
  ,38/11/25 ,  66 ,The Ghastly Case of the Criminal in Command
  ,38/12/02 ,  67 ,The Weird Case of the Maniacal Doctor Means
  ,38/12/09 ,  68 ,The Weird Case of the Unexpected Guest
  ,38/12/16 ,  69 ,The Hideous Tale of the Malevolent Butler
  ,38/12/23 ,  70 ,The Tale of Four Dinner Guests and a Murderer
  ,38/12/30 ,  71 ,Death Song Murder
* ,39/01/06 ,  72 ,The Mahogany Coffin
  ,39/01/13 ,  73 ,The Sinister Tale of the Strange Bequest
  ,39/01/20 ,  74 ,The Direful Tale of the Midnight Listeners
  ,39/01/27 ,  75 ,The Gruesome Tale of the Beautiful Witch
  ,39/02/03 ,  76 ,The Horrible Tale of the Hounded Cripple
  ,39/02/10 ,  77 ,Rockabye Baby Murder
  ,39/02/17 ,  78 ,The Strange Case of Sylvester Black
  ,39/02/24 ,  79 ,The Remarkable Case of the Surgeon's Hands
  ,39/03/03 ,  80 ,The Strange Case of the Unknown Fingerprints
  ,39/03/10 ,  81 ,The Horrible Case of Anthony Wolfe
  ,39/03/17 ,  82 ,The Sinister Case of the Forest of Death
  ,39/03/24 ,  83 ,The Eerie Case of the Midnight Seance
  ,39/03/31 ,  84 ,The Macabre Case of the April Fool Joke
  ,39/04/07 ,  85 ,The Tale the Dead Man Told
  ,39/04/14 ,  86 ,The Fearful Case of the Black Point Spectre
  ,39/04/21 ,  87 ,The Horrible Case of the Man Who Sold His Corpse
  ,39/04/28 ,  88 ,The Uncanny Case of Jeremy James
  ,39/05/05 ,  89 ,The Strange Hypnosis of Dr Davidson
  ,39/05/12 ,  90 ,The Uncanny Case of the Black Cat
  ,39/05/19 ,  91 ,The Gruesome Case of the Sinking Death
  ,39/05/26 ,  92 ,The Gruesome Case of the Mad Scientist
  ,39/06/02 ,  93 ,The Uncanny Case of the Iron Maiden
  ,39/06/09 ,  94 ,The Weird Mystery of the Catacombs
  ,39/06/16 ,  95 ,The Gruesome Case of the Grinning Corpse
  ,39/06/23 ,  96 ,The Sinister Case of Mr Voorhees
  ,39/06/30 ,  97 ,The Gruesome Mystery of the House on the Hill
  ,39/07/07 ,  98 ,The Sinister Case of Leviticus Pettigrew
  ,39/07/14 ,  99 ,The Uncanny Case of the Black Crow
  ,39/07/21 , 100 ,The Tale of the Monastery Crypt
* ,xx/xx/xx ,     ,The Tale of the Crawling Terror
