Exists, Date, #, Episode Name
* ,92/11/14 ,   1 ,Midnight Cab - The Mystery of the Blue-Eyed Man
* ,92/11/21 ,   2 ,Midnight Cab - The Mystery of 22 Crier Drive
* ,92/11/28 ,   3 ,Midnight Cab - The Mystery of the Horse-Faced Man
* ,92/12/05 ,   4 ,Midnight Cab - The Mystery of the Motherless Child
* ,92/12/12 ,   5 ,Midnight Cab - The Mystery of the Falling Man
* ,92/12/19 ,   6 ,Midnight Cab - The Mystery of the Face in the Window
* ,92/12/26 ,   7 ,Midnight Cab - The Mystery of the Child Holding a Dove
* ,93/01/02 ,   8 ,Midnight Cab - The Mystery of the Outdoorsman
* ,93/01/09 ,   9 ,Midnight Cab - The Mystery of the Screaming Woman
* ,93/01/16 ,  10 ,Midnight Cab - The Mystery of the Drowning Man
* ,93/01/23 ,  11 ,Midnight Cab - The Mystery of the Friendless Man
* ,93/01/30 ,  12 ,Midnight Cab - The Mystery of the Vanishing Cab
* ,93/02/06 ,  13 ,Midnight Cab - The Mystery of the Great Escape
* ,93/12/11 ,  14 ,Midnight Cab - The Mystery of the Silver Rings
* ,93/12/18 ,  15 ,Midnight Cab - The Mystery of the Great Man
* ,94/01/08 ,  16 ,Midnight Cab - The Mystery of the Locked Room
* ,94/01/15 ,  17 ,Midnight Cab - The Mystery of the Screaming Kettle
* ,94/01/22 ,  18 ,Midnight Cab - The Mystery of the Lost Child
* ,94/01/29 ,  19 ,Midnight Cab - The Mystery of the Family Portrait
* ,94/02/05 ,  20 ,Midnight Cab - The Mystery of the Red Headed Man
* ,94/02/12 ,  21 ,Midnight Cab - The Mystery of the Perfect Daughter
* ,94/02/19 ,  22 ,Midnight Cab - The Mystery of the Unsolicited Manuscript
* ,94/10/08 ,   1 ,Flynn - Overdue Account
* ,94/10/15 ,   2 ,Flynn - Red Tiger
* ,94/10/22 ,   3 ,Flynn - Whirlpool
* ,94/10/29 ,   4 ,Flynn - Ghosts
* ,94/11/05 ,   5 ,Flynn - Imaginary Enemies
* ,94/11/12 ,   6 ,Flynn - The Stalker
* ,94/11/19 ,   7 ,Flynn - The Box
* ,94/11/26 ,   8 ,Flynn - The 12 Penny Black
* ,94/12/03 ,   9 ,Flynn - Framed
* ,94/12/10 ,  10 ,Flynn - Hollywood North
* ,94/12/17 ,  11 ,Flynn - The Fall
* ,94/12/24 ,  12 ,Flynn - A Christmas Carol
* ,94/12/31 ,  13 ,Flynn - Year End Clearance
* ,96/01/06 ,  23 ,Midnight Cab - The Mystery of the White-Eyed Cat
* ,96/01/13 ,  24 ,Midnight Cab - The Mystery of the Unfit Mother
* ,96/01/20 ,  25 ,Midnight Cab - The Mystery of the Secret Letters
* ,96/01/27 ,  26 ,Midnight Cab - The Mystery of the Long Lost Brother
* ,96/02/03 ,  27 ,Midnight Cab - The Mystery of the Back Door Key
* ,96/02/10 ,  28 ,Midnight Cab - The Mystery of the Hidden Man
* ,96/02/17 ,  29 ,Midnight Cab - The Mystery of the Olde Tyme Piano
* ,96/02/24 ,  30 ,Midnight Cab - The Mystery of the Angry Son
* ,96/03/02 ,  31 ,Midnight Cab - The Mystery of the Desperate Men
* ,96/03/09 ,  32 ,Midnight Cab - The Mystery of the Woman in Black
* ,96/03/16 ,  33 ,Midnight Cab - The Mystery of the Wounded Poem
* ,96/03/23 ,  34 ,Midnight Cab - The Mystery of the Laughing Clock
* ,96/03/30 ,  35 ,Midnight Cab - The Mystery of the Soft-Hearted Man
* ,96/04/06 ,   1 ,Becker - A View of Mount Von Relling
* ,96/04/13 ,   2 ,Becker - The Wicked World of Mary Hunter
* ,96/04/20 ,   3 ,Becker - Pearl
* ,96/04/27 ,   4 ,Becker - Hotels Are My Life
* ,96/05/04 ,   5 ,Becker - A Single Green Feather
* ,96/05/11 ,   6 ,Becker - A Friend from Chicago
* ,96/05/18 ,   7 ,Becker - An Expensive Bottle of Poison
* ,96/05/25 ,   8 ,Becker - Only Poetry
* ,96/06/01 ,   9 ,Becker - A Long, Long Trail
* ,96/06/08 ,  10 ,Becker - White Lightning
* ,96/06/15 ,  11 ,Becker - The Magistrate Arrives on Wednesday
* ,96/06/22 ,  12 ,Becker - The Hunt
* ,96/06/29 ,  13 ,Becker - The Kill
* ,96/07/06 ,     ,Richard Diamond - The Eddie Burke Case
* ,96/08/10 ,     ,Nightbeat - Racing Brothers
* ,96/08/24 ,     ,The Black Museum
* ,96/08/31 ,     ,Dragnet
* ,96/09/07 ,     ,Sherlock Holmes - The Blackmailer
* ,96/09/14 ,     ,Sherlock Holmes - Scandal in Bohemia
* ,96/09/21 ,     ,Sherlock Holmes - Silver Blaze
* ,96/09/28 ,     ,Sherlock Holmes - The Speckled Band
* ,96/10/05 ,     ,Sherlock Holmes - The Mystery of the Second Stain
* ,96/10/12 ,     ,Sherlock Holmes - The Mystery of the Traitor
* ,96/10/19 ,     ,Sherlock Holmes - The Mystery of the Rare Disease
* ,96/10/26 ,     ,Sherlock Holmes - The Mystery of the Norwood Builder
* ,96/11/09 ,     ,Sherlock Holmes - The Solitary Cyclist
* ,96/11/16 ,     ,Sherlock Holmes - The Six Napoleons
* ,96/11/23 ,     ,Sherlock Holmes - The Mystery of the Red-Headed League
* ,96/11/30 ,     ,Sherlock Holmes - A Case of Identity
* ,96/12/07 ,     ,Sherlock Holmes - The Final Problem
* ,96/12/14 ,     ,Sherlock Holmes - The Empty House
* ,96/12/21 ,     ,Sherlock Holmes - The Blue Carbuncle
* ,96/12/28 ,     ,Sherlock Holmes - The Mystery of Yoxley Old Place
* ,97/01/04 ,   1 ,In the Blood - Self Contained
* ,97/01/11 ,   2 ,In the Blood - Another Scoop
* ,97/01/18 ,   3 ,In the Blood
* ,97/01/25 ,   4 ,In the Blood - Hook, Line and Sinker
* ,97/02/01 ,   5 ,In the Blood - Sleeps with Fishes
* ,97/02/08 ,   6 ,In the Blood - Needles, Fingers and Arms
* ,97/02/15 ,   7 ,In the Blood
* ,97/02/22 ,   8 ,In the Blood
* ,97/03/01 ,   1 ,Death Downtown - Death Leaves a Message
* ,97/03/08 ,   2 ,Death Downtown
* ,97/03/15 ,   3 ,Death Downtown - Death Loves Children
* ,97/03/22 ,   1 ,Pocket City Blues - When Things Go Wrong
* ,97/03/29 ,   2 ,Pocket City Blues - The Double Door
* ,97/04/05 ,   3 ,Pocket City Blues - Rose Violin
* ,97/04/12 ,   4 ,Pocket City Blues - Woke up This Morning
* ,97/04/19 ,   1 ,Operation Santara
* ,97/04/26 ,   2 ,Operation Santara
* ,97/05/03 ,   1 ,Dr Johnson Investigates
* ,97/05/10 ,   2 ,Dr Johnson Investigates
* ,97/05/17 ,   3 ,Dr Johnson Investigates
* ,97/05/25 ,   1 ,The Big Sleep
* ,97/05/31 ,   2 ,The Big Sleep
* ,97/06/07 ,   3 ,The Big Sleep
* ,97/06/14 ,   1 ,The Joke About Hilary Spite
* ,97/06/21 ,   2 ,The Joke About Hilary Spite
* ,97/06/28 ,   3 ,The Joke About Hilary Spite
* ,97/07/05 ,   4 ,The Joke About Hilary Spite
* ,97/07/12 ,   5 ,The Joke About Hilary Spite
* ,97/07/19 ,   6 ,The Joke About Hilary Spite
* ,97/07/26 ,   1 ,Sherlock Holmes - A Study in Scarlet
* ,97/08/02 ,   2 ,Sherlock Holmes - A Study in Scarlet
* ,97/08/09 ,   3 ,Sherlock Holmes - A Study in Scarlet
* ,97/08/16 ,   4 ,Sherlock Holmes - A Study in Scarlet
* ,97/08/23 ,   1 ,The Dog It Was That Died
* ,97/08/30 ,   2 ,The Dog It Was That Died
* ,97/09/06 ,   1 ,Clean Sweep - The Ice Boy
* ,97/09/13 ,   2 ,Clean Sweep - Suddenly This Summer
* ,97/09/20 ,   3 ,Clean Sweep - Deer in the Headlight
* ,97/09/27 ,   4 ,Clean Sweep - Seven Crows a Secret
* ,97/10/04 ,   5 ,Clean Sweep - Back of His Hand
* ,97/10/11 ,   6 ,Clean Sweep - The Head Cheese
* ,97/10/18 ,   7 ,Clean Sweep - Death by Innuendo
* ,97/10/25 ,   8 ,Clean Sweep - Silver Threads and Golden Needles
* ,97/11/01 ,   9 ,Clean Sweep - Ethyl and Methyl
* ,97/11/08 ,  10 ,Clean Sweep - Loose Lips
* ,97/11/15 ,  11 ,Clean Sweep - Borderline Collie
* ,97/11/22 ,  12 ,Clean Sweep - The Al Capone of Membertou County
* ,97/11/29 ,  13 ,Clean Sweep - Cross the Mersey
* ,97/12/06 ,  14 ,Clean Sweep - Come from Away
* ,97/12/13 ,  15 ,Clean Sweep - Waltzing with Hilda
* ,97/12/20 ,  16 ,Clean Sweep - The Face on the Wall
* ,97/12/27 ,  17 ,Clean Sweep - Fast Food Franchise Bank
* ,98/01/03 ,     ,Never Forget a Face
* ,98/01/10 ,   1 ,Little Sister
* ,98/01/17 ,   2 ,Little Sister
* ,98/01/24 ,   3 ,Little Sister
* ,98/01/31 ,   1 ,Deadfall
* ,98/02/07 ,   2 ,Deadfall
* ,98/02/14 ,   1 ,Albert's Father - Privilege
* ,98/02/21 ,     ,Cold Storage
* ,98/02/28 ,   1 ,Albert's Father - Privilege
* ,98/03/07 ,   2 ,Albert's Father - The Mafia Knew My Father
* ,98/03/14 ,   3 ,Albert's Father - Lady on a Train
* ,98/03/21 ,   4 ,Albert's Father - The Bank Job
* ,98/03/28 ,   5 ,Albert's Father - Murder at the Regional
* ,98/04/04 ,   1 ,Dr Johnson Investigates
* ,98/04/11 ,   2 ,Dr Johnson Investigates
* ,98/04/18 ,   3 ,Dr Johnson Investigates
* ,98/04/25 ,   1 ,Deadfall
* ,98/05/02 ,   2 ,Deadfall
* ,98/05/09 ,   0 ,Don't Talk to Strange Men
* ,98/05/16 ,   0 ,Don't Talk to Strange Men
* ,98/05/23 ,     ,The Speech-Print Case
* ,98/05/30 ,     ,Finders Keepers
* ,98/06/06 ,   1 ,Bailey's Way - Simply Judy
* ,98/06/13 ,   2 ,Bailey's Way - The Wanderer
* ,98/06/20 ,   3 ,Bailey's Way - Dallas, Calgary
* ,98/06/27 ,   4 ,Bailey's Way - Longbow's Justice
* ,98/07/04 ,   5 ,Bailey's Way - Ghost Lake
* ,98/07/11 ,   6 ,Bailey's Way - The Axle Man
* ,98/07/18 ,   7 ,Bailey's Way - King Eddie
* ,98/07/25 ,   8 ,Bailey's Way - Personal Zone
* ,98/08/01 ,   1 ,Find the Lady - In Which Andrew Loses a Chequebook
* ,98/08/08 ,   2 ,Find the Lady - In Which Andrew Loses a Car
* ,98/08/15 ,   3 ,Find the Lady - In Which Andrew Finds His Car
* ,98/08/22 ,   4 ,Find the Lady - In Which Andrew Loses His Way
* ,98/08/29 ,   5 ,Find the Lady - In Which Andrew Loses a Duel
* ,98/09/05 ,   6 ,Find the Lady - In Which Andrew Wakes in a Hospital - Not Himself
* ,98/09/12 ,   7 ,Find the Lady - In Which Andrew Finds All the Answers - And May Lose His Mind
* ,98/09/19 ,   1 ,Peggy Delaney - Identity Crisis
* ,98/09/26 ,   2 ,Peggy Delaney - Serpent's Tooth
* ,98/10/03 ,   3 ,Peggy Delaney - Crossing the Line
* ,98/10/10 ,   4 ,Peggy Delaney - My Brother's Keeper
* ,98/10/17 ,   5 ,Peggy Delaney - The Wrong Place
* ,98/10/24 ,   6 ,Peggy Delaney - Casablanca
* ,98/10/31 ,   7 ,Peggy Delaney - Condition Zero
* ,98/11/07 ,   8 ,Peggy Delaney - Romeo Loves Juliet
* ,98/11/14 ,   9 ,Peggy Delaney - Baby Talk, Part 1
* ,98/11/21 ,  10 ,Peggy Delaney - Baby Talk, Part 2
* ,98/11/28 ,  11 ,Peggy Delaney - The Muskoka Point Hotel
* ,98/12/05 ,  12 ,Peggy Delaney - The Old Bamboozle
* ,98/12/12 ,  13 ,Peggy Delaney - Second Chances
* ,98/12/19 ,   1 ,Lady Holloway
* ,98/12/26 ,   2 ,Lady Holloway
* ,99/01/09 ,   1 ,Attard in Retirement
* ,99/01/16 ,   2 ,Attard in Retirement
* ,99/01/23 ,   3 ,Attard in Retirement
* ,99/01/30 ,   1 ,Afternoon Call
* ,99/02/06 ,   2 ,Afternoon Call
* ,99/02/13 ,   3 ,Afternoon Call
* ,99/02/20 ,   1 ,The Joke About Hilary Spite
* ,99/02/27 ,   2 ,The Joke About Hilary Spite
* ,99/03/06 ,   3 ,The Joke About Hilary Spite
* ,99/03/13 ,   4 ,The Joke About Hilary Spite
* ,99/03/20 ,   5 ,The Joke About Hilary Spite
* ,99/03/27 ,   6 ,The Joke About Hilary Spite
* ,99/04/03 ,   1 ,Sherlock Holmes - A Study in Scarlet
* ,99/04/10 ,   2 ,Sherlock Holmes - A Study in Scarlet
* ,99/04/17 ,   3 ,Sherlock Holmes - A Study in Scarlet
* ,99/04/24 ,   4 ,Sherlock Holmes - A Study in Scarlet
* ,99/05/01 ,   1 ,The Dog It Was That Died
* ,99/05/08 ,   2 ,The Dog It Was That Died
* ,99/05/15 ,   1 ,Night Must Fall
* ,99/05/22 ,   2 ,Night Must Fall
* ,99/05/29 ,   3 ,Night Must Fall
* ,99/06/05 ,   1 ,The Big Sleep
* ,99/06/12 ,   2 ,The Big Sleep
* ,99/06/19 ,   3 ,The Big Sleep
* ,99/06/26 ,   1 ,Better Never Than Late
* ,99/07/03 ,   2 ,Better Never Than Late
* ,99/07/10 ,   1 ,Clean Sweep - The Ice Boy
* ,99/07/17 ,   2 ,Clean Sweep - Suddenly This Summer
* ,99/07/24 ,   3 ,Clean Sweep - Deer in the Headlight
* ,99/07/31 ,   4 ,Clean Sweep - Seven Crows a Secret
* ,99/08/07 ,   5 ,Clean Sweep - Back of His Hand
* ,99/08/14 ,   6 ,Clean Sweep - The Head Cheese
* ,99/08/21 ,   7 ,Clean Sweep - Death by Innuendo
* ,99/08/28 ,   8 ,Clean Sweep - Silver Threads and Golden Needles
* ,99/09/04 ,   9 ,Clean Sweep - Ethyl and Methyl
* ,99/09/11 ,  10 ,Clean Sweep - Loose Lips
* ,99/09/18 ,  11 ,Clean Sweep - Borderline Collie
* ,99/09/25 ,  12 ,Clean Sweep - The Al Capone of Membertou County
* ,99/10/02 ,  13 ,Clean Sweep - Cross the Mersey
* ,99/10/09 ,  14 ,Clean Sweep - Come from Away
* ,99/10/16 ,  15 ,Clean Sweep - Waltzing with Hilda
* ,99/10/23 ,  16 ,Clean Sweep - The Face on the Wall
* ,99/10/30 ,  17 ,Clean Sweep - Fast Food Franchise Bank
* ,99/11/06 ,  18 ,Clean Sweep - Cold Storage
* ,99/11/13 ,  19 ,Clean Sweep - Bottom Feeding Species
* ,99/11/20 ,  20 ,Clean Sweep - Brown-Eyed Girl
* ,99/11/27 ,  21 ,Clean Sweep - Play Mystery for Me
* ,99/12/04 ,  22 ,Clean Sweep - Prickly Porcupines
* ,99/12/11 ,  23 ,Clean Sweep - The Iver Johnson Special
* ,99/12/18 ,     ,Nightfall - The Body Snatchers
* ,00/01/01 ,     ,Nightfall - The Monkey's Paw
* ,00/01/08 ,  24 ,Clean Sweep - Birds-eye View
* ,00/01/15 ,  25 ,Clean Sweep - Four Feet Down
* ,00/01/22 ,  26 ,Clean Sweep - I'll Be Seeing You
* ,00/01/29 ,  27 ,Clean Sweep - An Embarrassment
* ,00/02/05 ,  28 ,Clean Sweep - The Senator's Lady
* ,00/02/12 ,  29 ,Clean Sweep - White Walls
* ,00/02/19 ,  30 ,Clean Sweep - Response Time
* ,00/02/26 ,   1 ,Recipe for Murder - A Sweet Death
* ,00/03/04 ,   2 ,Recipe for Murder - Buzzzzzzzz
* ,00/03/11 ,   3 ,Recipe for Murder - Fugu
* ,00/03/18 ,   4 ,Recipe for Murder - The Ghost of Ms B
* ,00/03/25 ,   5 ,Recipe for Murder
* ,00/04/01 ,   6 ,Recipe for Murder - It Tastes Like Pork
* ,00/04/08 ,   7 ,Recipe for Murder - The Cordon Blues
* ,00/04/15 ,   8 ,Recipe for Murder - The Food Chain
* ,00/04/22 ,   1 ,Who Walks Alone
* ,00/04/29 ,   2 ,Who Walks Alone
* ,00/05/06 ,     ,Find Another Mug!
* ,00/05/13 ,   1 ,Attard in Retirement
* ,00/05/20 ,   2 ,Attard in Retirement
* ,00/05/27 ,   3 ,Attard in Retirement
* ,00/06/03 ,   1 ,Suspicious Mind
* ,00/06/10 ,   2 ,Suspicious Mind
* ,00/06/17 ,   1 ,Peggy Delaney - Identity Crisis
* ,00/06/24 ,   2 ,Peggy Delaney - Serpent's Tooth
* ,00/07/01 ,   3 ,Peggy Delaney - Crossing the Line
* ,00/07/08 ,   4 ,Peggy Delaney - My Brother's Keeper
* ,00/07/15 ,   5 ,Peggy Delaney - The Wrong Place
* ,00/07/22 ,   6 ,Peggy Delaney - Casablanca
* ,00/07/29 ,   7 ,Peggy Delaney - Condition Zero
* ,00/08/05 ,   8 ,Peggy Delaney - Romeo Loves Juliet
* ,00/08/12 ,   9 ,Peggy Delaney - Baby Talk, Part 1
* ,00/08/19 ,  10 ,Peggy Delaney - Baby Talk, Part 2
* ,00/08/26 ,  11 ,Peggy Delaney - The Muskoka Point Hotel
* ,00/09/02 ,  12 ,Peggy Delaney - The Old Bamboozle
* ,00/09/09 ,  13 ,Peggy Delaney - Second Chances
* ,00/09/16 ,   1 ,The Flower Case
* ,00/09/23 ,   2 ,The Flower Case
* ,00/09/30 ,   3 ,The Flower Case
* ,00/10/07 ,  14 ,Peggy Delaney - Pink Slips
* ,00/10/14 ,  15 ,Peggy Delaney - A Death in the Family
* ,00/10/21 ,  16 ,Peggy Delaney - Odd Girl Out
* ,00/10/28 ,  17 ,Peggy Delaney - All the Lonely People
* ,00/11/04 ,  18 ,Peggy Delaney - Long Drive Home
* ,00/11/11 ,  19 ,Peggy Delaney - Tough in the Corners
* ,00/11/18 ,  20 ,Peggy Delaney - Nothing to Hide
* ,00/11/25 ,  21 ,Peggy Delaney - Special Delivery
* ,00/12/02 ,  22 ,Peggy Delaney - Going Public
* ,00/12/09 ,  23 ,Peggy Delaney - Getting the Message
* ,00/12/16 ,  24 ,Peggy Delaney - Stick Work
* ,00/12/23 ,  25 ,Peggy Delaney - The Powers That Be
* ,00/12/30 ,  26 ,Peggy Delaney - Changing
* ,01/01/06 ,   1 ,The Investigations of Quentin Nickles - Murder on the CPR
* ,01/01/13 ,   2 ,The Investigations of Quentin Nickles - The Iceman
* ,01/01/20 ,   3 ,The Investigations of Quentin Nickles - The Mystery of the Seawitch
* ,01/01/27 ,   4 ,The Investigations of Quentin Nickles - The Saddle Bags Mystery
* ,01/02/03 ,   5 ,The Investigations of Quentin Nickles - Deadman's Plot
* ,01/02/10 ,   6 ,The Investigations of Quentin Nickles - Murder in the Museum
* ,01/02/17 ,   7 ,The Investigations of Quentin Nickles - The Keeper of the Castle
* ,01/02/24 ,   8 ,The Investigations of Quentin Nickles - The Case of the Missing Mourner
* ,01/03/03 ,   9 ,The Investigations of Quentin Nickles - A Family Affair
* ,01/03/10 ,  10 ,The Investigations of Quentin Nickles - A Premonition of Death
* ,01/03/17 ,  11 ,The Investigations of Quentin Nickles - Overnight at the Wickenmoore Inn
* ,01/03/24 ,  12 ,The Investigations of Quentin Nickles - The Red Silk Mystery
* ,01/03/31 ,  13 ,The Investigations of Quentin Nickles - The Niagara Gorge Mystery
* ,01/04/07 ,     ,Net Suicide
* ,01/04/14 ,   1 ,Cat and Mouse Game
* ,01/04/21 ,   2 ,Cat and Mouse Game
* ,01/04/28 ,   1 ,Compensating Error
* ,01/05/05 ,   2 ,Compensating Error
* ,01/05/12 ,   1 ,Dead Drop
* ,01/05/19 ,   2 ,Dead Drop
* ,01/05/26 ,     ,Twisted
* ,01/06/02 ,   9 ,Bailey's Way - Deadman's Flats
* ,01/06/09 ,  10 ,Bailey's Way - He Kissed Me Goodbye
* ,01/06/16 ,  11 ,Bailey's Way - Logan's Lost Herd
* ,01/06/23 ,  12 ,Bailey's Way - The Hood
* ,01/06/30 ,  13 ,Bailey's Way - Exit Candy Forest
* ,01/07/07 ,     ,The Man Without the Mobile
* ,01/07/14 ,   1 ,Find the Lady - In Which Andrew Loses a Chequebook
* ,01/07/21 ,   2 ,Find the Lady - In Which Andrew Loses a Car
* ,01/07/28 ,   3 ,Find the Lady - In Which Andrew Finds His Car
* ,01/08/04 ,   4 ,Find the Lady - In Which Andrew Loses His Way
* ,01/08/11 ,   5 ,Find the Lady - In Which Andrew Loses a Duel
* ,01/08/18 ,   6 ,Find the Lady - In Which Andrew Wakes in a Hospital - Not Himself
* ,01/08/25 ,   7 ,Find the Lady - In Which Andrew Finds All the Answers - And May Lose His Mind
* ,01/09/01 ,   1 ,The Joke About Hilary Spite
* ,01/09/08 ,   2 ,The Joke About Hilary Spite
* ,01/09/15 ,   3 ,The Joke About Hilary Spite
* ,01/09/22 ,   4 ,The Joke About Hilary Spite
* ,01/09/29 ,   5 ,The Joke About Hilary Spite
* ,01/10/06 ,   6 ,The Joke About Hilary Spite
* ,01/10/13 ,   1 ,Fallaway Ridge - An Awful Question
* ,01/10/20 ,   2 ,Fallaway Ridge - The Answer
* ,01/10/27 ,   3 ,Fallaway Ridge - Lost Children
* ,01/11/03 ,   4 ,Fallaway Ridge - Daughters
* ,01/11/10 ,  27 ,Peggy Delaney - Three's a Crowd
* ,01/11/17 ,  28 ,Peggy Delaney - How Things Work Out
* ,01/11/24 ,  29 ,Peggy Delaney - Return to Sender
* ,01/12/01 ,  30 ,Peggy Delaney - The Last Drawing
* ,01/12/08 ,  31 ,Peggy Delaney - Once upon a Time
* ,01/12/15 ,  32 ,Peggy Delaney - A Place to Call Home
* ,01/12/22 ,  33 ,Peggy Delaney - In the Shadows
* ,01/12/29 ,  34 ,Peggy Delaney - Everybody Happy
* ,02/01/05 ,  35 ,Peggy Delaney - One of Us
* ,02/01/12 ,  36 ,Peggy Delaney - Nothing Personal
* ,02/01/19 ,  37 ,Peggy Delaney - Family Matters
* ,02/01/26 ,  38 ,Peggy Delaney - Home Again, Home Again, Part One
* ,02/02/02 ,  39 ,Peggy Delaney - Home Again, Home Again, Part Two
* ,02/02/09 ,   1 ,Deadfall
* ,02/02/16 ,   2 ,Deadfall
* ,02/02/23 ,   1 ,Suspicious Mind
* ,02/03/02 ,   2 ,Suspicious Mind
* ,02/03/09 ,   1 ,The Thirty-Nine Steps (part 1)
* ,02/03/16 ,   2 ,The Thirty-Nine Steps (part 2)
* ,02/03/23 ,   3 ,The Thirty-Nine Steps (part 3)
* ,02/03/30 ,   4 ,The Thirty-Nine Steps (part 4)
* ,02/04/06 ,   5 ,The Thirty-Nine Steps (part 5)
* ,02/04/13 ,   1 ,The Investigations of Quentin Nickles - Murder on the CPR
* ,02/04/20 ,   2 ,The Investigations of Quentin Nickles - The Ice Man
* ,02/04/27 ,   3 ,The Investigations of Quentin Nickles - The Mystery of the Seawitch
* ,02/05/04 ,   4 ,The Investigations of Quentin Nickles - The Saddlebags Mystery
* ,02/05/11 ,   5 ,The Investigations of Quentin Nickles - Deadman's Plot
* ,02/05/18 ,   6 ,The Investigations of Quentin Nickles - Murder in the Museum
* ,02/05/25 ,   7 ,The Investigations of Quentin Nickles - Keeper of the Castle
* ,02/06/01 ,   8 ,The Investigations of Quentin Nickles - The Case of the Missing Mourner
* ,02/06/08 ,   9 ,The Investigations of Quentin Nickles - A Family Affair
* ,02/06/15 ,  10 ,The Investigations of Quentin Nickles - A Premonition of Death
* ,02/06/22 ,  11 ,The Investigations of Quentin Nickles - Overnight at the Wickenmoore Inn
* ,02/06/29 ,  12 ,The Investigations of Quentin Nickles - The Red Silk Mystery
* ,02/07/06 ,  13 ,The Investigations of Quentin Nickles - The Niagara Gorge Mystery
* ,02/07/13 ,  14 ,Peggy Delaney - Pink Slips
* ,02/07/20 ,  15 ,Peggy Delaney - A Death in the Family
* ,02/07/27 ,  16 ,Peggy Delaney - Odd Girl Out
* ,02/08/03 ,  17 ,Peggy Delaney - All the Lonely People
* ,02/08/10 ,  18 ,Peggy Delaney - Long Drive Home
* ,02/08/17 ,  19 ,Peggy Delaney - Tough in the Corners
* ,02/08/24 ,  20 ,Peggy Delaney - Nothing to Hide
* ,02/08/31 ,  21 ,Peggy Delaney - Special Delivery
* ,02/09/07 ,  22 ,Peggy Delaney - Going Public
* ,02/09/14 ,  23 ,Peggy Delaney - Getting the Message
* ,02/09/21 ,  24 ,Peggy Delaney - Stick Work
* ,02/09/28 ,  25 ,Peggy Delaney - The Powers That Be
* ,02/10/05 ,   1 ,The Old Guy - A String of Black Beads
* ,02/10/12 ,   2 ,The Old Guy - One Copper at a Time
* ,02/10/19 ,   3 ,The Old Guy - Something in the Air
* ,02/10/26 ,   4 ,The Old Guy - A Walk on the Water
* ,02/11/02 ,   5 ,The Old Guy - Pumped Up
* ,02/11/09 ,   6 ,The Old Guy - Jump up, Fall Down
* ,02/11/16 ,   7 ,The Old Guy - Just Watch
* ,02/11/23 ,   8 ,The Old Guy - The Clock
* ,02/11/30 ,   9 ,The Old Guy - Hacked
* ,02/12/07 ,  10 ,The Old Guy - Born Again Wild
* ,02/12/14 ,  11 ,The Old Guy - Give Me Shelter
* ,02/12/21 ,  12 ,The Old Guy - A Badge of Dishonour
* ,02/12/28 ,  13 ,The Old Guy - Life Like Dust
* ,03/01/04 ,  14 ,The Investigations of Quentin Nickles - A Bad Case of Murder
* ,03/01/11 ,  15 ,The Investigations of Quentin Nickles - The Hogg's Hollow Mystery
* ,03/01/18 ,  16 ,The Investigations of Quentin Nickles - The Gibraltar Connection
* ,03/01/25 ,  17 ,The Investigations of Quentin Nickles - The Midnight Shadow
* ,03/02/01 ,   1 ,Murder Repeats Itself
* ,03/02/08 ,   2 ,Murder Repeats Itself
* ,03/02/15 ,   3 ,Murder Repeats Itself
* ,03/02/22 ,   1 ,Rue Morgue Reduxe
* ,03/03/01 ,   2 ,Rue Morgue Reduxe
* ,03/03/08 ,  26 ,Peggy Delaney - Changing
* ,03/03/15 ,  27 ,Peggy Delaney - Three's a Crowd
* ,03/03/29 ,  28 ,Peggy Delaney - How Things Work Out
* ,03/04/05 ,  29 ,Peggy Delaney - Return to Sender
* ,03/04/12 ,  30 ,Peggy Delaney - The Last Drawing
* ,03/04/19 ,  31 ,Peggy Delaney - Once Upon a Time
* ,03/04/26 ,  32 ,Peggy Delaney - A Place to Call Home
* ,03/05/03 ,  33 ,Peggy Delaney - In the Shadows
* ,03/05/10 ,  34 ,Peggy Delaney - Everybody Happy
* ,03/05/17 ,  35 ,Peggy Delaney - One of Us
* ,03/05/24 ,  36 ,Peggy Delaney - Nothing Personal
* ,03/05/31 ,  37 ,Peggy Delaney - Family Matters
* ,03/06/07 ,  38 ,Peggy Delaney - Home Again, Home Again part 1
* ,03/06/14 ,  39 ,Peggy Delaney - Home Again, Home Again part 2
  ,xx/xx/xx ,  14 ,The Old Guy - Farewell to the Chief
  ,xx/xx/xx ,  14 ,The Old Guy - Farewell to the Chief
  ,xx/xx/xx ,  14 ,The Old Guy - Farewell to the Chief
  ,xx/xx/xx ,  14 ,The Old Guy - Farewell to the Chief
  ,xx/xx/xx ,  14 ,The Old Guy - Farewell to the Chief
  ,xx/xx/xx ,  14 ,The Old Guy - Farewell to the Chief
  ,xx/xx/xx ,  14 ,The Old Guy - Farewell to the Chief
  ,xx/xx/xx ,  14 ,The Old Guy - Farewell to the Chief
  ,xx/xx/xx ,  14 ,The Old Guy - Farewell to the Chief
  ,xx/xx/xx ,  14 ,The Old Guy - Farewell to the Chief
  ,xx/xx/xx ,  15 ,The Old Guy - Odds Against Tomorrow
  ,xx/xx/xx ,  15 ,The Old Guy - Odds Against Tomorrow
  ,xx/xx/xx ,  15 ,The Old Guy - Odds Against Tomorrow
  ,xx/xx/xx ,  15 ,The Old Guy - Odds Against Tomorrow
  ,xx/xx/xx ,  15 ,The Old Guy - Odds Against Tomorrow
  ,xx/xx/xx ,  15 ,The Old Guy - Odds Against Tomorrow
  ,xx/xx/xx ,  15 ,The Old Guy - Odds Against Tomorrow
  ,xx/xx/xx ,  15 ,The Old Guy - Odds Against Tomorrow
  ,xx/xx/xx ,  15 ,The Old Guy - Odds Against Tomorrow
  ,xx/xx/xx ,  15 ,The Old Guy - Odds Against Tomorrow
  ,xx/xx/xx ,  16 ,The Old Guy - Security
  ,xx/xx/xx ,  16 ,The Old Guy - Security
  ,xx/xx/xx ,  16 ,The Old Guy - Security
  ,xx/xx/xx ,  16 ,The Old Guy - Security
  ,xx/xx/xx ,  16 ,The Old Guy - Security
  ,xx/xx/xx ,  16 ,The Old Guy - Security
  ,xx/xx/xx ,  16 ,The Old Guy - Security
  ,xx/xx/xx ,  16 ,The Old Guy - Security
  ,xx/xx/xx ,  16 ,The Old Guy - Security
  ,xx/xx/xx ,  16 ,The Old Guy - Security
  ,xx/xx/xx ,  17 ,The Old Guy - by the Book
  ,xx/xx/xx ,  17 ,The Old Guy - by the Book
  ,xx/xx/xx ,  17 ,The Old Guy - by the Book
  ,xx/xx/xx ,  17 ,The Old Guy - by the Book
  ,xx/xx/xx ,  17 ,The Old Guy - by the Book
  ,xx/xx/xx ,  17 ,The Old Guy - by the Book
  ,xx/xx/xx ,  17 ,The Old Guy - by the Book
  ,xx/xx/xx ,  17 ,The Old Guy - by the Book
  ,xx/xx/xx ,  17 ,The Old Guy - by the Book
  ,xx/xx/xx ,  17 ,The Old Guy - by the Book
  ,xx/xx/xx ,  18 ,The Old Guy - the Interrogator
  ,xx/xx/xx ,  18 ,The Old Guy - the Interrogator
  ,xx/xx/xx ,  18 ,The Old Guy - the Interrogator
  ,xx/xx/xx ,  18 ,The Old Guy - the Interrogator
  ,xx/xx/xx ,  18 ,The Old Guy - the Interrogator
  ,xx/xx/xx ,  18 ,The Old Guy - the Interrogator
  ,xx/xx/xx ,  18 ,The Old Guy - the Interrogator
  ,xx/xx/xx ,  18 ,The Old Guy - the Interrogator
  ,xx/xx/xx ,  18 ,The Old Guy - the Interrogator
  ,xx/xx/xx ,  18 ,The Old Guy - the Interrogator
  ,xx/xx/xx ,  19 ,The Old Guy - Silence
  ,xx/xx/xx ,  19 ,The Old Guy - Silence
  ,xx/xx/xx ,  19 ,The Old Guy - Silence
  ,xx/xx/xx ,  19 ,The Old Guy - Silence
  ,xx/xx/xx ,  19 ,The Old Guy - Silence
  ,xx/xx/xx ,  19 ,The Old Guy - Silence
  ,xx/xx/xx ,  19 ,The Old Guy - Silence
  ,xx/xx/xx ,  19 ,The Old Guy - Silence
  ,xx/xx/xx ,  19 ,The Old Guy - Silence
  ,xx/xx/xx ,  19 ,The Old Guy - Silence
  ,xx/xx/xx ,  20 ,The Old Guy - Cyber- Gothic
  ,xx/xx/xx ,  20 ,The Old Guy - Cyber- Gothic
  ,xx/xx/xx ,  20 ,The Old Guy - Cyber- Gothic
  ,xx/xx/xx ,  20 ,The Old Guy - Cyber- Gothic
  ,xx/xx/xx ,  20 ,The Old Guy - Cyber- Gothic
  ,xx/xx/xx ,  20 ,The Old Guy - Cyber- Gothic
  ,xx/xx/xx ,  20 ,The Old Guy - Cyber- Gothic
  ,xx/xx/xx ,  20 ,The Old Guy - Cyber- Gothic
  ,xx/xx/xx ,  20 ,The Old Guy - Cyber- Gothic
  ,xx/xx/xx ,  20 ,The Old Guy - Cyber- Gothic
  ,xx/xx/xx ,  21 ,The Old Guy - Spirited Away
  ,xx/xx/xx ,  21 ,The Old Guy - Spirited Away
  ,xx/xx/xx ,  21 ,The Old Guy - Spirited Away
  ,xx/xx/xx ,  21 ,The Old Guy - Spirited Away
  ,xx/xx/xx ,  21 ,The Old Guy - Spirited Away
  ,xx/xx/xx ,  21 ,The Old Guy - Spirited Away
  ,xx/xx/xx ,  21 ,The Old Guy - Spirited Away
  ,xx/xx/xx ,  21 ,The Old Guy - Spirited Away
  ,xx/xx/xx ,  21 ,The Old Guy - Spirited Away
  ,xx/xx/xx ,  21 ,The Old Guy - Spirited Away
  ,xx/xx/xx ,  22 ,The Old Guy - Kill the Messenger
  ,xx/xx/xx ,  22 ,The Old Guy - Kill the Messenger
  ,xx/xx/xx ,  22 ,The Old Guy - Kill the Messenger
  ,xx/xx/xx ,  22 ,The Old Guy - Kill the Messenger
  ,xx/xx/xx ,  22 ,The Old Guy - Kill the Messenger
  ,xx/xx/xx ,  22 ,The Old Guy - Kill the Messenger
  ,xx/xx/xx ,  22 ,The Old Guy - Kill the Messenger
  ,xx/xx/xx ,  22 ,The Old Guy - Kill the Messenger
  ,xx/xx/xx ,  22 ,The Old Guy - Kill the Messenger
  ,xx/xx/xx ,  22 ,The Old Guy - Kill the Messenger
  ,xx/xx/xx ,  23 ,The Old Guy - the Blockbuster
  ,xx/xx/xx ,  23 ,The Old Guy - the Blockbuster
  ,xx/xx/xx ,  23 ,The Old Guy - the Blockbuster
  ,xx/xx/xx ,  23 ,The Old Guy - the Blockbuster
  ,xx/xx/xx ,  23 ,The Old Guy - the Blockbuster
  ,xx/xx/xx ,  23 ,The Old Guy - the Blockbuster
  ,xx/xx/xx ,  23 ,The Old Guy - the Blockbuster
  ,xx/xx/xx ,  23 ,The Old Guy - the Blockbuster
  ,xx/xx/xx ,  23 ,The Old Guy - the Blockbuster
  ,xx/xx/xx ,  23 ,The Old Guy - the Blockbuster
  ,xx/xx/xx ,  24 ,The Old Guy - Buy and Sell
  ,xx/xx/xx ,  24 ,The Old Guy - Buy and Sell
  ,xx/xx/xx ,  24 ,The Old Guy - Buy and Sell
  ,xx/xx/xx ,  24 ,The Old Guy - Buy and Sell
  ,xx/xx/xx ,  24 ,The Old Guy - Buy and Sell
  ,xx/xx/xx ,  24 ,The Old Guy - Buy and Sell
  ,xx/xx/xx ,  24 ,The Old Guy - Buy and Sell
  ,xx/xx/xx ,  24 ,The Old Guy - Buy and Sell
  ,xx/xx/xx ,  24 ,The Old Guy - Buy and Sell
  ,xx/xx/xx ,  24 ,The Old Guy - Buy and Sell
  ,xx/xx/xx ,  25 ,The Old Guy - Broken Windows
  ,xx/xx/xx ,  25 ,The Old Guy - Broken Windows
  ,xx/xx/xx ,  25 ,The Old Guy - Broken Windows
  ,xx/xx/xx ,  25 ,The Old Guy - Broken Windows
  ,xx/xx/xx ,  25 ,The Old Guy - Broken Windows
  ,xx/xx/xx ,  25 ,The Old Guy - Broken Windows
  ,xx/xx/xx ,  25 ,The Old Guy - Broken Windows
  ,xx/xx/xx ,  25 ,The Old Guy - Broken Windows
  ,xx/xx/xx ,  25 ,The Old Guy - Broken Windows
  ,xx/xx/xx ,  25 ,The Old Guy - Broken Windows
  ,xx/xx/xx ,  26 ,The Old Guy - All for One
  ,xx/xx/xx ,  26 ,The Old Guy - All for One
  ,xx/xx/xx ,  26 ,The Old Guy - All for One
  ,xx/xx/xx ,  26 ,The Old Guy - All for One
  ,xx/xx/xx ,  26 ,The Old Guy - All for One
  ,xx/xx/xx ,  26 ,The Old Guy - All for One
  ,xx/xx/xx ,  26 ,The Old Guy - All for One
  ,xx/xx/xx ,  26 ,The Old Guy - All for One
  ,xx/xx/xx ,  26 ,The Old Guy - All for One
  ,xx/xx/xx ,  26 ,The Old Guy - All for One
  ,xx/xx/xx ,     ,A Cry Almost a Scream
  ,xx/xx/xx ,     ,A Cry Almost a Scream
  ,xx/xx/xx ,     ,A Cry Almost a Scream
* ,xx/xx/xx ,     ,A Cry Almost A Scream
  ,xx/xx/xx ,     ,A Cry Almost a Scream
  ,xx/xx/xx ,     ,A Cry Almost a Scream
  ,xx/xx/xx ,     ,A Cry Almost a Scream (2)
  ,xx/xx/xx ,     ,A Cry Almost a Scream (2)
  ,xx/xx/xx ,     ,A Cry Almost a Scream (2)
  ,xx/xx/xx ,     ,A Cry Almost a Scream (2)
  ,xx/xx/xx ,     ,A Cry Almost a Scream (2)
  ,xx/xx/xx ,     ,Philip Marlowe - Farewell My Lovely - Part 1
  ,xx/xx/xx ,     ,Philip Marlowe - Farewell My Lovely - Part 1
  ,xx/xx/xx ,     ,Philip Marlowe - Farewell My Lovely - Part 1
  ,xx/xx/xx ,     ,Philip Marlowe - Farewell My Lovely - Part 1
  ,xx/xx/xx ,     ,Philip Marlowe - Farewell My Lovely - Part 1
  ,xx/xx/xx ,     ,Philip Marlowe - Farewell My Lovely - Part 2
  ,xx/xx/xx ,     ,Philip Marlowe - Farewell My Lovely - Part 2
  ,xx/xx/xx ,     ,Philip Marlowe - Farewell My Lovely - Part 2
  ,xx/xx/xx ,     ,Philip Marlowe - Farewell My Lovely - Part 2
  ,xx/xx/xx ,     ,Philip Marlowe - Farewell My Lovely - Part 2
  ,xx/xx/xx ,     ,Philip Marlowe - Farewell My Lovely - Part 3
  ,xx/xx/xx ,     ,Philip Marlowe - Farewell My Lovely - Part 3
  ,xx/xx/xx ,     ,Philip Marlowe - Farewell My Lovely - Part 3
  ,xx/xx/xx ,     ,Philip Marlowe - Farewell My Lovely - Part 3
  ,xx/xx/xx ,     ,Philip Marlowe - Farewell My Lovely - Part 3
* ,xx/xx/xx ,     ,Philip Marlowe - Farewell My Lovely - pt 1
* ,xx/xx/xx ,     ,Philip Marlowe - Farewell My Lovely - pt 2
* ,xx/xx/xx ,     ,Philip Marlowe - Farewell My Lovely - pt 3
  ,xx/xx/xx ,     ,Philip Marlowe - The High Window - Part 2
  ,xx/xx/xx ,     ,Philip Marlowe - The High Window - Part 2
  ,xx/xx/xx ,     ,Philip Marlowe - The High Window - Part 2
  ,xx/xx/xx ,     ,Philip Marlowe - The High Window - Part 2
  ,xx/xx/xx ,     ,Philip Marlowe - The High Window - Part 2
* ,xx/xx/xx ,     ,Philip Marlowe - The High Window - pt 1
* ,xx/xx/xx ,     ,Philip Marlowe - The High Window - pt 2
  ,xx/xx/xx ,     ,Philip Marlowe - The Lady In The Lake - Part 1
  ,xx/xx/xx ,     ,Philip Marlowe - The Lady In The Lake - Part 1
  ,xx/xx/xx ,     ,Philip Marlowe - The Lady In The Lake - Part 1
  ,xx/xx/xx ,     ,Philip Marlowe - The Lady In The Lake - Part 1
  ,xx/xx/xx ,     ,Philip Marlowe - The Lady In The Lake - Part 1
  ,xx/xx/xx ,     ,Philip Marlowe - The Lady In The Lake - Part 2
  ,xx/xx/xx ,     ,Philip Marlowe - The Lady In The Lake - Part 2
  ,xx/xx/xx ,     ,Philip Marlowe - The Lady In The Lake - Part 2
  ,xx/xx/xx ,     ,Philip Marlowe - The Lady In The Lake - Part 2
  ,xx/xx/xx ,     ,Philip Marlowe - The Lady In The Lake - Part 2
  ,xx/xx/xx ,     ,Philip Marlowe - The Lady In The Lake - Part 3
  ,xx/xx/xx ,     ,Philip Marlowe - The Lady In The Lake - Part 3
  ,xx/xx/xx ,     ,Philip Marlowe - The Lady In The Lake - Part 3
  ,xx/xx/xx ,     ,Philip Marlowe - The Lady In The Lake - Part 3
  ,xx/xx/xx ,     ,Philip Marlowe - The Lady In The Lake - Part 3
  ,xx/xx/xx ,     ,Philip Marlowe - The Long Goodbye - Part 1
  ,xx/xx/xx ,     ,Philip Marlowe - The Long Goodbye - Part 1
  ,xx/xx/xx ,     ,Philip Marlowe - The Long Goodbye - Part 1
  ,xx/xx/xx ,     ,Philip Marlowe - The Long Goodbye - Part 1
  ,xx/xx/xx ,     ,Philip Marlowe - The Long Goodbye - Part 1
  ,xx/xx/xx ,     ,Philip Marlowe - The Long Goodbye - Part 2
  ,xx/xx/xx ,     ,Philip Marlowe - The Long Goodbye - Part 2
  ,xx/xx/xx ,     ,Philip Marlowe - The Long Goodbye - Part 2
  ,xx/xx/xx ,     ,Philip Marlowe - The Long Goodbye - Part 2
  ,xx/xx/xx ,     ,Philip Marlowe - The Long Goodbye - Part 2
  ,xx/xx/xx ,     ,Philip Marlowe - The Long Goodbye - Part 3
  ,xx/xx/xx ,     ,Philip Marlowe - The Long Goodbye - Part 3
  ,xx/xx/xx ,     ,Philip Marlowe - The Long Goodbye - Part 3
  ,xx/xx/xx ,     ,Philip Marlowe - The Long Goodbye - Part 3
  ,xx/xx/xx ,     ,Philip Marlowe - The Long Goodbye - Part 3
