Exists, Date, #, Episode Name
* ,42/06/30 ,   1 ,First Song - Sombody Stole My Gal
* ,42/07/07 ,   2 ,First Song - Thirty-two Bars Of I Love You
* ,42/07/14 ,   3 ,First Song - The American Waltz
* ,42/07/21 ,   4 ,First Song - The Free Lance
* ,42/07/28 ,   5 ,First Song - The Liberty Bell March
* ,42/08/04 ,   6 ,First Song -  Semper Peratus
* ,42/08/11 ,   7 ,First Song - Wings On High
* ,42/08/18 ,   8 ,First Song - Yankee Doodle Dandy March
* ,42/08/26 ,   9 ,
* ,42/09/01 ,  10 ,First Song - Manhattan Beach March
* ,42/09/08 ,  11 ,First Song - You're A Grand Old Flag
* ,42/09/15 ,  12 ,First Song - My Ten Ton Baby and Me
* ,42/09/22 ,  13 ,First Song - Hands Across The Sea
