Exists, Date, #, Episode Name
* ,36/09/07 ,     ,The Catholic Church and Youth
* ,37/01/10 ,   2 ,Our Wounded World - Freedom
* ,38/03/06 ,  10 ,Justice and Charity - Unjust Suffering
* ,38/04/10 ,  15 ,Justice and Charity - Eternal Freedom
* ,38/12/11 ,     ,Auxillary Bishop Bernard J Shiel (of Chicago) Makes a Statement
* ,39/09/03 ,     ,The Catholic Tradition in Literature
* ,40/03/03 ,     ,The Jewels of the Madonna
* ,40/06/09 ,     ,In the Beginning - the Creation of Angels
* ,41/04/20 ,     ,Foundations of Freedom - Maryland, Land of Sanctuary
* ,41/04/27 ,     ,Foundations of Freedom - the Last of the Signers
* ,41/05/04 ,     ,Foundations of Freedom - the Winning of the West
* ,41/05/11 ,     ,Foundations of Freedom
* ,41/05/25 ,     ,Foundations of Freedom
* ,41/12/07 ,   6 ,Politics in Religion, Religion in Politics
* ,41/12/07 ,   6 ,Politics in Religion, Religion in Politics
* ,42/01/11 ,   4 ,Peace - All out Aid for Morality
* ,42/01/18 ,   5 ,Peace - Things Worth Saving
* ,42/02/01 ,   7 ,Peace - the Two Swords
* ,42/02/08 ,   8 ,Peace - Papacy and Peace
* ,42/02/15 ,   9 ,Peace - Revolution and Counter-Revolution
* ,42/02/22 ,  10 ,Peace - the Things of God in Wartime
* ,42/03/01 ,  11 ,Peace - Spectators and Actors in the Drama of the Cross
* ,42/03/08 ,  12 ,Peace - the Divine Cost of Stopping the War
* ,42/03/15 ,  13 ,Trust On Gods Plan
* ,42/04/05 ,  16 ,Peace - the Crucifixion
* ,42/12/25 ,   6 ,Peace - Charity, Not False Tolerance
* ,43/01/03 ,   1 ,Crisis in Christendom - War and Revolution
* ,43/01/10 ,   2 ,Crisis in Christendom - the Thing We Are Fighting Against
* ,43/01/17 ,   3 ,Crisis in Christendom - Some Barnacles on the Ship of Democracy
* ,43/01/24 ,   4 ,Crisis in Christendom
* ,43/01/31 ,   5 ,Crisis in Christendom - the Christian Order
* ,43/02/07 ,   6 ,Crisis in Christendom - Christian Social Order
* ,43/02/14 ,   7 ,Crisis in Christendom - the Christian Order and the Family
* ,43/02/21 ,   8 ,Crisis in Christendom - the Christian Order and Education
* ,43/03/07 ,  10 ,Crisis in Christendom - How over This Evil
* ,43/03/14 ,  11 ,Crisis in Christendom - Evil Has Its Hour
* ,43/03/21 ,  12 ,Crisis in Christendom - War as a Judgment of God
* ,43/03/28 ,  13 ,Crisis in Christendom - Judgment of Nations
* ,43/04/04 ,  14 ,Crisis in Christendom - Freedom in Danger
* ,43/04/11 ,  15 ,Crisis in Christendom - Moral Basis of Peace
* ,43/04/18 ,  16 ,Crisis in Christendom - the Jew and Christian in History
* ,43/04/25 ,  17 ,Crisis in Christendom - Easter
* ,43/05/23 ,     ,Social Regeneration - the Hour of Liberation
* ,44/01/02 ,   1 ,One Lord, One World - Call to Unity
* ,44/01/09 ,   2 ,One Lord, One World - Men of Good Will
* ,44/01/16 ,   3 ,One Lord, One World - the Natural Law of God
* ,44/01/23 ,   4 ,One Lord, One World - the Economic Condition of World Peace
* ,44/01/30 ,   5 ,One Lord, One World - the Political Condition of World Peace
* ,44/02/06 ,   6 ,One Lord, One World - the Domestic Conditions of World Peace
* ,44/02/13 ,   7 ,One Lord, One World - the Social Condition of World Peace
* ,44/02/20 ,   8 ,One Lord, One World - the International Condition of World Peace
* ,44/02/27 ,   9 ,One Lord, One World - the First Word to the Cross
* ,44/03/05 ,  10 ,One Lord, One World - the Second Word to the Cross
* ,44/03/12 ,  11 ,One Lord, One World - the Third Word to the Cross
* ,44/03/19 ,  12 ,One Lord, One World - the Fourth Word to the Cross
* ,44/03/26 ,  13 ,One Lord, One World - the Fifth Word to the Cross
* ,44/04/02 ,  14 ,One Lord, One World - the Sixth Word to the Cross
* ,44/04/09 ,  16 ,One Lord, One World - Easter
* ,45/04/01 ,  18 ,You
* ,45/04/15 ,     ,Lift Thine Eyes
* ,45/05/13 ,     ,Lady Under the Elms
* ,46/02/03 ,   1 ,Love on Pilgrimage - Christ's Love as Our Peace
* ,46/02/17 ,   3 ,Love on Pilgrimage - Exhortation to a Bride and Groom
* ,46/03/17 ,     ,Love on Pilgrimage
* ,46/04/14 ,     ,Love on Pilgrimage - Barabbas and the Thieves
* ,46/07/21 ,     ,The Road Ahead - the Church and Inter-Racial Justice
* ,46/10/13 ,     ,The Program Is Produced in Co-operation with the National Council of Catholic Men the First Hymn Is,
* ,47/01/26 ,   1 ,Light Your Lamps - Signs of Our Times
* ,47/02/09 ,   3 ,Light Your Lamps - the Philosophy of Communism
* ,47/02/16 ,   4 ,Light Your Lamps - Communism and the Church
* ,47/02/23 ,   5 ,Light Your Lamps - How to Meet Communism
* ,47/03/02 ,   6 ,Light Your Lamps - Communism and Woman
* ,47/03/09 ,   7 ,Light Your Lamps
* ,47/03/16 ,   8 ,Light Your Lamps - Communism and the Revival of Passion
* ,47/03/30 ,  10 ,Light Your Lamps - Russia and Our Lady
* ,47/04/06 ,  11 ,Light Your Lamps - Easter
* ,47/06/15 ,     ,The Catholic and Minorities
* ,47/06/15 ,     ,The Catholic and the Functions of Government
* ,47/06/29 ,     ,Catholics and Non-Catholics
* ,47/07/06 ,     ,The American Way - Our World Today
* ,47/07/13 ,     ,The American Way
* ,47/07/27 ,     ,The Road Back - Forward with the Fundamentals
* ,47/08/03 ,     ,Our Last Chance - the Church and Labor
* ,47/12/07 ,     ,Mary - the Stable and the Star
