Exists, Date, #, Episode Name
* ,44/05/24 ,     ,Home For Former Radio Actors
* ,44/11/13 ,  48 ,The Case of the Disappearing Corpse
* ,45/05/30 ,     ,Drama about Darkest Africa
* ,45/06/06 ,     ,The Buried Electric Bulb, or Mazda's In De Cold, Cold Ground
* ,45/06/07 ,  47 ,Hillbilly Drama
* ,45/06/18 ,     ,First Song - You Only Want Me
* ,45/06/19 ,     ,
* ,45/06/21 ,     ,
* ,45/06/25 ,  39 ,Another Hillbilly Drama
* ,45/06/27 ,  40 ,Homer Pigeon buys an Auto Club Membership
* ,45/08/31 ,     ,We're Not Shooting Dice
* ,45/11/09 ,     ,Western Drama
* ,45/11/14 ,  66 ,Elizabethan Drama
* ,46/02/14 ,     ,True Story Of King Arthur
* ,46/07/01 ,     ,Kirkwood is a Ham
* ,46/07/08 ,     ,Kirkwood Gets a Job
* ,46/08/05 ,     ,Kirkwood a Concert Pianist
* ,46/09/01 ,     ,Uncle Vanya Drushky
* ,46/09/29 ,     ,Jack Gets Job in the Movies
* ,47/09/11 ,     ,At Home With The Kirkwoods
* ,50/09/24 ,     ,Don't Lean Out of the Window Grandma...
* ,51/12/06 , 152 ,The Madhouse News
* ,51/12/13 ,     ,The Count Of Monte Cristo
* ,52/07/18 , 425 ,The Life of Jack Kirkwood
* ,52/07/xx , 426 ,Jack Becomes Prison Warden (Note: Date also 52/7/18)
* ,53/04/03 ,     ,Transportation
* ,53/05/01 ,     ,
* ,53/05/04 ,     ,The Frobisher Neep Expedition
* ,53/08/11 ,     ,Cactus Pete Rides Again
* ,57/07/18 ,     ,Jack Becomes A Prison Warden
* ,xx/xx/xx , 689 ,House Painter
* ,xx/xx/xx , 724 ,Clothing Store
* ,xx/xx/xx , 742 ,The Robert Fulton Story
* ,xx/xx/xx , 743 ,The Flat Man
