Exists, Date, #, Episode Name
  ,41/07/29 ,     ,The Bell Telephone Hour
  ,41/08/18 ,     ,Polonaise
  ,41/10/06 ,     ,John Peel
  ,41/10/13 ,     ,Duerme
  ,41/10/26 ,     ,Captain Jinx Of The Horse Marines
  ,41/11/16 ,     ,Night and Day
  ,41/11/24 ,     ,Sweethearts
  ,41/12/08 ,     ,I Pledge Allegiance
  ,42/01/05 ,     ,The Donkey Serenade
  ,42/01/12 ,     ,The Anvil Chorus
  ,42/01/19 ,     ,Come Love With Me
  ,42/03/09 ,     ,Indian Love Call
  ,42/03/16 ,     ,The Wearin' Of The Green
  ,42/03/23 ,     ,Song Of Songs
  ,42/05/25 ,     ,The Overture To Orpheus In The Underworld
  ,42/06/18 ,     ,
  ,42/07/06 ,     ,The Processional March
  ,42/07/13 ,     ,Andalusia
  ,42/11/23 ,     ,The Gold and Silver Waltz
  ,42/12/29 ,     ,
  ,43/01/04 ,     ,Fingal's Cave
  ,43/01/15 ,     ,I Love Thee
  ,43/01/18 ,     ,The Waltz
  ,43/03/01 ,     ,Military Polonaise
  ,43/03/01 ,     ,Prelude In C Sharp Minor
  ,43/03/15 ,     ,The Sleeping Beauty Suite
  ,43/03/22 ,     ,Danse Russe
  ,43/03/29 ,     ,None But The Lonely Heart
  ,43/04/26 ,     ,
  ,43/08/09 ,     ,Donna Diana
  ,43/12/13 ,     ,Evening Song
  ,44/01/10 ,     ,Introduction and Tarantelle
  ,44/01/24 ,  63 ,Just One Of Those Things
  ,44/02/06 ,     ,Hungarian Fantasy
  ,44/02/14 ,     ,Because
  ,44/02/21 ,     ,Falling In Love With Love
  ,44/02/28 ,  68 ,Spanish Serenade
  ,44/03/13 ,     ,Dancing In The Dark
  ,44/03/27 ,     ,Rondo Capriccioso
  ,44/04/17 ,     ,Let's Make Tomorrow Today
  ,44/05/01 ,     ,The Earl King
  ,44/05/22 ,     ,
  ,44/05/29 ,  82 ,Music From America
  ,44/06/05 ,     ,Karaminskya
  ,44/07/17 ,  89 ,The Overture To The Marriage of Figaro
  ,44/07/17 ,     ,The Violin Concerto In E Minor
  ,44/07/31 ,     ,The Moonlight Sonata
  ,44/08/07 ,  92 ,Semper Fidelis
  ,44/08/21 ,  94 ,Polovetsky March
  ,44/08/28 ,     ,Turkey In The Straw
  ,44/10/02 , 100 ,Music From America
  ,44/10/16 , 102 ,Music From America
  ,44/11/06 , 105 ,Music From America
  ,44/11/20 , 107 ,My Heart Stood Still
  ,44/11/27 , 108 ,Music From America
  ,44/12/11 , 110 ,The Stars and Stripes Forever
  ,44/12/18 , 111 ,Danse Bohemian
  ,44/12/25 , 112 ,Come, All Ye Faithful
  ,45/01/29 , 117 ,Music From America
  ,45/01/29 , 118 ,Music From America
  ,45/02/05 , 119 ,Music From America
  ,45/02/19 , 121 ,Music From America
  ,45/02/26 , 122 ,Music From America
  ,45/03/05 , 123 ,Music From America
  ,45/03/19 , 125 ,All-American
  ,45/03/26 , 126 ,Music From America
  ,45/04/23 , 130 ,Music From America
  ,45/04/30 , 131 ,Music From America
  ,45/05/28 , 135 ,Holiday For Strings
  ,45/06/04 , 136 ,Music From America
  ,45/06/25 , 139 ,Concerto In F
  ,45/07/02 ,     ,
  ,45/07/16 , 142 ,Music From America
  ,45/07/23 , 143 ,Music From America
  ,45/07/30 ,     ,Waltz
  ,45/10/01 , 153 ,Music From America
  ,45/10/07 , 154 ,Music From America
  ,45/10/15 , 155 ,Variations On A Theme By Paganini
  ,45/10/22 , 156 ,Music From America
  ,45/10/29 , 157 ,Music From America
  ,45/11/26 , 161 ,Music From America
  ,45/12/31 , 166 ,Music From America
  ,46/01/14 , 168 ,Music From America
  ,46/02/04 , 171 ,Music From America
  ,46/02/11 , 172 ,Music From America
  ,46/02/25 , 174 ,Music From America
  ,46/03/11 , 176 ,Music From America
  ,46/03/18 , 177 ,Music From America
  ,46/03/25 , 178 ,Music From America
  ,46/04/08 , 180 ,Music From America
  ,46/05/20 , 186 ,Pop Goes The Weasel
  ,46/06/17 , 190 ,The Sabre Dance
  ,46/07/29 , 197 ,The Marriage Of Figaro
  ,46/08/12 , 199 ,Babes In The Wood
  ,46/08/19 , 200 ,Your Eyes Have Told Me So
  ,46/08/19 ,     ,Your Eyes Have Told Me So
  ,46/09/16 , 204 ,April In Paris
  ,46/10/07 , 207 ,La Folia
  ,46/11/04 , 211 ,Tannhauser
  ,46/11/11 , 212 ,The Overture To Zampa
  ,46/12/02 , 215 ,Save Me A Dream
  ,47/01/06 , 219 ,Sapphic Ode
  ,47/01/13 , 220 ,The Overture To Orpheus In The Underworld
  ,47/01/20 , 221 ,Prelude In G Minor
  ,47/01/27 , 222 ,The Forging Scene
  ,47/02/03 , 224 ,Carousel Waltz
  ,47/02/10 , 225 ,Three Blind Mice
  ,47/03/03 , 229 ,Valse
  ,47/03/17 , 230 ,Back To Donegal
  ,47/03/31 ,     ,To The Sea
  ,48/02/02 , 276 ,Music From America
  ,48/03/22 ,     ,The Nautilus
* ,48/12/20 ,     ,God Rest Ye Merry Gentlemen
* ,49/04/25 ,     ,Guest - Lily Pons
  ,49/09/12 ,     ,
  ,51/08/11 , 452 ,Morning
  ,52/11/03 ,     ,Music From America
  ,53/10/12 ,     ,
  ,54/12/01 ,     ,The Triangle Concerto
  ,55/02/07 ,     ,One Fine Day
  ,56/04/29 ,     ,The Sleeping Beauty
  ,56/09/03 ,     ,
  ,57/02/24 ,     ,A la Kreutzer
  ,57/03/17 ,     ,First Song -The Irish Washerwoman
  ,58/04/15 ,     ,Sicilienne
