Exists, Date, #, Episode Name
* ,75/08/04 ,   1 ,Modern-Day Highway Signs
* ,75/08/05 ,   2 ,Toothaches - Dentist on Vacation
* ,75/08/06 ,   3 ,Waiting for Daughter to Return
* ,75/08/07 ,   4 ,The Wedding Anniversary
* ,75/08/08 ,   5 ,Chosen to Be Paul Revere
* ,75/08/11 ,   6 ,A Woman's Place Is in the Home
* ,75/08/12 ,   7 ,How Little Things Just Disappear
* ,75/08/13 ,   8 ,Sleeping in a Tent
* ,75/08/14 ,   9 ,Driving the Car in a Nightgown
* ,75/08/15 ,  10 ,Invited for a Swim - Nude
* ,75/08/18 ,  11 ,Frustrations with Computers
* ,75/08/19 ,  12 ,Borrowing Things vs Friendship
* ,75/08/20 ,  13 ,Feeling a Need for a Fire Drill
* ,75/08/21 ,  14 ,Mike Fright During an Interview
* ,75/08/22 ,  15 ,Not Listening to Each Other
* ,75/08/25 ,  16 ,The Complicated Simple Cold
* ,75/08/26 ,  17 ,Fed up with Women's Lib
* ,75/08/27 ,  18 ,Spending the Night in a Motel
* ,75/08/28 ,  19 ,Crisis with a Dead Pet
* ,75/08/29 ,  20 ,Modern Life and the Repairman
* ,75/09/01 ,  21 ,The Neighbors Marital Quarrel
* ,75/09/02 ,  22 ,Clean the Room or No Party
* ,75/09/03 ,  23 ,Uninvited Guests
* ,75/09/04 ,  24 ,Trying to Say Goodbye
* ,75/09/05 ,  25 ,Discovering Left Behind Clothing
* ,75/09/08 ,  26 ,Teaching the Wife a Lesson
* ,75/09/09 ,  27 ,More Forgotten Guest Items
* ,75/09/10 ,  28 ,The Life of the Home
* ,75/09/11 ,  29 ,Grandmother at 85
* ,75/09/12 ,  30 ,To Be or Not - Superstitious
* ,75/09/15 ,  31 ,Tag Sale Problems
* ,75/09/16 ,  32 ,Cherished Momentoes in Attic
* ,75/09/17 ,  33 ,Fined for Littering and Jaywalking
* ,75/09/18 ,  34 ,An Old Vase and the Tag Sale
* ,75/09/19 ,  35 ,The 50C Pearl Neacklace
* ,75/09/22 ,  36 ,Shoes in the Washing Machine
* ,75/09/23 ,  37 ,Mother Baxter's Birthday
* ,75/09/24 ,  38 ,Alex Tangles with a Skunk
* ,75/09/25 ,  39 ,Tom, the Wayward Son, Returns
* ,75/09/26 ,  40 ,The Check Stub Problem
* ,75/09/29 ,  41 ,Mr B and Secretarial Problems
* ,75/09/30 ,  42 ,Scheduling Car Checkups
* ,75/10/01 ,  43 ,Business Convention Diet
* ,75/10/02 ,  44 ,The Noise and the Prowler
* ,75/10/03 ,  45 ,Mrs B and TV Sports
* ,75/10/06 ,  46 ,Mr B Loses His Barber
* ,75/10/07 ,  47 ,Friends Plan Your Trip
* ,75/10/08 ,  48 ,Carelessness with Cars
* ,75/10/09 ,  49 ,Reducing Christmas Card List
* ,75/10/10 ,  50 ,Selecting Christmas Cards
* ,75/10/13 ,  51 ,The Girl from the Office
* ,75/10/14 ,  52 ,Aunt Maggie Is Coming
* ,75/10/15 ,  53 ,Aunt Maggie's in Chicago
* ,75/10/16 ,  54 ,The Arrival of Aunt Maggie
* ,75/10/17 ,  55 ,Home Made Christmas Cards
* ,75/10/20 ,  56 ,Mrs B, the Matchmaker
* ,75/10/21 ,  57 ,Styling Aunt Maggie's Hair
* ,75/10/22 ,  58 ,Maynard Blake for Dinner
* ,75/10/23 ,  59 ,Waiting up for Aunt Maggie
* ,75/10/24 ,  60 ,Informal Family Snapshots
* ,75/10/27 ,  61 ,How to Win Boyfriends
* ,75/10/28 ,  62 ,Neither Borrower nor Lender Be
* ,75/10/29 ,  63 ,Trouble Opening a Jar of Olives
* ,75/10/30 ,  64 ,The Neighbors Home Movies
* ,75/10/31 ,  65 ,Halloween Night
* ,75/11/03 ,  66 ,Rearranging the Furniture
* ,75/11/04 ,  67 ,The High Cost of Living
* ,75/11/05 ,  68 ,Mr B the Delivery Boy
* ,75/11/06 ,  69 ,Cutting Household Expenses
* ,75/11/07 ,  70 ,Mr B's Secretary to Dinner
* ,75/11/10 ,  71 ,The Missing Newspaper Section
* ,75/11/11 ,  72 ,Night Prowlers
* ,75/11/12 ,  73 ,The Baxter's Are Locked Out
* ,75/11/13 ,  74 ,Time Spent on the Telephone
* ,75/11/14 ,  75 ,Guest Doesn't Speak English
* ,75/11/17 ,  76 ,Endless Reminisces
* ,75/11/18 ,  77 ,The Route to Arizona
* ,75/11/19 ,  78 ,Planning a Dinner Party
* ,75/11/20 ,  79 ,The Sky Diving Challenge
* ,75/11/21 ,  80 ,Dinner and the Old Girlfriend
* ,75/11/24 ,  81 ,Surprise Birthday for the Wife
* ,75/11/25 ,  82 ,Surprise Birthday for the Wife
* ,75/11/26 ,  83 ,The Free Turkey
* ,75/11/27 ,  84 ,The Real First Thanksgiving
* ,75/11/28 ,  85 ,The Two Hundred Dollar Debt
* ,75/12/01 ,  86 ,Helping Debbie with Algebra
* ,75/12/02 ,  87 ,Mr B's Washington Trip
* ,75/12/03 ,  88 ,Mr B Returns from His Trip
* ,75/12/04 ,  89 ,Being Old Fashioned
* ,75/12/05 ,  90 ,Mr B Forgets the Dinner Party
* ,75/12/08 ,  91 ,The Lost Car Keys
* ,75/12/09 ,  92 ,The Mysterious Christmas Gift
* ,75/12/10 ,  93 ,Teaching Aunt Maggie Bridge
* ,75/12/11 ,  94 ,Hints About the Christmas Gift
* ,75/12/12 ,  95 ,Debbie's 34 Year Old Boyfriend
* ,75/12/15 ,  96 ,The Habits of Husbands
* ,75/12/16 ,  97 ,The Perfect Christmas Tree
* ,75/12/17 ,  98 ,Putting up the Christmas Tree
* ,75/12/18 ,  99 ,Where Are the Decorations
* ,75/12/19 , 100 ,Who's Missing a Hairpiece
* ,75/12/22 , 101 ,Baxters Accused of Shoplifting
* ,75/12/23 , 102 ,No Christmas Gift for Elaine
* ,75/12/24 , 103 ,Never Mailed Christmas Cards
* ,75/12/25 , 104 ,Christmas Day at the Baxters
* ,75/12/26 , 105 ,Evie Wants a Different Gift
* ,75/12/29 , 106 ,Aunt Maggie's New Year's Trip
* ,75/12/30 , 107 ,Aunt Maggie's Evening Dress
* ,75/12/31 , 108 ,New Years Eve And All Alone
* ,76/01/01 , 109 ,The New Year's Resolution
* ,76/01/02 , 110 ,Three Am Visitors
* ,76/01/05 , 111 ,Terrible Smell in the House
* ,76/01/06 , 112 ,Mr B Doesn't Need Glasses
* ,76/01/07 , 113 ,Aunt Maggie Cuts Pictures
* ,76/01/08 , 114 ,Wearing a Wedding Ring
* ,76/01/09 , 115 ,Mrs B Upset About Ring
* ,76/01/12 , 116 ,Mrs B's Ski Trip
* ,76/01/13 , 117 ,Talking Mr B out of Ski Trip
* ,76/01/14 , 118 ,Mrs B Charts a Plane
* ,76/01/15 , 119 ,Daytime Quiz Shows
* ,76/01/16 , 120 ,Persuading Aunt Maggie to Stay
* ,76/01/19 , 121 ,Fixing up Garage Apartment
* ,76/01/20 , 122 ,Taking Family out to Dinner
* ,76/01/21 , 123 ,Smoking in Restaurants
* ,76/01/22 , 124 ,Problems Giving up Smoking
* ,76/01/23 , 125 ,How Many Items in Handbag
* ,76/01/26 , 126 ,Family Pictures in a Wallet
* ,76/01/27 , 127 ,Mr Baxter's Snoring
* ,76/01/28 , 128 ,What's Miss Perkins First Name
* ,76/01/29 , 129 ,The Unchaperoned Weekend
* ,76/01/30 , 130 ,The Bon Voyage Party
* ,76/02/02 , 131 ,Worrying About Debbie
* ,76/02/03 , 132 ,The Furnace Service Contract
* ,76/02/04 , 133 ,The Dangers of Flying
* ,76/02/05 , 134 ,Arriving with Wrong Coat
* ,76/02/06 , 135 ,What to Have for Dinner
* ,76/02/09 , 136 ,Checking on Aunt Maggie
* ,76/02/10 , 137 ,Saving Time
* ,76/02/11 , 138 ,Rushing Alex to the Vet
* ,76/02/12 , 139 ,The Seasick Cruise
* ,76/02/13 , 140 ,How to Bring up Children
* ,76/02/16 , 141 ,Mrs Baxter Sued for Slander
* ,76/02/17 , 142 ,Mr B's Parents Very Upset
* ,76/02/18 , 143 ,Getting Daughter to Help More
* ,76/02/19 , 144 ,Sending Tape to Aunt Maggie
* ,76/02/23 , 146 ,Tom's New Bride
* ,76/02/24 , 147 ,Tom's Marriage Problems
* ,76/02/25 , 148 ,Discussing a Trip to Europe
* ,76/02/26 , 149 ,Calling Aunt Maggie In the Hospital
* ,76/02/27 , 150 ,Where's Bob's Christmas Tie?
