Exists, Date, #, Episode Name
* ,47/xx/xx ,  14 ,May Belle Callaway in
* ,47/xx/xx ,  15 ,The First Tune Is, 'When It's Darkness on the Delta'
* ,47/xx/xx ,  18 ,The First Tune Is, 'When You're Smiling'
* ,47/xx/xx ,  19 ,The First Tune Is, 'Sometimes I'm Happy'
* ,47/xx/xx ,  20 ,The First Tune Is, 'It's Just the Gypsy in My Soul'
* ,47/xx/xx ,  21 ,The First Tune Is, 'It's Almost Like Being in Love'
* ,47/xx/xx ,  24 ,The First Tune Is, 'When It's Sleepy Time Down South'
* ,47/xx/xx ,  25 ,The First Tune Is, 'What Is This Thing Called Love'
* ,47/xx/xx ,     ,Christmas Show #1
* ,47/xx/xx ,     ,Christmas Show #2
