Exists, Date, #, Episode Name
* ,70/xx/xx ,   0 ,Introduction to the O T R R
* ,70/xx/xx ,   1 ,Avengers
* ,71/xx/xx , 101 ,The Cybernauts
* ,71/xx/xx , 102 ,The Cybernauts (2)
* ,71/xx/xx , 103 ,The Cybernauts (3)
* ,71/xx/xx , 104 ,The Cybernauts (4)
* ,71/xx/xx , 105 ,The Cybernauts (5)
* ,71/xx/xx , 106 ,The Cybernauts (6)
* ,72/xx/xx ,   6 ,Avengers (xxx) E1 Quick Quick Slow Death
* ,72/xx/xx , 201 ,The Super Secret Cypher Snatch
* ,72/xx/xx , 202 ,The Super Secret Cypher Snatch (2)
* ,72/xx/xx , 203 ,The Super Secret Cypher Snatch (3)
* ,72/xx/xx , 204 ,The Super Secret Cypher Snatch (4)
* ,72/xx/xx , 205 ,The Super Secret Cypher Snatch (5)
* ,72/xx/xx , 206 ,The Super Secret Cypher Snatch (6)
* ,72/xx/xx , 301 ,From Venus with Love
* ,72/xx/xx , 302 ,From Venus with Love (2)
* ,72/xx/xx , 303 ,From Venus with Love (3)
* ,72/xx/xx , 304 ,From Venus with Love (4)
* ,72/xx/xx , 305 ,From Venus with Love (5)
* ,72/xx/xx , 306 ,From Venus with Love (6)
* ,72/xx/xx , 401 ,Dial a Deadly Number
* ,72/xx/xx , 402 ,Dial a Deadly Number (2)
* ,72/xx/xx , 403 ,Dial a Deadly Number (3)
* ,72/xx/xx , 404 ,Dial a Deadly Number (4)
* ,72/xx/xx , 405 ,Dial a Deadly Number (5)
* ,72/xx/xx , 406 ,Avengers (xxx) Avng 1972 Dial a Deadly Number (6)
* ,72/xx/xx , 501 ,Stop Me If You've Heard This One
* ,72/xx/xx , 502 ,Stop Me If You've Heard This One (2)
* ,72/xx/xx , 503 ,Stop Me If You've Heard This One (3)
* ,72/xx/xx , 504 ,Stop Me If You've Heard This One (4)
* ,72/xx/xx , 505 ,Stop Me If You've Heard This One (5)
* ,72/xx/xx , 506 ,Stop Me If You've Heard This One (6)
* ,72/xx/xx , 601 ,Quick Quick Slow Death
* ,72/xx/xx , 602 ,Quick Quick Slow Death (2)
* ,72/xx/xx , 603 ,Quick Quick Slow Death (3)
* ,72/xx/xx , 604 ,Quick Quick Slow Death (4)
* ,72/xx/xx , 605 ,Quick Quick Slow Death (5)
* ,72/xx/xx , 606 ,Quick Quick Slow Death (6)
* ,72/xx/xx , 701 ,The Fantasy Game
* ,72/xx/xx , 702 ,The Fantasy Game (2)
* ,72/xx/xx , 703 ,The Fantasy Game (3)
* ,72/xx/xx , 704 ,The Fantasy Game (4)
* ,72/xx/xx , 705 ,The Fantasy Game (5)
* ,72/xx/xx , 706 ,The Fantasy Game (6)
* ,72/xx/xx , 707 ,The Fantasy Game (7)
* ,72/xx/xx , 801 ,The Joker
* ,72/xx/xx , 802 ,The Joker (2)
* ,72/xx/xx , 803 ,The Joker (3)
* ,72/xx/xx , 804 ,The Joker (4)
* ,72/xx/xx , 805 ,The Joker (5)
* ,72/xx/xx , 806 ,The Joker (6)
* ,72/xx/xx , 901 ,The Morning After
* ,72/xx/xx , 902 ,The Morning After (2)
* ,72/xx/xx , 903 ,The Morning After (3)
* ,72/xx/xx , 904 ,The Morning After (4)
* ,72/xx/xx , 905 ,The Morning After (5)
* ,72/xx/xx , 906 ,The Morning After (6)
* ,72/xx/xx ,1001 ,Too Many Ole's
* ,72/xx/xx ,1002 ,oo Many Ole's (2)
* ,72/xx/xx ,1003 ,Too Many Ole's (3)
* ,72/xx/xx ,1004 ,Too Many Ole's (4)
* ,72/xx/xx ,1005 ,Too Many Ole's (5)
* ,72/xx/xx ,1006 ,Too Many Ole's (6)
* ,72/xx/xx ,1101 ,Love All
* ,72/xx/xx ,1102 ,Love All (2)
* ,72/xx/xx ,1103 ,Love All (3)
* ,72/xx/xx ,1104 ,Love All (4)
* ,72/xx/xx ,1105 ,Love All (5)
* ,72/xx/xx ,1106 ,Love All (6)
* ,72/xx/xx ,1201 ,Clean Getaway
* ,72/xx/xx ,1202 ,Clean Getaway (2)
* ,72/xx/xx ,1203 ,Clean Getaway (3)
* ,72/xx/xx ,1204 ,Clean Getaway (4)
* ,72/xx/xx ,1205 ,Clean Getaway (5)
* ,72/xx/xx ,1206 ,Clean Getaway (6)
* ,72/xx/xx ,1301 ,Train of Events
* ,72/xx/xx ,1302 ,Train of Events (2)
* ,72/xx/xx ,1303 ,Train of Events (3)
* ,72/xx/xx ,1304 ,Train of Events (4)
* ,72/xx/xx ,1305 ,Train of Events (5)
* ,72/xx/xx ,1306 ,Train of Events (6)
