Exists, Date, #, Episode Name
  ,45/10/07 ,   1 ,Premiere Show
  ,45/10/14 ,   2 ,11 Bacio
  ,45/10/21 ,   4 ,Serenade
  ,45/11/04 ,   5 ,Oklahoma
  ,45/11/11 ,   6 ,Goin' Home
  ,45/11/18 ,   7 ,Tenting Tonight
  ,45/11/25 ,   8 ,Trees
  ,45/12/02 ,   9 ,Blue Tail Fly
  ,45/12/09 ,  10 ,Song of the Open Road
  ,45/12/16 ,  11 ,Silent Night
  ,45/12/23 ,  12 ,Joy to the World
  ,45/12/30 ,  13 ,Santa Lucia
  ,46/01/06 ,  14 ,Missouri Waltz
  ,46/01/13 ,  15 ,Salute to the Rivers of the World
  ,46/01/20 ,  16 ,Barbary Coast
  ,46/01/27 ,  17 ,Songs of Jerome Kern
  ,46/02/03 ,  18 ,Captain Miles Standish
  ,46/02/10 ,  19 ,Abe Lincoln in Illinois
  ,46/02/17 ,  20 ,
  ,46/02/24 ,  21 ,
  ,46/03/03 ,  22 ,The Defense of the Alamo
  ,46/03/10 ,  23 ,Annie Laurie
  ,46/03/17 ,  24 ,Eight Balls
  ,46/03/24 ,  25 ,
  ,46/03/31 ,  26 ,
  ,46/04/07 ,  27 ,
  ,46/04/14 ,  28 ,The Life of George Gershwin
  ,46/04/21 ,  29 ,Were You There
  ,46/04/28 ,  31 ,Pale Moon
  ,46/05/05 ,  32 ,Mexican Music
  ,46/05/12 ,  33 ,Song of Norway
  ,46/05/19 ,  34 ,Plenty of Nuttin'
  ,46/05/26 ,  35 ,A Kiss in the Dark
  ,46/06/02 ,  36 ,Vesti La Giuba
  ,46/06/09 ,  37 ,Home Sweet Home
  ,46/06/16 ,  38 ,A Mighty Fortress
  ,46/06/23 ,  39 ,Poor Butterfly
  ,46/06/30 ,  40 ,You and I
  ,46/07/07 ,  41 ,Donne E Mobile
  ,46/07/14 ,  42 ,Dark Eyes
  ,46/07/21 ,  43 ,Vagabond King
  ,46/07/28 ,  44 ,Chocolate Soldier
  ,46/08/04 ,  45 ,Sunny
  ,46/08/11 ,  46 ,A Perfect Day
  ,46/08/18 ,  47 ,On Moonlight Bay
  ,46/08/25 ,  48 ,Wanting You
  ,46/09/01 ,  49 ,Lover
  ,46/09/08 ,  50 ,Without a Song
  ,47/01/05 ,   1 ,Lone Prairie
  ,47/01/12 ,   2 ,Strange Music
  ,47/01/19 ,   3 ,Merry Widow
  ,47/01/26 ,   4 ,One Alone
  ,47/02/02 ,   5 ,Without a Song
  ,47/02/09 ,   6 ,Great Day
  ,47/02/16 ,   7 ,I Love You
  ,47/02/23 ,   8 ,My Heart Stood Still
  ,47/03/02 ,   9 ,Song of India
  ,47/03/09 ,  10 ,With a Song in My Heart
  ,47/03/16 ,  11 ,When You're Away
  ,47/03/23 ,  12 ,Beautiful Ohio
  ,47/03/30 ,  13 ,Amapola
  ,47/04/06 ,  14 ,The Lord's Prayer
  ,47/04/13 ,  15 ,Song of Songs
  ,47/04/20 ,  16 ,Gypsy Love Song
  ,47/04/27 ,  17 ,Someday
  ,47/05/04 ,  18 ,Midnight in Paris
  ,47/05/11 ,  19 ,Amor, Amor
  ,47/05/18 ,  20 ,I Love Thee
  ,47/05/25 ,  21 ,You Are Love
  ,47/06/01 ,  22 ,Rose of Tralee
  ,47/06/08 ,  23 ,Sorrento
  ,47/06/15 ,  24 ,Love Star
  ,47/06/22 ,  25 ,Only a Rose
  ,47/06/29 ,  26 ,Oh Promise Me
  ,47/07/06 ,  27 ,Siboney
  ,47/07/13 ,  28 ,A Kiss in the Dark
  ,47/07/20 ,  29 ,Al of Me
  ,47/07/27 ,  30 ,Will You Remember
  ,47/08/03 ,  31 ,Summertime
* ,47/08/10 ,  32 ,The Song Is You
  ,47/08/17 ,  33 ,Alice Blue Gown
  ,47/08/24 ,  34 ,You Are Free
  ,47/08/31 ,  35 ,Wanting You
  ,47/09/07 ,  36 ,Deep River
  ,47/09/14 ,  37 ,Strange Music
  ,47/09/21 ,  38 ,Lover
  ,47/09/28 ,  39 ,Donkey Serenade
  ,47/10/05 ,  40 ,
  ,47/10/12 ,  41 ,My Hero
  ,47/10/19 ,  42 ,Thru the Years
  ,47/10/26 ,  43 ,Chloe
  ,47/11/02 ,  44 ,Winsocki
  ,47/11/09 ,  45 ,The Last Round-Up
  ,47/11/16 ,  46 ,The Whiffenpoof Song
  ,47/11/23 ,  47 ,A Grand Night for Singing
  ,47/11/30 ,  48 ,Harvest Moon
  ,47/12/07 ,  49 ,I Love You
  ,47/12/14 ,  50 ,Shadrack
  ,47/12/21 ,  51 ,Christmas Songs
  ,47/12/28 ,  52 ,Villia
* ,48/01/25 ,     ,First Song - Rio Rita
* ,48/02/15 ,     ,First Song - Great Day
  ,48/04/07 ,   1 ,O Lovely Night
  ,48/04/14 ,   2 ,Through the Years
  ,48/04/21 ,   3 ,Tico Tico
  ,48/04/28 ,   4 ,I Love You
* ,48/04/30 ,     ,Guests - The Original Revelers
  ,48/05/05 ,   5 ,Adios
  ,48/05/12 ,   6 ,
  ,48/05/19 ,   7 ,Jericho
  ,48/05/26 ,   8 ,Song of Songs
  ,48/06/02 ,   9 ,Mimi
  ,48/06/09 ,  10 ,Adios
  ,48/06/16 ,  11 ,Shadrack
  ,48/06/23 ,  12 ,Haunted Heart
  ,48/06/30 ,  13 ,Gianina Mia
  ,48/07/07 ,  14 ,Rise and Shine
  ,48/07/21 ,  15 ,Without a Song
  ,48/07/28 ,  16 ,Bim Bam Bim
  ,48/08/04 ,  17 ,The World Is Mine Tonight
  ,48/08/11 ,  18 ,Three Blind Mice
  ,48/08/18 ,  19 ,Midnight Bells
  ,48/08/25 ,  20 ,Song of Love
  ,48/09/01 ,  21 ,Ay Ay Ay
  ,48/09/08 ,  22 ,Who
  ,48/09/15 ,  23 ,Blue Horizon
  ,48/09/22 ,  24 ,Why
  ,48/09/29 ,  25 ,Because
  ,48/10/06 ,  26 ,Danube Serenade
  ,48/10/13 ,  27 ,Pinafore
  ,48/10/20 ,  28 ,Love Star
* ,48/11/03 ,  29 ,Night and Day
  ,48/11/10 ,  30 ,I Love You
  ,48/11/17 ,  31 ,Buttons and Bows
  ,48/11/24 ,  32 ,I Love Thee
  ,48/12/01 ,  33 ,Ziguener
  ,48/12/08 ,  34 ,
  ,48/12/15 ,  35 ,
  ,48/12/22 ,  36 ,Dear Santa Claus
  ,48/12/29 ,  37 ,Oh, Lovely Night
* ,48/xx/xx ,     ,Moby Dick
  ,49/01/05 ,  38 ,Tonight We Love
  ,49/01/12 ,  39 ,Shadrack
  ,49/01/19 ,  40 ,A Dream
  ,49/01/26 ,  41 ,Strange Music
  ,49/02/02 ,  42 ,Mimi
  ,49/02/09 ,  43 ,Yours Is My Heart Alone
  ,49/02/16 ,  44 ,So in Love
  ,49/02/23 ,  45 ,Libiamo
  ,49/03/02 ,  46 ,Cav Rusticana
  ,49/03/09 ,  47 ,Chloe
  ,49/03/16 ,  48 ,My Wild Irish Rose
  ,49/03/23 ,  49 ,Only a Rose
  ,49/04/03 ,   1 ,Rio Rita
  ,49/04/10 ,   2 ,When I Was a Lad
  ,49/04/17 ,   3 ,Tzigane
  ,49/04/24 ,   4 ,I'll Take Romance
  ,49/05/01 ,   5 ,Wonderbar
  ,49/05/08 ,   6 ,Full Moon and Empty Arms
  ,49/05/15 ,   7 ,Give Me One Hour
  ,49/05/22 ,   8 ,Rose of the World
  ,49/05/29 ,   9 ,Until
  ,49/06/05 ,  10 ,Riders in the Sky
  ,49/06/12 ,  11 ,Sing to Me, Guitar
  ,49/06/19 ,  12 ,Country Style
  ,49/06/26 ,  13 ,Down in the Old Bayou
  ,49/09/25 ,  14 ,Brazil
  ,49/10/02 ,  15 ,Top of the Morning
  ,49/10/09 ,  16 ,Ol' Man River
  ,49/10/16 ,  17 ,Mattinate
  ,49/10/23 ,  18 ,Le Reve
  ,49/10/30 ,  19 ,Libiamo
  ,49/11/06 ,  20 ,Jerome Kern Tribute
  ,49/11/13 ,  21 ,Ll Bascco
  ,49/11/20 ,  22 ,You Are Free
  ,49/11/27 ,  23 ,D' Ya Love Me
  ,49/12/04 ,  24 ,Temptation
  ,49/12/11 ,  25 ,Sorrento
  ,49/12/18 ,  26 ,Row Row Row
  ,49/12/25 ,  27 ,Bless This House
  ,50/01/01 ,  28 ,So in Love
  ,50/01/08 ,  29 ,
  ,50/01/15 ,  30 ,
  ,50/01/22 ,  31 ,Wanting You
  ,50/01/29 ,  32 ,
  ,50/02/05 ,  33 ,
  ,50/02/12 ,  34 ,Piano Recital
  ,50/02/19 ,  35 ,Because
  ,50/02/26 ,  36 ,Madame Butterfly
  ,50/03/05 ,  37 ,
  ,50/03/12 ,  38 ,
  ,50/03/19 ,  39 ,
  ,50/03/26 ,  40 ,
  ,50/04/02 ,  41 ,
  ,50/04/09 ,  42 ,
  ,50/04/16 ,  43 ,Piano Recital
  ,50/04/23 ,  44 ,
  ,50/04/30 ,  45 ,Piano Recital
  ,50/05/07 ,  46 ,
  ,50/05/14 ,  47 ,
  ,50/05/21 ,  48 ,
  ,50/05/28 ,  49 ,
  ,50/06/04 ,  50 ,
  ,50/06/11 ,  51 ,
  ,50/06/18 ,  52 ,Summertime
  ,50/06/25 ,  53 ,
  ,50/07/02 ,  54 ,
  ,50/07/09 ,  55 ,Bess, You Is My Woman Now
* ,50/07/16 ,  56 ,
  ,50/07/23 ,  57 ,Ave Maria
  ,50/07/30 ,  58 ,Falling in Love
  ,50/08/06 ,  59 ,
  ,50/08/13 ,  60 ,
  ,50/08/20 ,  61 ,
  ,50/08/27 ,  62 ,
  ,50/09/03 ,  63 ,Depuis Le Jour
  ,50/09/10 ,  64 ,Giannini Mia
  ,50/09/17 ,  65 ,Final Show
