Exists, Date, #, Episode Name
* ,38/06/05 ,     ,The Broadcast Originates from Detroit
* ,38/xx/xx ,     ,Ballad for Americans
* ,39/12/24 ,     ,Christmas Carols, 'Golliwog's Cake Walk,' 'Witch Ride'
* ,40/03/31 , 223 ,The First Selection Is, 'Military March' ( Saint-Saens)
* ,40/11/24 ,     ,The First Selection Is, 'The Carnival Overture' ( Dvorak)
* ,41/10/19 ,     ,The Emperor Concerto
* ,41/10/26 ,     ,Helen Traubel Sings, 'Hail, Hall of Song' from Tannhauser
* ,41/11/16 ,     ,Lawrence Tibbett Sings, 'Old Black Joe'
* ,41/11/23 ,     ,The First Selection Is Bach's Toccata and Fugue in D Minor
* ,41/12/07 ,     ,The Recording Starts with the National Anthem
* ,46/06/09 , 425 ,The First Selection Is the Overture To 'The Secret of Suzanne'
* ,xx/xx/xx , 220 ,Heard Are Portions of 'The Marriage of Figaro ( Mozart), 'Contra
