Exists, Date, #, Episode Name
* ,xx/xx/xx ,   1 ,First Song - A Russian Song
* ,xx/xx/xx ,   2 ,First Song - La Cucuracha
* ,xx/xx/xx ,   3 ,First Song - My Country Tis of Thee
* ,xx/xx/xx ,   4 ,First Song - My Litle Mohee
* ,xx/xx/xx ,   5 ,First Song - None but the Lonely Heart
* ,xx/xx/xx ,   6 ,First Song - Oh Jerusalem
* ,xx/xx/xx ,   7 ,First Song - The Chinese Worker Song
* ,xx/xx/xx ,   8 ,First Song - The Wassail Song
* ,xx/xx/xx ,   9 ,First Song - Music Of Argentina
