Exists, Date, #, Episode Name
  ,27/02/18 ,     ,First Broadcast
  ,38/02/05 ,     ,
  ,40/08/02 ,     ,
  ,40/08/09 ,     ,
* ,41/10/17 ,     ,First Selection - Loch Lomond
* ,41/10/31 ,     ,First Selection - Spanish Serenade
* ,41/11/07 ,     ,First Selection - Did You Ever Get Stung
* ,42/01/02 ,     ,First Selection - There's a Great Day Coming, Manana
* ,42/01/16 ,     ,First Selection - By Myself
* ,42/01/23 ,     ,First Selection - Danse Espagnole
* ,42/03/06 ,     ,First Selection - Give a Little Whistle
* ,42/04/03 ,     ,First Selection - Easter Parade
* ,42/04/10 ,     ,First Selection - Les Filles De Cadiz
* ,42/05/15 ,     ,
* ,42/09/04 ,     ,First Selection - The Girl On The Prow
* ,42/09/11 ,     ,First Selection - Sing, My Heart
* ,42/10/23 ,     ,First Selection - Gypsy Sweetheart
* ,42/11/06 ,     ,First Selection - Waitin' for the Robert E Lee
* ,43/10/29 ,     ,First Selection - Nut Brown Ale
* ,44/04/14 ,     ,First Selection - There Came the Day
  ,44/10/27 ,     ,
* ,45/08/10 ,     ,
* ,47/03/18 ,     ,
  ,48/05/28 ,     ,
  ,48/06/04 ,     ,
* ,48/10/15 ,     ,
* ,48/12/31 ,     ,
* ,49/01/21 ,     ,
  ,49/09/19 ,     ,
  ,49/09/26 ,     ,
* ,50/08/07 ,     ,
* ,50/08/14 ,     ,
* ,51/12/24 ,     ,
* ,52/02/18 ,     ,
* ,52/03/24 ,     ,
* ,52/05/12 ,     ,
* ,53/04/06 ,     ,
* ,53/04/13 ,     ,
* ,53/04/20 ,     ,
* ,53/05/04 ,     ,
* ,53/06/01 ,     ,
* ,53/06/08 ,     ,
* ,53/06/15 ,     ,
* ,53/06/22 ,     ,
* ,53/07/13 ,     ,
* ,53/07/20 ,     ,
* ,53/07/27 ,     ,
* ,53/08/03 ,     ,
* ,53/08/10 ,     ,
* ,53/09/21 ,     ,
* ,53/09/28 ,     ,
* ,53/10/19 ,     ,
* ,53/11/02 ,     ,
* ,53/11/09 ,     ,
* ,53/11/16 ,     ,
* ,53/11/23 ,     ,
* ,53/11/30 ,     ,
* ,53/12/07 ,     ,
* ,54/01/11 ,     ,
* ,54/02/15 ,     ,
* ,54/02/22 ,     ,
* ,54/03/01 ,     ,
* ,54/03/22 ,     ,
* ,54/04/19 ,     ,
* ,54/04/26 ,     ,
* ,54/05/03 ,     ,
* ,54/05/24 ,     ,
* ,54/07/12 ,     ,
* ,54/08/16 ,     ,
* ,54/08/23 ,     ,
* ,54/08/30 ,     ,
* ,54/09/06 ,     ,
* ,54/09/13 ,     ,
* ,54/09/20 ,     ,
* ,54/10/04 ,     ,
* ,54/10/25 ,     ,
* ,54/11/01 ,     ,
* ,54/11/15 ,     ,
* ,54/11/23 ,     ,
* ,54/11/30 ,     ,
* ,54/12/06 ,     ,
* ,54/12/13 ,     ,
* ,54/12/20 ,     ,
* ,54/12/27 ,     ,
* ,55/01/03 ,     ,
* ,55/01/10 ,     ,
* ,55/01/17 ,     ,
* ,55/01/24 ,     ,
* ,55/01/31 ,     ,
* ,55/04/18 ,     ,
* ,55/04/25 ,     ,
* ,55/05/02 ,     ,
* ,55/05/09 ,     ,
* ,55/05/30 ,     ,
* ,55/06/06 ,     ,
* ,55/06/20 ,     ,
* ,55/07/06 ,     ,
* ,55/07/18 ,     ,
* ,55/07/25 ,     ,
* ,55/08/01 ,     ,
* ,55/08/08 ,     ,
* ,55/08/22 ,     ,
* ,55/08/29 ,     ,
* ,55/09/05 ,     ,
* ,55/09/12 ,     ,
* ,55/09/19 ,     ,
* ,55/09/26 ,     ,
* ,55/10/17 ,     ,
* ,55/10/24 ,     ,
* ,55/12/05 ,     ,
* ,56/01/16 ,     ,Last Broadcast
