Exists, Date, #, Episode Name
  ,xx/xx/xx ,   1 ,Spitfire Parade - pt 1
  ,xx/xx/xx ,   2 ,Spitfire Parade - pt 2
  ,xx/xx/xx ,   3 ,Spitfire Parade - pt 3
  ,xx/xx/xx ,   4 ,Spitfire Parade - pt 4
  ,xx/xx/xx ,   5 ,Spitfire Parade - pt 5
  ,xx/xx/xx ,   6 ,Spitfire Parade - pt 6
  ,xx/xx/xx ,   7 ,Spitfire Parade - pt 7
  ,xx/xx/xx ,   8 ,Spitfire Parade - pt 8
  ,xx/xx/xx ,   9 ,Spitfire Parade - pt 9
  ,xx/xx/xx ,  10 ,Spitfire Parade - pt 10
  ,xx/xx/xx ,  11 ,Spitfire Parade - pt 11
  ,xx/xx/xx ,  12 ,Spitfire Parade - pt 12
  ,xx/xx/xx ,  13 ,Spitfire Parade - pt 13
  ,xx/xx/xx ,  14 ,Spitfire Parade - pt 14
  ,xx/xx/xx ,  15 ,Biggles Sweeps The Desert - pt 1
  ,xx/xx/xx ,  16 ,Biggles Sweeps The Desert - pt 2
  ,xx/xx/xx ,  17 ,Biggles Sweeps The Desert - pt 3
  ,xx/xx/xx ,  18 ,Biggles Sweeps The Desert - pt 4
  ,xx/xx/xx ,  19 ,Biggles Sweeps The Desert - pt 5
  ,xx/xx/xx ,  20 ,Biggles Sweeps The Desert - pt 6
  ,xx/xx/xx ,  21 ,Biggles Sweeps The Desert - pt 7
  ,xx/xx/xx ,  22 ,Biggles Sweeps The Desert - pt 8
  ,xx/xx/xx ,  23 ,Biggles Sweeps The Desert - pt 9
  ,xx/xx/xx ,  24 ,Biggles Sweeps The Desert - pt 10
  ,xx/xx/xx ,  25 ,Biggles Sweeps The Desert - pt 11
  ,xx/xx/xx ,  26 ,Biggles Sweeps The Desert - pt 12
  ,xx/xx/xx ,  27 ,Biggles Sweeps The Desert - pt 13
  ,xx/xx/xx ,  28 ,Biggles Sweeps The Desert - pt 14
  ,xx/xx/xx ,  29 ,Biggles Sweeps The Desert - pt 15
  ,xx/xx/xx ,  30 ,Biggles Sweeps The Desert - pt 16
  ,xx/xx/xx ,  31 ,Biggles Sweeps The Desert - pt 17
  ,xx/xx/xx ,  32 ,Biggles Sweeps The Desert - pt 18
  ,xx/xx/xx ,  33 ,Biggles Sweeps The Desert - pt 19
  ,xx/xx/xx ,  34 ,Biggles Sweeps The Desert - pt 20
* ,xx/xx/xx , 209 ,Pearls Of Vanakai - pt 1
* ,xx/xx/xx , 210 ,Pearls Of Vanakai - pt 2
* ,xx/xx/xx , 211 ,Pearls Of Vanakai - pt 3
* ,xx/xx/xx , 212 ,Pearls Of Vanakai - pt 4
* ,xx/xx/xx , 213 ,Pearls Of Vanakai - pt 5
* ,xx/xx/xx , 214 ,Pearls Of Vanakai - pt 6
* ,xx/xx/xx , 215 ,Pearls Of Vanakai - pt 7
* ,xx/xx/xx , 216 ,Pearls Of Vanakai - pt 8
* ,xx/xx/xx , 217 ,Pearls Of Vanakai - pt 9
* ,xx/xx/xx , 218 ,Pearls Of Vanakai - pt 10
* ,xx/xx/xx , 219 ,Pearls Of Vanakai - pt 11
* ,xx/xx/xx , 220 ,Pearls Of Vanakai - pt 12
* ,xx/xx/xx , 221 ,Pearls Of Vanakai - Pt 13
* ,xx/xx/xx , 222 ,Pearls Of Vanakai - Pt 14
* ,xx/xx/xx , 223 ,Pearls Of Vanakai - Pt 15
* ,xx/xx/xx , 224 ,Pearls Of Vanakai - Pt 16
* ,xx/xx/xx , 225 ,Pearls Of Vanakai - Pt 17
* ,xx/xx/xx , 226 ,Pearls Of Vanakai - Pt 18
* ,xx/xx/xx , 227 ,Pearls Of Vanakai - Pt 19
* ,xx/xx/xx , 228 ,Pearls Of Vanakai - Pt 20
* ,xx/xx/xx , 229 ,Pearls Of Vanakai - Pt 21
* ,xx/xx/xx , 230 ,Pearls Of Vanakai - Pt 22
* ,xx/xx/xx , 231 ,Pearls Of Vanakai - Pt 23
* ,xx/xx/xx , 232 ,Pearls Of Vanakai - Pt 24
* ,xx/xx/xx , 233 ,Pearls Of Vanakai - Pt 25
* ,xx/xx/xx , 234 ,Pearls Of Vanakai - Pt 26
* ,xx/xx/xx , 235 ,Pearls Of Vanakai - Pt 27
* ,xx/xx/xx , 236 ,Pearls Of Vanakai - Pt 28
* ,xx/xx/xx , 237 ,Pearls Of Vanakai - Pt 29
* ,xx/xx/xx , 238 ,Pearls Of Vanakai - Pt 30
* ,xx/xx/xx , 239 ,Biggles Flies South - Pt 1
* ,xx/xx/xx , 240 ,Biggles Flies South - Pt 2
* ,xx/xx/xx , 241 ,Biggles Flies South - Pt 3
* ,xx/xx/xx , 242 ,Biggles Flies South - Pt 4
* ,xx/xx/xx , 243 ,Biggles Flies South - Pt 5
* ,xx/xx/xx , 244 ,Biggles Flies South - Pt 6
* ,xx/xx/xx , 245 ,Biggles Flies South - Pt 7
* ,xx/xx/xx , 246 ,Biggles Flies South - Pt 8
* ,xx/xx/xx , 247 ,Biggles Flies South - Pt 9
* ,xx/xx/xx , 248 ,Biggles Flies South - Pt 10
* ,xx/xx/xx , 249 ,Biggles Flies South - Pt 11
* ,xx/xx/xx , 250 ,Biggles Flies South - Pt 12
* ,xx/xx/xx , 251 ,Biggles Flies South - Pt 13
* ,xx/xx/xx , 252 ,Biggles Flies South - Pt 14
* ,xx/xx/xx , 253 ,Biggles Flies South - Pt 15
* ,xx/xx/xx , 254 ,Biggles Flies South - Pt 16
* ,xx/xx/xx , 255 ,Biggles Flies South - Pt 17
* ,xx/xx/xx , 256 ,Biggles Flies South - Pt 18
* ,xx/xx/xx , 257 ,Biggles Flies South - Pt 19
* ,xx/xx/xx , 258 ,Biggles Flies South - Pt 20
* ,xx/xx/xx , 259 ,Biggles Flies South - Pt 21
* ,xx/xx/xx , 260 ,Biggles Flies South - Pt 22
* ,xx/xx/xx , 261 ,Biggles Flies South - Pt 23
* ,xx/xx/xx , 262 ,Biggles Flies South - Pt 24
* ,xx/xx/xx , 263 ,Biggles Flies South - Pt 25
* ,xx/xx/xx , 264 ,Biggles Flies South - Pt 26
* ,xx/xx/xx , 265 ,Biggles Flies South - Pt 27
* ,xx/xx/xx , 266 ,Secret Agent - Pt 1
* ,xx/xx/xx , 267 ,Secret Agent - Pt 2
* ,xx/xx/xx , 268 ,Secret Agent - Pt 3
* ,xx/xx/xx , 269 ,Secret Agent - Pt 4
* ,xx/xx/xx , 270 ,Secret Agent - Pt 5
* ,xx/xx/xx , 271 ,Secret Agent - Pt 6
* ,xx/xx/xx , 272 ,Secret Agent - Pt 7
* ,xx/xx/xx , 273 ,Secret Agent - Pt 8
* ,xx/xx/xx , 274 ,Secret Agent - Pt 9
* ,xx/xx/xx , 275 ,Secret Agent - Pt 10
* ,xx/xx/xx , 276 ,Secret Agent - Pt 11
* ,xx/xx/xx , 277 ,Secret Agent - Pt 12
* ,xx/xx/xx , 278 ,Secret Agent - Pt 13
* ,xx/xx/xx , 279 ,Secret Agent - Pt 14
* ,xx/xx/xx , 280 ,Secret Agent - Pt 15
* ,xx/xx/xx , 281 ,Secret Agent - Pt 16
* ,xx/xx/xx , 282 ,Secret Agent - Pt 17
* ,xx/xx/xx , 283 ,Secret Agent - Pt 18
* ,xx/xx/xx , 284 ,Secret Agent - Pt 19
* ,xx/xx/xx , 285 ,Secret Agent - Pt 20
* ,xx/xx/xx , 286 ,Secret Agent - Pt 21
* ,xx/xx/xx , 287 ,Biggles Flies North - Pt 1
* ,xx/xx/xx , 288 ,Biggles Flies North - Pt 2
* ,xx/xx/xx , 289 ,Biggles Flies North - Pt 3
* ,xx/xx/xx , 290 ,Biggles Flies North - Pt 4
* ,xx/xx/xx , 291 ,Biggles Flies North - Pt 5
* ,xx/xx/xx , 292 ,Biggles Flies North - Pt 6
* ,xx/xx/xx , 293 ,Biggles Flies North - Pt 7
* ,xx/xx/xx , 294 ,Biggles Flies North - Pt 8
* ,xx/xx/xx , 295 ,Biggles Flies North - Pt 9
* ,xx/xx/xx , 296 ,Biggles Flies North - Pt 10
* ,xx/xx/xx , 297 ,Biggles Flies North - Pt 11
* ,xx/xx/xx , 298 ,Biggles Flies North - Pt 12
* ,xx/xx/xx , 299 ,Biggles Flies North - Pt 13
* ,xx/xx/xx , 300 ,Biggles Flies North - Pt 14
* ,xx/xx/xx , 301 ,Biggles Flies North - Pt 15
* ,xx/xx/xx , 302 ,Biggles Flies North - Pt 16
* ,xx/xx/xx , 303 ,Biggles Flies North - Pt 17
* ,xx/xx/xx , 304 ,Biggles Flies North - Pt 18
* ,xx/xx/xx , 305 ,Biggles Flies North - Pt 19
* ,xx/xx/xx , 306 ,Biggles Flies North - Pt 20
* ,xx/xx/xx , 307 ,Biggles Flies North - Pt 21
* ,xx/xx/xx , 308 ,Biggles Flies North - Pt 22
* ,xx/xx/xx , 309 ,Biggles Flies North - Pt 23
* ,xx/xx/xx , 310 ,Biggles Flies North - Pt 24
* ,xx/xx/xx , 311 ,Biggles Flies North - Pt 25
* ,xx/xx/xx , 312 ,Biggles Flies North - Pt 26
* ,xx/xx/xx , 313 ,Biggles Flies North - Pt 27
* ,xx/xx/xx , 314 ,Turncoat - Pt 1
* ,xx/xx/xx , 315 ,Turncoat - Pt 2
* ,xx/xx/xx , 316 ,Turncoat - Pt 3
* ,xx/xx/xx , 317 ,Turncoat - Pt 4
* ,xx/xx/xx , 318 ,Turncoat - Pt 5
* ,xx/xx/xx , 319 ,Turncoat - Pt 6
* ,xx/xx/xx , 320 ,Turncoat - Pt 7
* ,xx/xx/xx , 321 ,Turncoat - Pt 8
* ,xx/xx/xx , 322 ,Turncoat - Pt 9
* ,xx/xx/xx , 323 ,Turncoat - Pt 10
* ,xx/xx/xx , 324 ,Turncoat - Pt 11
* ,xx/xx/xx , 325 ,Turncoat - Pt 12
* ,xx/xx/xx , 326 ,Turncoat - Pt 13
* ,xx/xx/xx , 327 ,Turncoat - Pt 14
* ,xx/xx/xx , 328 ,Turncoat - Pt 15
* ,xx/xx/xx , 329 ,Turncoat - Pt 16
* ,xx/xx/xx , 330 ,Turncoat - Pt 17
* ,xx/xx/xx , 331 ,Turncoat - Pt 18
* ,xx/xx/xx , 332 ,Turncoat - Pt 19
* ,xx/xx/xx , 333 ,Turncoat - Pt 20
* ,xx/xx/xx , 334 ,Turncoat - Pt 21
* ,xx/xx/xx , 335 ,Turncoat - Pt 22
* ,xx/xx/xx , 336 ,Turncoat - Pt 23
* ,xx/xx/xx , 337 ,Turncoat - Pt 24
* ,xx/xx/xx , 338 ,Turncoat - Pt 25
* ,xx/xx/xx , 339 ,Biggles In Borneo - Pt 1
* ,xx/xx/xx , 340 ,Biggles In Borneo - Pt 2
* ,xx/xx/xx , 341 ,Biggles In Borneo - Pt 3
* ,xx/xx/xx , 342 ,Biggles In Borneo - Pt 4
* ,xx/xx/xx , 343 ,Biggles In Borneo - Pt 5
* ,xx/xx/xx , 344 ,Biggles In Borneo - Pt 6
* ,xx/xx/xx , 345 ,Biggles In Borneo - Pt 7
* ,xx/xx/xx , 346 ,Biggles In Borneo - Pt 8
* ,xx/xx/xx , 347 ,Biggles In Borneo - Pt 9
* ,xx/xx/xx , 348 ,Biggles In Borneo - Pt 10
* ,xx/xx/xx , 349 ,Biggles In Borneo - Pt 11
* ,xx/xx/xx , 350 ,Biggles In Borneo - Pt 12
* ,xx/xx/xx , 351 ,Biggles In Borneo - Pt 13
* ,xx/xx/xx , 352 ,Biggles In Borneo - Pt 14
* ,xx/xx/xx , 353 ,Biggles In Borneo - Pt 15
* ,xx/xx/xx , 354 ,Biggles In Borneo - Pt 16
* ,xx/xx/xx , 355 ,Biggles In Borneo - Pt 17
* ,xx/xx/xx , 356 ,Biggles In Borneo - Pt 18
* ,xx/xx/xx , 357 ,Biggles In Borneo - Pt 19
* ,xx/xx/xx , 358 ,Biggles In Borneo - Pt 20
* ,xx/xx/xx , 359 ,Biggles In Borneo - Pt 21
* ,xx/xx/xx , 360 ,Biggles In Borneo - Pt 22
* ,xx/xx/xx , 361 ,Biggles In Borneo - Pt 23
* ,xx/xx/xx , 362 ,Biggles In Borneo - Pt 24
* ,xx/xx/xx , 363 ,Biggles In Borneo - Pt 25
* ,xx/xx/xx , 364 ,Biggles In Borneo - Pt 26
* ,xx/xx/xx , 365 ,Biggles In Borneo - Pt 27
* ,xx/xx/xx , 366 ,Sergeant Bigglesworth C.I.D. - Pt 1
* ,xx/xx/xx , 367 ,Sergeant Bigglesworth C.I.D. - Pt 2
* ,xx/xx/xx , 368 ,Sergeant Bigglesworth C.I.D. - Pt 3
* ,xx/xx/xx , 369 ,Sergeant Bigglesworth C.I.D. - Pt 4
* ,xx/xx/xx , 370 ,Sergeant Bigglesworth C.I.D. - Pt 5
* ,xx/xx/xx , 371 ,Sergeant Bigglesworth C.I.D. - Pt 6
* ,xx/xx/xx , 372 ,Sergeant Bigglesworth C.I.D. - Pt 7
* ,xx/xx/xx , 373 ,Sergeant Bigglesworth C.I.D. - Pt 8
* ,xx/xx/xx , 374 ,Sergeant Bigglesworth C.I.D. - Pt 9
* ,xx/xx/xx , 375 ,Sergeant Bigglesworth C.I.D. - Pt 10
* ,xx/xx/xx , 376 ,Sergeant Bigglesworth C.I.D. - Pt 11
* ,xx/xx/xx , 377 ,Sergeant Bigglesworth C.I.D. - Pt 12
* ,xx/xx/xx , 378 ,Sergeant Bigglesworth C.I.D. - Pt 13
* ,xx/xx/xx , 379 ,Sergeant Bigglesworth C.I.D. - Pt 14
* ,xx/xx/xx , 380 ,Sergeant Bigglesworth C.I.D. - Pt 15
* ,xx/xx/xx , 381 ,Sergeant Bigglesworth C.I.D. - Pt 16
* ,xx/xx/xx , 382 ,Sergeant Bigglesworth C.I.D. - Pt 17
* ,xx/xx/xx , 383 ,Sergeant Bigglesworth C.I.D. - Pt 18
* ,xx/xx/xx , 384 ,Sergeant Bigglesworth C.I.D. - Pt 19
* ,xx/xx/xx , 385 ,Biggles Second Case - Pt 1
* ,xx/xx/xx , 386 ,Biggles Second Case - Pt 2
* ,xx/xx/xx , 387 ,Biggles Second Case - Pt 3
* ,xx/xx/xx , 388 ,Biggles Second Case - Pt 4
* ,xx/xx/xx , 389 ,Biggles Second Case - Pt 5
* ,xx/xx/xx , 390 ,Biggles Second Case - Pt 6
* ,xx/xx/xx , 391 ,Biggles Second Case - Pt 7
* ,xx/xx/xx , 392 ,Biggles Second Case - Pt 8
* ,xx/xx/xx , 393 ,Biggles Second Case - Pt 9
* ,xx/xx/xx , 394 ,Biggles Second Case - Pt 10
* ,xx/xx/xx , 395 ,Biggles Second Case - Pt 11
* ,xx/xx/xx , 396 ,Biggles Second Case - Pt 12
* ,xx/xx/xx , 397 ,Biggles Second Case - Pt 13
* ,xx/xx/xx , 398 ,Biggles Second Case - Pt 14
* ,xx/xx/xx , 399 ,Biggles Second Case - Pt 15
* ,xx/xx/xx , 400 ,Biggles Second Case - Pt 16
* ,xx/xx/xx , 401 ,Biggles Second Case - Pt 17
* ,xx/xx/xx , 402 ,Biggles Second Case - Pt 18
* ,xx/xx/xx , 403 ,Biggles Second Case - Pt 19
* ,xx/xx/xx , 404 ,Biggles Second Case - Pt 20
* ,xx/xx/xx , 405 ,Biggles Second Case - Pt 21
* ,xx/xx/xx , 406 ,Biggles Second Case - Pt 22
* ,xx/xx/xx , 407 ,Biggles Second Case - Pt 23
* ,xx/xx/xx , 408 ,Biggles In The Jungle - Pt 1
* ,xx/xx/xx , 409 ,Biggles In The Jungle - Pt 2
* ,xx/xx/xx , 410 ,Biggles In The Jungle - Pt 3
* ,xx/xx/xx , 411 ,Biggles In The Jungle - Pt 4
* ,xx/xx/xx , 412 ,Biggles In The Jungle - Pt 5
* ,xx/xx/xx , 413 ,Biggles In The Jungle - Pt 6
* ,xx/xx/xx , 414 ,Biggles In The Jungle - Pt 7
* ,xx/xx/xx , 415 ,Biggles In The Jungle - Pt 8
* ,xx/xx/xx , 416 ,Biggles In The Jungle - Pt 9
* ,xx/xx/xx , 417 ,Biggles In The Jungle - Pt 10
* ,xx/xx/xx , 418 ,Biggles In The Jungle - Pt 11
* ,xx/xx/xx , 419 ,Biggles In The Jungle - Pt 12
* ,xx/xx/xx , 420 ,Biggles In The Jungle - Pt 13
* ,xx/xx/xx , 421 ,Biggles In The Jungle - Pt 14
* ,xx/xx/xx , 422 ,Biggles In The Jungle - Pt 15
* ,xx/xx/xx , 423 ,Biggles In The Jungle - Pt 16
* ,xx/xx/xx , 424 ,Biggles In The Jungle - Pt 17
* ,xx/xx/xx , 425 ,Biggles In The Jungle - Pt 18
* ,xx/xx/xx , 426 ,Biggles In The Jungle - Pt 19
* ,xx/xx/xx , 427 ,Biggles In The Jungle - Pt 20
* ,xx/xx/xx , 428 ,Biggles In The Jungle - Pt 21
* ,xx/xx/xx , 429 ,Biggles In The Jungle - Pt 22
* ,xx/xx/xx , 430 ,Biggles In The Jungle - Pt 23
* ,xx/xx/xx , 431 ,Biggles In The Jungle - Pt 24
* ,xx/xx/xx , 432 ,Biggles In The Jungle - Pt 25
* ,xx/xx/xx , 433 ,Biggles In The Jungle - Pt 26
* ,xx/xx/xx , 434 ,Biggles Hits The Trail - Pt 1
* ,xx/xx/xx , 435 ,Biggles Hits The Trail - Pt 2
* ,xx/xx/xx , 436 ,Biggles Hits The Trail - Pt 3
* ,xx/xx/xx , 437 ,Biggles Hits The Trail - Pt 4
* ,xx/xx/xx , 438 ,Biggles Hits The Trail - Pt 5
* ,xx/xx/xx , 439 ,Biggles Hits The Trail - Pt 6
* ,xx/xx/xx , 440 ,Biggles Hits The Trail - Pt 7
* ,xx/xx/xx , 441 ,Biggles Hits The Trail - Pt 8
* ,xx/xx/xx , 442 ,Biggles Hits The Trail - Pt 9
* ,xx/xx/xx , 443 ,Biggles Hits The Trail - Pt 10
* ,xx/xx/xx , 444 ,Biggles Hits The Trail - Pt 11
* ,xx/xx/xx , 445 ,Biggles Hits The Trail - Pt 12
* ,xx/xx/xx , 446 ,Biggles Hits The Trail - Pt 13
* ,xx/xx/xx , 447 ,Biggles Hits The Trail - Pt 14
* ,xx/xx/xx , 448 ,Biggles Hits The Trail - Pt 15
* ,xx/xx/xx , 449 ,Biggles Hits The Trail - Pt 16
* ,xx/xx/xx , 450 ,Biggles Hits The Trail - Pt 17
* ,xx/xx/xx , 451 ,Biggles Hits The Trail - Pt 18
* ,xx/xx/xx , 452 ,Biggles Hits The Trail - Pt 19
* ,xx/xx/xx , 453 ,Biggles Hits The Trail - Pt 20
* ,xx/xx/xx , 454 ,Biggles Hits The Trail - Pt 21
* ,xx/xx/xx , 455 ,Biggles Hits The Trail - Pt 22
* ,xx/xx/xx , 456 ,Biggles Hits The Trail - Pt 23
* ,xx/xx/xx , 457 ,Biggles Hits The Trail - Pt 24
* ,xx/xx/xx , 458 ,Biggles Hits The Trail - Pt 25
* ,xx/xx/xx , 459 ,Secret Weapon - Pt 1
* ,xx/xx/xx , 460 ,Secret Weapon - Pt 2
* ,xx/xx/xx , 461 ,Secret Weapon - Pt 3
* ,xx/xx/xx , 462 ,Secret Weapon - Pt 4
* ,xx/xx/xx , 463 ,Secret Weapon - Pt 5
* ,xx/xx/xx , 464 ,Secret Weapon - Pt 6
* ,xx/xx/xx , 465 ,Secret Weapon - Pt 7
* ,xx/xx/xx , 466 ,Secret Weapon - Pt 8
* ,xx/xx/xx , 467 ,Secret Weapon - Pt 9
* ,xx/xx/xx , 468 ,Secret Weapon - Pt 10
* ,xx/xx/xx , 469 ,Secret Weapon - Pt 11
* ,xx/xx/xx , 470 ,Secret Weapon - Pt 12
* ,xx/xx/xx , 471 ,Secret Weapon - Pt 13
* ,xx/xx/xx , 472 ,Secret Weapon - Pt 14
* ,xx/xx/xx , 473 ,Secret Weapon - Pt 15
* ,xx/xx/xx , 474 ,Secret Weapon - Pt 16
* ,xx/xx/xx , 475 ,Secret Weapon - Pt 17
* ,xx/xx/xx , 476 ,Secret Weapon - Pt 18
* ,xx/xx/xx , 477 ,Secret Weapon - Pt 19
* ,xx/xx/xx , 478 ,Secret Weapon - Pt 20
* ,xx/xx/xx , 479 ,Secret Weapon - Pt 21
* ,xx/xx/xx , 480 ,Secret Weapon - Pt 22
* ,xx/xx/xx , 481 ,Secret Weapon - Pt 23
* ,xx/xx/xx , 482 ,Secret Weapon - Pt 24
* ,xx/xx/xx , 483 ,Secret Weapon - Pt 25
* ,xx/xx/xx , 484 ,Secret Weapon - Pt 26
* ,xx/xx/xx , 485 ,Paradise Valley - Pt 1
* ,xx/xx/xx , 486 ,Paradise Valley - Pt 2
* ,xx/xx/xx , 487 ,Paradise Valley - Pt 3
* ,xx/xx/xx , 488 ,Paradise Valley - Pt 4
* ,xx/xx/xx , 489 ,Paradise Valley - Pt 5
* ,xx/xx/xx , 490 ,Paradise Valley - Pt 6
* ,xx/xx/xx , 491 ,Paradise Valley - Pt 7
* ,xx/xx/xx , 492 ,Paradise Valley - Pt 8
* ,xx/xx/xx , 493 ,Paradise Valley - Pt 9
* ,xx/xx/xx , 494 ,Paradise Valley - Pt 10
* ,xx/xx/xx , 495 ,Paradise Valley - Pt 11
* ,xx/xx/xx , 496 ,Paradise Valley - Pt 12
* ,xx/xx/xx , 497 ,Paradise Valley - Pt 13
* ,xx/xx/xx , 498 ,Paradise Valley - Pt 14
* ,xx/xx/xx , 499 ,Paradise Valley - Pt 15
* ,xx/xx/xx , 500 ,Paradise Valley - Pt 16
* ,xx/xx/xx , 501 ,Paradise Valley - Pt 17
* ,xx/xx/xx , 502 ,Paradise Valley - Pt 18
* ,xx/xx/xx , 503 ,Paradise Valley - Pt 19
* ,xx/xx/xx , 504 ,Paradise Valley - Pt 20
* ,xx/xx/xx , 505 ,Paradise Valley - Pt 21
* ,xx/xx/xx , 506 ,Paradise Valley - Pt 22
* ,xx/xx/xx , 507 ,Paradise Valley - Pt 23
* ,xx/xx/xx , 508 ,Paradise Valley - Pt 24
* ,xx/xx/xx , 509 ,Paradise Valley - Pt 25
* ,xx/xx/xx , 510 ,Paradise Valley - Pt 26
* ,xx/xx/xx , 511 ,Paradise Valley - Pt 27
* ,xx/xx/xx , 512 ,Starry Crown - Pt 1
* ,xx/xx/xx , 513 ,Starry Crown - Pt 2
* ,xx/xx/xx , 514 ,Starry Crown - Pt 3
* ,xx/xx/xx , 515 ,Starry Crown - Pt 4
* ,xx/xx/xx , 516 ,Starry Crown - Pt 5
* ,xx/xx/xx , 517 ,Starry Crown - Pt 6
* ,xx/xx/xx , 518 ,Starry Crown - Pt 7
* ,xx/xx/xx , 519 ,Starry Crown - Pt 8
* ,xx/xx/xx , 520 ,Starry Crown - Pt 9
* ,xx/xx/xx , 521 ,Starry Crown - Pt 10
* ,xx/xx/xx , 522 ,Starry Crown - Pt 11
* ,xx/xx/xx , 523 ,Starry Crown - Pt 12
* ,xx/xx/xx , 524 ,Starry Crown - Pt 13
* ,xx/xx/xx , 525 ,Starry Crown - Pt 14
* ,xx/xx/xx , 526 ,Starry Crown - Pt 15
* ,xx/xx/xx , 527 ,Starry Crown - Pt 16
* ,xx/xx/xx , 528 ,Starry Crown - Pt 17
* ,xx/xx/xx , 529 ,Starry Crown - Pt 18
* ,xx/xx/xx , 530 ,Starry Crown - Pt 19
* ,xx/xx/xx , 531 ,Starry Crown - Pt 20
* ,xx/xx/xx , 532 ,Starry Crown - Pt 21
* ,xx/xx/xx , 533 ,Starry Crown - Pt 22
* ,xx/xx/xx , 534 ,Starry Crown - Pt 23
* ,xx/xx/xx , 535 ,Bawn's Curse - Pt 1
* ,xx/xx/xx , 536 ,Bawn's Curse - Pt 2
* ,xx/xx/xx , 537 ,Bawn's Curse - Pt 3
* ,xx/xx/xx , 538 ,Bawn's Curse - Pt 4
* ,xx/xx/xx , 539 ,Bawn's Curse - Pt 5
* ,xx/xx/xx , 540 ,Bawn's Curse - Pt 6
* ,xx/xx/xx , 541 ,Bawn's Curse - Pt 7
* ,xx/xx/xx , 542 ,Bawn's Curse - Pt 8
* ,xx/xx/xx , 543 ,Bawn's Curse - Pt 9
* ,xx/xx/xx , 544 ,Bawn's Curse - Pt 10
* ,xx/xx/xx , 545 ,Bawn's Curse - Pt 11
* ,xx/xx/xx , 546 ,Bawn's Curse - Pt 12
* ,xx/xx/xx , 547 ,Bawn's Curse - Pt 13
* ,xx/xx/xx , 548 ,Bawn's Curse - Pt 14
* ,xx/xx/xx , 549 ,Bawn's Curse - Pt 15
* ,xx/xx/xx , 550 ,Bawn's Curse - Pt 16
* ,xx/xx/xx , 551 ,Bawn's Curse - Pt 17
* ,xx/xx/xx , 552 ,Bawn's Curse - Pt 18
* ,xx/xx/xx , 553 ,Bawn's Curse - Pt 19
* ,xx/xx/xx , 554 ,Bawn's Curse - Pt 20
* ,xx/xx/xx , 555 ,Bawn's Curse - Pt 21
* ,xx/xx/xx , 556 ,Bawn's Curse - Pt 22
* ,xx/xx/xx , 557 ,Bawn's Curse - Pt 23
* ,xx/xx/xx , 558 ,Bawn's Curse - Pt 24
* ,xx/xx/xx , 559 ,Bawn's Curse - Pt 25
* ,xx/xx/xx , 560 ,Bawn's Curse - Pt 26
* ,xx/xx/xx , 561 ,Bawn's Curse - Pt 27
* ,xx/xx/xx , 562 ,Bawn's Curse - Pt 28
* ,xx/xx/xx , 563 ,Scourge Of The Orochons - Pt 1
* ,xx/xx/xx , 564 ,Scourge Of The Orochons - Pt 2
* ,xx/xx/xx , 565 ,Scourge Of The Orochons - Pt 3
* ,xx/xx/xx , 566 ,Scourge Of The Orochons - Pt 4
* ,xx/xx/xx , 567 ,Scourge Of The Orochons - Pt 5
* ,xx/xx/xx , 568 ,Scourge Of The Orochons - Pt 6
* ,xx/xx/xx , 569 ,Scourge Of The Orochons - Pt 7
* ,xx/xx/xx , 570 ,Scourge Of The Orochons - Pt 8
* ,xx/xx/xx , 571 ,Scourge Of The Orochons - Pt 9
* ,xx/xx/xx , 572 ,Scourge Of The Orochons - Pt 10
* ,xx/xx/xx , 573 ,Scourge Of The Orochons - Pt 11
* ,xx/xx/xx , 574 ,Scourge Of The Orochons - Pt 12
* ,xx/xx/xx , 575 ,Scourge Of The Orochons - Pt 13
* ,xx/xx/xx , 576 ,Scourge Of The Orochons - Pt 14
* ,xx/xx/xx , 577 ,Scourge Of The Orochons - Pt 15
* ,xx/xx/xx , 578 ,Scourge Of The Orochons - Pt 16
* ,xx/xx/xx , 579 ,Scourge Of The Orochons - Pt 17
* ,xx/xx/xx , 580 ,Scourge Of The Orochons - Pt 18
* ,xx/xx/xx , 581 ,Scourge Of The Orochons - Pt 19
* ,xx/xx/xx , 582 ,Scourge Of The Orochons - Pt 20
* ,xx/xx/xx , 583 ,Scourge Of The Orochons - Pt 21
* ,xx/xx/xx , 584 ,Scourge Of The Orochons - Pt 22
* ,xx/xx/xx , 585 ,Scourge Of The Orochons - Pt 23
* ,xx/xx/xx , 586 ,Scourge Of The Orochons - Pt 24
* ,xx/xx/xx , 587 ,Scourge Of The Orochons - Pt 25
* ,xx/xx/xx , 588 ,Combined Ops - Pt 1
* ,xx/xx/xx , 589 ,Combined Ops - Pt 2
* ,xx/xx/xx , 590 ,Combined Ops - Pt 3
* ,xx/xx/xx , 591 ,Combined Ops - Pt 4
* ,xx/xx/xx , 592 ,Combined Ops - Pt 5
* ,xx/xx/xx , 593 ,Combined Ops - Pt 6
* ,xx/xx/xx , 594 ,Combined Ops - Pt 7
* ,xx/xx/xx , 595 ,Combined Ops - Pt 8
* ,xx/xx/xx , 596 ,Combined Ops - Pt 9
* ,xx/xx/xx , 597 ,Combined Ops - Pt 10
* ,xx/xx/xx , 598 ,Combined Ops - Pt 11
* ,xx/xx/xx , 599 ,Combined Ops - Pt 12
* ,xx/xx/xx , 600 ,Combined Ops - Pt 13
* ,xx/xx/xx , 601 ,Combined Ops - Pt 14
* ,xx/xx/xx , 602 ,Combined Ops - Pt 15
* ,xx/xx/xx , 603 ,Combined Ops - Pt 16
* ,xx/xx/xx , 604 ,Combined Ops - Pt 17
* ,xx/xx/xx , 605 ,Combined Ops - Pt 18
* ,xx/xx/xx , 606 ,Combined Ops - Pt 19
* ,xx/xx/xx , 607 ,Atomic Papers - Pt 1
* ,xx/xx/xx , 608 ,Atomic Papers - Pt 2
* ,xx/xx/xx , 609 ,Atomic Papers - Pt 3
* ,xx/xx/xx , 610 ,Atomic Papers - Pt 4
* ,xx/xx/xx , 611 ,Atomic Papers - Pt 5
* ,xx/xx/xx , 612 ,Atomic Papers - Pt 6
* ,xx/xx/xx , 613 ,Atomic Papers - Pt 7
* ,xx/xx/xx , 614 ,Atomic Papers - Pt 8
* ,xx/xx/xx , 615 ,Atomic Papers - Pt 9
* ,xx/xx/xx , 616 ,Atomic Papers - Pt 10
* ,xx/xx/xx , 617 ,Atomic Papers - Pt 11
* ,xx/xx/xx , 618 ,Atomic Papers - Pt 12
* ,xx/xx/xx , 619 ,Atomic Papers - Pt 13
* ,xx/xx/xx , 620 ,Atomic Papers - Pt 14
* ,xx/xx/xx , 621 ,Atomic Papers - Pt 15
* ,xx/xx/xx , 622 ,Atomic Papers - Pt 16
* ,xx/xx/xx , 623 ,Atomic Papers - Pt 17
* ,xx/xx/xx , 624 ,Atomic Papers - Pt 18
* ,xx/xx/xx , 625 ,Big Game - Pt 1
* ,xx/xx/xx , 626 ,Big Game - Pt 2
* ,xx/xx/xx , 627 ,Big Game - Pt 3
* ,xx/xx/xx , 628 ,Big Game - Pt 4
* ,xx/xx/xx , 629 ,Big Game - Pt 5
* ,xx/xx/xx , 630 ,Big Game - Pt 6
* ,xx/xx/xx , 631 ,Big Game - Pt 7
* ,xx/xx/xx , 632 ,Big Game - Pt 8
* ,xx/xx/xx , 633 ,Big Game - Pt 9
* ,xx/xx/xx , 634 ,Big Game - Pt 10
* ,xx/xx/xx , 635 ,Big Game - Pt 11
* ,xx/xx/xx , 636 ,Big Game - Pt 12
* ,xx/xx/xx , 637 ,Big Game - Pt 13
* ,xx/xx/xx , 638 ,Big Game - Pt 14
* ,xx/xx/xx , 639 ,Big Game - Pt 15
* ,xx/xx/xx , 640 ,Big Game - Pt 16
* ,xx/xx/xx , 641 ,Big Game - Pt 17
* ,xx/xx/xx , 642 ,Big Game - Pt 18
* ,xx/xx/xx , 643 ,Big Game - Pt 19
* ,xx/xx/xx , 644 ,Big Game - Pt 20
* ,xx/xx/xx , 645 ,Big Game - Pt 21
* ,xx/xx/xx , 646 ,Big Game - Pt 22
* ,xx/xx/xx , 647 ,Big Game - Pt 23
* ,xx/xx/xx , 648 ,Big Game - Pt 24
* ,xx/xx/xx , 649 ,Big Game - Pt 25
* ,xx/xx/xx , 650 ,Big Game - Pt 26
* ,xx/xx/xx , 651 ,Big Game - Pt 27
* ,xx/xx/xx , 652 ,Big Game - Pt 28
* ,xx/xx/xx , 653 ,Big Game - Pt 29
* ,xx/xx/xx , 654 ,Ladies In Danger - Pt 1
* ,xx/xx/xx , 655 ,Ladies In Danger - Pt 2
* ,xx/xx/xx , 656 ,Ladies In Danger - Pt 3
* ,xx/xx/xx , 657 ,Ladies In Danger - Pt 4
* ,xx/xx/xx , 658 ,Ladies In Danger - Pt 5
* ,xx/xx/xx , 659 ,Ladies In Danger - Pt 6
* ,xx/xx/xx , 660 ,Ladies In Danger - Pt 7
* ,xx/xx/xx , 661 ,Ladies In Danger - Pt 8
* ,xx/xx/xx , 662 ,Ladies In Danger - Pt 9
* ,xx/xx/xx , 663 ,Ladies In Danger - Pt 10
* ,xx/xx/xx , 664 ,Ladies In Danger - Pt 11
* ,xx/xx/xx , 665 ,Ladies In Danger - Pt 12
* ,xx/xx/xx , 666 ,Ladies In Danger - Pt 13
* ,xx/xx/xx , 667 ,Ladies In Danger - Pt 14
* ,xx/xx/xx , 668 ,Ladies In Danger - Pt 15
* ,xx/xx/xx , 669 ,Ladies In Danger - Pt 16
* ,xx/xx/xx , 670 ,Ladies In Danger - Pt 17
* ,xx/xx/xx , 671 ,Ladies In Danger - Pt 18
* ,xx/xx/xx , 672 ,Ladies In Danger - Pt 19
* ,xx/xx/xx , 673 ,Ladies In Danger - Pt 20
* ,xx/xx/xx , 674 ,The Devil Drug - Pt 1
* ,xx/xx/xx , 675 ,The Devil Drug - Pt 2
* ,xx/xx/xx , 676 ,The Devil Drug - Pt 3
* ,xx/xx/xx , 677 ,The Devil Drug - Pt 4
* ,xx/xx/xx , 678 ,The Devil Drug - Pt 5
* ,xx/xx/xx , 679 ,The Devil Drug - Pt 6
* ,xx/xx/xx , 680 ,The Devil Drug - Pt 7
* ,xx/xx/xx , 681 ,The Devil Drug - Pt 8
* ,xx/xx/xx , 682 ,The Devil Drug - Pt 9
* ,xx/xx/xx , 683 ,The Devil Drug - Pt 10
* ,xx/xx/xx , 684 ,The Devil Drug - Pt 11
* ,xx/xx/xx , 685 ,The Devil Drug - Pt 12
* ,xx/xx/xx , 686 ,The Devil Drug - Pt 13
* ,xx/xx/xx , 687 ,The Devil Drug - Pt 14
* ,xx/xx/xx , 688 ,The Devil Drug - Pt 15
* ,xx/xx/xx , 689 ,The Devil Drug - Pt 16
* ,xx/xx/xx , 690 ,The Devil Drug - Pt 17
* ,xx/xx/xx , 691 ,The Devil Drug - Pt 18
* ,xx/xx/xx , 692 ,The Devil Drug - Pt 19
* ,xx/xx/xx , 693 ,The Devil Drug - Pt 20
* ,xx/xx/xx , 694 ,The Devil Drug - Pt 21
* ,xx/xx/xx , 695 ,The Devil Drug - Pt 22
* ,xx/xx/xx , 696 ,The Devil Drug - Pt 23
* ,xx/xx/xx , 697 ,The Devil Drug - Pt 24
* ,xx/xx/xx , 698 ,The Devil Drug - Pt 25
* ,xx/xx/xx , 699 ,The Devil Drug - Pt 26
* ,xx/xx/xx , 700 ,The White Prophet - Pt 1
* ,xx/xx/xx , 701 ,The White Prophet - Pt 2
* ,xx/xx/xx , 702 ,The White Prophet - Pt 3
* ,xx/xx/xx , 703 ,The White Prophet - Pt 4
* ,xx/xx/xx , 704 ,The White Prophet - Pt 5
* ,xx/xx/xx , 705 ,The White Prophet - Pt 6
* ,xx/xx/xx , 706 ,The White Prophet - Pt 7
* ,xx/xx/xx , 707 ,The White Prophet - Pt 8
* ,xx/xx/xx , 708 ,The White Prophet - Pt 9
* ,xx/xx/xx , 709 ,The White Prophet - Pt 10
* ,xx/xx/xx , 710 ,The White Prophet - Pt 11
* ,xx/xx/xx , 711 ,The White Prophet - Pt 12
* ,xx/xx/xx , 712 ,The White Prophet - Pt 13
* ,xx/xx/xx , 713 ,The White Prophet - Pt 14
* ,xx/xx/xx , 714 ,The White Prophet - Pt 15
* ,xx/xx/xx , 715 ,The White Prophet - Pt 16
* ,xx/xx/xx , 716 ,The White Prophet - Pt 17
* ,xx/xx/xx , 717 ,The White Prophet - Pt 18
* ,xx/xx/xx , 718 ,The White Prophet - Pt 19
* ,xx/xx/xx , 719 ,The White Prophet - Pt 20
* ,xx/xx/xx , 720 ,The White Prophet - Pt 21
* ,xx/xx/xx , 721 ,Treasure Of The Incas - Pt 1
* ,xx/xx/xx , 722 ,Treasure Of The Incas - Pt 2
* ,xx/xx/xx , 723 ,Treasure Of The Incas - Pt 3
* ,xx/xx/xx , 724 ,Treasure Of The Incas - Pt 4
* ,xx/xx/xx , 725 ,Treasure Of The Incas - Pt 5
* ,xx/xx/xx , 726 ,Treasure Of The Incas - Pt 6
* ,xx/xx/xx , 727 ,Treasure Of The Incas - Pt 7
* ,xx/xx/xx , 728 ,Treasure Of The Incas - Pt 8
* ,xx/xx/xx , 729 ,Treasure Of The Incas - Pt 9
* ,xx/xx/xx , 730 ,Treasure Of The Incas - Pt 10
* ,xx/xx/xx , 731 ,Treasure Of The Incas - Pt 11
* ,xx/xx/xx , 732 ,Treasure Of The Incas - Pt 12
* ,xx/xx/xx , 733 ,Treasure Of The Incas - Pt 13
* ,xx/xx/xx , 734 ,Treasure Of The Incas - Pt 14
* ,xx/xx/xx , 735 ,Treasure Of The Incas - Pt 15
* ,xx/xx/xx , 736 ,Treasure Of The Incas - Pt 16
* ,xx/xx/xx , 737 ,Treasure Of The Incas - Pt 17
* ,xx/xx/xx , 738 ,Treasure Of The Incas - Pt 18
* ,xx/xx/xx , 739 ,Treasure Of The Incas - Pt 19
* ,xx/xx/xx , 740 ,Treasure Of The Incas - Pt 20
* ,xx/xx/xx , 741 ,Treasure Of The Incas - Pt 21
* ,xx/xx/xx , 742 ,Treasure Of The Incas - Pt 22
* ,xx/xx/xx , 743 ,Treasure Of The Incas - Pt 23
* ,xx/xx/xx , 744 ,Treasure Of The Incas - Pt 24
* ,xx/xx/xx , 745 ,Treasure Of The Incas - Pt 25
* ,xx/xx/xx , 746 ,Treasure Of The Incas - Pt 26
* ,xx/xx/xx , 747 ,Treasure Of The Incas - Pt 27
* ,xx/xx/xx , 748 ,Treasure Of The Incas - Pt 28
* ,xx/xx/xx , 749 ,Treasure Of The Incas - Pt 29
* ,xx/xx/xx , 750 ,Deal With A Pirate - Pt 1
* ,xx/xx/xx , 751 ,Deal With A Pirate - Pt 2
* ,xx/xx/xx , 752 ,Deal With A Pirate - Pt 3
* ,xx/xx/xx , 753 ,Deal With A Pirate - Pt 4
* ,xx/xx/xx , 754 ,Deal With A Pirate - Pt 5
* ,xx/xx/xx , 755 ,Deal With A Pirate - Pt 6
* ,xx/xx/xx , 756 ,Deal With A Pirate - Pt 7
* ,xx/xx/xx , 757 ,Deal With A Pirate - Pt 8
* ,xx/xx/xx , 758 ,Deal With A Pirate - Pt 9
* ,xx/xx/xx , 759 ,Deal With A Pirate - Pt 10
* ,xx/xx/xx , 760 ,Deal With A Pirate - Pt 11
* ,xx/xx/xx , 761 ,Deal With A Pirate - Pt 12
* ,xx/xx/xx , 762 ,Deal With A Pirate - Pt 13
* ,xx/xx/xx , 763 ,Deal With A Pirate - Pt 14
* ,xx/xx/xx , 764 ,Deal With A Pirate - Pt 15
* ,xx/xx/xx , 765 ,Deal With A Pirate - Pt 16
* ,xx/xx/xx , 766 ,Deal With A Pirate - Pt 17
* ,xx/xx/xx , 767 ,Deal With A Pirate - Pt 18
* ,xx/xx/xx , 768 ,Deal With A Pirate - Pt 19
* ,xx/xx/xx , 769 ,Deal With A Pirate - Pt 20
* ,xx/xx/xx , 770 ,Deal With A Pirate - Pt 21
* ,xx/xx/xx , 771 ,Deal With A Pirate - Pt 22
* ,xx/xx/xx , 772 ,Deal With A Pirate - Pt 23
* ,xx/xx/xx , 773 ,Deal With A Pirate - Pt 24
* ,xx/xx/xx , 774 ,Deal With A Pirate - Pt 25
* ,xx/xx/xx , 775 ,Deal With A Pirate - Pt 26
* ,xx/xx/xx , 776 ,Deal With A Pirate - Pt 27
* ,xx/xx/xx , 777 ,Deal With A Pirate - Pt 28
* ,xx/xx/xx , 778 ,Deal With A Pirate - Pt 29
* ,xx/xx/xx , 779 ,Deal With A Pirate - Pt 30
* ,xx/xx/xx , 780 ,Deal With A Pirate - Pt 31
* ,xx/xx/xx , 781 ,Deal With A Pirate - Pt 32
* ,xx/xx/xx , 782 ,Deal With A Pirate - Pt 33
* ,xx/xx/xx , 783 ,Deal With A Pirate - Pt 34
* ,xx/xx/xx , 784 ,Desert Broom - Pt 1
* ,xx/xx/xx , 785 ,Desert Broom - Pt 2
* ,xx/xx/xx , 786 ,Desert Broom - Pt 3
* ,xx/xx/xx , 787 ,Desert Broom - Pt 4
* ,xx/xx/xx , 788 ,Desert Broom - Pt 5
* ,xx/xx/xx , 789 ,Desert Broom - Pt 6
* ,xx/xx/xx , 790 ,Desert Broom - Pt 7
* ,xx/xx/xx , 791 ,Desert Broom - Pt 8
* ,xx/xx/xx , 792 ,Desert Broom - Pt 9
* ,xx/xx/xx , 793 ,Desert Broom - Pt 10
* ,xx/xx/xx , 794 ,Desert Broom - Pt 11
* ,xx/xx/xx , 795 ,Desert Broom - Pt 12
* ,xx/xx/xx , 796 ,Desert Broom - Pt 13
* ,xx/xx/xx , 797 ,Desert Broom - Pt 14
* ,xx/xx/xx , 798 ,Desert Broom - Pt 15
* ,xx/xx/xx , 799 ,Desert Broom - Pt 16
* ,xx/xx/xx , 800 ,Desert Broom - Pt 17
* ,xx/xx/xx , 801 ,Desert Broom - Pt 18
* ,xx/xx/xx , 802 ,Desert Broom - Pt 19
* ,xx/xx/xx , 803 ,Desert Broom - Pt 20
* ,xx/xx/xx , 804 ,Desert Broom - Pt 21
* ,xx/xx/xx , 805 ,Desert Broom - Pt 22
* ,xx/xx/xx , 806 ,Desert Broom - Pt 23
* ,xx/xx/xx , 807 ,Desert Broom - Pt 24
* ,xx/xx/xx , 808 ,Desert Broom - Pt 25
* ,xx/xx/xx , 809 ,Desert Broom - Pt 26
* ,xx/xx/xx , 810 ,Desert Broom - Pt 27
* ,xx/xx/xx , 811 ,Desert Broom - Pt 28
* ,xx/xx/xx , 812 ,Desert Broom - Pt 29
* ,xx/xx/xx , 813 ,Desert Broom - Pt 30
* ,xx/xx/xx , 814 ,Desert Broom - Pt 31
* ,xx/xx/xx , 815 ,Desert Broom - Pt 32
* ,xx/xx/xx , 816 ,Desert Broom - Pt 33
* ,xx/xx/xx , 817 ,Desert Broom - Pt 34
* ,xx/xx/xx , 818 ,Desert Broom - Pt 35
* ,xx/xx/xx , 819 ,Desert Broom - Pt 36
* ,xx/xx/xx , 820 ,Desert Broom - Pt 37
* ,xx/xx/xx , 821 ,Desert Broom - Pt 38
* ,xx/xx/xx , 822 ,Desert Broom - Pt 39
* ,xx/xx/xx , 823 ,Desert Broom - Pt 40
* ,xx/xx/xx , 824 ,Desert Broom - Pt 41
* ,xx/xx/xx , 825 ,Desert Broom - Pt 42
* ,xx/xx/xx , 826 ,Desert Broom - Pt 43
* ,xx/xx/xx , 827 ,Desert Broom - Pt 44
* ,xx/xx/xx , 828 ,Desert Broom - Pt 45
* ,xx/xx/xx , 829 ,Desert Broom - Pt 46
* ,xx/xx/xx , 830 ,Desert Broom - Pt 47
* ,xx/xx/xx , 831 ,Desert Broom - Pt 48
* ,xx/xx/xx , 832 ,Desert Broom - Pt 49
* ,xx/xx/xx , 833 ,Arctic Airways - Pt 1
* ,xx/xx/xx , 834 ,Arctic Airways - Pt 2
* ,xx/xx/xx , 835 ,Arctic Airways - Pt 3
* ,xx/xx/xx , 836 ,Arctic Airways - Pt 4
* ,xx/xx/xx , 837 ,Arctic Airways - Pt 5
* ,xx/xx/xx , 838 ,Arctic Airways - Pt 6
* ,xx/xx/xx , 839 ,Arctic Airways - Pt 7
* ,xx/xx/xx , 840 ,Arctic Airways - Pt 8
* ,xx/xx/xx , 841 ,Arctic Airways - Pt 9
* ,xx/xx/xx , 842 ,Arctic Airways - Pt 10
* ,xx/xx/xx , 843 ,Arctic Airways - Pt 11
* ,xx/xx/xx , 844 ,Arctic Airways - Pt 12
* ,xx/xx/xx , 845 ,Arctic Airways - Pt 13
* ,xx/xx/xx , 846 ,Arctic Airways - Pt 14
* ,xx/xx/xx , 847 ,Arctic Airways - Pt 15
* ,xx/xx/xx , 848 ,Arctic Airways - Pt 16
* ,xx/xx/xx , 849 ,Arctic Airways - Pt 17
* ,xx/xx/xx , 850 ,Arctic Airways - Pt 18
* ,xx/xx/xx , 851 ,Arctic Airways - Pt 19
* ,xx/xx/xx , 852 ,Arctic Airways - Pt 20
* ,xx/xx/xx , 853 ,Arctic Airways - Pt 21
* ,xx/xx/xx , 854 ,Arctic Airways - Pt 22
* ,xx/xx/xx , 855 ,Arctic Airways - Pt 23
* ,xx/xx/xx , 856 ,Arctic Airways - Pt 24
* ,xx/xx/xx , 857 ,Arctic Airways - Pt 25
* ,xx/xx/xx , 858 ,Arctic Airways - Pt 26
* ,xx/xx/xx , 859 ,Arctic Airways - Pt 27
* ,xx/xx/xx , 860 ,Arctic Airways - Pt 28
* ,xx/xx/xx , 861 ,Arctic Airways - Pt 29
* ,xx/xx/xx , 862 ,Arctic Airways - Pt 30
* ,xx/xx/xx , 863 ,Arctic Airways - Pt 31
* ,xx/xx/xx , 864 ,Arctic Airways - Pt 32
* ,xx/xx/xx , 865 ,Arctic Airways - Pt 33
* ,xx/xx/xx , 866 ,Arctic Airways - Pt 34
* ,xx/xx/xx , 867 ,Arctic Airways - Pt 35
* ,xx/xx/xx , 868 ,Arctic Airways - Pt 36
* ,xx/xx/xx , 869 ,The Freedom Party - Pt 1
* ,xx/xx/xx , 870 ,The Freedom Party - Pt 2
* ,xx/xx/xx , 871 ,The Freedom Party - Pt 3
* ,xx/xx/xx , 872 ,The Freedom Party - Pt 4
* ,xx/xx/xx , 873 ,The Freedom Party - Pt 5
* ,xx/xx/xx , 874 ,The Freedom Party - Pt 6
* ,xx/xx/xx , 875 ,The Freedom Party - Pt 7
* ,xx/xx/xx , 876 ,The Freedom Party - Pt 8
* ,xx/xx/xx , 877 ,The Freedom Party - Pt 9
* ,xx/xx/xx , 878 ,The Freedom Party - Pt 10
* ,xx/xx/xx , 879 ,The Freedom Party - Pt 11
* ,xx/xx/xx , 880 ,The Freedom Party - Pt 12
* ,xx/xx/xx , 881 ,The Freedom Party - Pt 13
* ,xx/xx/xx , 882 ,The Freedom Party - Pt 14
* ,xx/xx/xx , 883 ,The Freedom Party - Pt 15
* ,xx/xx/xx , 884 ,The Freedom Party - Pt 16
* ,xx/xx/xx , 885 ,The Freedom Party - Pt 17
* ,xx/xx/xx , 886 ,The Freedom Party - Pt 18
* ,xx/xx/xx , 887 ,The Freedom Party - Pt 19
* ,xx/xx/xx , 888 ,The Freedom Party - Pt 20
* ,xx/xx/xx , 889 ,The Freedom Party - Pt 21
* ,xx/xx/xx , 890 ,The Freedom Party - Pt 22
* ,xx/xx/xx , 891 ,The Freedom Party - Pt 23
* ,xx/xx/xx , 892 ,The Freedom Party - Pt 24
* ,xx/xx/xx , 893 ,The Freedom Party - Pt 25
* ,xx/xx/xx , 894 ,The Freedom Party - Pt 26
* ,xx/xx/xx , 895 ,The Freedom Party - Pt 27
* ,xx/xx/xx , 896 ,The Freedom Party - Pt 28
* ,xx/xx/xx , 897 ,The Freedom Party - Pt 29
* ,xx/xx/xx , 898 ,The Freedom Party - Pt 30
* ,xx/xx/xx , 899 ,The Freedom Party - Pt 31
* ,xx/xx/xx , 900 ,The Freedom Party - Pt 32
* ,xx/xx/xx , 901 ,The Freedom Party - Pt 33
* ,xx/xx/xx , 902 ,The Freedom Party - Pt 34
* ,xx/xx/xx , 903 ,The Freedom Party - Pt 35
* ,xx/xx/xx , 904 ,The Freedom Party - Pt 36
* ,xx/xx/xx , 905 ,The Freedom Party - Pt 37
* ,xx/xx/xx , 906 ,The Freedom Party - Pt 38
* ,xx/xx/xx , 907 ,The Freedom Party - Pt 39
* ,xx/xx/xx , 908 ,The Freedom Party - Pt 40
* ,xx/xx/xx , 909 ,The Freedom Party - Pt 41
* ,xx/xx/xx , 910 ,The Freedom Party - Pt 42
* ,xx/xx/xx , 911 ,The Freedom Party - Pt 43
* ,xx/xx/xx , 912 ,The Freedom Party - Pt 44
* ,xx/xx/xx , 913 ,The Freedom Party - Pt 45
* ,xx/xx/xx , 914 ,The Freedom Party - Pt 46
* ,xx/xx/xx , 915 ,The Freedom Party - Pt 47
* ,xx/xx/xx , 916 ,The Freedom Party - Pt 48
* ,xx/xx/xx , 917 ,The Freedom Party - Pt 49
* ,xx/xx/xx , 918 ,The Freedom Party - Pt 50
* ,xx/xx/xx , 919 ,The Freedom Party - Pt 51
* ,xx/xx/xx , 920 ,The Freedom Party - Pt 52
* ,xx/xx/xx , 921 ,The Freedom Party - Pt 53
* ,xx/xx/xx , 922 ,The Freedom Party - Pt 54
* ,xx/xx/xx , 923 ,The Freedom Party - Pt 55
* ,xx/xx/xx , 924 ,The Freedom Party - Pt 56
* ,xx/xx/xx , 925 ,The Freedom Party - Pt 57
* ,xx/xx/xx , 926 ,The Freedom Party - Pt 58
* ,xx/xx/xx , 927 ,The Freedom Party - Pt 59
* ,xx/xx/xx , 928 ,The Freedom Party - Pt 60
* ,xx/xx/xx , 929 ,The Freedom Party - Pt 61
* ,xx/xx/xx , 930 ,The Freedom Party - Pt 62
* ,xx/xx/xx , 931 ,Lost Oasis - Pt 1
* ,xx/xx/xx , 932 ,Lost Oasis - Pt 2
* ,xx/xx/xx , 933 ,Lost Oasis - Pt 3
* ,xx/xx/xx , 934 ,Lost Oasis - Pt 4
* ,xx/xx/xx , 935 ,Lost Oasis - Pt 5
* ,xx/xx/xx , 936 ,Lost Oasis - Pt 6
* ,xx/xx/xx , 937 ,Lost Oasis - Pt 7
* ,xx/xx/xx , 938 ,Lost Oasis - Pt 8
* ,xx/xx/xx , 939 ,Lost Oasis - Pt 9
* ,xx/xx/xx , 940 ,Lost Oasis - Pt 10
* ,xx/xx/xx , 941 ,Lost Oasis - Pt 11
* ,xx/xx/xx , 942 ,Lost Oasis - Pt 12
* ,xx/xx/xx , 943 ,Lost Oasis - Pt 13
* ,xx/xx/xx , 944 ,Lost Oasis - Pt 14
* ,xx/xx/xx , 945 ,Lost Oasis - Pt 15
* ,xx/xx/xx , 946 ,Lost Oasis - Pt 16
* ,xx/xx/xx , 947 ,Lost Oasis - Pt 17
* ,xx/xx/xx , 948 ,Lost Oasis - Pt 18
* ,xx/xx/xx , 949 ,Lost Oasis - Pt 19
* ,xx/xx/xx , 950 ,Lost Oasis - Pt 20
* ,xx/xx/xx , 951 ,Lost Oasis - Pt 21
* ,xx/xx/xx , 952 ,Lost Oasis - Pt 22
* ,xx/xx/xx , 953 ,Lost Oasis - Pt 23
* ,xx/xx/xx , 954 ,Lost Oasis - Pt 24
* ,xx/xx/xx , 955 ,Lost Oasis - Pt 25
* ,xx/xx/xx , 956 ,Lost Oasis - Pt 26
* ,xx/xx/xx , 957 ,Lost Oasis - Pt 27
* ,xx/xx/xx , 958 ,Lost Oasis - Pt 28
* ,xx/xx/xx , 959 ,Lost Oasis - Pt 29
* ,xx/xx/xx , 960 ,Lost Oasis - Pt 30
* ,xx/xx/xx , 961 ,Lost Oasis - Pt 31
* ,xx/xx/xx , 962 ,Lost Oasis - Pt 32
* ,xx/xx/xx , 963 ,Lost Oasis - Pt 33
* ,xx/xx/xx , 964 ,Lost Oasis - Pt 34
* ,xx/xx/xx , 965 ,Lost Oasis - Pt 35
* ,xx/xx/xx , 966 ,Lost Oasis - Pt 36
* ,xx/xx/xx , 967 ,Lost Oasis - Pt 37
* ,xx/xx/xx , 968 ,Lost Oasis - Pt 38
* ,xx/xx/xx , 969 ,Lost Oasis - Pt 39
* ,xx/xx/xx , 970 ,Lost Oasis - Pt 40
* ,xx/xx/xx , 971 ,The Iron Curtain - Pt 1
* ,xx/xx/xx , 972 ,The Iron Curtain - Pt 2
* ,xx/xx/xx , 973 ,The Iron Curtain - Pt 3
* ,xx/xx/xx , 974 ,The Iron Curtain - Pt 4
* ,xx/xx/xx , 975 ,The Iron Curtain - Pt 5
* ,xx/xx/xx , 976 ,The Iron Curtain - Pt 6
* ,xx/xx/xx , 977 ,The Iron Curtain - Pt 7
* ,xx/xx/xx , 978 ,The Iron Curtain - Pt 8
* ,xx/xx/xx , 979 ,The Iron Curtain - Pt 9
* ,xx/xx/xx , 980 ,The Iron Curtain - Pt 10
* ,xx/xx/xx , 981 ,The Iron Curtain - Pt 11
* ,xx/xx/xx , 982 ,The Iron Curtain - Pt 12
* ,xx/xx/xx , 983 ,The Iron Curtain - Pt 13
* ,xx/xx/xx , 984 ,The Iron Curtain - Pt 14
* ,xx/xx/xx , 985 ,The Iron Curtain - Pt 15
* ,xx/xx/xx , 986 ,The Iron Curtain - Pt 16
* ,xx/xx/xx , 987 ,The Iron Curtain - Pt 17
* ,xx/xx/xx , 988 ,The Iron Curtain - Pt 18
* ,xx/xx/xx , 989 ,The Iron Curtain - Pt 19
* ,xx/xx/xx , 990 ,The Iron Curtain - Pt 20
* ,xx/xx/xx , 991 ,The Iron Curtain - Pt 21
* ,xx/xx/xx , 992 ,The Iron Curtain - Pt 22
* ,xx/xx/xx , 993 ,The Iron Curtain - Pt 23
* ,xx/xx/xx , 994 ,The Iron Curtain - Pt 24
* ,xx/xx/xx , 995 ,The Iron Curtain - Pt 25
* ,xx/xx/xx , 996 ,The Iron Curtain - Pt 26
* ,xx/xx/xx , 997 ,The Iron Curtain - Pt 27
* ,xx/xx/xx , 998 ,The Iron Curtain - Pt 28
* ,xx/xx/xx , 999 ,The Iron Curtain - Pt 29
* ,xx/xx/xx ,1000 ,The Iron Curtain - Pt 30
* ,xx/xx/xx ,1001 ,The Iron Curtain - Pt 31
* ,xx/xx/xx ,1002 ,The Iron Curtain - Pt 32
* ,xx/xx/xx ,1003 ,The Iron Curtain - Pt 33
* ,xx/xx/xx ,1004 ,The Iron Curtain - Pt 34
* ,xx/xx/xx ,1005 ,The Iron Curtain - Pt 35
* ,xx/xx/xx ,1006 ,The Iron Curtain - Pt 36
* ,xx/xx/xx ,1007 ,The Iron Curtain - Pt 37
* ,xx/xx/xx ,1008 ,The Iron Curtain - Pt 38
* ,xx/xx/xx ,1009 ,The Iron Curtain - Pt 39
* ,xx/xx/xx ,1010 ,The Iron Curtain - Pt 40
* ,xx/xx/xx ,1011 ,The Iron Curtain - Pt 41
* ,xx/xx/xx ,1012 ,The Iron Curtain - Pt 42
* ,xx/xx/xx ,1013 ,The Iron Curtain - Pt 43
* ,xx/xx/xx ,1014 ,The Iron Curtain - Pt 44
* ,xx/xx/xx ,1015 ,The Iron Curtain - Pt 45
* ,xx/xx/xx ,1016 ,The Iron Curtain - Pt 46
* ,xx/xx/xx ,1017 ,The Iron Curtain - Pt 47
* ,xx/xx/xx ,1018 ,The Iron Curtain - Pt 48
* ,xx/xx/xx ,1019 ,The Iron Curtain - Pt 49
* ,xx/xx/xx ,1020 ,The Iron Curtain - Pt 50
* ,xx/xx/xx ,1021 ,The Iron Curtain - Pt 51
* ,xx/xx/xx ,1022 ,The Iron Curtain - Pt 52
* ,xx/xx/xx ,1023 ,The Iron Curtain - Pt 53
* ,xx/xx/xx ,1024 ,The Black Raider - Pt 1
* ,xx/xx/xx ,1025 ,The Black Raider - Pt 2
* ,xx/xx/xx ,1026 ,The Black Raider - Pt 3
* ,xx/xx/xx ,1027 ,The Black Raider - Pt 4
* ,xx/xx/xx ,1028 ,The Black Raider - Pt 5
* ,xx/xx/xx ,1029 ,The Black Raider - Pt 6
* ,xx/xx/xx ,1030 ,The Black Raider - Pt 7
* ,xx/xx/xx ,1031 ,The Black Raider - Pt 8
* ,xx/xx/xx ,1032 ,The Black Raider - Pt 9
* ,xx/xx/xx ,1033 ,The Black Raider - Pt 10
* ,xx/xx/xx ,1034 ,The Black Raider - Pt 11
* ,xx/xx/xx ,1035 ,The Black Raider - Pt 12
* ,xx/xx/xx ,1036 ,The Black Raider - Pt 13
* ,xx/xx/xx ,1037 ,The Black Raider - Pt 14
* ,xx/xx/xx ,1038 ,The Black Raider - Pt 15
* ,xx/xx/xx ,1039 ,The Black Raider - Pt 16
* ,xx/xx/xx ,1040 ,The Black Raider - Pt 17
* ,xx/xx/xx ,1041 ,The Black Raider - Pt 18
* ,xx/xx/xx ,1042 ,The Black Raider - Pt 19
* ,xx/xx/xx ,1043 ,The Black Raider - Pt 20
* ,xx/xx/xx ,1044 ,The Black Raider - Pt 21
* ,xx/xx/xx ,1045 ,The Black Raider - Pt 22
* ,xx/xx/xx ,1046 ,The Black Raider - Pt 23
* ,xx/xx/xx ,1047 ,The Black Raider - Pt 24
* ,xx/xx/xx ,1048 ,The Black Peril - Pt 1
* ,xx/xx/xx ,1049 ,The Black Peril - Pt 2
* ,xx/xx/xx ,1050 ,The Black Peril - Pt 3
* ,xx/xx/xx ,1051 ,The Black Peril - Pt 4
* ,xx/xx/xx ,1052 ,The Black Peril - Pt 5
* ,xx/xx/xx ,1053 ,The Black Peril - Pt 6
* ,xx/xx/xx ,1054 ,The Black Peril - Pt 7
* ,xx/xx/xx ,1055 ,The Black Peril - Pt 8
* ,xx/xx/xx ,1056 ,The Black Peril - Pt 9
* ,xx/xx/xx ,1057 ,The Black Peril - Pt 10
* ,xx/xx/xx ,1058 ,The Black Peril - Pt 11
* ,xx/xx/xx ,1059 ,The Black Peril - Pt 12
* ,xx/xx/xx ,1060 ,The Black Peril - Pt 13
* ,xx/xx/xx ,1061 ,The Black Peril - Pt 14
* ,xx/xx/xx ,1062 ,The Black Peril - Pt 15
* ,xx/xx/xx ,1063 ,The Black Peril - Pt 16
* ,xx/xx/xx ,1064 ,The Black Peril - Pt 17
* ,xx/xx/xx ,1065 ,The Black Peril - Pt 18
* ,xx/xx/xx ,1066 ,The Black Peril - Pt 19
* ,xx/xx/xx ,1067 ,The Black Peril - Pt 20
* ,xx/xx/xx ,1068 ,The Black Peril - Pt 21
* ,xx/xx/xx ,1069 ,The Black Peril - Pt 22
* ,xx/xx/xx ,1070 ,The Black Peril - Pt 23
* ,xx/xx/xx ,1071 ,The Black Peril - Pt 24
* ,xx/xx/xx ,1072 ,The Black Peril - Pt 25
* ,xx/xx/xx ,1073 ,The Black Peril - Pt 26
* ,xx/xx/xx ,1074 ,The Black Peril - Pt 27
* ,xx/xx/xx ,1075 ,The Black Peril - Pt 28
* ,xx/xx/xx ,1076 ,The Black Peril - Pt 29
* ,xx/xx/xx ,1077 ,The Black Peril - Pt 30
* ,xx/xx/xx ,1078 ,The Black Peril - Pt 31
* ,xx/xx/xx ,1079 ,The Black Peril - Pt 32
* ,xx/xx/xx ,1080 ,The Black Peril - Pt 33
* ,xx/xx/xx ,1081 ,The Black Peril - Pt 34
* ,xx/xx/xx ,1082 ,The Black Peril - Pt 35
* ,xx/xx/xx ,1083 ,The Black Peril - Pt 36
* ,xx/xx/xx ,1084 ,The Black Peril - Pt 37
* ,xx/xx/xx ,1085 ,The Black Peril - Pt 38
* ,xx/xx/xx ,1086 ,The Black Peril - Pt 39
* ,xx/xx/xx ,1087 ,In The Blue - Pt 1
* ,xx/xx/xx ,1088 ,In The Blue - Pt 2
* ,xx/xx/xx ,1089 ,In The Blue - Pt 3
* ,xx/xx/xx ,1090 ,In The Blue - Pt 4
* ,xx/xx/xx ,1091 ,In The Blue - Pt 5
* ,xx/xx/xx ,1092 ,In The Blue - Pt 6
* ,xx/xx/xx ,1093 ,In The Blue - Pt 7
* ,xx/xx/xx ,1094 ,In The Blue - Pt 8
* ,xx/xx/xx ,1095 ,In The Blue - Pt 9
* ,xx/xx/xx ,1096 ,In The Blue - Pt 10
* ,xx/xx/xx ,1097 ,In The Blue - Pt 11
* ,xx/xx/xx ,1098 ,In The Blue - Pt 12
* ,xx/xx/xx ,1099 ,In The Blue - Pt 13
* ,xx/xx/xx ,1100 ,In The Blue - Pt 14
* ,xx/xx/xx ,1101 ,In The Blue - Pt 15
* ,xx/xx/xx ,1102 ,In The Blue - Pt 16
* ,xx/xx/xx ,1103 ,In The Blue - Pt 17
* ,xx/xx/xx ,1104 ,In The Blue - Pt 18
* ,xx/xx/xx ,1105 ,In The Blue - Pt 19
* ,xx/xx/xx ,1106 ,In The Blue - Pt 20
* ,xx/xx/xx ,1107 ,In The Blue - Pt 21
* ,xx/xx/xx ,1108 ,In The Blue - Pt 22
* ,xx/xx/xx ,1109 ,In The Blue - Pt 23
* ,xx/xx/xx ,1110 ,In The Blue - Pt 24
* ,xx/xx/xx ,1111 ,In The Blue - Pt 25
* ,xx/xx/xx ,1112 ,In The Blue - Pt 26
* ,xx/xx/xx ,1113 ,In The Blue - Pt 27
* ,xx/xx/xx ,1114 ,In The Blue - Pt 28
* ,xx/xx/xx ,1115 ,In The Blue - Pt 29
* ,xx/xx/xx ,1116 ,In The Blue - Pt 30
* ,xx/xx/xx ,1117 ,In The Blue - Pt 31
* ,xx/xx/xx ,1118 ,In The Blue - Pt 32
* ,xx/xx/xx ,1119 ,In The Blue - Pt 33
* ,xx/xx/xx ,1120 ,In The Blue - Pt 34
* ,xx/xx/xx ,1121 ,In The Blue - Pt 35
* ,xx/xx/xx ,1122 ,In The Blue - Pt 36
* ,xx/xx/xx ,1123 ,In The Blue - Pt 37
* ,xx/xx/xx ,1124 ,In the Gobi - Pt 1
* ,xx/xx/xx ,1125 ,In the Gobi - Pt 2
* ,xx/xx/xx ,1126 ,In the Gobi - Pt 3
* ,xx/xx/xx ,1127 ,In the Gobi - Pt 4
* ,xx/xx/xx ,1128 ,In the Gobi - Pt 5
* ,xx/xx/xx ,1129 ,In the Gobi - Pt 6
* ,xx/xx/xx ,1130 ,In the Gobi - Pt 7
* ,xx/xx/xx ,1131 ,In the Gobi - Pt 8
* ,xx/xx/xx ,1132 ,In the Gobi - Pt 9
* ,xx/xx/xx ,1133 ,In the Gobi - Pt 10
* ,xx/xx/xx ,1134 ,In the Gobi - Pt 11
* ,xx/xx/xx ,1135 ,In the Gobi - Pt 12
* ,xx/xx/xx ,1136 ,In the Gobi - Pt 13
* ,xx/xx/xx ,1137 ,In the Gobi - Pt 14
* ,xx/xx/xx ,1138 ,In the Gobi - Pt 15
* ,xx/xx/xx ,1139 ,In the Gobi - Pt 16
* ,xx/xx/xx ,1140 ,In the Gobi - Pt 17
* ,xx/xx/xx ,1141 ,In the Gobi - Pt 18
* ,xx/xx/xx ,1142 ,In the Gobi - Pt 19
* ,xx/xx/xx ,1143 ,In the Gobi - Pt 20
* ,xx/xx/xx ,1144 ,In the Gobi - Pt 21
* ,xx/xx/xx ,1145 ,In the Gobi - Pt 22
* ,xx/xx/xx ,1146 ,In the Gobi - Pt 23
* ,xx/xx/xx ,1147 ,In the Gobi - Pt 24
* ,xx/xx/xx ,1148 ,In the Gobi - Pt 25
* ,xx/xx/xx ,1149 ,In the Gobi - Pt 26
* ,xx/xx/xx ,1150 ,In the Gobi - Pt 27
* ,xx/xx/xx ,1151 ,In the Gobi - Pt 28
* ,xx/xx/xx ,1152 ,In the Gobi - Pt 29
* ,xx/xx/xx ,1153 ,In the Gobi - Pt 30
* ,xx/xx/xx ,1154 ,In the Gobi - Pt 31
* ,xx/xx/xx ,1155 ,In the Gobi - Pt 32
* ,xx/xx/xx ,1156 ,In the Gobi - Pt 33
* ,xx/xx/xx ,1157 ,In the Gobi - Pt 34
* ,xx/xx/xx ,1158 ,In the Gobi - Pt 35
* ,xx/xx/xx ,1159 ,In the Gobi - Pt 36
* ,xx/xx/xx ,1160 ,In the Gobi - Pt 37
* ,xx/xx/xx ,1161 ,In the Gobi - Pt 38
* ,xx/xx/xx ,1162 ,In the Gobi - Pt 39
* ,xx/xx/xx ,1163 ,In the Gobi - Pt 40
* ,xx/xx/xx ,1164 ,In the Gobi - Pt 41
* ,xx/xx/xx ,1165 ,The Enchanted Island - Pt 1
* ,xx/xx/xx ,1166 ,The Enchanted Island - Pt 2
* ,xx/xx/xx ,1167 ,The Enchanted Island - Pt 3
* ,xx/xx/xx ,1168 ,The Enchanted Island - Pt 4
* ,xx/xx/xx ,1169 ,The Enchanted Island - Pt 5
* ,xx/xx/xx ,1170 ,The Enchanted Island - Pt 6
* ,xx/xx/xx ,1171 ,The Enchanted Island - Pt 7
* ,xx/xx/xx ,1172 ,The Enchanted Island - Pt 8
* ,xx/xx/xx ,1173 ,The Enchanted Island - Pt 9
* ,xx/xx/xx ,1174 ,The Enchanted Island - Pt 10
* ,xx/xx/xx ,1175 ,The Enchanted Island - Pt 11
* ,xx/xx/xx ,1176 ,The Enchanted Island - Pt 12
* ,xx/xx/xx ,1177 ,The Enchanted Island - Pt 13
* ,xx/xx/xx ,1178 ,The Enchanted Island - Pt 14
