Exists, Date, #, Episode Name
* ,46/06/12 ,   1 ,Sad Sack Returns Home from the Army
* ,46/06/19 ,   2 ,Domestic Science School
  ,46/06/26 ,   3 ,--- (decides to build his own home)
  ,46/07/03 ,   4 ,--- (Lucy becomes enamored of a movie hero)
  ,46/07/10 ,   5 ,
  ,46/07/17 ,   6 ,
  ,46/07/24 ,   7 ,--- (agrees to wed a heart-broken French actress)
  ,46/07/31 ,   8 ,
  ,46/08/07 ,   9 ,--- (buys a cab and tangles with the law)
* ,46/08/14 ,  10 ,Liberty Bell Party (aka-Sad Sack Runs For Mayor)
  ,46/08/21 ,  11 ,--- (finds to his dismay that he has a rival for the affections of Lucy Twitchell)
  ,46/08/28 ,  12 ,--- (Sad Sack & gal Lucy find road to romance rocky)
  ,46/09/04 ,  13 ,
