Exists, Date, #, Episode Name
* ,xx/xx/xx ,   1 ,Labor Personnel Relations
* ,xx/xx/xx ,   2 ,A Good Man's Anger
* ,xx/xx/xx ,   3 ,Who Is My Neighbor
* ,xx/xx/xx ,   4 ,Love Children
* ,xx/xx/xx ,   5 ,Laugh and the World Laughs with You
* ,xx/xx/xx ,   6 ,A Friend in Need
* ,xx/xx/xx ,   7 ,The Purpose to Live
* ,xx/xx/xx ,   8 ,Apart From
* ,xx/xx/xx ,   9 ,Farm Couple Adopts
* ,xx/xx/xx ,  10 ,Mixed Race
* ,xx/xx/xx ,  11 ,Good Samaritan of the Highway
* ,xx/xx/xx ,  12 ,Blend Ethnic Background
* ,xx/xx/xx ,  13 ,Boy's Mother Dies
* ,xx/xx/xx ,  14 ,Child Abused
* ,xx/xx/xx ,  15 ,Kindness and Understanding
* ,xx/xx/xx ,  16 ,Parents and Juvenile Deliquency
* ,xx/xx/xx ,  17 ,Parents and Teenagers
