Exists, Date, #, Episode Name
  ,42/10/14 ,     ,First Episode
  ,42/10/21 ,     ,
  ,42/10/28 ,     ,
  ,42/11/04 ,     ,
  ,42/11/11 ,     ,
  ,42/11/18 ,     ,
  ,42/11/25 ,     ,
  ,42/12/02 ,     ,
  ,42/12/09 ,     ,
  ,42/12/16 ,     ,
  ,42/12/23 ,     ,
  ,42/12/30 ,     ,
  ,43/01/06 ,     ,
* ,43/01/13 ,     ,2043
  ,43/01/20 ,     ,
  ,43/01/27 ,     ,
  ,43/02/03 ,     ,
  ,43/02/10 ,     ,
  ,43/02/17 ,     ,
  ,43/02/24 ,     ,
* ,43/03/03 ,     ,Zero Is up a Tree
  ,43/03/10 ,     ,
  ,43/03/17 ,     ,
  ,43/03/24 ,     ,
  ,43/03/31 ,     ,
  ,43/04/07 ,     ,
  ,43/04/14 ,     ,
  ,43/04/21 ,     ,
  ,43/04/28 ,     ,
  ,43/05/05 ,     ,
  ,43/05/12 ,     ,
  ,43/05/19 ,     ,
  ,43/05/26 ,     ,
  ,43/06/02 ,     ,
  ,43/06/09 ,     ,
  ,43/06/16 ,     ,
  ,43/06/23 ,     ,
  ,43/06/30 ,     ,
* ,43/07/07 ,     ,
  ,43/07/14 ,     ,
  ,43/07/21 ,     ,
  ,43/07/28 ,     ,
  ,43/08/04 ,     ,
  ,43/08/11 ,     ,
  ,43/08/18 ,     ,
  ,43/08/25 ,     ,
  ,43/09/01 ,     ,
  ,43/09/08 ,     ,
  ,43/09/15 ,     ,
  ,43/09/22 ,     ,
  ,43/09/29 ,     ,
* ,43/10/06 ,   4 ,First Tune - This Is the Army, Mr Jones
  ,43/10/13 ,     ,
  ,43/10/20 ,     ,
  ,43/10/27 ,     ,
  ,43/11/03 ,     ,
  ,43/11/10 ,     ,
  ,43/11/17 ,     ,
* ,43/11/24 ,  11 ,First Tune - Alexander's Ragtime Band
  ,43/12/01 ,     ,
  ,43/12/08 ,     ,
  ,43/12/15 ,     ,
  ,43/12/22 ,     ,
  ,43/12/29 ,     ,
  ,44/01/05 ,     ,
  ,44/01/12 ,     ,
  ,44/01/19 ,     ,
  ,44/01/26 ,     ,
* ,44/02/02 ,  21 ,First Tune - Aurora
* ,44/02/09 ,  22 ,First Tune - Mimi
  ,44/02/16 ,     ,
  ,44/02/23 ,     ,
  ,44/03/01 ,     ,
* ,44/03/08 ,  26 ,First Tune - Traditional Irish Jig
  ,44/03/15 ,     ,
  ,44/03/22 ,     ,
  ,44/03/29 ,     ,
  ,44/04/05 ,     ,
* ,44/04/12 ,     ,First Tune - April Showers
* ,44/04/19 ,     ,First Tune - Singin' in the Rain
  ,44/04/26 ,     ,
  ,44/05/02 ,     ,
  ,44/05/09 ,     ,
* ,44/05/17 ,  35 ,First Tune - Blow, Gabriel, Blow
* ,44/05/24 ,  36 ,First Tune - Hallelujah
* ,44/05/30 ,     ,First Tune - I Got Rhythm
