Exists, Date, #, Episode Name
  ,45/07/06 ,   1 ,Guest - Bing Crosby
  ,45/07/12 ,   2 ,
  ,45/07/20 ,   3 ,Guest - Groucho Marx
  ,45/07/27 ,   4 ,Guest - Martha Raye
  ,45/08/03 ,   5 ,Guest - Van Johnson
  ,45/08/10 ,   6 ,Guest - Cass Daley
* ,45/08/17 ,   7 ,Guest - Ed Gardner
* ,45/08/24 ,   8 ,Guest - Frank Sinatra
* ,45/08/31 ,   9 ,Guest - Joan Davis
* ,45/09/07 ,  10 ,Guest - Dinah Shore
