Exists, Date, #, Episode Name
* ,41/04/18 ,     ,Do Do the Eskimo Is Hired
* ,44/07/05 ,     ,Stumpy Is Teaching Pee Wee Jiu Jitsu, So He Can Fight Gorilla Joe
* ,44/08/29 ,     ,Gorilla Joe Is Going to Sue Papa Johnson and Is Taking Inventory of His
* ,44/09/20 ,     ,Papa Johnson Tries to Increase His Changes of Selling His 'Race Horse'
* ,45/03/20 ,     ,The Good Ship 'Rolling Bones,' with the Johnson Family Aboard, Is Under
* ,45/03/21 ,     ,The Family Is on the High Seas on the Way to the Piggly Wiggly Islands
* ,45/07/11 ,     ,Pee Wee and Lucy Can't Seem to Agree About Anything on a Troublesome Shopping
* ,45/08/14 ,     ,Jimmy Scribner Plays All the Parts
* ,48/02/11 ,     ,Pee Wee, Papa Johnson and All the Residents of Chickazola Are on a Sailboat
* ,49/03/14 ,     ,Brother Johnson Is Sharing a Jail Cell with Professor Potash
* ,49/03/18 ,     ,A Repeal of the Suffragette Law
* ,49/07/25 ,     ,There's a Problem with Domestic Living Arrangements in Brother Johnson's
* ,49/08/10 ,     ,Down in Chickazola, Brother Johnson Plans to Complete His College Education
* ,49/08/23 ,     ,Pee Wee and Brother Johnson Have Gotten Involved with a Gang of Counterfeiters
* ,49/08/25 ,     ,Pee Wee and Brother Johnson Think That the Stupid Banker May in Fact Be
* ,49/08/25 ,     ,The Lawyer Philpotts Deposits the Money and Plans to Keep It All
* ,49/08/26 ,     ,Brother Johnson Interviews the Counterfeiter
* ,49/09/06 ,     ,Brother Johnson Gets a Thousand Dollar Reward for Capturing the Gang of Counterfeiters
* ,49/09/07 ,     ,Brother Johnson Tries to Explain What Happened to the Seventeen Hundred Fifty Dollars
* ,49/09/09 ,     ,Brother Johnson Begins His Career as a Confidence Man
* ,49/09/16 ,     ,Brother Johnson Is Going to Start a Television Station Right Here in Chickazola
* ,49/09/19 ,     ,Brother Johnson Plans to Start a Television Station in Chickazola
* ,49/09/21 ,     ,Brother Johnson Fears That He's Going to Jail for Twenty Years, but Lawyer
* ,49/09/22 ,     ,The Entire Johnson Family and All Their Friends Are Leaving Chickazola
* ,xx/xx/xx ,   1 ,Professor Potashs Deep Dark Secret
* ,xx/xx/xx ,   2 ,Saving Lawyer, Professor and Papa
* ,xx/xx/xx ,   3 ,City Honors Papa
* ,xx/xx/xx ,   4 ,Arrange for a Place to Stay
* ,xx/xx/xx ,   5 ,Two Weeks Later
* ,xx/xx/xx ,   6 ,Papa Seeks Lawyer on Papa
* ,xx/xx/xx ,   7 ,Two Government Men Look for Papa
* ,xx/xx/xx ,   8 ,Living Expenses
* ,xx/xx/xx ,   9 ,Papa Changes His Ways
* ,xx/xx/xx ,  10 ,Place It and Sell It
* ,xx/xx/xx ,  11 ,The First Sale
* ,xx/xx/xx ,  12 ,Counterfeit Plates
* ,xx/xx/xx ,  13 ,Pee Wee Won't Give up Plates
* ,xx/xx/xx ,  14 ,Shaking in Their Boots
* ,xx/xx/xx ,  15 ,Pee Wee Wants to Turn Plates Over
* ,xx/xx/xx ,  16 ,Twentyfour Hours
* ,xx/xx/xx ,  17 ,Lawyer Has Killed Someone
* ,xx/xx/xx ,  18 ,Back to Jail
* ,xx/xx/xx ,  19 ,Someone Under Peewee's Bed
* ,xx/xx/xx ,  20 ,Horrible Nightmare
* ,xx/xx/xx ,  21 ,Reunion with Mama
* ,xx/xx/xx ,  22 ,Little Purple Man
* ,xx/xx/xx ,  23 ,Peace for the World
* ,xx/xx/xx ,  24 ,What Horse to Bet On
* ,xx/xx/xx ,  26 ,Long Shot Wins
* ,xx/xx/xx ,  27 ,Boxing Match Bet
* ,xx/xx/xx ,  28 ,Outcome Of Presidental Election
* ,xx/xx/xx ,  29 ,Dr I Q
* ,xx/xx/xx ,  30 ,Curing Dr I Q
* ,xx/xx/xx ,  31 ,Fixing Up Peewee's Flat
* ,xx/xx/xx ,  32 ,Peewee Refuses All Efforts
* ,xx/xx/xx ,  33 ,Hospitality
