Exists, Date, #, Episode Name
  ,48/10/03 ,   1 ,John Jones, Vice President
  ,48/10/10 ,   2 ,The Long Way Home
  ,48/10/17 ,   3 ,Destination
  ,48/10/24 ,   4 ,The Flowering Thorn
  ,48/10/31 ,   5 ,By-Line - Nellie Bly
* ,48/11/07 ,   6 ,The Deeper Shadow
  ,48/11/14 ,   7 ,Moonlight Sonata
  ,48/11/21 ,   8 ,The Secret Diary of Mystress Croft
  ,48/11/28 ,   9 ,The Driven Snow
  ,48/12/05 ,  10 ,Mink Gloves
  ,48/12/12 ,  11 ,Lady Alice and the Dog Biscuit
* ,48/12/19 ,  12 ,Lullaby of Christmas
  ,48/12/26 ,  13 ,Unfinished Business
  ,49/01/02 ,  14 ,Yesterday's Town
  ,49/01/09 ,  15 ,Some Small Nobility
  ,49/01/16 ,  16 ,Joyful Bum
  ,49/01/23 ,  17 ,Post Mortem
  ,49/01/30 ,  18 ,The Man on the Third Floor
  ,49/02/06 ,  19 ,The Trouble with Luke Casper
  ,49/02/13 ,  20 ,Appointment in Springfield
  ,49/02/20 ,  21 ,Three Hours
  ,49/02/27 ,  22 ,The Asking Place
* ,49/03/06 ,  23 ,Impact
  ,49/03/13 ,  24 ,Pink Peril
  ,49/03/20 ,  25 ,Fun with Dynamite
  ,49/03/27 ,  26 ,The Capture of Kitty Stone
  ,49/04/03 ,  27 ,Angel
  ,49/04/10 ,  28 ,The Word
  ,49/04/17 ,  29 ,Easter Bonnet
  ,49/04/24 ,  30 ,The Love Tree
  ,49/05/01 ,  31 ,The Storm and the Cypress
  ,49/05/08 ,  32 ,Big Ben
* ,49/05/15 ,  33 ,Break-Down
  ,49/05/22 ,  34 ,Yo, Ho, Ho for Emily
  ,49/05/29 ,  35 ,Luck Is a Lady
* ,49/06/05 ,  36 ,My Man Godfrey
  ,49/06/12 ,  37 ,Exit Linda
  ,49/06/19 ,  38 ,Petticoat Fever
  ,49/06/26 ,  38 ,Encore
  ,49/07/03 ,  39 ,One Life to Lose
  ,49/07/10 ,  40 ,Dulcy
* ,49/07/17 ,  41 ,I Give You Maggie
  ,49/07/24 ,  42 ,Rebecca
  ,49/07/31 ,  43 ,To Mary, with Love
  ,49/08/07 ,  44 ,Hold Back the Dawn
  ,49/08/14 ,  45 ,The Wookey
  ,49/08/21 ,  46 ,Penny Serenade
  ,49/08/28 ,  47 ,The Firebrand
  ,49/09/04 ,  48 ,The Big Job
  ,49/09/11 ,  49 ,The Uninvited Guest
  ,49/09/18 ,  50 ,The Devil and Daniel Webster
* ,49/09/25 ,  51 ,Seventh Heaven
  ,49/10/02 ,  52 ,Love Affair
  ,49/10/09 ,  53 ,Berkeley Square
  ,49/10/16 ,  54 ,One Sunday Afternoon
  ,49/10/23 ,  55 ,Mary of Scotland
* ,49/10/30 ,  56 ,Winterset
  ,49/11/06 ,  58 ,My Favorite Wife
  ,49/11/13 ,  59 ,Farewell to Arms
  ,49/11/20 ,  60 ,Barretts of Wimpole Street
  ,49/11/27 ,  61 ,Yellow Jack
  ,49/12/11 ,  62 ,Mrs Moonlight
  ,49/12/18 ,  63 ,The Promise
  ,49/12/25 ,  64 ,The Small One
* ,50/01/01 ,  65 ,The Great Gatsby
  ,50/01/08 ,  66 ,Eliza
  ,50/01/15 ,  67 ,George Washington Slept Here
  ,50/01/22 ,  68 ,Ballerina
* ,50/01/29 ,  69 ,The Short, Happy Life of Francis Macomber
* ,50/02/05 ,  70 ,Night Must Fall
  ,50/02/12 ,  71 ,Skylark
  ,50/02/19 ,  72 ,Mrs Parkington
* ,50/02/26 ,  73 ,Philadelphia Story
