Exists, Date, #, Episode Name
  ,36/09/09 ,     ,First Episode
  ,36/09/10 ,     ,
  ,37/05/06 ,     ,
  ,37/06/23 ,     ,
  ,37/06/24 ,     ,
  ,39/01/07 ,     ,
  ,39/02/21 ,     ,
  ,39/04/16 ,     ,
  ,39/05/07 ,     ,
  ,39/05/20 ,     ,
  ,39/05/28 ,     ,
  ,39/06/24 ,     ,
  ,39/07/09 ,     ,
  ,39/07/10 ,     ,
  ,39/09/18 ,     ,
  ,43/05/29 ,     ,
  ,44/03/25 ,     ,
  ,44/04/01 ,     ,
* ,44/06/10 ,     ,First Song - Sweet and Lovely
  ,45/01/06 ,     ,
  ,46/10/21 ,     ,
* ,46/xx/xx , 103 ,First Song - Top Hat, White Tie and Tails
* ,46/xx/xx , 104 ,First Song - Sioux City Sue
* ,46/xx/xx , 105 ,First Song - Boo Hoo
* ,46/xx/xx , 105 ,First Song - Is It True What They Say About Dixie
* ,46/xx/xx , 106 ,First Song - I'm Putting All My Eggs in One Basket
* ,46/xx/xx , 106 ,First Song - Why
* ,46/xx/xx , 107 ,First Song - Five Foot Two
* ,46/xx/xx , 108 ,First Song - I Love You, I Love You, I Love You
* ,46/xx/xx , 113 ,First Song - That's the Glory of Love
* ,46/xx/xx , 114 ,First Song - Fit as a Fiddle
* ,46/xx/xx , 117 ,First Song - Footloose And Fancy Free
* ,46/xx/xx , 118 ,First Song - Sweet Sue
* ,46/xx/xx , 121 ,First Song - I'm Looking over a Four Leaf Clover
* ,46/xx/xx , 122 ,First Song - Sing Something Simple
  ,47/04/11 ,     ,
  ,47/11/04 ,     ,Last Episode
* ,xx/xx/xx ,   4 ,Art Tatum, Barry Wood, Cornelia Otis Skinner, Ray Bloch and His
