Exists, Date, #, Episode Name
* ,44/02/05 ,   1 ,The Discovery
* ,44/02/12 ,   2 ,The Discoverers
* ,44/02/19 ,   3 ,The Amerigo
* ,44/02/26 ,   4 ,The Discovered
* ,44/03/04 ,   5 ,The Indians View The Arrival
* ,44/03/11 ,   6 ,The War On Indians
* ,44/03/18 ,   7 ,The Accounts From The New-Found Land
* ,44/03/25 ,   8 ,The Settlement
* ,44/04/01 ,   9 ,The Colonial Experiment
* ,44/04/08 ,  10 ,The Wars Of Freedom
* ,44/04/15 ,  11 ,The Westward Thrust
* ,44/04/22 ,  12 ,The Moving Frontier
* ,44/04/29 ,  13 ,Out Of Slavery
  ,44/05/06 ,     ,No Broadcast
* ,44/05/13 ,  14 ,The Infection Of Freedom
* ,44/05/20 ,  15 ,Shape Of Loyalists
* ,44/05/27 ,  16 ,Arms And The Man
* ,44/06/03 ,  17 ,Against Spiritual Tyranny
* ,44/06/10 ,  18 ,The Industrial Revolution Begins
* ,44/06/17 ,  19 ,Doubling Our Heritage
* ,44/07/01 ,  20 ,Western Waters And Westward Farers
* ,44/07/08 ,  21 ,Oregon And China
* ,44/07/15 ,  22 ,Bastile Day - The Franco-American Amity
* ,45/07/06 ,  23 ,The Admiral
* ,45/07/13 ,  24 ,The Names For The Rivers
* ,45/07/20 ,  25 ,The American Name
* ,45/07/27 ,  26 ,The Discovered
* ,45/08/03 ,  26 ,The American Gods
* ,45/08/10 ,  28 ,The Many Dead
* ,45/08/17 ,  29 ,Ripe Strawberries and Gooseberries and Sweet Single Roses
* ,45/08/24 ,  30 ,Between Silence And The Surf
* ,45/08/31 ,  31 ,Nat Bacon's Bones
* ,45/09/07 ,  33 ,Socorro, When Your Sons Forget
