Exists, Date, #, Episode Name
* ,68/08/29 ,   1 ,An Unexpected Party
* ,68/09/06 ,   2 ,Out of the Frying Pan, into the Fire
* ,68/09/13 ,   3 ,Riddles in the Dark
* ,68/09/20 ,   4 ,Strange Lodgings
* ,68/09/27 ,   5 ,Barrels out of Bond
* ,68/10/03 ,   6 ,A Warm Welcome
* ,68/10/10 ,   7 ,The Gathering of Clouds
* ,68/10/17 ,   8 ,Final Chapter
