Exists, Date, #, Episode Name
* ,43/12/05 ,   1 ,Winged Victory
* ,43/12/12 ,   2 ,Carmen Jones
* ,43/12/19 ,   3 ,First Song - Nutcracker Suite
* ,43/12/26 ,   4 ,New Year's Message
* ,44/01/02 ,   5 ,First Song - Valencia
* ,44/01/09 ,   6 ,Moonlight
* ,44/01/16 ,   7 ,Can You Top This
* ,44/01/23 ,   8 ,First Song - Oh What A Beautiful Morning
* ,44/01/30 ,   9 ,
* ,44/02/06 ,  10 ,First Song - Besame Mucho
* ,44/02/13 ,  11 ,Jane Eyre
* ,44/02/20 ,  12 ,The Song Of Bernadette
* ,44/02/27 ,  13 ,First Song - I Want To Be Happy
* ,44/03/05 ,  14 ,First Song - Take It Easy
* ,44/03/12 ,  15 ,First Song - Limehouse Blues
* ,44/03/19 ,  16 ,
* ,44/03/26 ,  17 ,First Song - I'll Get By
* ,44/04/02 ,  18 ,First Song - Lady Of Spain
  ,44/04/09 ,  19 ,
  ,44/04/16 ,  20 ,
* ,44/04/23 ,  21 ,
* ,44/04/30 ,  22 ,No Uncommon Clay
* ,44/05/07 ,  23 ,Moral Victory
* ,44/05/14 ,  24 ,In The Fog
* ,44/05/21 ,  25 ,Times Square
* ,44/05/28 ,  26 ,First Song - Rio Rita
* ,44/06/04 ,  27 ,Take It Easy
* ,44/06/11 ,  28 ,First Song - Salt Water Cowboy
* ,44/06/18 ,  29 ,First Song - Louise
* ,44/06/25 ,  30 ,Don't Sweetheart Me
* ,44/07/02 ,  31 ,Stars And Stripes Forever
* ,44/07/09 ,  32 ,Lady Of Spain
* ,44/07/16 ,  33 ,Make Way For Tomorrow
* ,44/07/23 ,  34 ,First Song - I Want To Be Happy
* ,44/07/30 ,  35 ,Suzy
* ,44/08/06 ,  36 ,Is You Is
* ,44/08/13 ,  37 ,Sweet And Lovely
* ,44/08/20 ,  38 ,Take It Easy
* ,44/08/27 ,  39 ,Come Out, Come Out, Wherever You Are
* ,44/09/03 ,  40 ,Blue Room
* ,44/09/10 ,  41 ,Lady Be Good
* ,44/09/17 ,  42 ,Dance With The Dolly
* ,44/09/24 ,  43 ,All Star, All Request Program
* ,44/10/01 ,  44 ,Wilson
* ,44/10/08 ,  45 ,One Touch Of Venus
* ,44/10/15 ,  46 ,The Hall Of Fame
  ,44/10/22 ,  47 ,
  ,44/10/29 ,  48 ,
* ,44/11/05 ,  49 ,The Evil War
* ,44/11/12 ,  50 ,Condemned In Paris
* ,44/11/19 ,  51 ,Brooklyn Dodgers
* ,44/11/26 ,  52 ,The Two Mrs Carrolls
* ,44/12/03 ,  53 ,A Bell For Adano
* ,44/12/10 ,  54 ,First Anniversary Show
* ,44/12/17 ,  55 ,Judy Garland
* ,44/12/24 ,  56 ,The Happy Prince
* ,44/12/31 ,  57 ,Showboat
* ,45/01/07 ,  58 ,Now And Then
* ,45/01/14 ,  59 ,Thank Dixie For Me
* ,45/01/21 ,  60 ,Breakfast In Hollywood
* ,45/01/28 ,  61 ,Evelina
* ,45/02/04 ,  62 ,Experiment Perilous
* ,45/02/11 ,  63 ,Victor Herbert Tribute
* ,45/02/18 ,  64 ,First Song - How Deep Is The Ocean
* ,45/02/25 ,  65 ,Earl Carroll Tribute
* ,45/03/04 ,  66 ,The Tell-Tale Heart
* ,45/03/11 ,  67 ,Believe It Or Not
* ,45/03/18 ,  68 ,Vic And Sade
* ,45/03/25 ,  69 ,The Strange Case Of Robert Rappaport
* ,45/04/01 ,  70 ,The Ringling Brothers Circus
* ,45/04/08 ,  71 ,The Case Of The Perfect Frame-up
* ,45/04/15 ,  72 ,Music Loved By All The World
* ,45/04/22 ,  73 ,Alter Ego
* ,45/04/29 ,  74 ,First Song - I Know That You Know
* ,45/05/06 ,  75 ,Paul Whiteman Salute
* ,45/05/13 ,  76 ,Mother's Day Special
* ,45/05/20 ,  77 ,Major General Maurice Rose Tribute
* ,45/05/27 ,  78 ,George Gershwin Salute
* ,45/06/03 ,  79 ,
* ,45/06/10 ,  80 ,
* ,45/06/17 ,  81 ,
  ,45/06/24 ,  82 ,
* ,45/07/01 ,  83 ,
* ,45/07/08 ,  84 ,Guest - Sophie Tucker
* ,45/07/15 ,  85 ,Guest - Judy Canova
* ,45/07/22 ,  86 ,Everytime
* ,45/07/29 ,  87 ,Guest - Gloria Agostini
* ,45/08/05 ,  88 ,Landing Craft Musical
* ,45/08/12 ,  89 ,The Navajo Trail
* ,45/08/19 ,  90 ,Special Day Of Prayer And Thanksgiving
* ,45/08/26 ,  91 ,Georgia Gibb's Birthday Party
* ,45/09/02 ,  92 ,I Want To Be Happy
* ,45/09/09 ,  93 ,Deep In The Heart Of Texas
* ,45/09/16 ,  94 ,School Days
* ,45/09/23 ,  95 ,One Road Mary
* ,45/09/30 ,  96 ,
* ,45/10/07 ,  97 ,First Song - I Know Your Face By Heart
* ,45/10/14 ,  98 ,First Song - No Can Do
* ,45/10/21 ,  99 ,First Song - The Atchison, Topeka And Santa Fe
* ,45/10/28 , 100 ,First Song - Some Sunday Morning
* ,45/11/04 , 101 ,Unveiling The New Philco Products
* ,45/11/11 , 102 ,Honoring Oscar Levant
* ,45/11/18 , 103 ,Honoring Gene Kelly
* ,45/11/25 , 104 ,Honoring The Metropolitan Opera
* ,45/12/02 , 105 ,Guest - Kate Smith
* ,45/12/09 , 106 ,Guest - Eddie Cantor
* ,45/12/16 , 107 ,Guest - Judy Canova
* ,45/12/23 , 108 ,Christmas Program
* ,45/12/30 , 109 ,Guest - Sophie Tucker
* ,46/01/06 , 110 ,Guest - Ralph Bellamy
* ,46/01/13 , 111 ,Guest - Don McNeill
* ,46/01/20 , 112 ,Annual Film Critics Award
* ,46/01/27 , 113 ,Guest - Red Skelton
* ,46/02/03 , 114 ,Guests - Abbott And Costello
* ,46/02/10 , 115 ,Guest - Jerry Colonna
* ,46/02/17 , 116 ,Guest - Jack Haley
* ,46/02/24 , 117 ,Guest - Jimmy Durante
* ,46/03/03 , 118 ,Guest - Bob Crosby
* ,46/03/10 , 119 ,Guest - Hedda Hopper
* ,46/03/17 , 120 ,Guest - Lionel Barrymore
* ,46/03/24 , 121 ,Guest - Agnes Moorehead
* ,46/03/31 , 122 ,Guest - Walter Pidgeon
* ,46/04/07 , 123 ,Guest - Larry Storch
* ,46/04/14 , 124 ,Guest - Roland Young
* ,46/04/21 , 125 ,
* ,46/04/28 , 126 ,
