Exists, Date, #, Episode Name
  ,40/01/01 ,     ,(This log was originally prepared by Martin Grams)
  ,40/05/09 ,     ,Bittersweet
* ,40/05/16 ,     ,The Student Prince
  ,40/05/30 ,     ,Blossom Time
  ,40/10/05 ,   1 ,The Vagabond King (Conrad Thibault)
* ,40/10/12 ,   2 ,The Chocolate Soldier (James Melton)
  ,40/10/19 ,   3 ,Madame Butterfly (C Kellerman)
  ,40/11/09 ,   4 ,Robin Hood (J Carter)
  ,40/11/16 ,   5 ,The Desert Song (Richard Bonelli)
* ,40/11/23 ,   6 ,Eileen (James Melton)
  ,40/11/30 ,   7 ,Countess Maritza (Igor Gorin)
  ,40/12/07 ,   8 ,Sweethearts
  ,40/12/14 ,   9 ,Rio Rita (Conrad Thibault)
  ,40/12/21 ,  10 ,Rose Marie (Robert Weede)
  ,40/12/28 ,  11 ,The New Moon (Conrad Thibault)
  ,41/01/04 ,  12 ,The Chocolate Soldier
  ,41/01/11 ,  13 ,Sari (Igor Gorin)
  ,41/01/18 ,  14 ,Cyrano de Bergerac (Richard Bonelli)
  ,41/01/25 ,  15 ,Blossom Time (Igor Gorin)
  ,41/02/01 ,  16 ,Naughty Marietta (Jan Pearce)
  ,41/02/08 ,  17 ,Carmen
  ,41/02/15 ,  18 ,Countess Maritza (Igor Gorin)
  ,41/02/22 ,  19 ,My Maryland (James Melton)
  ,41/03/01 ,  20 ,I, Pagliacci (Igor Gorin)
  ,41/10/04 ,  21 ,The Merry Widow (Allan Jones)
  ,41/10/11 ,  22 ,The New Moon (Thomas L Thomas)
  ,41/10/18 ,  23 ,Sari (Igor Gorin)
  ,41/10/25 ,  24 ,Sweethearts (J Carter)
  ,41/11/01 ,  25 ,Naughty Marietta (J Carter)
  ,41/11/08 ,  26 ,The Fortune Teller (Igor Gorin)
  ,41/11/15 ,  27 ,The Desert Song (J Brownlee)
  ,41/11/22 ,  28 ,Carmen (Jan Pearce)
  ,41/11/29 ,  29 ,The Mikado (Attilio Baggiore)
  ,41/12/06 ,  30 ,Rio Rita (Thomas LThomas)
  ,41/12/13 ,  31 ,I, Pagliacci (Igor Gorin)
  ,41/12/20 ,  32 ,Babes In Toyland (Attilio Bagiore)
  ,41/12/27 ,  33 ,Orchestral Show
  ,42/01/03 ,  34 ,Eileen (Jan Pearce)
  ,42/01/10 ,  35 ,H M S Pinafore (Attilio Baggiore)
  ,42/01/17 ,  36 ,Faust (J Brownlee)
  ,42/01/24 ,  37 ,The New Moon (Thomas L Thomas)
  ,42/01/31 ,  38 ,Countess Maritza (Thomas L Thomas)
  ,42/02/07 ,  39 ,Blossom Time (Robert Weede)
  ,42/02/14 ,  40 ,Rose Of Algiers (Jan Pearce)
  ,42/02/21 ,  41 ,American Marches On - A Salute to ROTC (Charles Kullman)
  ,42/02/28 ,  42 ,My Maryland (J Brownlee)
  ,42/04/12 ,  43 ,America Loves A Melody
  ,42/10/03 ,  44 ,The New Moon (Thomas L Thomas)
  ,42/10/10 ,  45 ,The Choclate Soldiers
  ,42/10/17 ,  46 ,Rio Rita (Thomas L Thomas)
  ,42/10/24 ,  47 ,H M S Pinafore (Attilio Baggiore)
  ,42/10/31 ,  48 ,Robin Hood (Felix Knight)
  ,42/11/07 ,  49 ,La Boheme (Charles Kullman)
  ,42/11/14 ,  50 ,The Fotune Teller (Thomas L Thomas)
  ,42/11/21 ,  51 ,Mademoiselle Modiste (M Berini)
  ,42/11/28 ,  52 ,Bohemian Girl (Attilio Baggiore)
  ,42/12/05 ,  53 ,Naughty Marietta ( M Berini)
  ,42/12/12 ,  54 ,Carmen ( M Berini)
  ,42/12/19 ,  55 ,Babes In Toyland (Attilio Baggiore)
  ,42/12/26 ,  56 ,America Loves A Melody (Thomas L Thomas)
  ,43/01/02 ,  57 ,The Merry Widow
  ,43/01/09 ,  58 ,Yeoman Of The Guard (M Berini)
  ,43/01/16 ,  59 ,The Desert Song (Thomas L Thomas)
* ,43/01/23 ,  60 ,Martha (E Conley)
  ,43/01/30 ,  61 ,Sweethearts (Felix Knight)
  ,43/02/06 ,  62 ,The Vagabond King (Ruth Slater)
* ,43/02/13 ,  63 ,Faust
  ,43/02/20 ,  64 ,The Red Mill (Thomas L Thomas)
  ,43/02/27 ,  65 ,Music In The Air (Thomas L Thomas)
  ,43/03/06 ,  66 ,Madame Pompadour (M Berini)
  ,43/03/13 ,  67 ,Eileen (M Berini)
* ,43/03/20 ,  68 ,Cavalleria Rusticana (E Conley)
  ,43/03/27 ,  69 ,Bittersweet
  ,43/06/05 ,  70 ,Heritage Of Hereafter (A Raffaelli)
  ,43/06/12 ,  71 ,Paper Hearts (Nancy Carr)
  ,43/06/26 ,  72 ,Beyond The Beyond
  ,43/07/03 ,  73 ,A Century And 67 (Thomas L Thomas)
  ,43/07/10 ,  74 ,Scheherazade
* ,43/07/17 ,  75 ,Peer Gynt
  ,43/07/24 ,  76 ,A Midsummer's Night Dream
  ,43/07/31 ,  77 ,New World
  ,43/08/07 ,  78 ,Prologue To Destiny (Attilio Baggiore)
  ,43/09/11 ,  79 ,About The Girl (Attilio Baggiore)
  ,43/09/19 ,  80 ,Painted Memories (Attilio Baggiore)
  ,43/09/25 ,  81 ,Optical Enchantment
  ,43/10/02 ,  82 ,H M S Pinafore (Marion Claire)
  ,43/10/09 ,  83 ,Roberts (Thomas L Thomas)
  ,43/10/16 ,  84 ,Bittersweet (Donald Dame)
  ,43/10/20 ,  85 ,Mingon (J Gerand and E Leuning)
  ,43/10/30 ,  86 ,The Chocolate Soldier (Morton Bowe)
  ,43/11/06 ,  87 ,The Desert Song (Thomas L Thomas)
  ,43/11/13 ,  88 ,Carmen (Artili Baggiore)
  ,43/11/20 ,  89 ,Rose Marie (Artilio Baggiore)
  ,43/11/27 ,  90 ,Music In The Air (Thomas L Thomas)
  ,43/12/04 ,  91 ,Special Christmas Seal Program
* ,43/12/11 ,  92 ,The Student Prince (Bruce Foote)
  ,43/12/18 ,  93 ,Hansel And Gretel (Bruce Foote)
  ,43/12/25 ,  94 ,Christmas Music (Thomas L Thomas)
  ,44/01/01 ,  95 ,Madame Pompador (Grace Russell)
  ,44/01/08 ,  96 ,Puccini
  ,44/01/15 ,  97 ,The Vagabond King (Robert Weede)
  ,44/01/22 ,  98 ,The Belle Of New York
  ,44/01/29 ,  99 ,Naughty Mareitta (Morton Bowe)
  ,44/02/05 , 100 ,The Firefly (Artilio Baggiore)
  ,44/02/12 , 101 ,My Maryland (Bruce Foote)
  ,44/02/19 , 102 ,La Boheme (Richard Tucker)
  ,44/02/26 , 103 ,Blossom Time (Igor Gorin)
  ,44/03/04 , 104 ,Countess Mariza (Igor Gorin)
* ,44/03/11 , 105 ,The Count Of Luxemburg (Grace Russell)
  ,44/03/18 , 106 ,Sweethearts (Grace Russell)
  ,44/03/25 , 107 ,Faust (Bruce Foote)
  ,44/04/01 , 108 ,The New Moon (Bruce Foote)
  ,44/04/08 , 109 ,H M S Pinafore (Artilio Baggiore)
  ,44/04/15 , 110 ,The Merry Widow (Grace Russell)
  ,44/04/22 , 111 ,The Tales Of Hoffman (Grace Russell)
  ,44/07/01 , 113 ,Minstrel Of The Masses (Artilio Baggiore)
  ,44/07/08 , 114 ,A Midsummer Night's Dream (Artilio Baggiore)
  ,44/07/15 , 115 ,Peer Gynt (Bruce Foote)
  ,44/07/22 , 116 ,A Woman Of Arles (Bruce Foote)
  ,44/07/28 , 117 ,Prince Of Pathos (Bruce Foote)
  ,44/08/05 , 118 ,Court Of The Moon (Bruce Foote)
  ,44/08/12 , 119 ,Hertertiana Festival (Artilio Baggiore)
  ,44/08/19 , 120 ,Chicagoland Music Festival
  ,44/08/26 , 121 ,A Life In Operatasia (Bruce Foote)
  ,44/09/02 , 122 ,Rebel Of Salzburg (Bruce Foote)
  ,44/09/09 , 123 ,Pioneer Of Brooklyn (Reinhold Schmidt)
  ,44/09/16 , 124 ,D-Day 1787
  ,44/09/23 , 125 ,White Shadows (Bruce Foote)
  ,44/09/30 , 126 ,Chimes Of San Francisco (Bruce Foote)
  ,44/10/07 , 127 ,A Student At Oak Manor (Bruce Foote)
  ,44/10/14 , 128 ,Vanished Voices (Bruce Foote)
  ,44/10/21 , 129 ,Legend Of Deepwell Crossing (Bruce Foote)
  ,44/10/28 , 130 ,Peter And The Pumpkin (Bruce Foote)
  ,44/11/04 , 131 ,The Sacred Trust Of John  Q Public (Bruce Foote)
  ,44/11/11 , 132 ,The Great Waltz (Morton Bowe)
  ,44/11/18 , 133 ,The New Moon (Bruce Foote)
  ,44/11/25 , 134 ,The Chocolate Soldier (Earl Wikie)
  ,44/12/02 , 135 ,Carmen (Bruce Foote)
* ,44/12/09 , 136 ,A Waltz Dream (Grace Russell)
* ,44/12/16 , 137 ,Sari (Igor Gorin)
  ,44/12/23 , 138 ,Hanzel And Gretel (Bruce Foote)
  ,44/12/30 , 139 ,The Belle Of New York (Earl Wilkie)
  ,45/01/13 , 140 ,Naughty Marietta (A Raffellai)
  ,45/01/20 , 141 ,The Queen Of Spades (M Berini)
  ,45/01/27 , 143 ,La Tosca (Bruce Foote)
  ,45/02/10 , 144 ,Good News (Bruce Foote)
  ,45/02/17 , 145 ,The Desert Song (Bruce Foote)
  ,45/02/24 , 146 ,Gypsy Love (Bruce Foote)
  ,45/03/03 , 147 ,Mignon (Richard Tucker)
  ,45/03/10 , 148 ,The Merry Widow (Grace Russell)
  ,45/03/17 , 149 ,Eileen (Morton Bowe)
  ,45/03/24 , 150 ,Faust (J Laderonte)
  ,45/03/31 , 151 ,Girl Crazy (Morton Bowe)
* ,45/04/07 , 152 ,Hit The Deck (Penny Perry)
  ,45/04/21 , 153 ,The Three Musketeers (Igor Gorin)
  ,45/04/28 , 154 ,Mademoiselle Modiste (Bruce Foote)
  ,45/05/05 , 155 ,Maytime (Richard Tucker)
  ,45/05/12 , 156 ,Sweetshearts
  ,45/05/19 , 157 ,The Vagabond King (Bruce Foote)
  ,45/05/26 , 158 ,Bittersweet (A Raflaletti)
  ,45/06/16 , 159 ,Gershwin Music (Bruce Foote)
  ,45/07/28 , 160 ,Valley Of The Shadow (Ruth Slater)
  ,45/08/11 , 161 ,Starlight Interlude (Bruce Foote)
  ,45/08/18 , 162 ,Chicagoland Music Festival (Gladys Swarthout)
  ,45/09/01 , 163 ,Prince Of Pathos (Marion Claire)
  ,45/09/15 , 164 ,Debussy Fantasy (A Raffaeli)
  ,45/09/22 , 165 ,The Song Of Norway (Bruce Pointe)
  ,45/09/29 , 166 ,Naughty Marietta (Morton Bowe)
  ,45/10/06 , 167 ,Carmen (Richard Tucker)
  ,45/10/13 , 168 ,La Boheme (Richard Tucker)
  ,45/10/20 , 169 ,Music In The Air (Bruce Foote)
  ,45/10/27 , 170 ,The Gypsy Princess (Richard Tucker)
  ,45/11/03 , 171 ,Bittersweet (Allan Jones)
  ,45/11/17 , 173 ,The Vagabond (Bruce Foote)
  ,45/11/24 , 174 ,Gypsy Love (Bruce Foote)
  ,45/12/01 , 175 ,The Prince Of Pilsen (A Raflaelli)
  ,45/12/08 , 176 ,The Three Musketeers (Bruce Foote)
  ,45/12/15 , 177 ,Hansel And Gretel
  ,45/12/22 , 178 ,Babes In Toyland (A Raffaelli)
  ,45/12/29 , 179 ,Girl Crazy (Skip Farrell)
  ,46/01/05 , 180 ,Sweethearts (Bruce Foote)
  ,46/01/12 , 181 ,Lohengrin (Morton Bowe)
  ,46/01/19 , 182 ,The Merry Widow (Thomas Hayward)
  ,46/01/26 , 183 ,The Barter Bride (Morton Bowe)
  ,46/02/02 , 184 ,Rio Rita (Bruce Foote)
  ,46/02/09 , 185 ,Madame Butterfly (Richard Tucker)
  ,46/02/16 , 186 ,
  ,46/02/23 , 187 ,Othello (Bruce Foote)
  ,46/03/02 , 188 ,The Mikado (A Faffaelli)
  ,46/03/09 , 189 ,Secret Of Suzanne (J Huchn)
  ,46/03/16 , 190 ,Eileen (Morton Bowe)
  ,46/03/30 , 191 ,Sari (Morton Bowe)
  ,46/04/06 , 192 ,Sari (Morton Bowe)
  ,46/04/13 , 193 ,Cavalleria Rusicana (Richard Tucker)
  ,46/04/20 , 194 ,H M S Pinafore (Thomas Hayward)
  ,46/04/27 , 195 ,Faust (Thomas Hayward)
  ,46/05/04 , 196 ,The Fortune Teller (Thomas Hayward)
  ,46/05/11 , 197 ,The Gondoliers (J Tome)
  ,46/05/18 , 198 ,Mignon (Richard Tucker)
  ,46/05/25 , 199 ,Mademoiselle Modiste (A Raffaelli)
  ,46/12/14 , 200 ,Hansel And Gretel (Ruth Slater)
  ,46/12/21 , 201 ,Babes In Toyland (Andzia Kuzak)
  ,46/12/28 , 202 ,The Prince Of Pilzen (J Browne)
  ,47/01/04 , 203 ,The Merry Widow (Thomas Hayward)
  ,47/01/11 , 204 ,Rigoletto
  ,47/01/18 , 205 ,Madame Pompadour (Morton Bowe)
  ,47/01/25 , 206 ,Sweethearts (Morton Bowe)
  ,47/02/01 , 207 ,Carmen (D Beattle)
  ,47/02/08 , 208 ,
  ,47/02/25 , 209 ,The Marriage Of Figaro (D Beattle)
* ,47/03/01 , 210 ,The Gondoliers (J Carter)
* ,47/03/08 , 211 ,Naughty Marietta (Bruce Foote)
  ,47/03/15 , 212 ,Eileen (Richard Tucker)
  ,47/03/22 , 213 ,Music In The Air (Bruce Foote)
  ,47/03/29 , 214 ,Iolande (John Barclay)
  ,47/04/05 , 215 ,The Red Mill (Andzia Kuzak)
* ,47/04/12 , 216 ,Sari (Bruce Foote)
  ,47/04/19 , 217 ,The Mikado (J Carter)
  ,47/04/26 , 218 ,Cavalleria Rusticana (George Tozzi)
  ,47/05/03 , 219 ,I, Pagliacci (Morton Bowe)
  ,47/05/10 , 220 ,The Three Musketeers (Bruce Foote)
  ,47/05/17 , 221 ,Faust (Bruce Foote)
  ,47/05/24 , 222 ,Mademoiselle Modise (J Carter)
* ,47/05/31 , 223 ,The Great Waltz (Morton Bowe)
  ,47/11/01 , 224 ,Roberta (Bruce Foote)
* ,47/11/08 , 225 ,
  ,47/11/18 , 226 ,Rigoletto (E Conley)
  ,47/11/22 , 227 ,The Merry Widow (Morton Bowe)
  ,47/11/29 , 228 ,The Firefly (J Browne)
  ,47/12/05 , 229 ,Madame Butterfly (E Conley)
* ,47/12/13 , 230 ,Hansel and Gretel (Virginia Haskins)
  ,47/12/20 , 231 ,Babes In Toyland (Andzia Kuzack)
  ,47/12/27 , 232 ,Martha (Virginia Haakins)
  ,48/01/03 , 233 ,The Student Prince (Glenn Burris)
  ,48/01/10 , 234 ,I. Pagliacci (V Parker)
  ,48/01/17 , 235 ,Countess Maritza (D Bolger)
  ,48/01/24 , 236 ,Naughty Marietta (Thomas Hayward)
  ,48/01/31 , 237 ,The Marriaage Of Figaro (D Beattle)
  ,48/02/07 , 238 ,Faust (R Marshall)
  ,48/02/14 , 239 ,Sweethearts (Morton Bowe)
  ,48/02/21 , 240 ,La Travviata (Virginia Haskins)
  ,48/02/28 , 241 ,Katinka (Bruce Foote)
  ,48/03/06 , 242 ,Eileen (E Conley)
  ,48/03/13 , 243 ,The Red Mill (Bruce Foote)
* ,48/03/20 , 244 ,Sunny (Bruce Foote)
  ,48/03/27 , 245 ,H M S Pinafore (E Clements)
  ,48/04/03 , 246 ,Apple Blossom (M Stewart)
  ,48/04/10 , 247 ,The Desert Song (Bruce Foote)
  ,48/04/17 , 248 ,The Chimes Of Normandy (Glenn Burris)
* ,48/04/24 , 249 ,Blossom Time (M Delany)
  ,48/05/01 , 250 ,Cavalleria Rusticana (John Barclay)
  ,48/05/15 , 251 ,The Chocolate Soldier (Morton Bowe)
  ,48/05/22 , 252 ,The New Moon (Bruce Foote)
  ,48/06/20 , 253 ,The Girl With The Yale Eyes
* ,48/10/09 , 254 ,The Vagabond King (Nancy Carr)
  ,48/10/16 , 255 ,Il Trovatore (Selma Kaye)
  ,48/10/23 , 256 ,The Merry Widow (V Gard)
  ,48/10/30 , 257 ,Martha (E Conley)
  ,48/11/06 , 258 ,The Magic Flute (Bruce Foote)
  ,48/11/13 , 259 ,Naughty Marietta (Nancy Carr)
  ,48/11/20 , 260 ,Manon (E Conley)
  ,48/11/27 , 261 ,The Pink Lady(Morton Bowe)
* ,48/12/04 , 262 ,Good News  (Bruce Foote)
  ,48/12/11 , 263 ,Hansel And Gretel (Bruce Foote)
* ,48/12/18 , 264 ,La Boheme (Nancy Carr)
  ,48/12/25 , 265 ,Lohengrin (R Marshall)
  ,49/01/01 , 266 ,Die Fledermaus (Morton Bowe)
  ,49/01/08 , 267 ,Faust (Nancy Carr)
* ,49/01/15 , 268 ,H M S Pinafore (Bruce Foote)
  ,49/01/22 , 269 ,Aida (Bruce Foote)
* ,49/01/29 , 270 ,Sweethearts (Morton Bowe)
  ,49/02/05 , 271 ,The Chocolate Soldier (Morton Bowe)
  ,49/02/12 , 272 ,When Johnny Comes Marching Home (Nancy Carr)
  ,49/02/19 , 273 ,Sunny ( Nancy Carr)
  ,49/02/26 , 274 ,The Prince Of Pilson (J Browne)
  ,49/03/05 , 275 ,Rigoletto (Virginia Haskins)
  ,49/03/12 , 276 ,Eileen (Nancy Carr)
  ,49/03/19 , 277 ,No, No, Nanette (Bruce Foote)
  ,49/04/02 , 278 ,Rio Rita (Nancy Carr)
  ,49/04/09 , 279 ,The Mikado (Bruce Foote)
  ,49/04/16 , 280 ,Cavalleria Rusticana (Reinhold Schmidt)
  ,49/04/23 , 281 ,The New Moon (Nancy Carr)
  ,49/04/30 , 282 ,Madame Pompadour (Morton Bowe)
  ,49/05/07 , 283 ,The White Eagle (Morton Bowe)
  ,49/05/14 , 284 ,The Desert Song (S Russell)
  ,49/05/21 , 285 ,The Gondoliers (J Carter)
  ,49/05/28 , 286 ,I, Pagliacci (Nancy Carr)
* ,49/07/30 , 303 ,Music In The Air
* ,49/08/06 , 304 ,None But The Lonely Heart
* ,49/08/13 , 305 ,Two Grenadiers
  ,49/08/20 , 287 ,Chicagoland Music Festival (Nancy Carr)
  ,49/10/01 , 288 ,The Student Prnce (Nancy Carr)
  ,49/10/08 , 289 ,My Romance (Nancy Carr)
  ,49/10/15 , 290 ,La Boheme (Nancy Carr)
* ,49/10/22 , 291 ,The Mikado (John Barclay)
* ,49/10/29 , 292 ,The Pink Lady (Virginia Haskins)
* ,49/11/05 , 293 ,The Chocolate Soldier (Virginia Haskins)
* ,49/11/12 , 294 ,Madame Butterfly (Nancy Carr)
* ,49/11/19 , 295 ,The Gondoliers (J Carter)
* ,49/11/26 , 296 ,The Vagabond King (Nancy Carr)
* ,49/12/03 , 297 ,The Countess Maritza (Nancy Carr)
* ,49/12/10 , 298 ,Manon (Virginia Haskins)
* ,49/12/17 , 299 ,Hansel and Gretel (Bruce Foote)
* ,49/12/24 , 300 ,Babes in Toyland (M Hadden)
* ,49/12/31 , 301 ,The Merry Widow (Nancy Carr)
* ,50/01/06 , 302 ,Frederica (Nancy Carter)
  ,50/01/13 , 303 ,The Desert Song (Nancy Carr)
  ,50/01/21 , 304 ,Iolanthe (John Barclay)
* ,50/01/28 , 305 ,Robin Hood (Virginia Haskins)
  ,50/02/04 , 306 ,The Pirates On Penzance (John Barclay)
  ,50/02/11 , 307 ,Music In the Air (Nancy Carr)
  ,50/02/18 , 308 ,The Fortune Teller (D Gramm)
  ,50/02/25 , 309 ,The Cat And The Fiddle (Nancy Carr)
* ,50/03/04 , 310 ,No, No, Nanette (Virginia Haskins)
* ,50/03/11 , 311 ,Il Pagliacci (Nancy Carr)
  ,50/03/18 , 312 ,Naughty Marietta (Nancy Carr)
  ,50/03/25 , 313 ,Yeoman Of The Guard (John Barclay)
  ,50/04/01 , 314 ,Rose Marie (Nancy Carr)
  ,50/04/08 , 315 ,Blossom Time (Nancy Carr)
  ,50/04/15 , 316 ,The Bartered Bride (J Carter)
  ,50/04/22 , 317 ,Madamoiselle Modeste (Nancy Carr)
* ,50/04/29 , 318 ,Bittersweet (Nancy Carr)
* ,50/05/06 , 319 ,The Gypsy Princess (Nancy Carr)
  ,50/05/13 , 320 ,La Traviata (Nancy Carr)
  ,50/05/20 , 321 ,Katinka (Nancy Carr)
  ,50/05/27 , 322 ,Faust (Nancy Carr)
  ,50/06/16 , 323 ,The Life Of Robert Burns (D Gramm)
  ,50/06/24 , 324 ,Thais (Nancy Carr)
  ,50/07/01 , 325 ,Minstrel Of The Masses
  ,50/07/15 , 326 ,Swan Of Tuonela (D Poleri)
  ,50/07/22 , 327 ,Neapolitan Nights (D Poleri)
  ,50/07/29 , 328 ,Rebel Of Salzburg (Nancy Carr)
  ,50/08/05 , 329 ,In The Shadow Of The Foote (Elaine Malbin)
* ,50/08/12 , 330 ,A Midsummer Night's Dream (Ruth Slater)
* ,50/08/19 , 331 ,21st Chicagoland Music Festival (Alec Templeton)
  ,50/09/01 , 332 ,The Saga Of Casey Jones (Bruce Foote)
  ,50/10/07 , 333 ,Peter Gynt (D Gramm)
  ,50/10/21 , 334 ,The Vagabond King (Nancy Carr)
  ,50/10/28 , 335 ,Madame Butterfly (Nancy Carr)
  ,50/11/04 , 336 ,The Only Girl (L Murphy)
  ,50/11/11 , 337 ,La Boheme (Nancy Carr)
  ,50/11/18 , 338 ,The New Moon (Nancy Carr)
  ,50/11/25 , 339 ,One Touch Of Venus (Nancy Carr)
  ,50/12/02 , 340 ,My Romance (Nancy Carr)
  ,50/12/09 , 341 ,Hit The Deck (L Murphy)
  ,50/12/16 , 342 ,Hansel And Gretel (Bruce Foote)
  ,50/12/23 , 343 ,Damascus (Nancy Carr)
  ,50/12/30 , 344 ,Carmen (Bruce Foote)
* ,51/01/06 , 345 ,Adia (Bruce Foote)
  ,51/01/13 , 346 ,The Mikado (L Murphy)
  ,51/01/20 , 347 ,The Desert Song (Nancy Carr)
  ,51/01/27 , 348 ,The Blue Paradise (Bruce Foote)
  ,51/02/03 , 349 ,Bittersweet (Nancy Carr)
  ,51/02/10 , 350 ,Faust (Nancy Carr)
  ,51/02/17 , 351 ,Sweethearts (Nancy Carr)
  ,51/02/24 , 352 ,Paganini (Nancy Carr)
  ,51/03/03 , 353 ,The Red Mill (John Barclay)
  ,51/03/10 , 354 ,The Student Prince (Bruce Foote)
  ,51/03/17 , 355 ,The Cat And The Fiddle (Nancy Carr)
  ,51/03/24 , 356 ,Cavalleria Rusticana (Bruce Foote)
  ,51/03/31 , 357 ,Frederica (Nancy Carr)
  ,51/04/07 , 358 ,I, Pagliacci (Nancy Carr)
  ,51/04/14 , 359 ,Apple Blossoms (Nancy Carr)
  ,51/04/21 , 360 ,Rigolerto (Elaine Malbin)
  ,51/10/05 , 361 ,Aida (Nancy Carr)
  ,51/10/13 , 362 ,The Desert Song (M Roberts)
  ,51/10/20 , 363 ,Countess Maritza (Nancy Carr)
  ,51/10/27 , 364 ,Anything Goes (Bruce Foote)
  ,51/11/03 , 365 ,The Merry Widow (M Roberts)
  ,51/11/10 , 366 ,Die Fledermaus (M Roberts)
  ,51/11/17 , 367 ,The Chocolate Soldier (Nancy Carr)
  ,51/11/24 , 368 ,Brigadoon (Nancy Carr)
  ,51/12/01 , 369 ,No, No, Nanette (Nancy Carr)
  ,51/12/08 , 370 ,A Connecticut Yankee (Bruce Foote)
  ,51/12/15 , 371 ,Sunny (John Brown)
  ,51/12/22 , 372 ,Where The Saints Have Trod (A Addison)
  ,51/12/29 , 373 ,The Count Of Luxemburg (Nancy Carr)
  ,52/01/05 , 374 ,My Romance (Nancy Carr)
  ,52/01/12 , 375 ,Paganini (Nancy Carr)
  ,52/01/19 , 376 ,Naughty Marietta (A Bertocci)
  ,52/01/26 , 377 ,Bittersweet (Nancy Carr)
  ,52/02/02 , 378 ,Madame Pompadour (J Carter)
  ,52/02/09 , 379 ,H M S Pinafore (John Brown)
  ,52/02/16 , 380 ,Rose Marie (Nancy  Carr)
  ,52/02/23 , 381 ,The Mikado (C Nelson)
  ,52/03/01 , 382 ,One Touch Of Venus (Nancy Carr)
  ,52/03/08 , 383 ,Roberta (Nancy Carr)
  ,52/03/15 , 384 ,Eileen (W Fredericks)
  ,52/03/22 , 385 ,The Pink Lady (J Carter)
  ,52/03/29 , 386 ,The New Moon (Nancy Carr)
  ,52/04/05 , 387 ,Blossom Time (D Aiken)
  ,52/04/12 , 388 ,The Only Girl (D Aiken)
  ,52/04/19 , 389 ,Rigoletto (Adelaide Bishop)
  ,52/04/26 , 390 ,The Student Prince (Bruce Foote)
  ,52/05/03 , 391 ,I, Pagliacci (Nancy Carr)
  ,52/05/10 , 392 ,The Bartered Bride (A Garrels)
  ,52/05/17 , 393 ,The Vagabond King (Nancy Carr)
  ,52/10/04 , 394 ,Tosea (Nancy Carr)
  ,52/10/11 , 395 ,The Song Of Norway (Nancy Carr)
  ,52/10/18 , 396 ,The Merry Widow (Nancy Carr)
  ,52/10/25 , 397 ,Robin Hood (John Browne)
  ,52/11/01 , 398 ,The Cat And The Fiddle (Nancy Carr)
  ,52/11/08 , 399 ,Countess Maritza (Nancy Carr)
  ,52/11/15 , 400 ,The Vagabond King (Nancy Carr)
  ,52/11/22 , 401 ,Lakme (J Carter)
  ,52/11/29 , 402 ,Carmen (J Druary)
  ,52/12/06 , 403 ,The Desert Song (H George)
  ,52/12/13 , 404 ,The Wizard Of Oz (V Stevens)
  ,52/12/20 , 405 ,Damascus Diary (Nancy Carr)
  ,52/12/27 , 406 ,A Connecticut Yankee (John Browne)
  ,53/01/03 , 407 ,Floradora (Bruce Foote)
  ,53/01/10 , 408 ,Faust (Nancy Carr)
  ,53/01/17 , 409 ,Samson And Delilah (G Lane)
  ,53/01/24 , 410 ,Eva (Nancy Carr)
  ,53/01/31 , 411 ,The Student Prince (Bruce Foote)
  ,53/02/07 , 412 ,My Maryland (Nancy Carr)
  ,53/02/14 , 413 ,Sweethearts (Ann Ayars)
  ,53/02/21 , 414 ,Rio Rita (Bruce Foote)
  ,53/02/28 , 415 ,Naughty Marietta (D Cunningham)
  ,53/03/07 , 416 ,My Romance (Nancy Carr)
  ,53/03/14 , 417 ,One Touch Of Venus (Nancy Carr)
  ,53/03/21 , 418 ,Bittersweet (Nancy Carr)
  ,53/03/28 , 419 ,Martha (Nancy Carr)
  ,53/04/04 , 420 ,Ghosts Of Gethiemane (R Marshall)
  ,53/04/11 , 421 ,Katinka (Nancy Carr)
  ,53/04/18 , 422 ,H M S Pinafore (John Browne)
  ,53/04/25 , 423 ,Eileen (S Hamilton)
  ,53/05/02 , 424 ,Paganini (Nancy Carr)
  ,53/10/10 , 425 ,Gypsy Baron (M Roberts)
* ,53/10/17 , 426 ,Music In The Air (Nancy Carr)
  ,53/10/24 , 427 ,La Boheme (Nancy Carr)
  ,53/10/31 , 428 ,Lakme (D Cunningham)
  ,53/11/07 , 429 ,The Merry Widow (W Boehme)
  ,53/11/14 , 430 ,My Romance (Nancy Carr)
* ,53/11/21 , 431 ,Tosca (Nancy Carr)
  ,53/11/28 , 432 ,Bloomer Girl (Bruce Foote)
* ,53/12/05 , 433 ,Sampson And Delilah (G Lane)
* ,53/12/12 , 434 ,The Vagabond King (Nancy Carr)
* ,53/12/19 , 435 ,Gems Of Literature And Song (G Kriese)
  ,53/12/26 , 436 ,The Wizard Of Oz (V Stevens)
  ,54/01/02 , 437 ,The Pink Lady (W Boheme)
* ,54/01/09 , 438 ,Eva (W Boheme)
  ,54/01/16 , 439 ,The Desert Song (M Roberts)
  ,54/01/23 , 440 ,Faust (Nancy Carr)
  ,54/01/30 , 441 ,Madame Butterfly (Nancy Carr
  ,54/02/06 , 442 ,The Circus Princess (M Roberts)
  ,54/02/13 , 443 ,My Maryland (Nancy Carr)
  ,54/02/20 , 444 ,H M S Pinafore (John Browne)
  ,54/02/27 , 445 ,Paganini (J Crain)
  ,54/03/06 , 446 ,Rose Marie (Nancy Carr)
  ,54/03/13 , 447 ,Finian's Rainbow (Nancy Carr)
  ,54/07/03 , 448 ,Final Chapter In The Life Of Benedict Arnold (Marice Copeland)
  ,54/09/11 , 449 ,None But The Lonely Heart
