Exists, Date, #, Episode Name
* ,36/02/20 ,     ,The High School Student Look at War
* ,36/03/05 ,     ,Motion Pictures and the High School Student
* ,36/03/19 ,     ,The High School Student Looks at the High School
* ,36/04/02 ,     ,The High School Student and Radio
* ,36/04/16 ,     ,The High School Student Look at His Parants
* ,37/02/04 ,   1 ,Men Who Made America - and They Are Ours
* ,37/02/11 ,   2 ,Men Who Made America - the Gay Spirit
* ,37/02/18 ,   3 ,Men Who Made America - the Prairie Sage
* ,37/03/04 ,   5 ,Men Who Made America - the Dean Without a College
* ,37/03/11 ,   6 ,Men Who Made America - Sun Magic
* ,37/03/18 ,   7 ,Men Who Made America - the Story of Johnny Appleseed
* ,37/03/25 ,   8 ,Men Who Made America - the Corn Grows Tall
* ,37/04/01 ,   9 ,Men Who Made America - Mightier Than the Sword
* ,37/04/08 ,  10 ,Men Who Made America - Forty-Two Years
* ,37/04/15 ,  11 ,Men Who Made America
* ,37/04/22 ,  12 ,Men Who Made America - the Prophet Without Honor
