Exists, Date, #, Episode Name
* ,46/02/03 ,   1 ,Universal Education
* ,46/02/10 ,   2 ,National Security
* ,46/02/17 ,   3 ,Washington's Birthday
* ,46/02/24 ,   4 ,Youth Activities
* ,46/03/03 ,   5 ,G. I. Bill Of Rights
* ,46/03/10 ,   6 ,Birthday Of The Legion
* ,46/03/17 ,   7 ,Juvenile Delinquency
* ,46/03/24 ,   8 ,Rehabilitation
* ,46/03/31 ,   9 ,Salute To The Army
* ,46/04/07 ,  10 ,Child Welfare Month
* ,46/04/14 ,  11 ,Tolerance
* ,46/04/21 ,  12 ,Full Employment
* ,46/04/28 ,  13 ,Child Health Day
* ,46/05/05 ,  14 ,V-E Day
* ,46/05/12 ,  15 ,Highway Safety
* ,46/05/19 ,  16 ,Junior Baseball
* ,46/05/26 ,  17 ,Memorial Day
* ,46/06/02 ,  18 ,Gun Registration (Souvenir)
* ,46/06/09 ,  19 ,Flag Day
* ,46/06/16 ,  20 ,Constitution and Citizenship
* ,46/06/23 ,  21 ,Boy's State
* ,46/06/30 ,  22 ,The G. I. Bill Of Rights
* ,46/07/07 ,  23 ,Conservation
* ,46/07/14 ,  24 ,Safety In Driving
* ,46/07/21 ,  25 ,Subversive Activities
* ,46/07/28 ,  26 ,Junior Baseball
* ,46/08/04 ,  27 ,Immigrant Education
* ,46/08/11 ,  28 ,Rehabilitation Of The Disabled
* ,46/08/18 ,  29 ,Back To School
* ,46/08/25 ,  30 ,Rheumatic Fever
* ,46/09/01 ,  31 ,Employment
* ,46/09/08 ,  32 ,Return To Religion
* ,46/09/15 ,  33 ,Constitution Day
* ,46/09/22 ,  34 ,United Nations
* ,46/09/29 ,  35 ,Subversive Activities
* ,46/10/06 ,  36 ,Voting
* ,46/10/13 ,  37 ,Tolerance
* ,46/10/20 ,  38 ,Navy Day
* ,46/10/27 ,  39 ,School Safety
* ,46/11/03 ,  40 ,Disaster Relief
* ,46/11/10 ,  41 ,Armistice Day
* ,46/11/17 ,  42 ,Education
* ,46/11/24 ,  43 ,Thanksgiving
* ,46/12/01 ,  44 ,Rehabilitation
* ,46/12/08 ,  45 ,Subversive Activities
* ,46/12/15 ,  46 ,Week Before Christmas
* ,46/12/22 ,  47 ,A Star Is Light
* ,46/12/29 ,  48 ,New Year's Resolutions
* ,47/01/05 ,  49 ,Juvenile Delinquency
* ,47/01/12 ,  50 ,Employment
* ,47/01/19 ,  51 ,Valor
* ,47/01/26 ,  52 ,American Spirit
