Exists, Date, #, Episode Name
* ,5x/xx/xx ,   1 , Jackie Robinson
* ,5x/xx/xx ,   2 , Maximilian Hodder
* ,50/xx/xx ,   3 , Louise Dickinson Rich
* ,50/xx/xx ,   4 , John Cromwell
* ,5x/xx/xx ,   5 , Walter White
* ,5x/xx/xx ,   6 , Helen Keller
* ,5x/xx/xx ,   7 , Herbert Lehman
* ,5x/xx/xx ,   8 , J. Frank Dobie
* ,5x/xx/xx ,   9 , Marty Mann
* ,5x/xx/xx ,  10 , Edward R Murrow
* ,50/xx/xx ,  11 , Elizabeth Deutsch
* ,5x/xx/xx ,  12 , Dag Hammarskjold
* ,5x/xx/xx ,  13 , Ruth Cranston
* ,5x/xx/xx ,  14 , Aldous Huxley
* ,5x/xx/xx ,  15 , Roger Baldwin
* ,5x/xx/xx ,  16 ,Lucy Freeman
* ,5x/xx/xx ,  17 , Muhammad Zafrulla Khan
* ,5x/xx/xx ,  18 , William L. Shirer
* ,5x/xx/xx ,  19 , Chester Bowles
* ,5x/xx/xx ,  20 , Will Durant
* ,5x/xx/xx ,  21 , Verona Wylie Slater
* ,5x/xx/xx ,  22 , Arnold Toynbee
* ,5x/xx/xx ,  23 , Niven Busch
* ,5x/xx/xx ,  24 , Helen Hayes
* ,5x/xx/xx ,  25 , Oscar Hammerstein II
* ,5x/xx/xx ,  26 , Maria von Trapp
* ,5x/xx/xx ,  27 , James A. Michener
* ,5x/xx/xx ,  28 , Red Barber
* ,5x/xx/xx ,  29 , Peter Ustinov
* ,5x/xx/xx ,  30 , Arthur Garfield Hays
* ,5x/xx/xx ,  31 , Hugo Haas
* ,5x/xx/xx ,  32 , Wallace Stegner
* ,5x/xx/xx ,  33 , Alexander Forbe
* ,5x/xx/xx ,  34 , Albert J. Nesbitt
* ,5x/xx/xx ,  35 ,Robert Heinlein
* ,5x/xx/xx ,  36 ,Robert Powers
* ,5x/xx/xx ,  37 ,Albert Guerard
* ,5x/xx/xx ,  38 ,Genevieve Earle
* ,5x/xx/xx ,  39 ,Harry S. Truman
* ,5x/xx/xx ,  40 ,Ben Lucien Burman
* ,5x/xx/xx ,  41 ,Ahmad Zaki Abu Shad
* ,5x/xx/xx ,  42 ,Pearl S. Buck
* ,5x/xx/xx ,  43 ,Phyllis Kirk
* ,5x/xx/xx ,  44 ,Arthur E. Morgan
* ,5x/xx/xx ,  45 ,John Davis Drummey
* ,5x/xx/xx ,  46 ,Susan Parker Cobbs
* ,5x/xx/xx ,  47 , Lionel Barrymore
* ,5x/xx/xx ,  48 ,Norman Cousins
* ,5x/xx/xx ,  49 ,Mr. & Mrs. Oliver Hale
* ,5x/xx/xx ,  50 ,Charles Henry Parrish
* ,5x/xx/xx ,  51 ,Barry Bingham S
* ,5x/xx/xx ,  52 ,Mrs. John G. Lee
* ,5x/xx/xx ,  53 ,Lucius D. Clay
* ,5x/xx/xx ,  54 ,Robbins Milbank
* ,5x/xx/xx ,  55 ,Bobby Doerr
* ,5x/xx/xx ,  56 ,Rebecca West
* ,5x/xx/xx ,  57 ,Martha Graham
* ,5x/xx/xx ,  58 ,William O. Douglas
* ,5x/xx/xx ,  59 ,Julia Adams
* ,5x/xx/xx ,  60 ,Will Thomas
* ,5x/xx/xx ,  61 ,Julien Bryan
* ,5x/xx/xx ,  62 ,James B. Carey
* ,5x/xx/xx ,  63 ,Margaret Sanger
* ,5x/xx/xx ,  64 ,George Mardikian
* ,5x/xx/xx ,  65 ,Bernard Baruch
* ,5x/xx/xx ,  66 ,Anne Heywood
* ,5x/xx/xx ,  67 ,Eleanor Roosevelt
* ,5x/xx/xx ,  68 ,Margaret Mead
* ,5x/xx/xx ,  69 ,Charles Abrams
* ,5x/xx/xx ,  70 ,Arthur S Abramson
* ,5x/xx/xx ,  71 ,Mohammed Farid Abu-Hadid
  ,5x/xx/xx ,  72 ,Charlotte Adams
* ,5x/xx/xx ,  73 ,Irene R. Adler
  ,5x/xx/xx ,  74 ,Walter R. Agard
* ,5x/xx/xx ,  75 , Licia Albanese
* ,5x/xx/xx ,  76 ,Colin Allen
  ,5x/xx/xx ,  77 ,Florence Allen
  ,5x/xx/xx ,  78 ,Raymond B. Allen
* ,5x/xx/xx ,  79 ,Robert Allman
* ,5x/xx/xx ,  80 ,Stanley Allyn
  ,5x/xx/xx ,  81 ,Rose H. Alschuler
* ,5x/xx/xx ,  82 ,Victor Andrade
  ,5x/xx/xx ,  83 ,Mae E Andrews
  ,5x/xx/xx ,  84 ,T. Coleman Andrews
  ,5x/xx/xx ,  85 ,Elizabeth Angell
* ,5x/xx/xx ,  86 ,Norman Angell
* ,5x/xx/xx ,  87 ,Roger Angell
  ,5x/xx/xx ,  88 ,Walter H. Annenberg
* ,5x/xx/xx ,  89 ,George Antheil
  ,5x/xx/xx ,  90 ,Edward F. Arn
  ,5x/xx/xx ,  91 ,Leopold Arnaud
  ,5x/xx/xx ,  92 ,Viscountess Astor
  ,5x/xx/xx ,  93 ,Warren Atherton
* ,5x/xx/xx ,  94 ,Louis Austin
  ,5x/xx/xx ,  95 ,James T. Babb
  ,5x/xx/xx ,  96 ,Edmund Ball
* ,5x/xx/xx ,  97 ,Edwin Balmer
* ,5x/xx/xx ,  98 ,Muriel Barnes
* ,5x/xx/xx ,  99 ,Paul R. Barnes
* ,5x/xx/xx , 100 ,Robert Barnett
  ,5x/xx/xx , 101 ,Gerald Barry
  ,5x/xx/xx , 102 ,Florence D. Bartlett
  ,5x/xx/xx , 103 ,Samuel S. Bartlett
  ,5x/xx/xx , 104 ,James Phinney Baxter III
  ,5x/xx/xx , 105 ,Clair Bee
  ,5x/xx/xx , 106 ,George B. Beitzel
  ,5x/xx/xx , 107 ,Milo W. Bekins
* ,5x/xx/xx , 108 ,Mary Addams Belden
  ,5x/xx/xx , 109 ,Alfred A. Benesch
* ,5x/xx/xx , 110 ,Theodor Benfey
  ,5x/xx/xx , 111 ,Paul Benjamin
  ,5x/xx/xx , 112 ,Charles E. Bennett
  ,5x/xx/xx , 113 ,Melba Bennett
* ,5x/xx/xx , 114 ,Bernhard Berenson
* ,5x/xx/xx , 115 ,Leonard Bernstein
* ,5x/xx/xx , 116 ,Dr. Samuel Best
* ,5x/xx/xx , 117 ,Ralph M. Besse
* ,5x/xx/xx , 118 ,Aneurin Bevan
* ,5x/xx/xx , 119 ,Lord Beveridge
* ,5x/xx/xx , 120 ,Carroll Binder
  ,5x/xx/xx , 121 ,Juliet Bindt
  ,5x/xx/xx , 122 ,Remsen Bird
  ,5x/xx/xx , 123 ,Norman Birkett
* ,5x/xx/xx , 124 ,Julie Bishop
  ,5x/xx/xx , 125 ,Harry Blake
* ,5x/xx/xx , 126 ,Alexander Bloch
* ,5x/xx/xx , 127 ,Elmer Bobst
  ,5x/xx/xx , 128 ,Emory Bogardus
* ,5x/xx/xx , 129 ,Roy Garland Boger
* ,5x/xx/xx , 130 ,Hector Bolitho
  ,5x/xx/xx , 131 ,Jacques Bolsey
* ,5x/xx/xx , 132 ,Frances Bolton
* ,5x/xx/xx , 133 ,Robert Boothby
  ,5x/xx/xx , 134 ,Elon Borton
* ,5x/xx/xx , 135 ,Catherine Bottigheimer
* ,5x/xx/xx , 136 ,Kenneth Boulding
* ,5x/xx/xx , 137 ,Chester Bowles
  ,5x/xx/xx , 138 ,Harry Boyd
  ,5x/xx/xx , 139 ,Winifred C. Boynton
  ,5x/xx/xx , 140 ,Lord Brabazon of Tara
  ,5x/xx/xx , 141 ,Mrs. Roark Bradford
  ,5x/xx/xx , 142 ,Edmund A. Brasset
  ,5x/xx/xx , 143 ,Neal Brewster
  ,5x/xx/xx , 144 ,Edward Bridges
  ,5x/xx/xx , 145 ,John DeQuedville Briggs
* ,5x/xx/xx , 146 ,Lee Bristol
  ,5x/xx/xx , 147 ,Denis Brogan
  ,5x/xx/xx , 148 ,J. Bronowski
  ,5x/xx/xx , 149 ,Dale Brown
* ,5x/xx/xx , 150 ,Ina Corinne Brown
* ,5x/xx/xx , 151 ,Margery Finn Brown
  ,5x/xx/xx , 152 ,Herman Bruckner
* ,5x/xx/xx , 153 ,Harry T. Brundidge
  ,5x/xx/xx , 154 ,Laura Buchan
  ,5x/xx/xx , 155 ,Beniamino Bufano
* ,5x/xx/xx , 156 ,Harry A. Bullis
* ,5x/xx/xx , 157 ,Ralph J. Bunche
  ,5x/xx/xx , 158 ,John Burchard
  ,5x/xx/xx , 159 ,William Burckel
* ,5x/xx/xx , 160 ,Alex M. Burgess
  ,5x/xx/xx , 161 ,Tillie Burkhardt
* ,5x/xx/xx , 162 ,Dick Button
  ,5x/xx/xx , 163 ,Carl Byers
* ,5x/xx/xx , 164 ,Asa V. Call
  ,5x/xx/xx , 165 ,Bill Campbell
* ,5x/xx/xx , 166 ,Alan Campbell-Johnson
  ,5x/xx/xx , 167 ,Edina Campbell-Dover
* ,5x/xx/xx , 168 ,Eddie Cantor
  ,5x/xx/xx , 169 ,Hadley Cantrell
  ,5x/xx/xx , 170 ,H. C. Carlson
* ,5x/xx/xx , 171 ,William Carlson
* ,5x/xx/xx , 172 ,Carl Carmer
  ,5x/xx/xx , 173 ,Leonard Carmichael
  ,5x/xx/xx , 174 ,Ellen Alden Carpenter
  ,5x/xx/xx , 175 ,Carroll Carroll
  ,5x/xx/xx , 176 ,Alexander Carr-Saunders
  ,5x/xx/xx , 177 ,Violet Bonham Carter
  ,5x/xx/xx , 178 ,Everett Case
  ,5x/xx/xx , 179 ,Harold Case
* ,5x/xx/xx , 180 ,Sir Hugh Casson
  ,5x/xx/xx , 181 ,Patricia Cecil
* ,5x/xx/xx , 182 ,Yaroslav J. Chyz
  ,5x/xx/xx , 183 ,Ray Clayberger
  ,5x/xx/xx , 184 ,Robert Cleland
  ,5x/xx/xx , 185 ,Martin W. Clement
  ,5x/xx/xx , 186 ,Harold Clurman
* ,5x/xx/xx , 187 ,Harlan Cleveland
  ,5x/xx/xx , 188 ,John Coast
  ,5x/xx/xx , 189 ,Elizabeth Coker
  ,5x/xx/xx , 190 ,Robert Colwell
* ,5x/xx/xx , 191 ,Wilson Compton
* ,5x/xx/xx , 192 ,Arthur Connell
  ,5x/xx/xx , 193 ,Thomas J. Corcoran
  ,5x/xx/xx , 194 ,Gerty T. Cori
  ,5x/xx/xx , 195 ,Bill Costello
  ,5x/xx/xx , 196 ,Lewis Cotlow
* ,5x/xx/xx , 197 ,Henry Cowell
  ,5x/xx/xx , 198 ,John Coast (2)
* ,5x/xx/xx , 199 ,Lou R. Crandall
* ,5x/xx/xx , 200 ,Albert Einstein
* ,5x/xx/xx , 201 ,Laura Bishop Crandon
  ,5x/xx/xx , 202 ,Richard Crooks
* ,5x/xx/xx , 203 ,W David Curtiss
  ,5x/xx/xx , 204 ,Starr Daily
  ,5x/xx/xx , 205 ,Henry Dale
  ,5x/xx/xx , 206 ,Frank Dalley
  ,5x/xx/xx , 207 ,William Danforth
  ,5x/xx/xx , 208 ,Robert Prentiss Daniel
* ,5x/xx/xx , 209 ,Jonathan Daniels
* ,5x/xx/xx , 210 ,Sir. Charles Darwin
  ,5x/xx/xx , 211 ,Barbara Dean Davenport
* ,5x/xx/xx , 212 ,Elmer Davis
  ,5x/xx/xx , 213 ,Gladys R. Davis
* ,5x/xx/xx , 214 ,Hallowell Davis
  ,5x/xx/xx , 215 ,Jerome Davis
* ,5x/xx/xx , 216 ,Archibald Davison
* ,5x/xx/xx , 217 ,Osceola Dawson
* ,5x/xx/xx , 218 ,Donald Day
  ,5x/xx/xx , 219 ,George Day
  ,5x/xx/xx , 220 ,J. Warren Day
  ,5x/xx/xx , 221 ,Paddy De Marco
* ,5x/xx/xx , 222 ,Arthur Deakin
* ,5x/xx/xx , 223 ,Ned H. Dearborn
* ,5x/xx/xx , 224 ,Hubert Delany
  ,5x/xx/xx , 225 ,Monroe Deutsch
  ,5x/xx/xx , 226 ,Harry F. Dietrich
  ,5x/xx/xx , 227 ,Paul Dietrich
  ,5x/xx/xx , 228 ,Brice Disque
* ,5x/xx/xx , 229 ,Catherine Dobbs
  ,5x/xx/xx , 230 ,Norris Dodd
  ,5x/xx/xx , 231 ,Cleveland E. Dodge
  ,5x/xx/xx , 232 ,Dora Dodge
  ,5x/xx/xx , 233 ,Dain J. Domich
* ,5x/xx/xx , 234 ,Anne Talbot Donaldson
* ,5x/xx/xx , 235 ,Paul Douglas
  ,5x/xx/xx , 236 ,Thomas B. Dowd
  ,5x/xx/xx , 237 ,Bill Downs
  ,5x/xx/xx , 238 ,Alfred Drake
  ,5x/xx/xx , 239 ,Thomas Dreier
  ,5x/xx/xx , 240 ,Edwin Dreyfus
  ,5x/xx/xx , 241 ,Louis Dublin
  ,5x/xx/xx , 242 ,Lee A. Dubridge
  ,5x/xx/xx , 243 ,Caroline Duer
  ,5x/xx/xx , 244 ,James Q. DuPont
  ,5x/xx/xx , 245 ,Etienne Dupuch
  ,5x/xx/xx , 246 ,O.P. Duvall
  ,5x/xx/xx , 247 ,Charles Duveen Jr.
  ,5x/xx/xx , 248 ,Edwin Earle
  ,5x/xx/xx , 249 ,Billy Eckstine
* ,5x/xx/xx , 250 ,Maurice Edelman
  ,5x/xx/xx , 251 ,Lord Elton
  ,5x/xx/xx , 252 ,Van Horn Ely, Jr.
  ,5x/xx/xx , 253 ,Benjamin R. Epstein
  ,5x/xx/xx , 254 ,Annie Eristoff (2)
  ,5x/xx/xx , 255 ,Dame Edith Evans
  ,5x/xx/xx , 256 ,Harold Evans
  ,5x/xx/xx , 257 ,Robert Arthur Evans
* ,5x/xx/xx , 258 ,John R. Everett
  ,5x/xx/xx , 259 ,Oscar Ewing (2)
  ,5x/xx/xx , 260 ,Clifton Fadiman (2)
* ,5x/xx/xx , 261 ,Dr. Fred Dow Fagg, Jr.
* ,5x/xx/xx , 262 ,Douglas Fairbanks, Jr.
  ,5x/xx/xx , 263 ,Michael Fanning
  ,5x/xx/xx , 264 ,Cal Farley
  ,5x/xx/xx , 265 ,Reed Farnsworth
  ,5x/xx/xx , 266 ,Nazrat Farooki
  ,5x/xx/xx , 267 ,Tiera Farrow
  ,5x/xx/xx , 268 ,D.D. Feder
  ,5x/xx/xx , 269 ,Peg Fenwick
  ,5x/xx/xx , 270 ,Harriet R. Ferguson
  ,5x/xx/xx , 271 ,Lillian Ferrence
  ,5x/xx/xx , 272 ,Irving Fineman
  ,5x/xx/xx , 273 ,Annie Fischer
  ,5x/xx/xx , 274 ,Murray H. Fly
  ,5x/xx/xx , 275 ,Nina Foch
  ,5x/xx/xx , 276 ,Burton P. Fowler
  ,5x/xx/xx , 277 ,Cyril G. Fox
  ,5x/xx/xx , 278 ,Thomas P. Fox
* ,5x/xx/xx , 279 ,Pat Frank
  ,5x/xx/xx , 280 ,Alfred Frankenstein
  ,5x/xx/xx , 281 ,J. George Frederick
  ,5x/xx/xx , 282 ,Paul Comly French
  ,5x/xx/xx , 283 ,Margery Fry
* ,5x/xx/xx , 284 ,Claude M. Fuess
  ,5x/xx/xx , 285 ,David Maxwell Fyfe
* ,5x/xx/xx , 286 ,Hugo Gabriel
  ,5x/xx/xx , 287 ,Gant Gaither
  ,5x/xx/xx , 288 ,Julio Garzon
  ,5x/xx/xx , 289 ,John W. Gassner
  ,5x/xx/xx , 290 ,Frieda Gates
  ,5x/xx/xx , 291 ,Virgil Geddes
  ,5x/xx/xx , 292 ,Karl Gehrkens
  ,5x/xx/xx , 293 ,Megan Lloyd George
  ,5x/xx/xx , 294 ,Ralph Waldo Gerard
  ,5x/xx/xx , 295 ,Edwin Gerschefski
* ,5x/xx/xx , 296 ,Arthur E. Gill
  ,5x/xx/xx , 297 ,Dr. Nelson Glueck
  ,5x/xx/xx , 298 ,R. Gopolakrishnan
  ,5x/xx/xx , 299 ,Igor Gorin
* ,5x/xx/xx , 300 ,Willis C. Gorthy
* ,5x/xx/xx , 301 ,Rubin Gotesky
  ,5x/xx/xx , 302 ,Richard Gould-Adams
  ,5x/xx/xx , 303 ,Henry Grady
  ,5x/xx/xx , 304 ,Lester B. Granger
  ,5x/xx/xx , 305 ,Edmund A. Brassett
  ,5x/xx/xx , 306 ,Ward Greene
  ,5x/xx/xx , 307 ,Eugene S. Gregg
  ,5x/xx/xx , 308 ,Joyce Grenfell
* ,5x/xx/xx , 309 ,William V. Griffen
  ,5x/xx/xx , 310 ,Ivor Griffith
  ,5x/xx/xx , 311 ,Sidonie M. Gruenberg
  ,5x/xx/xx , 312 ,Samuel R. Guard
  ,5x/xx/xx , 313 ,John Guedel
* ,5x/xx/xx , 314 ,Richard M. Gummere
  ,5x/xx/xx , 315 ,John Gunther
* ,5x/xx/xx , 316 ,Tyrone Guthrie
  ,5x/xx/xx , 317 ,Uta Hagen
  ,5x/xx/xx , 318 ,Emily Hahn
  ,5x/xx/xx , 319 ,Lawrence Hart
  ,5x/xx/xx , 319 ,Viscount Hailsham
  ,5x/xx/xx , 320 ,Edward T. Hall
  ,5x/xx/xx , 321 ,G. Leslie Hall
* ,5x/xx/xx , 322 ,Roswell G. Ham
  ,5x/xx/xx , 323 ,Edith Hamilton
  ,5x/xx/xx , 324 ,Mary Agnes Hamilton
* ,5x/xx/xx , 325 ,Wade B. Hampton
  ,5x/xx/xx , 326 ,George H. Hand
* ,5x/xx/xx , 327 ,Joseph V. Hannah
  ,5x/xx/xx , 328 ,Frederick Hard
  ,5x/xx/xx , 329 ,E. A. Gene Harris
  ,5x/xx/xx , 330 ,H. Wilson Harris
  ,5x/xx/xx , 331 ,Roy Harris
  ,5x/xx/xx , 332 ,Joseph Harsch
  ,5x/xx/xx , 334 ,Lawrence D. Haskew
  ,5x/xx/xx , 335 ,Signe Hasso
  ,5x/xx/xx , 336 ,E.B. Hauke
  ,5x/xx/xx , 337 ,Bob Hawk
* ,5x/xx/xx , 338 ,Anna Hansen Hayes
  ,5x/xx/xx , 339 ,George Edmund Haynes
  ,5x/xx/xx , 340 ,George A. F. Hay
* ,5x/xx/xx , 341 ,Edith Hechtb
  ,5x/xx/xx , 342 ,H. Fred Heisner
  ,5x/xx/xx , 343 ,Elizabeth Heller
  ,5x/xx/xx , 344 ,Paul H. Helms
  ,5x/xx/xx , 345 ,Howard Henderson
  ,5x/xx/xx , 346 ,Lewis B. Hershey
  ,5x/xx/xx , 347 ,Jean Hersholt
  ,5x/xx/xx , 348 ,Theodore Heubener
  ,5x/xx/xx , 349 ,Margaret Hickey
  ,5x/xx/xx , 350 ,George R. Higginbotham
  ,5x/xx/xx , 351 ,Robert Hillyer
  ,5x/xx/xx , 352 ,James Hilton
  ,5x/xx/xx , 354 ,Charles E. Hires Jr.
  ,5x/xx/xx , 354 ,Hudson Hoagland
  ,5x/xx/xx , 355 ,Herbert Hodge
  ,5x/xx/xx , 356 ,Leigh Mitchell Hodges
* ,5x/xx/xx , 357 ,Clyde R. Hoey
  ,5x/xx/xx , 358 ,Elinor Gene Hoffman
  ,5x/xx/xx , 359 ,Alice G. Holloway
  ,5x/xx/xx , 359 ,Kate Holliday
  ,5x/xx/xx , 360 ,William Hubben
  ,5x/xx/xx , 361 ,Nat Holman
  ,5x/xx/xx , 362 ,Andrew B. Holmstrom
* ,5x/xx/xx , 363 ,Herbert Hoover
  ,5x/xx/xx , 364 ,Lewis Hoskins
  ,5x/xx/xx , 365 ,Althea K. Hottel
  ,5x/xx/xx , 366 ,Henry Beetle Hough
  ,5x/xx/xx , 367 ,Henry S. Houghton
  ,5x/xx/xx , 368 ,Amy C. Howard
* ,5x/xx/xx , 369 ,Ella Mae Howey
  ,5x/xx/xx , 370 ,Fred Hoyle
* ,5x/xx/xx , 371 ,John Hughes
  ,5x/xx/xx , 372 ,Edward Hulton
  ,5x/xx/xx , 373 ,Christmas Humphreys
  ,5x/xx/xx , 374 ,John Hunt
  ,5x/xx/xx , 375 ,Rockwell D. Hunt
  ,5x/xx/xx , 376 ,Sol Hurok
  ,5x/xx/xx , 377 ,Fannie Hurst
  ,5x/xx/xx , 378 ,Merrill Hutchinson
* ,5x/xx/xx , 379 ,Aldous Huxley
* ,5x/xx/xx , 380 ,Antonio Iglesias
  ,5x/xx/xx , 381 ,C. Jared Ingersoll
  ,5x/xx/xx , 382 ,Edgar Ingram
  ,5x/xx/xx , 383 ,E.W. Jackson
  ,5x/xx/xx , 384 ,Lee Jackson
  ,5x/xx/xx , 385 ,Margaret Weymouth Jackson
  ,5x/xx/xx , 386 ,Betty Jacob
  ,5x/xx/xx , 387 ,William F. James
  ,5x/xx/xx , 388 ,Howard B. Jefferson
  ,5x/xx/xx , 389 ,Alvin Johnson
* ,5x/xx/xx , 390 ,Dr Charles Johnson
  ,5x/xx/xx , 391 ,Eric Warner Johnson
  ,5x/xx/xx , 392 ,Holgar J. Johnson
* ,5x/xx/xx , 393 ,Kenneth D. Johnson
  ,5x/xx/xx , 394 ,Dr. David Dallas Jones
* ,5x/xx/xx , 395 ,Mrs David D Jones
  ,5x/xx/xx , 396 ,Galen Jones
  ,5x/xx/xx , 397 ,Morton T. Jones
* ,5x/xx/xx , 398 ,Lloyd Jordan
  ,5x/xx/xx , 399 ,Jay Jostyn
  ,5x/xx/xx , 400 ,Philip Joubert
  ,5x/xx/xx , 401 ,Charles Turner Joy
  ,5x/xx/xx , 402 ,William H. Joyce, Jr.
  ,5x/xx/xx , 403 ,Horace M. Kallen
  ,5x/xx/xx , 404 ,Norman Katkov
  ,5x/xx/xx , 405 ,Milton Katz
  ,5x/xx/xx , 406 ,William Keller
  ,5x/xx/xx , 407 ,John B. Kelly
  ,5x/xx/xx , 408 ,Lucrezia Kemper
  ,5x/xx/xx , 409 ,Lord Kemsley
  ,5x/xx/xx , 410 ,Edgar Kennedy
  ,5x/xx/xx , 411 ,Jay Richard Kennedy
  ,5x/xx/xx , 412 ,Elizabeth Kenny
  ,5x/xx/xx , 413 ,Stan Kenton
  ,5x/xx/xx , 414 ,Adelaide Kerr
  ,5x/xx/xx , 415 ,Andy Kerr
  ,5x/xx/xx , 416 ,James R. Killian, Jr.
  ,5x/xx/xx , 417 ,George L. Killion
  ,5x/xx/xx , 418 ,Maulsby Kimball Jr
  ,5x/xx/xx , 419 ,George Kimball
  ,5x/xx/xx , 420 ,Robert S. King
  ,5x/xx/xx , 421 ,Ruth W. Kingman
  ,5x/xx/xx , 422 ,Martha Gwinn Kiser
  ,5x/xx/xx , 423 ,Joseph J. Klacsman
  ,5x/xx/xx , 424 ,Philip Klutznick
  ,5x/xx/xx , 425 ,Dame Laura Knight
  ,5x/xx/xx , 426 ,Vern O. Knudsen
  ,5x/xx/xx , 427 ,Arthur Kober
  ,5x/xx/xx , 428 ,Frank J. Koegler
  ,5x/xx/xx , 429 ,Milton R. Konvitz
* ,5x/xx/xx , 430 ,Andre Kostelanetz
  ,5x/xx/xx , 431 ,Olga Koussevitzky
  ,5x/xx/xx , 432 ,Stanley Krame
  ,5x/xx/xx , 433 ,Melanie Kreuzer
  ,5x/xx/xx , 434 ,Magnus K. Kristoffersen
  ,5x/xx/xx , 435 ,Dr. Max Krone
  ,5x/xx/xx , 436 ,Otto Kruger
  ,5x/xx/xx , 437 ,Joseph Wood Krutch
  ,5x/xx/xx , 438 ,Ronald Kurtz
  ,5x/xx/xx , 439 ,Alexis Kyrou
  ,5x/xx/xx , 440 ,Nora Laing
  ,5x/xx/xx , 441 ,Osbert Lancaste
  ,5x/xx/xx , 442 ,Mrs. William P. Lander
* ,5x/xx/xx , 443 ,Alfred Landon
  ,5x/xx/xx , 444 ,Waino K. Latvala
  ,5x/xx/xx , 445 ,Lord Layton
  ,5x/xx/xx , 446 ,Joshua M. Lea
* ,5x/xx/xx , 447 ,Percy Lee
  ,5x/xx/xx , 448 ,Samuel Lee
  ,5x/xx/xx , 449 ,John Lehmann
  ,5x/xx/xx , 450 ,Lucille P. Leonard
  ,5x/xx/xx , 451 ,John Ashby Lester
  ,5x/xx/xx , 452 ,Harry Levenson
  ,5x/xx/xx , 453 ,Louis E. Levinthal
* ,5x/xx/xx , 454 ,David J Levy
  ,5x/xx/xx , 455 ,C. Day Lewis
  ,5x/xx/xx , 456 ,Carr Ligget
  ,5x/xx/xx , 457 ,Art Linkletter
  ,5x/xx/xx , 458 ,Bill Lipton
  ,5x/xx/xx , 459 ,Lord Listowell
  ,5x/xx/xx , 460 ,Martin Littleton
  ,5x/xx/xx , 461 ,Viola Livingston
  ,5x/xx/xx , 462 ,Frank Lloyd
  ,5x/xx/xx , 463 ,W.C. Locker
  ,5x/xx/xx , 464 ,Frank S. Loescher
  ,5x/xx/xx , 465 ,Bert J. Loewenberg
  ,5x/xx/xx , 466 ,Sylvester Long
  ,5x/xx/xx , 467 ,Wilfred F. Long
  ,5x/xx/xx , 468 ,David Loth
  ,5x/xx/xx , 469 ,Edwin J. Lukas
  ,5x/xx/xx , 470 ,Jack Lutz
  ,5x/xx/xx , 471 ,Hugh Lyon
  ,5x/xx/xx , 472 ,John T. Ma
  ,5x/xx/xx , 473 ,Henry Noble MacCracken
  ,5x/xx/xx , 474 ,Harry D. MacDonald
  ,5x/xx/xx , 475 ,Earle J. Machold
  ,5x/xx/xx , 476 ,Robert M. MacIver
  ,5x/xx/xx , 477 ,Louis MacNeice
  ,5x/xx/xx , 478 ,Mrs. Walter V Magee
  ,5x/xx/xx , 479 ,William Maners
  ,5x/xx/xx , 480 ,Edward M Mann
* ,5x/xx/xx , 481 ,Thomas Mann
  ,5x/xx/xx , 482 ,Gertrude S. Martin
  ,5x/xx/xx , 483 ,Mabel Martin
  ,5x/xx/xx , 484 ,Mary Martin
  ,5x/xx/xx , 485 ,Curt Massey
  ,5x/xx/xx , 486 ,Beryl Bowden Master
  ,5x/xx/xx , 487 ,Mildred H. Maw
  ,5x/xx/xx , 488 ,Chester Maxey
  ,5x/xx/xx , 489 ,Jacques M. May
  ,5x/xx/xx , 490 ,Dr. Charles Mayo
* ,5x/xx/xx , 491 ,Harry S Mc Alpin
  ,5x/xx/xx , 492 ,Robert B. McClure
  ,5x/xx/xx , 493 ,Lynde McCormick
  ,5x/xx/xx , 494 ,Lillian B. McCue
  ,5x/xx/xx , 495 ,George McDevitt
  ,5x/xx/xx , 496 ,J.P. McEvoy
  ,5x/xx/xx , 497 ,Robert Ward McEwen
  ,5x/xx/xx , 498 ,Richard H. McFeely
  ,5x/xx/xx , 499 ,Charles P. McGaha
  ,5x/xx/xx , 500 ,Elmore McKee
  ,5x/xx/xx , 501 ,John E McKeen
  ,5x/xx/xx , 502 ,Howard C McKinney
  ,5x/xx/xx , 503 ,Joe McNeil
  ,5x/xx/xx , 504 ,James Lewis McVey
  ,5x/xx/xx , 505 ,Julie Medlock
  ,5x/xx/xx , 506 ,Edward J Meeman
  ,5x/xx/xx , 507 ,G.L. Mehta
  ,5x/xx/xx , 508 ,Ernest O Melby
  ,5x/xx/xx , 509 ,Lauritz Melchior
  ,5x/xx/xx , 510 ,Lyn Mellard
  ,5x/xx/xx , 511 ,V.K. Krishna Menon
  ,5x/xx/xx , 512 ,P K Menzies
  ,5x/xx/xx , 513 ,Agnes Meyer
  ,5x/xx/xx , 514 ,Carroll K Michener
  ,5x/xx/xx , 515 ,Joe J. Mickle
  ,5x/xx/xx , 516 ,Herbert E Millen
  ,5x/xx/xx , 517 ,Louis Miller
  ,5x/xx/xx , 518 ,Louise H. Mille
  ,5x/xx/xx , 519 ,William M. Millikin
  ,5x/xx/xx , 520 ,Thelma Mills
  ,5x/xx/xx , 521 ,Dimitri Mitropoulos
  ,5x/xx/xx , 522 ,Ray Montgomery
  ,5x/xx/xx , 523 ,Merrill Moore
* ,5x/xx/xx , 524 ,Agnes Morehead
  ,5x/xx/xx , 525 ,Lord Moran
  ,5x/xx/xx , 526 ,Edward Morgan
  ,5x/xx/xx , 527 ,Newbold Morris
  ,5x/xx/xx , 528 ,Robert D Morrow
  ,5x/xx/xx , 529 ,Arthur H Motley
  ,5x/xx/xx , 530 ,Paul Scott Mowrer
  ,5x/xx/xx , 531 ,Malcolm Muggeridge
  ,5x/xx/xx , 532 ,W C Mullendore
  ,5x/xx/xx , 533 ,Marcellus M Murdock
* ,5x/xx/xx , 534 ,Gilbert Murray
  ,5x/xx/xx , 535 ,Henry A. Murray
  ,5x/xx/xx , 536 ,Charles Naegele
  ,5x/xx/xx , 537 ,Ralph Leroy Nafziger
  ,5x/xx/xx , 538 ,John W Nason
  ,5x/xx/xx , 539 ,Marie Neal-Martin
  ,5x/xx/xx , 540 , John U Nef
  ,5x/xx/xx , 541 ,Mrs. H. Paul Nelligan
  ,5x/xx/xx , 542 ,J H Nelson
  ,5x/xx/xx , 543 ,Alfred Nilson
  ,5x/xx/xx , 544 ,Nicholas Norton
  ,5x/xx/xx , 545 ,Moekarto Notowidigdo
  ,5x/xx/xx , 546 ,Alfred Noyes
  ,5x/xx/xx , 547 ,Lord Oaksey
  ,5x/xx/xx , 548 ,Pat
  ,5x/xx/xx , 549 ,Patrick A
  ,5x/xx/xx , 550 ,Thomas O Leary
  ,5x/xx/xx , 551 ,Irakli Orbelian
  ,5x/xx/xx , 552 , Reginald Orcutt
  ,5x/xx/xx , 553 ,Alexander F. Osborn
  ,5x/xx/xx , 554 ,Fulton Oursle
  ,5x/xx/xx , 555 ,Bonaro W Overstreet
  ,5x/xx/xx , 556 ,Harry Overstreet
  ,5x/xx/xx , 557 ,B. Lee Pace
  ,5x/xx/xx , 558 ,Saul K Padover
  ,5x/xx/xx , 559 ,Elizabeth Page
  ,5x/xx/xx , 560 ,Phyllis Parker
  ,5x/xx/xx , 561 , Heloise Parker-Broeg
  ,5x/xx/xx , 562 , Fred D. Parr
  ,5x/xx/xx , 563 , Grove Patterson
  ,5x/xx/xx , 564 , Stuart Peabody
  ,5x/xx/xx , 565 , Mario Pei
  ,5x/xx/xx , 566 , Walden Pell II
  ,5x/xx/xx , 567 , Wilder Penfield
* ,5x/xx/xx , 568 , Charles Percy
  ,5x/xx/xx , 569 , Leslie N. Perrin
  ,5x/xx/xx , 570 , Ralph Barton Perry
  ,5x/xx/xx , 571 ,Rollo Peters
  ,5x/xx/xx , 572 , Howard C Peterson
  ,5x/xx/xx , 573 , Roger Phillips
  ,5x/xx/xx , 574 , Anne Phipps
  ,5x/xx/xx , 575 , Clarence E Pickett
  ,5x/xx/xx , 576 , Wilfred Pickles
  ,5x/xx/xx , 577 ,Waldo Pierson
  ,5x/xx/xx , 578 , Mrs. Philip W Pillsbury
* ,5x/xx/xx , 579 ,Ralph Pinelli
  ,5x/xx/xx , 580 , Malcolm U. Pitt
  ,5x/xx/xx , 581 , L. A. Pittenger
  ,5x/xx/xx , 582 , Bentz Plagemann
* ,5x/xx/xx , 583 ,Willa B. Player
  ,5x/xx/xx , 584 , Willard A. Pleuthner
  ,5x/xx/xx , 585 , Phillip Polatin
  ,5x/xx/xx , 586 , Justine Wise Polier
* ,5x/xx/xx , 587 ,Lily Pons
  ,5x/xx/xx , 588 , Gillie Potter
  ,5x/xx/xx , 589 , Richard C Potter
  ,5x/xx/xx , 590 , Dick Powell
  ,5x/xx/xx , 591 , Boris Pregel
  ,5x/xx/xx , 592 , Virginia Prewett
  ,5x/xx/xx , 593 , Alan Pryce-Jones
  ,5x/xx/xx , 594 , K. James Ralph
  ,5x/xx/xx , 595 , Clarence Randall
  ,5x/xx/xx , 596 , Rebel Randall
  ,5x/xx/xx , 597 , J. Arthur Rank
  ,5x/xx/xx , 598 , Marie I. Rasey
* ,5x/xx/xx , 599 ,Lady Rama Rau
  ,5x/xx/xx , 600 , Aldo Ray
  ,5x/xx/xx , 601 , Robert Raynolds
  ,5x/xx/xx , 602 , Conyers Read
  ,5x/xx/xx , 603 , Lady Reading
  ,5x/xx/xx , 604 , Philip Reed
  ,5x/xx/xx , 605 , Mrs. Karl Reiche
  ,5x/xx/xx , 606 , Clement Reicher
  ,5x/xx/xx , 607 , Walter A. Reiling
  ,5x/xx/xx , 608 , Ossy Renardy
  ,5x/xx/xx , 609 , Rose Resnick
  ,5x/xx/xx , 610 , Quentin Reynolds
  ,5x/xx/xx , 611 , Viscountess Rhondda
  ,5x/xx/xx , 612 , David Richie
  ,5x/xx/xx , 613 , Ralph Richmond
  ,5x/xx/xx , 614 , Mischa Richter
  ,5x/xx/xx , 615 , Edmond Rieder
  ,5x/xx/xx , 616 , J. Linton Rigg
  ,5x/xx/xx , 617 , Lord Rochdale
  ,5x/xx/xx , 618 , Clyde Rogers
  ,5x/xx/xx , 619 , Anne Rombeau
  ,5x/xx/xx , 620 , Carlos P. Romulo
  ,5x/xx/xx , 621 , Theodore Roosevelt III
  ,5x/xx/xx , 622 , E. Merrill Root
  ,5x/xx/xx , 623 , Sidney Rosenblum
  ,5x/xx/xx , 624 , John Rothenstein
  ,5x/xx/xx , 625 , Walter Rothschild
  ,5x/xx/xx , 626 , Subodh Chandra Roy
  ,5x/xx/xx , 627 , Margaret Lee Runbeck
  ,5x/xx/xx , 628 , Tom Runyon
  ,5x/xx/xx , 629 , Dr. Howard Rusk
  ,5x/xx/xx , 630 , Paul E. Sabine
  ,5x/xx/xx , 631 , Vita Sackville-West
  ,5x/xx/xx , 632 , Robb Sagendorph
  ,5x/xx/xx , 633 , Virginia Sale
  ,5x/xx/xx , 634 , Richard Salmon
  ,5x/xx/xx , 635 , Edith E. Sams
* ,5x/xx/xx , 636 ,Carl Sandberg
  ,5x/xx/xx , 637 , William Saroyan
  ,5x/xx/xx , 638 , Leon J Saul
  ,5x/xx/xx , 639 , Susan Savage
  ,5x/xx/xx , 640 , Eva Saxl
  ,5x/xx/xx , 641 , Harry W Schacter
  ,5x/xx/xx , 642 , Dore Schary
  ,5x/xx/xx , 643 , Bennet F Schauffler
  ,5x/xx/xx , 644 , William H. Scheide
* ,5x/xx/xx , 645 ,Edmond R Schlesinger
  ,5x/xx/xx , 646 , William R. Schneider
  ,5x/xx/xx , 647 , David Schoenbrun
  ,5x/xx/xx , 648 , Lawrence Schoonover
  ,5x/xx/xx , 649 , Fred O Schwender
  ,5x/xx/xx , 650 , Albert Science
  ,5x/xx/xx , 651 , Edgar Scott
  ,5x/xx/xx , 652 , Peter Scott
  ,5x/xx/xx , 653 , Walter Scratch
  ,5x/xx/xx , 654 , J. Folwell Scull Jr
  ,5x/xx/xx , 655 , Bill Sears
  ,5x/xx/xx , 656 , Louis Seltze
  ,5x/xx/xx , 657 , Robert Shaffer
  ,5x/xx/xx , 658 , Uday Shankar
  ,5x/xx/xx , 659 , Lawrence Sharples
  ,5x/xx/xx , 660 , Philip P Sharples
  ,5x/xx/xx , 661 , Florence B. Shaw
  ,5x/xx/xx , 662 , Vincent Sheean
  ,5x/xx/xx , 663 , Samuel Shellabarger
  ,5x/xx/xx , 664 , Edward Allen Sherman
  ,5x/xx/xx , 665 , David Showalter
  ,5x/xx/xx , 666 , S. Richard Silverman
  ,5x/xx/xx , 667 , Merwin H. Silverthorn
  ,5x/xx/xx , 668 , Caroline K. Simon
  ,5x/xx/xx , 669 , Viscount Simon
  ,5x/xx/xx , 670 , Hans Simons
  ,5x/xx/xx , 671 , Leonard N Simons
  ,5x/xx/xx , 672 , Clarence L. Simpson
  ,5x/xx/xx , 673 , John S Sinclair
* ,5x/xx/xx , 674 ,Upton Sinclair
  ,5x/xx/xx , 675 , Hattie Hecht Sloss
  ,5x/xx/xx , 676 , Bradford Smith
* ,5x/xx/xx , 677 ,Margaret Chase Smith
  ,5x/xx/xx , 678 , Robertson Smith
  ,5x/xx/xx , 679 , Edward R Sneed
  ,5x/xx/xx , 680 , George E Sokolsky
  ,5x/xx/xx , 681 , Pitirim Sorokin
  ,5x/xx/xx , 682 , Oscar F Soule
  ,5x/xx/xx , 683 , Clarence H. Spain
  ,5x/xx/xx , 684 , Howard G. Spalding
* ,5x/xx/xx , 685 ,Percy Spender
  ,5x/xx/xx , 686 , Rosalie Spidell
  ,5x/xx/xx , 687 , Constance Spry
  ,5x/xx/xx , 688 , Robert Stacy-Judd
  ,5x/xx/xx , 689 , Alfred Stanford
  ,5x/xx/xx , 690 , Mary Stanton
* ,5x/xx/xx , 691 ,Barbara Stanwyck
* ,5x/xx/xx , 692 , Freya Stark
  ,5x/xx/xx , 693 , Floyd Starr
  ,5x/xx/xx , 694 , Harold E Stassen
  ,5x/xx/xx , 695 , Eleanor Steber
* ,5x/xx/xx , 696 , Lewis M Stevens
* ,5x/xx/xx , 697 ,Adlai Stevenson
  ,5x/xx/xx , 698 , William Stevenson
  ,5x/xx/xx , 699 , George Stewart
  ,5x/xx/xx , 700 , Irvin Stewart
  ,5x/xx/xx , 701 , George Leslie Stout
  ,5x/xx/xx , 702 , Leland Stowe
  ,5x/xx/xx , 703 , Ralph K Strassman
  ,5x/xx/xx , 704 , Nathan Strauss
  ,5x/xx/xx , 705 , Ralph F Streble
  ,5x/xx/xx , 706 , George Strickling
  ,5x/xx/xx , 707 , Julius Stulman
  ,5x/xx/xx , 708 , Katherine Sullivan
  ,5x/xx/xx , 709 , Henderson Supplee Jr
  ,5x/xx/xx , 710 , Raymond Swing
  ,5x/xx/xx , 711 , Joseph Szigetti
  ,5x/xx/xx , 712 , Charles Taft
  ,5x/xx/xx , 713 , Byron Taggart
  ,5x/xx/xx , 714 , A J P Taylor
  ,5x/xx/xx , 715 , Charity Taylor
  ,5x/xx/xx , 716 , Dwight Taylor
  ,5x/xx/xx , 717 , Harold Taylor
  ,5x/xx/xx , 718 , Henry P Taylor
  ,5x/xx/xx , 719 , Ordway Tead
  ,5x/xx/xx , 720 , Eliza Thayer
  ,5x/xx/xx , 721 , Frederick M Thayer
  ,5x/xx/xx , 722 , Benjamin P Thomas
  ,5x/xx/xx , 723 , Dorothy Thomas
  ,5x/xx/xx , 724 ,episode 724
  ,5x/xx/xx , 725 , Alice Thompson
  ,5x/xx/xx , 726 , William B Thompson
  ,5x/xx/xx , 727 , Emery F Tobin
  ,5x/xx/xx , 728 , Edward Toland
  ,5x/xx/xx , 729 , Frank M Totton
  ,5x/xx/xx , 730 , Richard R. Trail
  ,5x/xx/xx , 731 , J W F Treadwell
  ,5x/xx/xx , 732 , Louis R Trilling
  ,5x/xx/xx , 733 , Tingfu F. Tsiang
  ,5x/xx/xx , 734 , Richard Tucker
  ,5x/xx/xx , 735 , Edgar Turlington
  ,5x/xx/xx , 736 , James Ramsey Ullman
  ,5x/xx/xx , 737 , Irvin W Underhill
  ,5x/xx/xx , 738 , Stanley Unwin
  ,5x/xx/xx , 739 , Andrew J Valucheck
  ,5x/xx/xx , 740 , Amy Vanderbilt
  ,5x/xx/xx , 741 , Jessie Vann
  ,5x/xx/xx , 742 , Lord Vansittart
  ,5x/xx/xx , 743 , George P Vierhelle
  ,5x/xx/xx , 744 , Elizabeth Gray Vining
  ,5x/xx/xx , 745 , Mrs. Otto R. Virgin
  ,5x/xx/xx , 746 , John Voris
  ,5x/xx/xx , 747 ,Barbara Wachner
  ,5x/xx/xx , 748 ,Carl E Wahlstrom
  ,5x/xx/xx , 749 , John Walker
  ,5x/xx/xx , 750 ,Sidney Wallach
  ,5x/xx/xx , 751 ,Gerald Warburg
  ,5x/xx/xx , 752 ,Henry Ward
  ,5x/xx/xx , 753 ,Constance Warren
  ,5x/xx/xx , 754 ,Fran Warren
  ,5x/xx/xx , 755 , Lucile Watson
  ,5x/xx/xx , 756 , S. Dana Weeder
  ,5x/xx/xx , 757 , Willet Weeks
  ,5x/xx/xx , 758 , Frank L Weil
  ,5x/xx/xx , 759 , Joseph Weinreb
  ,5x/xx/xx , 760 , Herbert L Werner
  ,5x/xx/xx , 761 , Guy A West
  ,5x/xx/xx , 762 , Gilbert White
  ,5x/xx/xx , 763 , Goodrich White
  ,5x/xx/xx , 764 , Lynn Townsend White Jr
  ,5x/xx/xx , 765 , Bert Whitehurst
  ,5x/xx/xx , 766 , Margaret Whiting
  ,5x/xx/xx , 767 , Madge Whitney
  ,5x/xx/xx , 768 , Norbert Wiener
  ,5x/xx/xx , 769 , Frank M Wilkes
  ,5x/xx/xx , 770 , Walter F. Willcox
  ,5x/xx/xx , 771 , Clyde Williams
  ,5x/xx/xx , 772 , Joe William
  ,5x/xx/xx , 773 , Paul B. Williams
  ,5x/xx/xx , 774 , Roger C Williams
  ,5x/xx/xx , 775 , Meredith Willson
  ,5x/xx/xx , 776 , Claire D Wilson
  ,5x/xx/xx , 777 , Steuart Wilson
  ,5x/xx/xx , 778 , Thyra Samter Winslow
  ,5x/xx/xx , 779 , Curtin Winsor
  ,5x/xx/xx , 780 ,Helen Winston
  ,5x/xx/xx , 781 ,David Winton
  ,5x/xx/xx , 782 ,Alfred L. Wolf
  ,5x/xx/xx , 783 ,Peggy Wood
  ,5x/xx/xx , 784 ,William H. Wood
  ,5x/xx/xx , 785 ,George Woodcock
  ,5x/xx/xx , 786 ,Ben Wooten
  ,5x/xx/xx , 787 ,Edgar Barton Worthington
  ,5x/xx/xx , 788 ,Evelyn Wrench
  ,5x/xx/xx , 789 ,Charles Wyzanski
  ,5x/xx/xx , 790 ,You Chan Yang
  ,5x/xx/xx , 791 ,Hilda Widener Yoder
  ,5x/xx/xx , 792 ,George Young
* ,5x/xx/xx , 793 ,James N Young
* ,5x/xx/xx , 794 ,Darryl F Zanuck
  ,5x/xx/xx , 795 ,Jake Zeitlin
  ,5x/xx/xx , 796 ,E W Ziebarth
  ,5x/xx/xx , 797 ,Victor Ziminsky
  ,5x/xx/xx , 798 ,William Zorach
* ,00/xx/xx ,   0 ,This I Believe - N P R Documentary
