Exists, Date, #, Episode Name
* ,41/12/06 ,     ,Who or What is Mike How
* ,43/11/13 ,     ,The Italian Street Song and Calling a Baseball Game
* ,44/04/15 ,     ,Pick Up Dollars
* ,45/03/17 ,     ,Dressing Like A Baby
* ,45/06/23 ,     ,Imitating Airplane Sounds
* ,46/03/23 ,     ,Sixth Anniversay Show
* ,47/02/15 ,     ,Who Is Mr Hush
* ,47/10/18 ,     ,Guest - The Glee Club
* ,47/10/25 ,     ,Crackers In The Mouth
* ,47/11/01 ,     ,The Hot Seat
* ,47/11/08 ,     ,Squirtless Seltzer Bottle
* ,47/11/16 ,     ,Instructions For Milking A Cow
* ,47/11/22 ,     ,Suspended Over A Water Tank
* ,47/11/29 ,     ,Sing 'Rockabye Baby'
* ,47/12/20 ,     ,Christmas Seals
* ,48/01/17 ,     ,Guest - William Bendix (Walking Man Contest Begins)
* ,48/03/06 ,     ,Walking Man Revealed
* ,48/10/23 ,     ,Identifying Mr And Mrs Hush
* ,48/10/30 ,     ,Guest - Boris Karloff
* ,48/12/11 ,     ,Guest - Spike Jones
* ,49/01/08 ,     ,Trip to Alaska
* ,49/02/05 ,     ,Guest - Dennis O'Keefe
* ,49/04/09 ,     ,Reuniting Four Siblings
* ,49/10/08 ,     ,Sit In A Crow's Nest And Find Husband In The Audience
* ,49/10/22 ,     ,The Laughing Boy Is Correctly Guessed
* ,52/07/29 ,     ,Man Sealed In Room For One Week
* ,55/xx/xx ,     ,Painting Slashed
* ,xx/xx/xx ,     ,Shift Worker Becomes Cinderella
