Exists, Date, #, Episode Name
  ,46/02/02 ,   1 ,Guy Lombardo, guest (PREMIERE, Saturdays on MUTUAL network)
  ,46/02/09 ,   2 ,
  ,46/02/16 ,   3 ,
  ,46/02/23 ,   4 ,Rita Daigle, guest
  ,46/03/02 ,   5 ,
  ,46/03/09 ,   6 ,
  ,46/03/16 ,   7 ,
  ,46/03/23 ,   8 ,Not The Raven (see 46-04-06)
* ,46/03/30 ,   9 ,First Topic - The Mouse That Ran Up The Clock
* ,46/04/06 ,  10 ,First Topic - Edgar Allan Poe's The Raven
  ,46/04/13 ,  11 ,Howard Dietz, guest
  ,46/04/20 ,  12 ,
  ,46/04/27 ,  13 ,--- (PRE-EMPTED in NY City)
  ,46/05/04 ,  14 ,Rosamund Marshall, guest
  ,46/05/11 ,  15 ,George Jessel, guest
  ,46/05/18 ,  16 ,
  ,46/05/25 ,  17 ,
  ,46/06/01 ,  18 ,Lucille Ball
  ,46/06/08 ,  19 ,R E Gould
  ,46/06/15 ,  20 ,Henry J Taylor
  ,46/06/22 ,  21 ,
  ,46/06/29 ,  22 ,
  ,46/07/06 ,  23 ,
  ,46/07/13 ,  24 ,Jed Prouty, guest
  ,46/07/20 ,  25 ,
  ,46/07/27 ,  26 ,Jan Strother, guest
  ,46/08/03 ,  27 ,Mary Small, guest
  ,46/08/10 ,  28 ,
  ,46/08/17 ,  29 ,
  ,46/08/24 ,  30 ,Benny Leonard, guest
* ,46/08/25 ,     ,(AFRS rebroadcast as part of 'To The Rear March' - PARTIAL)
  ,46/08/31 ,  31 ,
  ,46/09/07 ,  32 ,James Montgomery Flagg, guest
  ,46/09/14 ,  33 ,Eloise McElhone, guest
  ,46/09/21 ,  34 ,
  ,46/09/28 ,  35 ,
  ,46/10/05 ,  36 ,Susan Douglas, guest
  ,46/10/12 ,  37 ,
  ,46/10/19 ,  38 ,
* ,46/10/24 ,     ,(AFRS rebroadcast as part of 'To The Rear March' - PARTIAL)
  ,46/10/26 ,  39 ,
* ,46/11/02 ,  40 ,Glenda Farrell, guest - First Topic - The Wall That Humpty Dumpty Sat On
  ,46/11/09 ,  41 ,
  ,46/11/16 ,  42 ,Francis Taylor, guest
  ,46/11/23 ,  43 ,Emily Post, guest
  ,46/11/30 ,  44 ,Ely Culbertson, guest
  ,46/12/07 ,  45 ,Ted Malone
  ,46/12/14 ,  46 ,Christian Goss
  ,46/12/21 ,  47 ,Santa Claus
  ,46/12/28 ,  48 ,Harry Conover
* ,46/xx/xx ,     ,First Subject - Easter Bunny
  ,47/01/04 ,  49 ,Guy Lombardo
  ,47/01/11 ,  50 ,Mischa Auer
  ,47/01/18 ,  51 ,Jean Parker
  ,47/01/25 ,  52 ,Henry J Taylor
  ,47/02/01 ,  53 ,Candy Jones
  ,47/02/08 ,  54 ,Sen Harry Cain of WA
  ,47/02/15 ,  55 ,June Knight
  ,47/02/22 ,  56 ,Zero Mostel
  ,47/03/01 ,  57 ,Jackie Kelk
  ,47/03/08 ,  58 ,Mimi Benzell
  ,47/03/15 ,  59 ,Vincent Lopez
  ,47/03/22 ,  60 ,Bennett Cerf
  ,47/03/29 ,  61 ,Robert Merrill
  ,47/04/05 ,  62 ,Russel Crouse
  ,47/04/12 ,  63 ,Nat Holman
  ,47/04/19 ,  64 ,Billy Gilbert
  ,47/04/26 ,  65 ,Joe Laurie, Jr
  ,47/05/03 ,  66 ,Allan Jones
  ,47/05/10 ,  67 ,Hank Gowdy
  ,47/05/17 ,  68 ,Marquis Childs
* ,47/05/24 ,  69 ,Lulu McConnell, guest - First Topic - It's The Worm That The Early Bird Gets
  ,47/05/31 ,  70 ,Robert Merrill
  ,47/06/07 ,  71 ,Joan Loring
  ,47/06/14 ,  72 ,Tommy Hendricks
  ,47/06/21 ,  73 ,Sidney Blackmer
  ,47/06/28 ,  74 ,Harold D Russell
  ,47/07/05 ,  75 ,Benjamin Cohen
  ,47/07/12 ,  76 ,Colonel Stoopnagle
  ,47/07/19 ,  77 ,Walter Thornton
  ,47/07/26 ,  78 ,Jack Train
  ,47/08/02 ,  79 ,Gov Driscoll of NJ
  ,47/08/09 ,  80 ,Harry McNaughton
  ,47/08/16 ,  81 ,Melville Cooper
  ,47/08/23 ,  82 ,Regina Resnick
  ,47/08/30 ,  83 ,George Stirnweiss
  ,47/09/06 ,  84 ,Bobby Jordan
  ,47/09/13 ,  85 ,Alan Baxter
  ,47/09/20 ,  86 ,Gov Driscoll of NJ
  ,47/09/27 ,  87 ,Danton Walker
  ,47/10/04 ,  88 ,Ham Fisher
  ,47/10/11 ,  89 ,Robert Riskin
  ,47/10/18 ,  90 ,Wendy Barrie
  ,47/10/25 ,  91 ,Fred Finklehoff
  ,47/11/01 ,  92 ,Rise Stevens
  ,47/11/08 ,  93 ,Dorothy Kilgallen
  ,47/11/15 ,  94 ,Ben Alexander
  ,47/11/22 ,  95 ,Spec Sanders
  ,47/11/29 ,  96 ,Buddy Rogers
  ,47/12/06 ,  97 ,Al Capp
* ,47/12/13 ,  98 ,Eugene O'Neill, Jr
  ,47/12/20 ,  99 ,Santa Claus
  ,47/12/27 , 100 ,Zachary Scott
  ,48/01/03 , 101 ,Ilona Massey
  ,48/01/10 , 102 ,Gloria Swanson
  ,48/01/17 , 103 ,Bob Feller
  ,48/01/24 , 104 ,Bonita Granville
  ,48/01/31 , 105 ,Paul Kelly
  ,48/02/07 , 106 ,Guy Lombardo
* ,48/02/14 , 107 ,Gen John Reed Kilpatrick (Elephant and Donkey Symbols)
  ,48/02/21 , 108 ,Peter Donald
  ,48/02/28 , 109 ,Victor Borge
  ,48/03/06 , 110 ,Walter Abel
  ,48/03/13 , 111 ,Dorothy Kirsten
  ,48/03/20 , 112 ,Alice Marble
  ,48/03/27 , 113 ,Guy Kibbee
  ,48/04/03 , 114 ,Emmett Kelly
  ,48/04/10 , 115 ,Ann Rutherford
  ,48/04/17 , 116 ,James A Farley
  ,48/04/24 , 117 ,Charlie Keller
  ,48/05/01 , 118 ,Louis Calhern
  ,48/05/08 , 119 ,Eddy Duchin
  ,48/05/15 , 120 ,Marsha Hunt
  ,48/05/22 , 121 ,Ann Blyth
  ,48/05/29 , 122 ,Jackie Cooper
  ,48/06/05 , 123 ,Diana Lewis
  ,48/06/12 , 124 ,John Conte
  ,48/06/19 , 125 ,Faye Emerson
  ,48/06/26 , 126 ,Ilka Chase
  ,48/07/03 , 127 ,James Dunn
  ,48/07/10 , 128 ,Felix Knight
  ,48/07/17 , 129 ,Dale Carnegie
  ,48/07/24 , 130 ,Basil Rathbone
  ,48/07/31 , 131 ,Jack Lait
  ,48/08/07 , 132 ,Ralph Kiner
  ,48/08/14 , 133 ,Jack Pearl
  ,48/08/21 , 134 ,Frank Buck
* ,48/08/28 , 135 ,Joe E Brown
  ,48/09/04 , 136 ,Rube Goldberg
* ,48/09/11 , 137 ,Georges Carpentier
* ,48/09/18 , 138 ,William Gaxton, guest - First Topic - Wet Hen that One Gets As Mad As
  ,48/09/25 , 139 ,Francis Godolphin, Dean of Princeton Univ
  ,48/10/02 , 140 ,Helen Jepson
  ,48/10/09 , 141 ,Ben Alexander
  ,48/10/16 , 142 ,Daphne Padel
  ,48/10/23 , 143 ,Lanny Ross
  ,48/10/30 , 144 ,Rep Sol Bloom
  ,48/11/06 , 145 ,Hugh MacNair
  ,48/11/13 , 146 ,Eddie Albert
  ,48/11/20 , 147 ,Billy Rose
  ,48/11/27 , 148 ,Sigmund Romberg
  ,48/12/04 , 149 ,Pat O'Brien
  ,48/12/11 , 150 ,Virginia Field
  ,48/12/18 , 151 ,Santa Claus
* ,48/12/25 , 152 ,Lucy Monroe, guest - First Topic - The Rod that You Spare When You Spoil the Child (AFRS)
  ,49/01/01 , 153 ,Kay Summersby
* ,49/01/08 , 154 ,Johnny Desmond, guest - First Topic - The Bear that Went over the Mountain(AFRS)
* ,49/01/15 , 155 ,Lawrence Tibbett
  ,49/01/22 , 156 ,Edward Everett Horton
  ,49/01/29 , 157 ,Mary Boland
  ,49/02/05 , 158 ,Marquis of Milford
  ,49/02/12 , 159 ,Guy Lombardo
  ,49/02/19 , 160 ,Peggy Wood
  ,49/02/26 , 161 ,George Givot
  ,49/03/05 , 162 ,Astrid Varney
  ,49/03/12 , 163 ,Guy Kibbee
  ,49/03/19 , 164 ,Mrs Wendell Willkie
  ,49/03/26 , 165 ,Fulton Oursler
  ,49/04/02 , 166 ,Kirk Douglas
  ,49/04/09 , 167 ,Irene Rich
  ,49/04/16 , 168 ,Boris Karloff
  ,49/04/23 , 169 ,Clifton Webb
  ,49/04/30 , 170 ,Paul Winchell
  ,49/05/07 , 171 ,Richard Conte
  ,49/05/14 , 172 ,Ezra Stone
  ,49/05/21 , 173 ,Jessica Dragonette
  ,49/05/28 , 174 ,Fay Bainter
  ,49/06/04 , 175 ,Maggie Teyte
  ,49/06/11 , 176 ,Don Defore
  ,49/06/18 , 177 ,Binnie Barnes
  ,49/06/25 , 178 ,Leslie Charteris
  ,49/07/02 , 179 ,William Eythe
  ,49/07/09 , 180 ,James Michener
  ,49/07/16 , 181 ,Patrice Munsel
  ,49/07/23 , 182 ,Virginia Mayo
  ,49/07/30 , 183 ,Louis Untermeyer
  ,49/08/06 , 184 ,William Gargan
  ,49/08/13 , 185 ,Bobby Riggs
  ,49/08/20 , 186 ,Marta Toren
  ,49/08/27 , 187 ,Hank Sauer
  ,49/09/03 , 188 ,John Carradine
  ,49/09/10 , 189 ,Chester Morris
  ,49/09/17 , 190 ,Earl Wilson
  ,49/09/24 , 191 ,Ruth Hussey
  ,49/10/01 , 192 ,Mel Parnell
  ,49/10/08 , 193 ,Nina Foch
  ,49/10/15 , 194 ,Ham Fisher
  ,49/10/22 , 195 ,Jeffrey Lynn
  ,49/10/29 , 196 ,Jackie Coogan <or> Sir Cedric Hardwicke
  ,49/11/05 , 197 ,Peggy Ann Garner
  ,49/11/12 , 198 ,Van Wyck Mason
  ,49/11/19 , 199 ,Bob Crosby
  ,49/11/26 , 200 ,Gov Alfred E Driscoll of NJ
  ,49/12/03 , 201 ,Wendy Barrie
  ,49/12/10 , 202 ,Dorothy Kilgallen
  ,49/12/17 , 203 ,Helen Jepson
  ,49/12/24 , 204 ,Santa Claus
  ,49/12/31 , 205 ,Buddy Rogers
  ,50/01/07 , 206 ,Mimi Benzell
  ,50/01/14 , 207 ,Ilona Massey
  ,50/01/21 , 208 ,Claire Trevor
  ,50/01/28 , 209 ,Jack Smith
  ,50/02/04 , 210 ,Guy Lombardo
* ,50/02/11 , 211 ,Dr Roswell G Ham - First Topic - Jimmy Valentine
  ,50/02/18 , 212 ,Johnny Desmond
  ,50/02/25 , 213 ,Faye Emerson
  ,50/03/04 , 214 ,Helmut Dantine
  ,50/03/11 , 215 ,Irra Petina
  ,50/03/18 , 216 ,Peter Donald
  ,50/03/25 , 217 ,MacDonald Carey
  ,50/04/01 , 218 ,Gene Sarazen
  ,50/04/08 , 219 ,Gloria Swanson
  ,50/04/15 , 220 ,Gil Hodges
  ,50/04/22 , 221 ,Wilbur Shaw
  ,50/04/29 , 222 ,Stuart Erwin
  ,50/05/06 , 223 ,John Loder
  ,50/05/13 , 224 ,Johnny Johnston
  ,50/05/20 , 225 ,Felix Knight
  ,50/05/27 , 226 ,Lee Bowman
  ,50/06/03 , 227 ,James A Michener
  ,50/06/10 , 228 ,Jack Carson
  ,50/06/17 , 229 ,Lucy Monroe
* ,50/06/24 , 230 ,Irene Castle - First Topic - The Dime in Brother, Can You Spare a Dime
  ,50/07/01 , 231 ,Major George Fielding
  ,50/07/08 , 232 ,Victor Jory
  ,50/07/15 , 233 ,Bob Feller
  ,50/07/22 , 234 ,Margo
  ,50/07/29 , 235 ,Charles Coburn
  ,50/08/05 , 236 ,Janis Paige
  ,50/08/12 , 237 ,Blanche Yurka
  ,50/08/19 , 238 ,Warren Spahn
  ,50/08/26 , 239 ,Skitch Henderson
  ,50/09/02 , 240 ,Robert Alda
  ,50/09/09 , 241 ,Dane Clark
  ,50/09/16 , 242 ,Gov Paul A Dever
  ,50/09/23 , 243 ,Florence Chadwick
  ,50/09/30 , 244 ,Guy Kibbee
  ,50/10/07 , 245 ,Nina Foch
  ,50/10/14 , 246 ,Fritz Crisler
  ,50/10/21 , 247 ,Nancy Kelly
  ,50/10/28 , 248 ,Henry M Chauncey
  ,50/11/04 , 249 ,Kathleen Winsor
  ,50/11/11 , 250 ,Nadine Connor
  ,50/11/18 , 251 ,Jose Ferrer
  ,50/11/25 , 252 ,Ann Rutherford
  ,50/12/02 , 253 ,Bennett Cerf
  ,50/12/09 , 254 ,Anita Louise
  ,50/12/16 , 255 ,Chester Morris
  ,50/12/23 , 256 ,Joan Blondell
  ,50/12/30 , 257 ,HV Kaltenborn
  ,51/01/06 , 258 ,Lanny Ross
  ,51/01/13 , 259 ,Richard Arlen
  ,51/01/20 , 260 ,Barbara Britton
  ,51/01/27 , 261 ,Marjorie Lawrence
  ,51/02/03 , 262 ,Guy Lombardo
  ,51/02/10 , 263 ,Jean Parker
  ,51/02/17 , 264 ,Victor Borge
  ,51/02/24 , 265 ,Eleanor Steber
  ,51/03/03 , 266 ,Freddie Martin
  ,51/03/10 , 267 ,Ilka Chase
  ,51/03/17 , 268 ,Col Mary Halloran
  ,51/03/24 , 269 ,Jane Wyatt
  ,51/03/31 , 270 ,Jackie Cooper
  ,51/04/07 , 271 ,Sammy Kaye
  ,51/04/14 , 272 ,Bernard Fischer
  ,51/04/21 , 273 ,Felix Adler
  ,51/04/28 , 274 ,Danton Walker
  ,51/05/05 , 275 ,Jack Bailey
  ,51/05/12 , 276 ,Blanche Thebom
  ,51/05/19 , 277 ,Ed Lopat
  ,51/05/26 , 278 ,Binnie Barnes
  ,51/06/02 , 279 ,Don McNeil
  ,51/06/09 , 280 ,Robert Preston
  ,51/06/16 , 281 ,Jeffrey Lynn
  ,51/06/23 , 282 ,Victor Jory
  ,51/06/30 , 283 ,Mel Torme
  ,51/07/07 , 284 ,Robert Gardner
  ,51/07/14 , 285 ,Bobby McGuire
  ,51/07/21 , 286 ,Johnny Mercer
  ,51/07/28 , 287 ,Bob Dillinger
  ,51/08/04 , 288 ,Deems Taylor
  ,51/08/11 , 289 ,Jeff Chandler
  ,51/08/18 , 290 ,Coleen Gray
  ,51/08/25 , 291 ,Sal Maglie
  ,51/09/01 , 292 ,St John Terrell
  ,51/09/08 , 293 ,Annamary Dickey
  ,51/09/15 , 294 ,Major George Fielding Eliot
  ,51/09/22 , 295 ,Alexis Smith
  ,51/09/29 , 296 ,Nancy McGuire
  ,51/10/06 , 297 ,Stuart Erwin
  ,51/10/13 , 298 ,Wendy Barrie
  ,51/10/20 , 299 ,Melville Cooper
  ,51/10/27 , 300 ,John Loder
  ,51/11/03 , 301 ,Wendy Barrie
  ,51/11/10 , 302 ,MacDonald Carey
  ,51/11/17 , 303 ,Bobby McGuire
  ,51/11/24 , 304 ,Jessica Dragonette
  ,51/12/01 , 305 ,Norman Rockwell
  ,51/12/08 , 306 ,Dick Kazmaier
  ,51/12/15 , 307 ,Thomas L Thomas
* ,51/12/22 , 308 ,Santa Claus, guest - First Topic - Rudolph, the Red Nosed Reindeer
  ,51/12/29 , 309 ,Walter Abel
  ,52/01/05 , 310 ,Jan Strobel
  ,52/01/12 , 311 ,William L Shirer
  ,52/01/19 , 312 ,Eleanor Steber
  ,52/01/26 , 313 ,Paula Stone
  ,52/02/02 , 314 ,Nancy Vandeventer
  ,52/02/09 , 315 ,Paula Stone
  ,52/02/16 , 316 ,Lee Bowman
  ,52/02/23 , 317 ,James A Farley
  ,52/03/01 , 318 ,Charles Caldwell
  ,52/03/08 , 319 ,Pat Frank
  ,52/03/15 , 320 ,Igor Gorin
  ,52/03/22 , 321 ,William Hillman
  ,52/03/29 , 322 ,John Lund
  ,52/04/05 , 323 ,Lanny Ross
  ,52/04/12 , 324 ,Mel Allen
  ,52/04/19 , 325 ,Sylvia Sidney
  ,52/04/26 , 326 ,Al Capp
  ,52/05/03 , 327 ,Kim Hunter
  ,52/05/10 , 328 ,Leland Stowe
  ,52/05/17 , 329 ,Robert Vogeler
  ,52/05/24 , 330 ,Victor Jory
  ,52/05/31 , 331 ,Bob Feller
  ,52/06/07 , 332 ,Vanessa Brown
  ,52/06/14 , 333 ,Barbara Britton
  ,52/06/21 , 334 ,Eugene Conley
  ,52/06/28 , 335 ,Dick Button
  ,52/07/05 , 336 ,Nancy Vandeventer
  ,52/07/12 , 337 ,Scott Forbes
  ,52/07/19 , 338 ,Vivian Kellems
  ,52/07/26 , 339 ,Pee Wee Reese
  ,52/08/02 , 340 ,Janis Carter
  ,52/08/09 , 341 ,Peggy Ann Garner
  ,52/08/16 , 342 ,Mischa Auer
  ,52/08/23 , 343 ,Eloise McElhone
  ,52/08/30 , 344 ,Gene Woodling
  ,52/09/06 , 345 ,H R Baukhage
  ,52/09/13 , 346 ,Sigmund Spaeth
  ,52/09/20 , 347 ,William L Shirer
  ,52/09/27 , 348 ,Georgie Price
  ,52/10/04 , 349 ,Peter Donald
  ,52/10/11 , 350 ,Edith Fellows
  ,52/10/18 , 351 ,Gene Raymond
  ,52/10/25 , 352 ,Faith Baldwin
  ,52/11/01 , 353 ,Maurice Zolotov
  ,52/11/08 , 354 ,Jeffrey Lynn
  ,52/11/15 , 355 ,Patty Berg
  ,52/11/22 , 356 ,Stuart Erwin
  ,52/11/29 , 357 ,Dr Benjamin Fine
  ,52/12/06 , 358 ,Roddy McDowell
  ,52/12/13 , 359 ,Robert Christenberry
  ,52/12/20 , 360 ,Santa Claus
  ,52/12/27 , 361 ,Betsy von Furstenberg
  ,53/01/03 , 362 ,Patricia Neal
  ,53/01/10 , 363 ,Nadine Connor
  ,53/01/17 , 364 ,Bonita Granville
  ,53/01/24 , 365 ,Earl Wilson
  ,53/01/31 , 366 ,Gregory Ratoff
  ,53/02/07 , 367 ,MacDonald Carey
  ,53/02/14 , 368 ,Kurt Baum
  ,53/02/21 , 369 ,Sheldon Roper
  ,53/02/28 , 370 ,Jane Wyatt
  ,53/03/07 , 371 ,Rep Emanuel Celler
  ,53/03/14 , 372 ,Lanny Ross
  ,53/03/21 , 373 ,Bert Lytell
  ,53/03/28 , 374 ,Walter Hampden
  ,53/04/04 , 375 ,Emily Kimbrough
  ,53/04/11 , 376 ,Blanche Thebom
  ,53/04/18 , 377 ,George Stevens
  ,53/04/25 , 378 ,Gene Woodling
  ,53/05/02 , 379 ,Jack O'Brien
  ,53/05/09 , 380 ,Stuart Erwin
  ,53/05/16 , 381 ,James Stewart
  ,53/05/23 , 382 ,Igor Gorin
  ,53/05/30 , 383 ,Fred Raubinger
  ,53/06/06 , 384 ,Carl Erskine
  ,53/06/13 , 385 ,Peter Donald
  ,53/06/20 , 386 ,Robert Alda
  ,53/06/27 , 387 ,Martha Scott
  ,53/07/04 , 388 ,Chester Morris
  ,53/07/11 , 389 ,Barbara Britton
  ,53/07/18 , 390 ,Nick Kenny
  ,53/07/25 , 391 ,Theodore Distler
  ,53/08/01 , 392 ,Earl Wrightson
  ,53/08/08 , 393 ,Nicholas Monsarrat
  ,53/08/15 , 394 ,Rollin Ray Shoemaker (tribute to 4-H Clubs)
  ,53/08/22 , 395 ,
  ,53/08/29 , 396 ,Robert Preston
  ,53/09/05 , 397 ,Danton Walker
  ,53/09/12 , 398 ,
  ,53/09/19 , 399 ,
  ,53/09/26 , 400 ,Dr Russell Kirk
  ,53/10/03 , 401 ,
  ,53/10/10 , 402 ,Hartnett Kane
  ,53/10/17 , 403 ,Earl Wilson
  ,53/10/24 , 404 ,
  ,53/10/31 , 405 ,Gen George C Kenney
  ,53/11/07 , 406 ,Jay Jostyn
  ,53/11/14 , 407 ,Dr Russell J Humbert
  ,53/11/21 , 408 ,Kyle Rote
  ,53/11/28 , 409 ,Keefe Brasselle
  ,53/12/05 , 410 ,George Dixon
  ,53/12/12 , 411 ,Licia Albanese
  ,53/12/19 , 412 ,Santa Claus
  ,53/12/26 , 413 ,
  ,54/01/02 , 414 ,Jack Kramer
  ,54/01/09 , 415 ,Major David S MacGhee
  ,54/01/16 , 416 ,
  ,54/01/23 , 417 ,Adm Richard Lansing Connolly
  ,54/01/30 , 418 ,Nancy Vandeventer
  ,54/02/06 , 419 ,Teresa Wright
  ,54/02/13 , 420 ,Sheldon M Roper
  ,54/02/20 , 421 ,Danton Walker
  ,54/02/27 , 422 ,Dr Jordan L Larson
  ,54/03/06 , 423 ,Harry Herschfield
  ,54/03/13 , 424 ,Dane Clark
  ,54/03/20 , 425 ,Jerome Hines
  ,54/03/27 , 426 ,Frank Coniff [LAST SHOW]
