Exists, Date, #, Episode Name
* ,80/04/08 ,   0 ,The Oxford Review
* ,81/09/08 , 101 ,The Late Show - Mike Channel
* ,81/09/15 , 102 ,Bedrock - The Early Morning Breakfast Show
* ,81/09/22 , 103 ,Midday Show - Anna Daptor
* ,81/09/29 , 104 ,The Radio Active Roadshow
* ,81/10/06 , 105 ,What's News
* ,81/10/13 , 106 ,The Mike Stand Show - Radio Active Awards
* ,81/12/19 ,     ,The Hee Bee Jee Bees Story
* ,82/08/16 , 201 ,The History of Radio Active
* ,82/08/23 , 202 ,Charity Radiothon
* ,82/08/30 , 203 ,Good Day Sport
* ,82/09/06 , 204 ,What's Going On
* ,82/09/13 , 205 ,The Nigel Pry Show
* ,82/09/20 , 206 ,Pick of the Week
* ,83/07/12 , 301 ,Euroshow
* ,83/07/19 , 302 ,Probe Goes Round the Back
* ,83/07/26 , 303 ,Funday
* ,83/08/02 , 304 ,Repeat After Three
* ,83/08/09 , 305 ,Lunchtime With Anna
* ,83/08/16 , 306 ,What's Going On at the Edinburgh Festival
* ,83/12/20 ,     ,Radio Active's Christmas Turkey
* ,84/07/09 , 401 ,Salute to New York
* ,84/07/16 , 402 ,The Martin Brown Show
* ,84/07/23 , 403 ,Round Your Parts
* ,84/07/30 , 404 ,Breakfast Show
* ,84/08/06 , 405 ,Minorities Programme
* ,84/08/13 , 406 ,Bio Show
* ,84/08/20 , 407 ,Gigantaquiz
* ,84/08/27 , 408 ,Martin Chizzlenutt
* ,85/07/05 , 501 ,Wimbledon Special
* ,85/07/12 , 502 ,Nuclear Debate
* ,85/07/19 , 503 ,Out of Your Depth
* ,85/07/26 , 504 ,In Australia
* ,85/08/02 , 505 ,Get Away With You
* ,85/08/09 , 506 ,Wey Hey It's Saturday
* ,85/08/16 , 507 ,Music Festival
* ,85/08/23 , 508 ,Did You Catch It
* ,86/10/11 , 601 ,A Thodding By-Election Special
* ,86/10/18 , 602 ,The Fit and Fat Show
* ,86/10/25 , 603 ,Radio Active's Bogie Awards
* ,86/11/01 , 604 ,The D-Day Show
* ,86/11/08 , 605 ,Radio Active Goes to the Movies
* ,86/11/15 , 606 ,Stop That Crime UK
* ,86/11/22 , 607 ,In House Documentary
* ,86/11/29 , 608 ,Backchat
* ,87/08/29 , 701 ,It Was twenty Years Ago Last Tuesday
* ,87/09/05 , 702 ,Radio Radio Programme
* ,87/09/12 , 703 ,God Alone Knows
* ,87/09/19 , 704 ,Probe Round The Back
* ,87/09/26 , 705 ,Mike Says Heres's A Bit of Talent
* ,87/10/03 , 706 ,Flu Special
* ,87/10/12 , 707 ,You and Your Things
* ,87/10/19 , 708 ,Mega Phone In
