Exists, Date, #, Episode Name
  ,30/01/08 ,     ,Lady From the Sea
  ,33/01/30 ,     ,Peter Ibbetson
  ,33/02/06 ,     ,Sherwood
  ,33/02/13 ,     ,The Climbers
  ,33/02/20 ,     ,The Romantic Age
  ,33/02/27 ,     ,John Ferguson
  ,33/03/06 ,     ,The Great Divide
  ,33/03/13 ,     ,The Melting Pot
  ,33/03/20 ,     ,The Admirable Crichton
  ,33/03/27 ,     ,The Blue Bird
  ,33/04/03 ,     ,The Witching Hour
  ,33/04/10 ,     ,Clarence
  ,33/04/17 ,     ,Prunella
  ,33/04/24 ,     ,Will Shakespeare
  ,33/05/01 ,     ,Engaged
  ,33/05/08 ,     ,The Bells
  ,33/05/15 ,     ,Ingomar
  ,33/05/22 ,     ,Richelieu
  ,33/05/29 ,     ,Tragedy of Love
  ,33/06/05 ,     ,Ruy Bias
  ,33/06/12 ,     ,Camille
  ,33/06/19 ,     ,Rip Van Winkle
  ,33/06/26 ,     ,Fanchon the Cricket
  ,33/07/03 ,     ,David Garrick
  ,33/07/10 ,     ,Kathleen Mavourneen
  ,33/07/17 ,     ,A Scrap of Paper
  ,33/07/24 ,     ,Cyrano de Bergerac
  ,33/07/31 ,     ,Silas Marner
  ,33/08/07 ,     ,The Cricket on the Hearth
  ,33/08/14 ,     ,Lady From the Sea
  ,33/08/21 ,     ,The Importance of Being Earnest
  ,33/08/28 ,     ,The Man in the Iron Mask
  ,34/03/05 ,     ,The Swan
  ,34/03/19 ,     ,The Mollusc
  ,34/03/26 ,     ,Old Man Minick
  ,34/04/16 ,     ,Best Two Out of Three
* ,35/11/14 ,     ,Richard II
* ,35/12/05 ,     ,King Henry IV Part I
* ,35/12/12 ,     ,King Henry IV Part II part 1
* ,35/12/19 ,     ,King Henry IV Part II part 2
* ,35/12/26 ,     ,King Henry V part 1
* ,36/01/02 ,     ,King Henry V part 2
* ,36/01/16 ,     ,King Henry VI Part II
* ,36/01/23 ,     ,King Henry VI Part III
* ,36/01/30 ,     ,King Richard III
* ,38/02/18 ,     ,There's Always Juliet
* ,38/03/11 ,     ,The Far Off Hills
* ,38/04/29 ,     ,Madame Sans Gens
* ,38/05/13 ,     ,The Bells or The Murder Of The Polish Jew
* ,39/03/26 ,     ,American Song
* ,39/05/07 ,     ,Back Number Up
* ,39/05/14 ,     ,The Man Who Was Tomorrow
* ,39/06/04 ,     ,The Towers Of Hatred
* ,39/06/11 ,     ,The Piper
  ,39/06/18 ,     ,The Ragman's Uncle
  ,39/07/09 ,     ,The Two Drovers
  ,39/07/16 ,     ,Kid Star
  ,39/07/23 ,     ,Tie 'em Up Perkins
* ,39/08/06 ,     ,First Selectman In Person
* ,39/08/13 ,     ,The Cottingham's Last Banshee
  ,39/08/27 ,     ,Man With a Lantern
  ,39/11/08 ,     ,Speed
  ,39/11/15 ,     ,All-American
  ,39/11/22 ,     ,Turkey Soup
* ,39/11/29 ,     ,The Shrinking Mr. Pertwie
  ,39/12/06 ,     ,The Four-Sided Triangle
  ,39/12/13 ,     ,His Brother's Keeper
  ,39/12/20 ,     ,Mr Throgg's Trial Balance
  ,39/12/27 ,     ,Marry the Girl
  ,40/02/03 ,     ,Going Home; Moon Road
  ,40/02/10 ,     ,The Most Tragic Brutus
  ,40/02/17 ,     ,All Quiet at Silver Valley
  ,40/02/24 ,     ,My Godfather, the Emperor
  ,40/03/30 ,     ,The Withering Glare of Amelia Peck
* ,40/04/06 ,     ,The Withering Glare Of Amelia Peck
* ,40/04/13 ,     ,The Ineffable Essence Of Nothing
  ,40/04/20 ,     ,The Incredible Clanahan
  ,40/05/04 ,     ,Paris Evening
  ,40/06/15 ,     ,The Crazy Heart Blues
  ,40/06/29 ,     ,Elise
  ,40/08/10 ,     ,Evening Call
  ,40/08/24 ,     ,Adam and Eve On a Raft; When Your Time Comes; A Piece of Ice
  ,40/09/07 ,     ,The Perfect Marriage
* ,40/09/14 ,     ,Life's Hungry Man
  ,40/09/21 ,     ,Things in Common
  ,40/09/28 ,     ,Height of Fashion
  ,40/10/05 ,     ,The Limbo Kid
