Exists, Date, #, Episode Name
* ,xx/xx/xx ,   0 ,Promo to Sponsors
* ,xx/xx/xx ,   1 ,First Song - Jilted
* ,xx/xx/xx ,   2 ,First Song - Smokey Mountain Boogie
* ,xx/xx/xx ,   3 ,First Song - Chatanooga Shoe Shine Boy
* ,xx/xx/xx ,   4 ,First Song - San Antonio Rose
* ,xx/xx/xx ,   5 ,First Song - Smoke On The Water
* ,xx/xx/xx ,   6 ,First Song - Freight Train Boogie
* ,xx/xx/xx ,   7 ,Guest - Luke Warmwater
* ,xx/xx/xx ,   8 ,Guest - Betty Foley
* ,xx/xx/xx ,   9 ,Guest - Skeets McDonald
* ,xx/xx/xx ,  10 ,Guest - Foggy River Boys
* ,xx/xx/xx ,  11 ,Guest - Arlie Duff
* ,xx/xx/xx ,  12 ,Guest - Smiley Burnette
* ,xx/xx/xx ,  13 ,Guest -  Billy Walker
* ,xx/xx/xx ,  14 ,Guest - Ferlin Husky
* ,xx/xx/xx ,  15 ,Guest - Foggy River Boys (2)
* ,xx/xx/xx ,  16 ,Guest - Hawkshaw Hawkins
* ,xx/xx/xx ,  17 ,Guest - Patsy Elshire
* ,xx/xx/xx ,  18 ,Guest - Bill Ring
* ,xx/xx/xx ,  19 ,Guest - Pete Stamper
* ,xx/xx/xx ,  20 ,Guest - Betty Foley (2)
* ,xx/xx/xx ,  21 ,Guest - Slim Wilson
* ,xx/xx/xx ,  22 ,Guest - T Texas Tyler
* ,xx/xx/xx ,  23 ,Guest - Smiley Burnette (2)
* ,xx/xx/xx ,  24 ,Guest - Pete Stamper (2)
* ,xx/xx/xx ,  25 ,Guest - Foggy River Boys (3)
* ,xx/xx/xx ,  26 ,Guest - Tommy Sosebee
* ,xx/xx/xx ,  27 ,Guest - Jean Shepard
* ,xx/xx/xx ,  28 ,Guest - Jimmy Self
* ,xx/xx/xx ,  29 ,Guest - Pete Stamper (3)
* ,xx/xx/xx ,  30 ,Guest - Betty Foley (3)
* ,xx/xx/xx ,  31 ,Guest - Slim Wilson (2)
* ,xx/xx/xx ,  32 ,Guest - Smiley Burnette (3)
* ,xx/xx/xx ,  33 ,Guest - Skeets McDonald (2)
* ,xx/xx/xx ,  34 ,Guest - Luke Warmwater (2)
* ,xx/xx/xx ,  35 ,Guest - Betty Foley (4)
* ,xx/xx/xx ,  36 ,Guest - Ferlin Husky (2)
* ,xx/xx/xx ,  37 ,Guest - Tommy Sosebee (2)
* ,xx/xx/xx ,  38 ,Guest - Tall Timber Trio
* ,xx/xx/xx ,  39 ,Guest - Penny Nichols
* ,xx/xx/xx ,  40 ,Guest - Foggy River Boys (4)
* ,xx/xx/xx ,  41 ,Guest - Pete Stamper (4)
* ,xx/xx/xx ,  42 ,Guest - Arlie Duff (2)
* ,xx/xx/xx ,  43 ,Guest - Arlie Duff (3)
* ,xx/xx/xx ,  44 ,Guest- Grady Martin
* ,xx/xx/xx ,  45 ,Guest - Foggy River Boys (5)
* ,xx/xx/xx ,  46 ,Guest - Smiley Burnette (4)
* ,xx/xx/xx ,  47 ,Guest - Slim Wilson (3)
* ,xx/xx/xx ,  48 ,Guest - Jean Shepard (2)
* ,xx/xx/xx ,  49 ,Guest - Hawkshaw Hawkins (2)
* ,xx/xx/xx ,  50 ,Guest - Tall Timber Trio (2)
* ,xx/xx/xx ,  51 ,Guest - Pete Stamper (5)
* ,xx/xx/xx ,  52 ,Guest - Tommy Sosebee (3)
* ,xx/xx/xx ,  53 ,Guest- Patsy Elshire
* ,xx/xx/xx ,  54 ,Guest - Billy Walker
* ,xx/xx/xx ,  55 ,Guest - Foggy River Boys (6)
* ,xx/xx/xx ,  56 ,Guest - Smiley Burnette (5)
* ,xx/xx/xx ,     ,First Song - Columbus Stockade Blues
* ,xx/xx/xx ,     ,First Song - Shame Shame On You
* ,xx/xx/xx ,     ,First Song - Texas Blues
* ,xx/xx/xx ,     ,First Song - Up A Lazy River
