Exists, Date, #, Episode Name
  ,36/03/03 ,   1 ,PREMIERE Episode
  ,36/03/10 ,   4 ,--- (Tu-Fr-Sa broadcast schedule)
  ,36/03/17 ,   7 ,--- (Tu-Fr-Sa broadcast schedule)
  ,36/03/24 ,  10 ,--- (Tu-Fr-Sa broadcast schedule)
  ,36/03/30 ,  13 ,--- (broadcast schedule changes to Mon-Tue-Wed-Fri)
  ,36/04/06 ,  17 ,--- (broadcast Mo-Tu-We-Fr)
  ,36/04/13 ,  21 ,- (broadcast schedule changes to Monday thru Friday @ 6:45pm thru end of run)
  ,36/04/20 ,  26 ,--- (broadcast Monday thru Friday @ 6:45pm)
  ,36/04/27 ,  31 ,--- (broadcast Monday thru Friday @ 6:45pm)
  ,36/05/04 ,  36 ,--- (broadcast Monday thru Friday @ 6:45pm)
  ,36/05/11 ,  41 ,--- (broadcast Monday thru Friday @ 6:45pm)
  ,36/05/18 ,  46 ,--- (broadcast Monday thru Friday @ 6:45pm)
  ,36/05/25 ,  51 ,--- (broadcast Monday thru Friday @ 6:45pm)
  ,36/06/01 ,  56 ,--- (broadcast Monday thru Friday @ 6:45pm)
  ,36/06/08 ,  61 ,--- (broadcast Monday thru Friday @ 6:45pm)
  ,36/06/15 ,  66 ,--- (broadcast Monday thru Friday @ 6:45pm)
  ,36/06/22 ,  71 ,--- (broadcast Monday thru Friday @ 6:45pm)
  ,36/06/29 ,  76 ,--- (broadcast Monday thru Friday @ 6:45pm)
  ,36/07/06 ,  81 ,--- (broadcast Monday thru Friday @ 6:45pm)
  ,36/07/13 ,  86 ,--- (broadcast Monday thru Friday @ 6:45pm)
  ,36/07/20 ,  91 ,--- (broadcast Monday thru Friday @ 6:45pm)
  ,36/07/27 ,  96 ,--- (broadcast Monday thru Friday @ 6:45pm)
  ,36/08/03 , 101 ,--- (broadcast Monday thru Friday @ 6:45pm)
  ,36/08/10 , 106 ,--- (broadcast Monday thru Friday @ 6:45pm)
  ,36/08/17 , 111 ,--- (broadcast Monday thru Friday @ 6:45pm)
  ,36/08/24 , 116 ,--- (broadcast Monday thru Friday @ 6:45pm)
  ,36/08/31 , 121 ,--- (broadcast Monday thru Friday @ 6:45pm)
  ,36/09/07 , 126 ,--- (broadcast Monday thru Friday @ 6:45pm)
  ,36/09/14 , 131 ,--- (broadcast Monday thru Friday @ 6:45pm)
  ,36/09/21 , 136 ,--- (broadcast Monday thru Friday @ 6:45pm)
  ,36/09/28 , 141 ,--- (broadcast Monday thru Friday @ 6:45pm)
  ,36/10/05 , 146 ,--- (broadcast Monday thru Friday @ 6:45pm)
  ,36/10/12 , 151 ,--- (broadcast Monday thru Friday @ 6:45pm)
  ,36/10/19 , 156 ,--- (broadcast Monday thru Friday @ 6:45pm)
  ,36/10/26 , 161 ,--- (broadcast Monday thru Friday @ 6:45pm)
  ,36/11/02 , 166 ,--- (broadcast Monday thru Friday @ 6:45pm)
  ,36/11/09 , 171 ,--- (broadcast Monday thru Friday @ 6:45pm)
  ,36/11/16 , 176 ,--- (broadcast Monday thru Friday @ 6:45pm)
  ,36/11/23 , 181 ,--- (broadcast Monday thru Friday @ 6:45pm)
  ,36/11/30 , 186 ,--- (broadcast Monday thru Friday @ 6:45pm)
  ,36/12/07 , 191 ,--- (broadcast Monday thru Friday @ 6:45pm)
  ,36/12/14 , 196 ,
  ,36/12/21 , 201 ,
  ,36/12/28 , 206 ,
  ,37/01/04 , 211 ,
  ,37/01/11 , 216 ,
  ,37/01/18 , 221 ,
  ,37/01/25 , 226 ,
  ,37/02/01 , 231 ,
  ,37/02/08 , 236 ,
  ,37/02/15 , 241 ,
  ,37/02/22 , 246 ,
  ,37/03/01 , 251 ,
  ,37/03/02 , 252 ,
  ,37/03/03 , 253 ,
  ,37/03/04 , 254 ,
  ,37/03/05 , 255 ,LAST EPISODE
  ,39/01/07 ,   1 ,
  ,39/01/14 ,   2 ,
  ,39/01/21 ,   3 ,
  ,39/01/28 ,   4 ,
* ,39/02/04 ,   5 ,The Bribe
  ,39/02/11 ,   6 ,
  ,39/02/18 ,   7 ,
  ,39/02/25 ,   8 ,
  ,39/03/04 ,   9 ,
  ,39/03/11 ,  10 ,
  ,39/03/18 ,  11 ,
  ,39/03/25 ,  12 ,
  ,39/04/01 ,  13 ,
  ,39/04/08 ,  14 ,
  ,39/04/15 ,  15 ,
  ,39/04/22 ,  16 ,
  ,39/04/29 ,  17 ,
  ,39/05/06 ,  18 ,
  ,39/05/13 ,  19 ,
  ,39/05/20 ,  20 ,
  ,39/05/27 ,  21 ,
  ,39/06/03 ,  22 ,
  ,39/06/10 ,  23 ,
  ,39/06/17 ,     ,--- PRE-EMPTED
  ,39/06/24 ,  24 ,
  ,39/07/01 ,  25 ,
  ,39/07/08 ,  26 ,
  ,39/07/15 ,  27 ,
  ,39/07/22 ,  28 ,
  ,39/07/29 ,  29 ,
  ,39/08/05 ,  30 ,
  ,39/08/12 ,  31 ,
  ,39/08/19 ,  32 ,
  ,39/08/26 ,  33 ,
  ,39/09/02 ,  34 ,
  ,39/09/09 ,  35 ,
  ,39/09/16 ,  36 ,
  ,39/09/23 ,  37 ,
  ,39/09/30 ,  38 ,
  ,39/10/07 ,  39 ,
  ,39/10/14 ,  40 ,
  ,39/10/21 ,  41 ,
  ,39/10/28 ,  42 ,
  ,39/11/04 ,  43 ,
  ,39/11/11 ,  44 ,
  ,39/11/18 ,  45 ,
  ,39/11/25 ,  46 ,
  ,39/12/02 ,  47 ,
  ,39/12/09 ,  48 ,
  ,39/12/16 ,  49 ,
  ,39/12/23 ,  50 ,
  ,39/12/30 ,  51 ,
  ,40/01/06 ,  52 ,
  ,40/01/13 ,  53 ,
  ,40/01/20 ,  54 ,
  ,40/01/27 ,  55 ,
  ,40/02/03 ,  56 ,
  ,40/02/10 ,  57 ,
  ,40/02/17 ,  58 ,
  ,40/02/24 ,  59 ,
  ,40/03/02 ,  60 ,
  ,40/03/09 ,  61 ,
  ,40/03/16 ,  62 ,
  ,40/03/23 ,  63 ,
  ,40/03/30 ,  64 ,
  ,40/04/06 ,  65 ,
  ,40/04/13 ,  66 ,
  ,40/04/20 ,  67 ,
  ,40/04/27 ,  68 ,
  ,40/05/04 ,  69 ,
  ,40/05/11 ,  70 ,
  ,40/05/18 ,  71 ,
  ,40/05/25 ,  72 ,
  ,40/06/01 ,  73 ,
  ,40/06/08 ,  74 ,
  ,40/06/15 ,  75 ,
  ,40/06/22 ,  76 ,
  ,40/06/29 ,  77 ,
  ,40/07/06 ,  78 ,
  ,40/07/13 ,  79 ,
  ,40/07/20 ,  80 ,
  ,40/07/27 ,  81 ,
  ,40/08/03 ,  82 ,
  ,40/08/10 ,  83 ,
  ,40/08/17 ,  84 ,
  ,40/08/24 ,  85 ,
  ,40/08/31 ,  86 ,
  ,40/09/07 ,  87 ,
  ,40/09/14 ,  88 ,
  ,40/09/21 ,     ,--- PRE-EMPTED
  ,40/09/28 ,  89 ,
  ,40/10/05 ,  90 ,
  ,40/10/12 ,  91 ,
* ,48/03/15 ,     ,Title Unknown [Audition]
