Exists, Date, #, Episode Name
* ,37/04/01 ,   1 ,Guest - Frank Parker
* ,37/04/08 ,   2 ,Guest - Ruth Etting
  ,37/04/15 ,   3 ,Guest - Fibber McGee and Molly
* ,37/04/22 ,   4 ,Guest - Hildegarde
* ,37/04/29 ,   5 ,Guest - Gene Ellington
* ,37/05/06 ,   6 ,Guest - Mary Small
* ,37/05/13 ,   7 ,Guest - The Landt Trio
* ,37/05/20 ,   8 ,Guest - Martin Bowe
* ,37/05/27 ,   9 ,Guest - Jane Pickens
* ,37/06/03 ,  10 ,Guest - Jean Sablon
* ,37/06/10 ,  11 ,Guest - Jane Froman
* ,37/06/17 ,  12 ,Guest - Gogo Delys
* ,37/06/24 ,  13 ,Guest - Countess Olga Albani
