Exists, Date, #, Episode Name
  ,35/10/06 ,   1 ,
  ,35/10/13 ,   2 ,
  ,35/10/20 ,   3 ,
  ,35/10/27 ,   4 ,
* ,35/11/03 ,   5 ,Church Steeple
  ,35/11/10 ,   6 ,
  ,35/11/17 ,   7 ,
  ,35/11/24 ,   8 ,
* ,35/12/01 ,   9 ,Aviation Oddities
* ,35/12/08 ,  10 ,Man's Best Friend
  ,35/12/15 ,  11 ,
  ,35/12/22 ,  12 ,
  ,35/12/29 ,  13 ,
  ,36/04/05 ,  27 ,
* ,36/04/12 ,  28 ,Bell of the Maiden
  ,36/04/19 ,  29 ,
  ,36/04/26 ,  30 ,
  ,36/06/07 ,  36 ,
* ,36/06/14 ,  37 ,France and Persia
* ,36/06/21 ,  38 ,Unusual Inventions
  ,36/06/28 ,  39 ,
  ,36/10/04 ,     ,
  ,36/10/11 ,     ,
  ,36/10/18 ,     ,
* ,36/10/25 ,  42 ,Strange War Facts
  ,37/10/02 ,     ,
* ,37/10/09 ,  13 ,Lou Gehrig
  ,37/10/16 ,  14 ,
  ,37/10/23 ,  15 ,
* ,38/02/05 ,  30 ,Lonely Heart
  ,38/02/12 ,  31 ,
  ,38/02/19 ,  32 ,
  ,38/02/26 ,  33 ,
  ,38/03/05 ,  34 ,
  ,38/03/12 ,  35 ,
* ,38/03/19 ,  36 ,Coming of Spring
  ,38/03/26 ,  37 ,
* ,38/04/09 ,  38 ,Titanic
  ,38/04/16 ,  39 ,
* ,38/05/03 ,  40 ,Craziest People
  ,38/05/10 ,  41 ,
* ,38/05/17 ,  42 ,Echo Man
* ,38/05/24 ,  43 ,Tipi Tin -Three Russian Princes
* ,38/07/05 ,  50 ,Independence Days - What Monarch Became US Citizen
  ,38/07/12 ,  51 ,
  ,38/07/19 ,  52 ,
  ,38/07/26 ,  53 ,
  ,38/08/01 ,  54 ,
  ,38/08/08 ,  55 ,
  ,38/08/15 ,  56 ,
  ,38/08/22 ,  57 ,
  ,38/08/29 ,  58 ,
  ,38/09/05 ,  59 ,
  ,38/09/12 ,  60 ,
  ,38/09/19 ,  61 ,
* ,38/09/26 ,  62 ,Guest - Lowell Thomas
* ,38/10/03 ,  63 ,Alice in Wonderland
* ,39/04/07 ,  65 ,Texas Night
  ,39/04/14 ,  66 ,
  ,39/04/21 ,  67 ,
  ,39/04/28 ,  68 ,
  ,39/05/03 ,  69 ,
  ,39/05/10 ,  70 ,
  ,39/05/17 ,  71 ,
  ,39/05/24 ,  72 ,
  ,39/06/02 ,  73 ,
  ,39/06/09 ,  74 ,
  ,39/06/16 ,  75 ,
  ,39/06/23 ,  76 ,
* ,39/06/30 ,  77 ,Warden's Pardon
* ,39/07/06 ,  78 ,Captain and the Slave
  ,39/07/13 ,  79 ,
  ,39/07/20 ,  80 ,
  ,39/07/21 ,  81 ,
* ,39/08/11 ,     ,Mother Goose Stories
* ,40/02/23 ,  91 ,Dramas of the Deep
* ,40/05/31 ,     ,10th Annual National Air Carnival
* ,40/11/22 ,     ,Guest - Col. Stoopnagle
* ,42/01/17 ,   1 ,South America
* ,42/01/24 ,   2 ,Emperor Of Brazil Helped Develop The Telephone
* ,42/01/31 ,   3 ,Maya
* ,42/05/02 ,     ,Beri Beri Cure
  ,44/01/17 ,   1 ,Ashurbanipal of Assyria
* ,44/01/18 ,   2 ,Manuel Rosas - Argentina Dictator
  ,44/01/19 ,   3 ,Catherine The Great
  ,44/01/20 ,   4 ,Hypnotic Lake, Russia
  ,44/01/21 ,   5 ,Emporer Franz Joseph's Pen
  ,44/01/24 ,   6 ,The Temple of Neptune
  ,44/01/25 ,   7 ,Monte Cassino Monastery
  ,44/01/26 ,   8 ,The Appian Way
  ,44/01/27 ,   9 ,Monrovia, Liberia
  ,44/01/28 ,  10 ,The Marshall Islands
  ,44/01/31 ,  11 ,Brunswick, Germany
  ,44/02/01 ,  12 ,Japanese Naval Base at Truk
  ,44/02/02 ,  13 ,The Marshall Islands
  ,44/02/03 ,  14 ,Wilhelmshaven, Germany
  ,44/02/04 ,  15 ,The Oak Tree in Alouville, France
  ,44/02/07 ,  16 ,First Russian Town To Have Street Lights
  ,44/02/08 ,  17 ,John Paul Jones' Home in Riga, Latvia
  ,44/02/09 ,  18 ,King Boris of Bulgaria
  ,44/02/10 ,  19 ,Volcano in the Kurile Islands
  ,44/02/11 ,  20 ,The Hospital Built by Dog's Teeth
  ,44/02/14 ,  21 ,Finland's Peace Bid
  ,44/02/15 ,  22 ,Bay of Biscay
  ,44/02/17 ,  24 ,Lake Peipus, Estonia
  ,44/02/18 ,  25 ,Tibet
  ,44/02/21 ,  26 ,King Ludvig's Castle
  ,44/02/22 ,  27 ,The Bridge Built Underwater
* ,44/02/23 ,  28 ,The Horn of Plenty
  ,44/02/24 ,  29 ,On the Road To Mandalay
  ,44/02/25 ,  30 ,The Pearl Diver
  ,44/02/28 ,  31 ,San Marino's Eight Man Army
  ,44/02/29 ,  32 ,Pskov, Russia
  ,44/03/01 ,  33 ,The King of The Admiralty Islands
  ,44/03/02 ,  34 ,Stuttgart, Germany
  ,44/03/03 ,  35 ,Anzio, Itay
  ,44/03/06 ,  36 ,The City Hall of Cognac
  ,44/03/07 ,  37 ,Odessa, Russia
  ,44/03/08 ,  38 ,The Reveille Bird
  ,44/03/09 ,  39 ,Burma
  ,44/03/10 ,  40 ,Hannover, Germany
  ,44/03/13 ,  41 ,The City of Florence
  ,44/03/14 ,  42 ,The Light Tower of Puritan
  ,44/03/15 ,  43 ,The Palace
  ,44/03/16 ,  44 ,Hainan, China
  ,44/03/17 ,  45 ,Augsburg, Germany
  ,44/03/20 ,  46 ,Bessarabia, Romunia
  ,44/03/21 ,  47 ,The Kingdom without a King
  ,44/03/22 ,  48 ,Volcanos
  ,44/03/23 ,  49 ,The Barbers of Manipur
  ,44/03/24 ,  50 ,Frankfort, Germany
* ,44/04/04 ,  57 ,Danger is My Business
* ,47/08/04 ,  61 ,Witchcraft
* ,47/08/05 ,  62 ,Artistic Show
* ,47/08/06 ,  63 ,Presidents
* ,47/08/07 ,  64 ,Most Patient Man
* ,47/08/08 ,  65 ,Chinese Junk
* ,47/10/28 ,     ,Lightning Brings Girl To Life
* ,47/12/08 , 146 ,Offenbach
* ,47/12/09 , 147 ,Louisiana Swamps | Missing Son
* ,47/12/10 , 148 ,India
* ,47/12/11 , 149 ,Thieves
* ,47/12/12 , 150 ,Chicken Catcher
* ,48/05/10 , 271 ,Douglas MacArthur
* ,48/05/11 , 272 ,Cruel Japanese Emperor
* ,48/05/12 , 273 ,Golden Cathedral of Quito
* ,48/05/13 , 274 ,Bad Luck
* ,48/05/14 , 275 ,Hawaiian God Pele
* ,xx/xx/xx ,     ,No Body In The Statue
* ,xx/xx/xx ,     ,One Hundered Sticks Of Dynamite
