Exists, Date, #, Episode Name
  ,37/09/13 ,     ,
* ,39/09/21 ,     ,The Murder Trial Of John McKuen
* ,40/07/12 ,     ,Jim And Helen Go To The Second Floor Waiting Room
* ,41/12/08 ,     ,Dr Thompson Calls On Carol
* ,44/06/07 ,     ,Dr Frazier Tries To Cut In On Dr Brent's New Clinic
* ,45/01/05 ,     ,Rumors Are Spreading About Dr Brent
* ,45/01/22 ,     ,Dr Brent And Sylvia Have A Talk
* ,45/05/28 ,     ,Lotte  And Alice Are Cleaning House
* ,45/06/22 ,     ,The Cummings Sisters Spy On Carol
* ,45/08/17 ,     ,Mrs Fitzpatrick Foiled By A Detective
* ,46/07/04 ,     ,Little Janey Runs The Family Ragged
* ,46/08/02 ,     ,A Strange Man Asks Janey Questions
* ,46/11/11 ,     ,
* ,46/11/21 ,     ,
* ,46/12/06 ,     ,
* ,46/12/09 ,     ,Dr Brent Talks To Francie
* ,46/12/20 ,     ,
* ,46/12/31 ,     ,The New Year's Eve Party
* ,47/05/11 ,     ,Francie And Maggie Discuss Jim And Carol
* ,47/06/02 ,     ,Carol Hates Her New Home
* ,47/06/18 ,     ,Carol And Jim Talk About The Fire
* ,47/07/26 ,     ,Dr Brent Has Proposed To Maggie, But Is She Still Alive
* ,47/09/01 ,     ,Carol Is Tricked
* ,47/10/21 ,     ,Carol Intercepts Note To Dr. Brent From Nurse Roberts
* ,47/11/06 ,     ,Alex Uses Carol To Obtain A Job
* ,47/12/01 ,     ,Francie Is Leaving The Brent House
* ,47/12/02 ,     ,Dr Brent Asks Francie To Return
* ,47/12/03 ,     ,Carol's Career Means More Than Her Marriage
* ,47/12/08 ,     ,Janey Has The Chicken Pox
* ,47/12/09 ,     ,Dr Brent May Fall Prey To Alex
* ,47/12/18 ,     ,Frank's Offer Of Marriage To Maggie
* ,47/12/23 ,     ,Bill Is Suffering From Island Fever
* ,48/01/05 ,     ,Carol Plans To Go To Paris
* ,48/01/06 ,     ,Carol's Boss Changes His Mind
* ,48/05/07 ,     ,Maggie Turns Down Frank's Proposal
* ,48/05/11 ,     ,Mrs Lowell Tries To Break up Frank And Maggie
* ,48/05/19 ,     ,Mrs Lowell Has Demostrated Her Power Over Maggie
* ,48/05/20 ,     ,The Sinister Mysterious Behavior Of Mrs Lowell
* ,48/05/25 ,     ,Goaded Almost Beyond Endurance By Mrs Lowell
* ,48/06/30 ,     ,Maggie Lowell Has Not The Slightest Inkling
* ,48/07/23 ,     ,Jim Branch Was A Little Puzzled By Maggies Reaction
* ,48/11/28 ,     ,For Two Days Francie Brent Has Been Puzzled By Carol's Attitude
* ,48/12/03 ,     ,When Jim Brent Asked His Wife To Apoligize
* ,48/12/04 ,     ,Carol Brent Settled Herself Back In Her Seat
* ,48/12/05 ,     ,
* ,48/12/15 ,     ,But We Can Make It, Mr Dudley
* ,48/12/16 ,     ,In A Stone House On The Rue Delavie In Paris
  ,52/12/29 ,     ,
* ,54/02/17 ,     ,Two Sailors Land In San Diego
  ,54/06/18 ,     ,
  ,58/11/20 ,     ,
  ,59/01/02 ,     ,
* ,xx/xx/xx ,4347 ,Mr Overton Has Gone To Texas
* ,xx/xx/xx ,4348 ,Sybil Gets Her Baby
* ,xx/xx/xx ,4349 ,Mr Overton Brings Pearl And Eddie Back From Texas
* ,xx/xx/xx ,4350 ,Mooch Is Leaving The Band
* ,xx/xx/xx ,4351 ,Jim And Jocelyn Talk
* ,xx/xx/xx ,4352 ,Mr Overton Has Everything Under Control
* ,xx/xx/xx ,4353 ,Jim And Jocelyn Worry About Pearl
* ,xx/xx/xx ,4354 ,Sybil Lies To Pearl
* ,xx/xx/xx ,4359 ,Conrad And Malcolm Are Not Getting Along
* ,xx/xx/xx ,4360 ,Armee Fixes Mooch Up With Sybil
* ,xx/xx/xx ,     ,Ella Excited About Debut On Radio
* ,xx/xx/xx ,     ,Frank And Bill Talk
* ,xx/xx/xx ,     ,Jim Was A Little Puzzled By Francie's Cool Reception
