Exists, Date, #, Episode Name
  ,45/06/17 ,   1 ,I Break Into Print -- The Hard Way (Sundays on NBC)
  ,45/06/24 ,   2 ,Won't You Come Into My Parlor
  ,45/07/01 ,   3 ,I Used My Head
  ,45/07/08 ,   4 ,The Lady and the Letters
  ,45/07/15 ,   5 ,
  ,45/07/22 ,   6 ,My Client Loses His Head
  ,45/07/29 ,   7 ,Storm and Strife
  ,45/08/05 ,   8 ,Beautiful Lady
  ,45/08/12 ,   9 ,Father Sheay's Miracle
  ,45/08/19 ,  10 ,
  ,45/08/26 ,  11 ,
  ,45/09/02 ,  12 ,
  ,45/09/09 ,  13 ,Jailbreak
  ,45/09/16 ,  14 ,
  ,45/09/27 ,  15 ,Murder On the House (Thursdays on MUTUAL)
* ,45/10/04 ,  16 ,Blondes Prefer Gentlemen
* ,45/10/11 ,  17 ,Murder in Drawing Room A [AFRS - Mystery Playhouse # 131]
* ,45/10/18 ,  18 ,--- (concerning prize fighters)
* ,45/10/25 ,  19 ,Murder with Muriel
  ,45/11/01 ,  20 ,Photo Finish
* ,45/11/08 ,  21 ,Little Drops of Rain
* ,45/11/15 ,  22 ,House of Fear
  ,45/11/22 ,  23 ,Last Race
* ,45/11/29 ,  24 ,Little Old Lady
  ,45/12/06 ,  25 ,Eve And the Apple
* ,45/12/13 ,  26 ,Blood on the Sand
* ,45/12/20 ,  27 ,A Fortune in Furs [aka-George Grant]
  ,45/12/27 ,  28 ,Hot Rubber
* ,46/01/03 ,  29 ,Murder At Minden
  ,46/01/10 ,  30 ,As the Twig is Bent <or>Best Laid Plans
* ,46/01/17 ,  31 ,Anson Leeds is Dead (aka-Pamela Leeds; Suspicious Will)
  ,46/01/24 ,  32 ,The Murder Habit
* ,46/01/31 ,  33 ,Special Added Attraction (aka-Carlotta, The Magnificent; Bob Price Case; Pop Price Case; The Carnival; The Circus)
  ,46/02/07 ,  34 ,A Girl, A Boy, A Gun
  ,46/02/14 ,  35 ,The Eager Murderer
* ,46/02/21 ,  36 ,The Triangle Murder Case (Chicago Tribune) [aka-Alibi Master,  The Chronicle, Clark Ames]
  ,46/02/28 ,  37 ,Alias Harold Hallaway
  ,46/03/07 ,  38 ,
  ,46/03/14 ,  39 ,The Cat Dies Once
  ,46/03/21 ,  40 ,A Date With Tangerine
  ,46/03/28 ,  41 ,Callahan's Hat
* ,46/04/04 ,  42 ,The Message (Chicago Tribune) [aka-Favor For A Condemned Man; Death House Legacy; Mike Royal Case]
  ,46/04/11 ,  43 ,
  ,46/04/18 ,  44 ,Stormy Knights
  ,46/04/25 ,  45 ,Headline Murder
  ,46/05/02 ,  46 ,The Case of the Forgetful Blonde
* ,46/05/09 ,  47 ,Snowbound [aka-Mystery At The Ski Resort, Target For Murder, Hermit Of The Hills]
* ,46/05/16 ,  48 ,The Impossible Murder [aka-Judge Colin Baker]
* ,46/05/23 ,  49 ,The Latin Type
  ,46/05/30 ,  50 ,
* ,46/06/06 ,  51 ,Blue Eyes (aka-Jealousy Is A Strange Thing; Weekend Guest; Pat Flynn Story)
* ,46/06/13 ,  52 ,The Corpse I didn't Kill (aka-Red-Headed Stranger; Red-Haired Stranger; Joe Dale Case; San Fernando Valley)
  ,46/06/20 ,  53 ,The Missing Witness
* ,46/06/23 ,  54 ,The Star Of Savoy (aka-McDonald Murder Case) [Sundays on NBC]
* ,46/06/30 ,  55 ,Lady With A Gun
* ,46/07/07 ,  56 ,Cabin On The Lake
* ,46/07/14 ,  57 ,Where There's A Will, There's A Murder
  ,46/07/21 ,  58 ,When The Sun Shines....
  ,46/07/28 ,  59 ,
  ,46/08/04 ,  60 ,
  ,46/08/11 ,  61 ,I Break Into Print
  ,46/08/18 ,  62 ,
  ,46/08/25 ,  63 ,
  ,46/09/01 ,  64 ,
  ,46/09/08 ,  65 ,
  ,46/09/15 ,  66 ,
  ,46/09/22 ,  67 ,--- (Last 'Dick Powell' show)
  ,47/06/08 ,  68 ,--- (FIRST 'Barry Sullivan' show) on NBC
  ,47/06/15 ,  69 ,
  ,47/06/22 ,  70 ,
* ,47/06/29 ,  71 ,Phyllis Adrian Is Missing
  ,47/07/06 ,  72 ,
  ,47/07/13 ,  73 ,Vacation from Homicide
  ,47/07/20 ,  74 ,
  ,47/07/27 ,  75 ,Buried Treasure
  ,47/08/03 ,  76 ,
  ,47/08/10 ,  77 ,
  ,47/08/17 ,  78 ,Rip Tide
  ,47/08/24 ,  79 ,
  ,47/08/31 ,  80 ,Death Tells a Fortune
  ,47/09/07 ,  81 ,
  ,47/09/14 ,  82 ,
  ,47/09/21 ,  83 ,
  ,47/09/28 ,  84 ,--- (LAST 'Barry Sullivan' show)
  ,50/11/15 ,  85 ,--- (FIRST 'Paul Stewart' show) on ABC
  ,50/11/22 ,  86 ,
  ,50/11/29 ,  87 ,
  ,50/12/06 ,  88 ,
  ,50/12/13 ,  89 ,
  ,50/12/20 ,  90 ,
  ,50/12/27 ,  91 ,
  ,51/01/03 ,  92 ,
  ,51/01/10 ,  93 ,
  ,51/01/17 ,  94 ,
  ,51/01/24 ,  95 ,
  ,51/01/31 ,  96 ,
  ,51/02/07 ,  97 ,
  ,51/02/14 ,  98 ,
  ,51/02/21 ,  99 ,
  ,51/02/28 , 100 ,
  ,51/03/07 , 101 ,
  ,51/03/14 , 102 ,
  ,51/03/21 , 103 ,
  ,51/03/28 , 104 ,
  ,51/04/04 , 105 ,
  ,51/04/11 , 106 ,
  ,51/04/18 , 107 ,
  ,51/04/25 , 108 ,
  ,51/05/02 , 109 ,
  ,51/05/09 , 110 ,
  ,51/05/16 , 111 ,
  ,51/05/23 , 112 ,
  ,51/05/30 , 113 ,
  ,51/06/06 , 114 ,
  ,51/06/13 , 115 ,
  ,51/06/20 , 116 ,
  ,51/06/27 , 117 ,
  ,51/07/04 , 118 ,
  ,51/07/11 , 119 ,
  ,51/07/18 , 120 ,
  ,51/07/25 , 121 ,
  ,51/08/01 , 122 ,
  ,51/08/08 , 123 ,
  ,51/08/15 , 124 ,
  ,51/08/22 , 125 ,
  ,51/08/29 , 126 ,
  ,51/09/05 , 127 ,
  ,51/09/12 , 128 ,
  ,51/09/19 , 129 ,
  ,51/09/26 , 130 ,
  ,51/10/03 , 131 ,
  ,51/10/10 , 132 ,
  ,51/10/17 , 133 ,
  ,51/10/24 , 134 ,
  ,51/10/31 , 135 ,
  ,51/11/07 , 136 ,
  ,51/11/14 , 137 ,
  ,51/11/21 , 138 ,
  ,51/11/28 , 139 ,
  ,51/12/05 , 140 ,
  ,51/12/12 , 141 ,
  ,51/12/19 , 142 ,
  ,51/12/26 , 143 ,
  ,52/01/02 , 144 ,
  ,52/01/09 , 145 ,
  ,52/01/16 , 146 ,
  ,52/01/23 , 147 ,
  ,52/01/30 , 148 ,
  ,52/02/06 , 149 ,
  ,52/02/13 , 150 ,
  ,52/02/20 , 151 ,
  ,52/02/27 , 152 ,
  ,52/03/05 , 153 ,
  ,52/03/12 , 154 ,
  ,52/03/19 , 155 ,
  ,52/03/26 , 156 ,--- LAST episode
