Exists, Date, #, Episode Name
* ,65/03/07 , 101 ,Clissold Saga Pt 1 The Millionaire
* ,65/03/14 , 102 ,Clissold Saga Pt 2 The Aviator
* ,65/03/21 , 103 ,Clissold Saga Pt 3 The Pantomime Horse
* ,65/03/28 , 104 ,Clissold Saga Pt 4 The Archaeologist
* ,65/04/04 , 105 ,Clissold Saga Pt 5 The Early Films
* ,65/04/11 , 106 ,The Case of the Tapdancing Monk
* ,65/04/18 , 107 ,Edwin Braden is Missing
* ,65/04/25 , 108 ,Who Killed the Amazing Proudbasket
* ,65/05/02 , 109 ,The Spy Who Came In With A Cold
* ,65/05/09 , 110 ,Famous People Are Turning Into Animals
* ,65/05/16 , 111 ,From Russia With Love
* ,65/05/23 , 112 ,The Man With the Golden Thunderball
* ,65/05/30 , 113 ,The Eiffel Tower is Stolen
* ,65/06/06 , 114 ,Pirate Radio
* ,65/06/13 , 115 ,The Rocket Site in Haiti
* ,65/06/20 , 116 ,Traffic Wardens in Outer Space
* ,66/03/13 , 201 ,Big Ben is Missing
* ,66/03/20 , 202 ,Big Ben is Still Missing
* ,66/03/27 , 203 ,The Escaped War Criminal
* ,66/04/03 , 204 ,The World Cup is Stolen
* ,66/04/10 , 205 ,The Nuclear Banana
* ,66/04/17 , 206 ,The Joke Thief
* ,66/04/24 , 207 ,Dr McKinlay's Scrapbook
* ,66/05/01 , 208 ,The Giant Mouse
* ,66/05/08 , 209 ,The Curse of the Blackstumps
* ,66/05/15 , 210 ,The Portrait of Florian Thrust
* ,66/05/22 , 211 ,The Gaylords
* ,66/05/29 , 212 ,Dr Fu Man Chou En Ginsberg
* ,66/06/05 , 213 ,Moby Duck
* ,66/06/22 ,     ,Special, The Man With The Golden Thunderbolt
* ,66/12/25 ,     ,The Hunchback of Notre Dame
* ,67/02/12 , 301 ,The Plastic Max
* ,67/02/19 , 302 ,The Three Musketeers Pt 1
* ,67/02/26 , 303 ,The Three Musketeers Pt 2
* ,67/03/05 , 304 ,Lipharvest of the River
* ,67/03/12 , 305 ,How The Bullet Proof Vest Was Won (Little Caesar)
* ,67/03/19 , 306 ,Trilby
* ,67/03/26 , 307 ,The Admirable Loombucket - The Sea Cruise
* ,67/04/02 , 308 ,The Admirable Loombucket - The Lost Island of Gonga
* ,67/04/09 , 309 ,The Gruntfuttock Saga
* ,67/04/16 , 310 ,Gaslight Son of Flicker
* ,67/04/23 , 311 ,The Phantom of Bogmouth Hip
* ,67/04/30 , 312 ,A Man is Two Foot Tall
* ,67/05/07 , 313 ,Young Horne With A Man
* ,67/05/14 , 314 ,The Maltese Brass Monkey
* ,67/05/21 , 315 ,The Big Top
* ,67/05/28 , 316 ,The Muffplaster Saga Pt 1 The Discovery of America
* ,67/06/04 , 317 ,The Muffplaster Saga Pt 2 The Boxer
* ,67/06/11 , 318 ,The Muffplaster Saga Pt 3 The Bullfighter
* ,67/06/18 , 319 ,The Palone Ranger
* ,67/06/25 , 320 ,The Head of the BBC Who Came In From The Cold
* ,67/12/24 ,     ,Cinderella
* ,68/02/25 , 401 ,Dr Doosweet BA
* ,68/03/03 , 402 ,Thoroughly Modern Willy
* ,68/03/10 , 403 ,Frankenstein's Monster
* ,68/03/17 , 404 ,The Knights of Camelot
* ,68/03/24 , 405 ,Relatively Grand Prix
* ,68/03/31 , 406 ,Big Broads Don't Squeal
* ,68/04/07 , 407 ,The Celluloid Jungle
* ,68/04/14 , 408 ,Around the World In Ten Minutes
* ,68/04/21 , 409 ,Journey to Uranus
* ,68/04/28 , 410 ,Apache Story
* ,68/05/05 , 411 ,Escape From Stalag Limpwrist
* ,68/05/12 , 412 ,I Showed Them In Fleet Street
* ,68/05/19 , 413 ,Continuum Medicum Romanum
* ,68/05/26 , 414 ,Beau
* ,68/06/02 , 415 ,Bona Prince Charlie
* ,68/06/09 , 416 ,He, Son of She
