Exists, Date, #, Episode Name
* ,46/09/10 ,   1 ,Guest - Harold Peary, First Song - Love Is On The Air Tonight
* ,46/09/17 ,   2 ,Guest - Tommy Dorsey, First Song - Zing Went The Strings Of My Heart
* ,46/09/24 ,   3 ,Guest - Eve Arden, Charles Trenet, First Song - Sweet Music
* ,46/09/27 ,     ,Reopening of Villa Vallee (Rehearsal for 46-10-01)
  ,46/10/01 ,   4 ,Guest - Edgar Bergen, Reopening of Villa Vallee
  ,46/10/08 ,   5 ,Guest - George Jessel
  ,46/10/15 ,   6 ,Guest - Phil Silvers
* ,46/10/22 ,   7 ,Guest - Lina Romay, First Song - I Love You Just The Way You Are
* ,46/10/29 ,   8 ,Guest - William Bendix, First Song - The Whole World Is Singing My Song
* ,46/11/05 ,   9 ,Guest - Margaret Whiting, First Song - The Most Beautiful Girl In The World
* ,46/11/12 ,  10 ,Guest - Page Cavanaugh Trio, First Song - These Foolish Things
  ,46/11/19 ,  11 ,Guest - Alan Young, Martha Tilton
  ,46/11/26 ,  12 ,Guest - Lynn Bari
* ,46/12/03 ,  13 ,Guest - Merle Oberon, First Song - Meet Me In Monterey
* ,46/12/10 ,  14 ,Guest - Margo and Eddie Albert, First Song - Does The Cat See The Bird
* ,46/12/17 ,  15 ,Guest - Doris Day, First Song - Oh, But I Do
* ,46/12/24 ,  16 ,Guest - Loretta Young, First Song - Santa Claus Is Coming To Town medley
* ,46/12/31 ,  17 ,Guest - Margaret Whiting, First Song - There Goes Yesterday
* ,47/01/07 ,  18 ,Guest - Alan Young, Doris Day, First Song - Meet Me In Monterey
* ,47/01/12 ,     ,Guest - Billie Burke, Ken Card (Rehearsal for 470114)
* ,47/01/14 ,  19 ,Guest - Billie Burke, Ken Card, First Song - Does The Cat See The Bird
* ,47/01/21 ,  20 ,Guest - Ruth Etting, George Murphy, First Song - I Love You Just The Way You Are
* ,47/01/28 ,  21 ,Guest - George Murphy, First Song - Love Is Sweeping The Country
* ,47/02/04 ,  22 ,Guest - Ruth Etting, Walter O'Keefe, First Song - Sweet Music
* ,47/02/11 ,  23 ,Guest - Margo and Eddie Albert, First Song - September Song
* ,47/02/18 ,  24 ,Guest - Kirk Douglas, First Song - The Most Beautiful Girl In The World
* ,47/02/25 ,  25 ,Guest - Wesson Brothers, First Song - Oh, But I Do
* ,47/03/04 ,  26 ,Guest - Barbara Luddy, First Song - medley of Vallee signature tunes
