Exists, Date, #, Episode Name
* ,80/07/21 ,   1 ,The Confession Of Guilt
* ,80/07/28 ,   2 ,The Dear Departed
* ,80/08/04 ,   3 ,The Gentle Art Of Blackmail
* ,80/08/11 ,   4 ,The Rotten Apple
* ,80/08/18 ,   5 ,The Man Of God
* ,80/08/25 ,   6 ,The Defense Of Gutherie Featherstone
* ,80/09/01 ,   7 ,The Show Folk
* ,80/09/08 ,   8 ,The Facist Beast
* ,80/09/15 ,   9 ,The Case Of Identity
* ,80/09/22 ,  10 ,The Expert Witness
* ,80/09/29 ,  11 ,The Course Of True Love
* ,80/10/06 ,  12 ,The Perils Of The Sea
* ,80/10/13 ,  13 ,The Age For Retirement
