Exists, Date, #, Episode Name
* ,38/10/14 ,   1 ,Pepe Sacola Haley
* ,38/10/21 ,   2 ,Pony Bill Haley
* ,38/10/28 ,   3 ,Lord Fauntleroy
* ,38/11/04 ,   4 ,Gaucho Haley
* ,38/11/11 ,   5 ,Julius Caesar Haley
* ,38/11/18 ,   6 ,Elephant Boy
* ,38/11/25 ,   7 ,Sergeant O'Haley
* ,38/12/02 ,   8 ,Hatfields Vs McHaleys
* ,38/12/09 ,   9 ,Wonder Haley
* ,38/12/16 ,  10 ,Colonel Haley
* ,38/12/23 ,  11 ,Christmas Party
* ,38/12/30 ,  12 ,Francois Haley
* ,39/01/06 ,     ,
* ,39/01/13 ,     ,
* ,39/01/20 ,     ,
* ,39/01/27 ,     ,
* ,39/02/03 ,     ,
* ,39/02/10 ,     ,
  ,39/02/17 ,     ,
  ,39/02/24 ,     ,
  ,39/03/03 ,     ,
  ,39/03/10 ,     ,
  ,39/03/17 ,     ,
  ,39/03/24 ,     ,
  ,39/03/31 ,     ,
  ,39/04/07 ,     ,
