Exists, Date, #, Episode Name
* ,45/04/15 ,     ,Tea Room Going Out of Business
* ,45/10/22 ,     ,Will Andy Russell Make a Movie?
* ,45/11/26 ,  13 ,
* ,45/12/03 ,     ,Going Hunting
* ,45/12/10 ,     ,Red Flannel Underwear
* ,45/12/24 ,     ,Christmas Party
* ,46/01/07 ,  19 ,Barbara Plays Trick
* ,46/01/14 ,  20 ,Antique Teapot
* ,46/01/21 ,  21 ,Double Love Triangle
* ,46/01/28 ,     ,Joan Joins Literary Society
* ,46/02/04 ,     ,Gold Found in Swanville
* ,46/02/11 ,     ,Birthday Party for Joan
* ,46/02/18 ,     ,Three Hundred Dollars Missing
* ,46/02/25 ,     ,U.N.O. Meeting
* ,46/03/11 ,     ,Joan Has Insomnia
* ,46/03/18 ,     ,Counterfeiter Visits Tea Room
* ,46/05/27 ,  39 ,Joan Plans Vacation
* ,46/11/11 ,     ,Joan Cooks Dinner
* ,47/01/20 ,     ,
* ,47/10/04 ,     ,New Wardrobe
* ,47/12/12 ,     ,Joan's Cleaning Fluid
* ,47/xx/xx ,     ,Guest - Gary Moore
* ,48/01/24 ,     ,Date with Freddie
* ,48/02/14 ,     ,Joan Wants a Career in Medicine
* ,48/03/27 ,  76 ,Joan Sells Advertising
* ,48/04/03 ,     ,Married to John Payne?
* ,48/04/17 ,     ,Guest - Rudy Vallee
* ,48/05/01 ,     ,Insomnia
* ,50/01/20 ,     ,Guest - Al Jolson
