Exists, Date, #, Episode Name
  ,47/04/24 ,   1 ,
  ,47/05/01 ,   2 ,
  ,47/05/08 ,   3 ,The Widow, The Wrestler And The Rap
  ,47/05/15 ,   4 ,
  ,47/05/22 ,   5 ,
  ,47/05/29 ,   6 ,
  ,47/06/05 ,   7 ,
  ,47/06/12 ,   8 ,
* ,47/06/19 ,   9 ,Find Pete Sutro
* ,47/06/26 ,  10 ,Fatal Auction
  ,47/07/03 ,  11 ,Lonely Hearts Club
  ,47/07/10 ,  12 ,A Different Story
  ,47/07/17 ,  13 ,
  ,47/07/24 ,  14 ,
  ,47/07/31 ,  15 ,Insurance Skullduggery
  ,47/08/07 ,  16 ,
  ,47/08/14 ,  17 ,
  ,47/08/21 ,  18 ,
  ,47/08/28 ,  19 ,Murder At The Race Track
  ,47/09/04 ,  20 ,
