Exists, Date, #, Episode Name
* ,82/01/17 ,     ,Dick Joy ( Announcer)
* ,82/01/31 ,     ,Dick Joy ( Announcer)
* ,82/02/07 ,     ,Roberta Goodwin-Bob Bailey
* ,82/02/14 ,     ,Dick Joy ( Announcer)
* ,82/02/28 ,     ,Candy Candido ( Comedienne)
* ,82/03/07 ,     ,Frank Nelson ( Actor)
* ,82/04/11 ,     ,Dennis Day
* ,82/05/23 ,     ,Elliott Lewis ( Actor)
* ,82/05/29 ,     ,Jim Jordan ( Fibber Mc Gee)
* ,82/05/30 ,     ,E Jack Neuman ( Writer)
* ,82/06/06 ,     ,Janet Waldo ( Actress)
* ,82/07/25 ,     ,Eve Arden
