Exists, Date, #, Episode Name
  ,37/10/18 ,   1 ,--- PREMIERE (Mondays on NBC Blue Network)
  ,37/10/25 ,   2 ,
  ,37/11/01 ,   3 ,
  ,37/11/08 ,   4 ,
  ,37/11/15 ,   5 ,
  ,37/11/22 ,   6 ,
  ,37/11/29 ,   7 ,
  ,37/12/06 ,   8 ,
  ,37/12/13 ,   9 ,
  ,37/12/20 ,  10 ,
  ,37/12/27 ,  11 ,
  ,38/01/03 ,  12 ,
  ,38/01/10 ,  13 ,A Juvenile Delinquent
  ,38/01/17 ,  14 ,
  ,38/01/24 ,  15 ,--- (prisoner occupations while in prison)
  ,38/01/31 ,  16 ,Murder Will Out
  ,38/02/07 ,  17 ,Are Criminals Smart
  ,38/02/14 ,  18 ,
  ,38/02/21 ,  19 ,Sing Sing--50 Years Ago
  ,38/02/28 ,  20 ,Coddling Prisoners
  ,38/03/07 ,  21 ,Lure of the Racetrack
  ,38/03/14 ,  22 ,Smuggling
  ,38/03/21 ,  23 ,
  ,38/03/28 ,  24 ,
  ,38/04/04 ,  25 ,Crime Pays No Dividends
  ,38/04/11 ,  26 ,Marijuana Use (SERIES FINALE)
