Exists, Date, #, Episode Name
* ,34/xx/xx ,     ,Dames
* ,34/xx/xx ,     ,Twenty Million Sweethearts
* ,35/xx/xx ,     ,Go Into Your Dance
* ,35/xx/xx ,     ,Gold Diggers Of 1935
* ,35/xx/xx ,     ,Shipmates Forever
