Exists, Date, #, Episode Name
  ,35/04/17 ,   1 ,Traitor's Choice --- (Wednesay @ 7pm on WWSW)
  ,35/04/24 ,   2 ,The Cartoonist Murder Case
  ,35/05/01 ,   3 ,The Phantom Organist
  ,35/05/08 ,   4 ,Murder by Proxy
  ,35/05/15 ,   5 ,
  ,35/05/22 ,   6 ,
  ,35/05/29 ,   7 ,
  ,35/06/05 ,   8 ,
  ,35/06/12 ,   9 ,
  ,35/06/19 ,  10 ,
  ,38/09/18 ,   1 ,--- (Sunday @ 6.30pm on WBBM - sponsored by Chicago Motor Club)
  ,38/09/25 ,   2 ,Matrimony for Mother
* ,38/10/02 ,   3 ,Romance in Old Monterey
  ,38/10/09 ,   4 ,Ma and Pa Play Cupid
  ,38/10/16 ,   5 ,The Professor Swings It
  ,38/10/23 ,   6 ,Happy Medium
  ,38/10/30 ,   7 ,
* ,38/11/06 ,   8 ,Rest Cure
  ,38/11/13 ,   9 ,Swing Sister, Swing
  ,38/11/20 ,  10 ,
  ,38/11/27 ,  11 ,Irish Stew
  ,38/12/04 ,  12 ,
* ,38/12/11 ,  13 ,Madcap Princess
  ,38/12/18 ,  14 ,
  ,38/12/25 ,  15 ,
* ,39/01/01 ,  16 ,The Adventure of the Absent-Minded Professor
* ,39/01/08 ,  17 ,Love Goes To Night School
  ,39/01/15 ,  18 ,Spawn of the City
* ,39/01/22 ,  19 ,Food For Thought
  ,39/01/29 ,  20 ,
* ,39/02/05 ,  21 ,Lily Brown Leaves
  ,39/02/12 ,  22 ,
  ,39/02/19 ,  23 ,Diamonds for Milady
  ,39/02/26 ,  24 ,The Lucky Piece
  ,39/03/05 ,  25 ,
* ,39/03/12 ,  26 ,Love In A Taxi
  ,39/03/19 ,  27 ,
  ,39/03/26 ,  28 ,Treasure Island
  ,39/04/02 ,  29 ,
  ,39/04/09 ,  30 ,
  ,39/04/16 ,  31 ,Elsie, the Magnificent
  ,39/04/23 ,  32 ,
  ,39/04/30 ,  33 ,
  ,39/05/01 ,     ,--- (Mondays @ 8pm on WWSW - Pittsburgh)
  ,39/05/07 ,  34 ,
  ,39/05/08 ,     ,--- (Mondays @ 8pm on WWSW - Pittsburgh)
* ,39/05/14 ,  35 ,A Friend Of Gertrude
  ,39/05/15 ,     ,--- (Mondays @ 8pm on WWSW - Pittsburgh)
  ,39/05/21 ,  36 ,Gangsters Don't Kiss
  ,39/05/22 ,     ,--- (Mondays @ 8pm on WWSW - Pittsburgh)
  ,39/05/28 ,  37 ,
  ,39/05/29 ,     ,--- (Mondays @ 8pm on WWSW - Pittsburgh)
  ,39/06/04 ,  38 ,
  ,39/06/05 ,     ,--- (Mondays @ 8pm on WWSW - Pittsburgh)
  ,39/06/11 ,  39 ,Spoils of War
  ,39/06/12 ,     ,--- (Mondays @ 8pm on WWSW - Pittsburgh)
  ,39/06/18 ,  40 ,
  ,39/06/19 ,     ,--- (Mondays @ 8pm on WWSW - Pittsburgh)
  ,39/06/25 ,  41 ,--- [LAST WBBM episode)
  ,39/06/26 ,     ,--- (Mondays @ 8pm on WWSW - Pittsburgh)
  ,39/07/03 ,     ,--- (Mondays @ 8pm on WWSW - Pittsburgh)
  ,39/07/10 ,     ,
  ,39/07/17 ,     ,
  ,39/07/24 ,     ,
  ,39/07/31 ,     ,
  ,39/08/07 ,     ,
  ,43/01/04 ,     , --- (Mondays @ 8pm on WWSW - Pittsburgh)
  ,43/01/11 ,     , --- (Mondays @ 8pm on WWSW - Pittsburgh)
  ,43/01/18 ,     , --- (Mondays @ 8pm on WWSW - Pittsburgh)
  ,43/01/25 ,     , --- (Mondays @ 8pm on WWSW - Pittsburgh)
  ,43/01/31 ,     , --- (Sundays @ 3pm on KMTR - 15m - Los Angeles)
  ,43/02/01 ,     , --- (Mondays @ 8pm on WWSW - Pittsburgh)
  ,43/02/07 ,     , --- (Sundays @ 3pm on KMTR - 15m - Los Angeles)
  ,43/02/08 ,     , --- (Mondays @ 8pm on WWSW - Pittsburgh)
  ,43/02/14 ,     , --- (Sundays @ 3pm on KMTR - 15m - Los Angeles)
  ,43/02/15 ,     , --- (Mondays @ 8pm on WWSW - Pittsburgh)
  ,43/02/21 ,     , --- (Sundays @ 3pm on KMTR - 15m - Los Angeles)
  ,43/02/22 ,     , --- (Mondays @ 8pm on WWSW - Pittsburgh)
  ,43/03/01 ,     , --- (Mondays @ 8pm on WWSW - Pittsburgh)
  ,43/03/08 ,     , --- (Mondays @ 8pm on WWSW - Pittsburgh)
  ,43/03/14 ,     , --- (Sundays @ 3pm on KFWB - 15m - Los Angeles)
  ,43/03/15 ,     , --- (Mondays @ 8pm on WWSW - Pittsburgh)
  ,43/03/22 ,     , --- (Mondays @ 8pm on WWSW - Pittsburgh)
  ,43/03/29 ,     , --- (Mondays @ 8pm on WWSW - Pittsburgh)
  ,43/04/05 ,     , --- (Mondays @ 8pm on WWSW - Pittsburgh)
  ,43/04/11 ,     , --- (Sundays @ 3pm on KFWB - 15m - Los Angeles)
  ,43/04/12 ,     , --- (Mondays @ 8pm on WWSW - Pittsburgh)
  ,43/04/18 ,     , --- (Sundays @ 3pm on KFWB - 15m - Los Angeles)
  ,43/04/19 ,     , --- (Mondays @ 8pm on WWSW - Pittsburgh)
  ,43/04/25 ,     , --- (Sundays @ 3pm on KFWB - 15m - Los Angeles)
  ,43/04/26 ,     , --- (Mondays @ 8pm on WWSW - Pittsburgh)
  ,43/05/02 ,     , --- (Sundays @ 3pm on KFWB - 15m - Los Angeles)
  ,43/05/03 ,     , --- (Mondays @ 8pm on WWSW - Pittsburgh)
  ,43/05/09 ,     , --- (Sundays @ 3pm on KFWB - 15m - Los Angeles)
  ,43/05/10 ,     , --- (Mondays @ 8pm on WWSW - Pittsburgh)
  ,43/05/16 ,     , --- (Sundays @ 3pm on KFWB - 15m - Los Angeles)
  ,43/05/17 ,     , --- (Mondays @ 8pm on WWSW - Pittsburgh)
  ,43/05/23 ,     , --- (Sundays @ 3pm on KFWB - 15m - Los Angeles)
  ,43/05/24 ,     , --- (Mondays @ 8pm on WWSW - Pittsburgh)
  ,43/05/30 ,     , --- (Sundays @ 3pm on KFWB - 15m - Los Angeles)
  ,43/05/31 ,     , --- (Mondays @ 8pm on WWSW - Pittsburgh)
  ,43/06/07 ,     ,
  ,43/06/14 ,     ,
  ,43/06/21 ,     ,
  ,43/06/28 ,     ,
  ,43/07/05 ,     ,
  ,43/07/12 ,     ,
  ,43/07/19 ,     ,
  ,43/07/26 ,     ,
  ,43/08/02 ,     ,
  ,43/08/09 ,     ,
  ,43/08/16 ,     ,
  ,43/08/23 ,     ,
  ,43/08/30 ,     ,
  ,43/09/06 ,     ,
  ,43/09/13 ,     ,
  ,43/09/20 ,     ,
  ,43/09/27 ,     ,
  ,43/10/04 ,     ,
  ,43/10/11 ,     ,
  ,43/10/18 ,     ,
  ,43/10/25 ,     ,
  ,43/11/01 ,     ,
  ,43/11/08 ,     ,
  ,43/11/15 ,     ,
  ,43/11/22 ,     ,
  ,43/11/29 ,     ,
  ,43/12/06 ,     ,
  ,43/12/13 ,     ,
  ,43/12/20 ,     ,
  ,43/12/27 ,     ,
  ,44/01/03 ,     ,
  ,44/01/10 ,     ,
  ,44/01/17 ,     ,
  ,44/01/24 ,     ,
  ,44/01/31 ,     ,
  ,44/02/07 ,     ,
  ,44/02/14 ,     ,
  ,44/02/21 ,     ,
  ,44/02/28 ,     ,
  ,44/03/06 ,     ,
  ,44/03/13 ,     ,
  ,44/03/20 ,     ,
  ,44/03/27 ,     ,
  ,44/04/03 ,     ,
  ,44/04/10 ,     ,
  ,44/04/17 ,     ,
  ,44/04/24 ,     ,
  ,44/05/01 ,     ,
  ,44/05/08 ,     ,
  ,44/05/15 ,     ,
  ,44/05/22 ,     ,
  ,44/05/29 ,     ,
  ,44/06/05 ,     ,
  ,44/06/12 ,     ,
  ,44/06/19 ,     ,
  ,44/06/26 ,     ,
  ,44/07/03 ,     ,
  ,44/07/10 ,     ,
  ,44/07/17 ,     ,
  ,44/07/24 ,     ,
  ,44/07/31 ,     ,
  ,44/08/07 ,     ,
  ,44/08/14 ,     ,
  ,44/08/21 ,     ,
  ,44/08/28 ,     ,
  ,44/09/04 ,     ,
  ,44/09/11 ,     ,--- PRE-EMPTED
  ,44/09/18 ,     ,
  ,44/09/25 ,     ,
  ,44/10/02 ,     ,
  ,44/10/09 ,     ,--- PRE-EMPTED
  ,44/10/16 ,     ,--- PRE-EMPTED
  ,44/10/23 ,     ,--- PRE-EMPTED
  ,44/10/30 ,     ,--- PRE-EMPTED
  ,44/11/06 ,     ,--- PRE-EMPTED
  ,44/11/13 ,     ,
  ,44/11/20 ,     ,
  ,44/11/27 ,     ,
  ,44/12/04 ,     ,
  ,44/12/11 ,     ,
  ,44/12/18 ,     ,
  ,44/12/25 ,     ,
  ,45/01/01 ,     ,
  ,45/01/08 ,     ,
  ,45/01/15 ,     ,
  ,45/01/22 ,     ,
  ,45/01/29 ,     ,
  ,45/02/05 ,     ,
  ,45/02/12 ,     ,
  ,45/02/19 ,     ,
  ,45/02/26 ,     ,
  ,45/03/05 ,     ,
  ,45/03/12 ,     ,
  ,45/03/19 ,     ,
  ,45/03/26 ,     ,
