Exists, Date, #, Episode Name
* ,44/10/06 ,   1 ,The Magna Carta
* ,44/10/13 ,   2 ,Wat Tyler's Rebellion (The Peasants' Revolt)
* ,44/10/20 ,   3 ,Peter, the Weaver (Freedom In Flanders)
* ,44/10/27 ,   4 ,The Story Of Andreas
* ,44/11/03 ,   5 ,Joan Of Arc
* ,44/11/10 ,   6 ,The Freedom Of Men's Minds
* ,44/11/17 ,   7 ,The Dutch Break The Dikes
* ,44/11/24 ,   8 ,The Puritan Revolution (Battle Without Armor)
* ,44/12/01 ,   9 ,Founding of Rhode Island (Voice In The Wilderness)
* ,44/12/08 ,  10 ,Voltaire
* ,44/12/15 ,  11 ,Valley Forge
* ,44/12/21 ,  12 ,Lafayette - Lamp Lighter of Liberty
* ,44/12/28 ,  13 ,The French Revolution
* ,45/01/05 ,  14 ,Thaddeus Kosciuszko
* ,45/01/12 ,  15 ,Poet Of Liberty
* ,45/01/19 ,  16 ,John Bright
* ,45/01/26 ,  17 ,The First Underground (The Carbonari)
* ,45/02/02 ,  18 ,The Common Man Becomes a Citizen
* ,45/02/09 ,  19 ,Joseph Mazzani, Italian Patriot
* ,45/02/16 ,  20 ,A Boy named Carl (Carl Schurz, American Patriot)
  ,45/07/05 ,   1 ,Lincoln, Freedom and Justice
* ,45/07/12 ,   2 ,The Story of Alexander Petoff
* ,45/07/19 ,   3 ,Victor Hugo
* ,45/07/26 ,   4 ,Walt Whitman - Poet of Democracy
* ,45/08/02 ,   5 ,Herzen - Fight Against Tyranny
* ,45/08/09 ,   6 ,Garibaldi - Hero of Two Wars
* ,45/08/16 ,   7 ,Kossuth - The Struggle for Independence
* ,45/08/23 ,   8 ,Tolstoi - Pacifist Revolutionary
* ,45/08/30 ,   9 ,Gambetta - A Republic Is Born
* ,45/09/06 ,  10 ,Emile Zola - The Pen Is Mighty
  ,45/09/13 ,  11 ,Kropotkin, Prince in Revolt
  ,45/09/20 ,  12 ,Masaryk - Father of His Country
  ,45/09/27 ,  13 ,Wilson, Builder of Peace
