Exists, Date, #, Episode Name
* ,39/xx/xx ,   1 ,Lady Louise
* ,39/xx/xx ,   1 ,The Blue Heaven Friendship Club  (3)
* ,39/xx/xx ,   1 ,The Creole Escort Bureau
* ,39/xx/xx ,   1 ,The Oomph Girl
* ,39/xx/xx ,  38 ,Organ Music
* ,39/xx/xx ,  39 ,Organ Music (2)
* ,39/xx/xx ,  41 ,Eva Hall Tells Why She Joined The Golden Rule Celebrity Club
* ,39/xx/xx ,  42 ,Escort Service Test 2
* ,39/xx/xx ,  43 ,Escort Service Test 1
* ,39/xx/xx ,  44 ,Dude Ranch (2)
* ,39/xx/xx ,  78 ,episode 78
* ,39/xx/xx ,  90 ,episode 90
* ,39/xx/xx ,  91 ,episode 91
* ,39/xx/xx ,  92 ,Golden Rule Club
* ,39/xx/xx , 110 ,Mystic Temple
* ,39/xx/xx , 115 ,episode 115
* ,39/xx/xx , 116 ,episode 116
* ,39/xx/xx , 117 ,episode 117
* ,39/xx/xx , 118 ,episode 118
* ,39/xx/xx , 119 ,episode 119
* ,39/xx/xx , 129 ,episode 129
* ,39/xx/xx ,8302 ,Dude Ranch
* ,39/xx/xx ,     ,A Human Drama of Lonely Hearts
* ,39/xx/xx ,     ,An Old Maid
* ,39/xx/xx ,     ,Beautiful Girl of My Dreams
* ,39/xx/xx ,     ,Club 77
* ,39/xx/xx ,     ,Letters From Around The Country
* ,39/xx/xx ,     ,Norman Howard Is at a Dude Ranch in Arizona
* ,39/xx/xx ,     ,The Blue Heaven Friendship Club
* ,39/xx/xx ,     ,The Blue Heaven Friendship Club  (2)
* ,39/xx/xx ,     ,Wife Wanted
