Exists, Date, #, Episode Name
* ,32/xx/xx ,   1 ,Papua Escape
* ,32/xx/xx ,   2 ,Manchurian Limited
* ,32/xx/xx ,   3 ,Pancho Villa's Treasure
* ,32/xx/xx ,   4 ,The Borneo Diamond
* ,32/xx/xx ,   5 ,The Frozen North
* ,32/xx/xx ,   6 ,Land Of Doomed Souls
* ,32/xx/xx ,   7 ,Land Of Death
* ,32/xx/xx ,   8 ,Land Of Darkness
* ,32/xx/xx ,   9 ,Land of the Black Hand
* ,32/xx/xx ,  10 ,India, The Mystery Land
* ,32/xx/xx ,  11 ,The Tattooed Rose
* ,32/xx/xx ,  12 ,Norway's Luck
* ,32/xx/xx ,  13 ,The Elephant's Graveyard
* ,32/xx/xx ,  14 ,The Living Shroud
* ,32/xx/xx ,  15 ,The Treasure Hunt
* ,32/xx/xx ,  16 ,Hidden Fango
* ,32/xx/xx ,  17 ,The Fire dog
* ,32/xx/xx ,  18 ,The Black White Man
* ,32/xx/xx ,  19 ,The Grain Of Death
* ,32/xx/xx ,  20 ,Hairy Wild Man
* ,32/xx/xx ,  21 ,Malay Madness
* ,32/xx/xx ,  22 ,The Pale Flame
* ,32/xx/xx ,  23 ,Storm on The Sea
* ,32/xx/xx ,  24 ,The Fawn
* ,32/xx/xx ,  25 ,Kaditcha
* ,32/xx/xx ,  26 ,Muckin' in the Khyber
* ,32/xx/xx ,  27 ,The Madonna's Tear
* ,32/xx/xx ,  28 ,Dead Men Walk
* ,32/xx/xx ,  29 ,Living Mummy
* ,32/xx/xx ,  30 ,Mad Monk Of Ankor Wat
* ,32/xx/xx ,  31 ,Vengeance
* ,32/xx/xx ,  32 ,The Continental Express
