Exists, Date, #, Episode Name
* ,xx/xx/xx ,   1 ,Cecile Volanges Writes To Sophy Car
* ,xx/xx/xx ,   2 ,The Marquise's Proposal To Valmont
* ,xx/xx/xx ,   3 ,Valmont Declares His Love For Mme D'Tourvel
* ,xx/xx/xx ,   4 ,Young Love, Danceny Writes To Cecil
* ,xx/xx/xx ,   5 ,Saint Valmont, Saviour Of The Poor
* ,xx/xx/xx ,   6 ,Ah, Unhappy Woman
* ,xx/xx/xx ,   7 ,Mme DeTouval Resists
* ,xx/xx/xx ,   8 ,A Letter From Dijon
* ,xx/xx/xx ,   9 ,Mme DeTouval Asks Valmont To Leave
* ,xx/xx/xx ,  10 ,Stolen Letters Reveal A Secret
* ,xx/xx/xx ,  11 ,Letter Written On A Human Table
* ,xx/xx/xx ,  12 ,Discovered!  Problems For Cecile
  ,xx/xx/xx ,  13 ,episode 13
* ,xx/xx/xx ,  14 ,Valmont's Return To The Chateau
* ,xx/xx/xx ,  15 ,The Marquis - Secret Of My Success
* ,xx/xx/xx ,  16 ,Valmont Gains Access To Cecile's Bedroom
  ,xx/xx/xx ,  17 ,episode 17
* ,xx/xx/xx ,  18 ,A Vain Attempt To Escape
* ,xx/xx/xx ,  19 ,The Marquis Despenses Advise
* ,xx/xx/xx ,  20 ,The Marquis's New Lover
  ,xx/xx/xx ,  21 ,episode 21
* ,xx/xx/xx ,  22 ,She Is Discovered
* ,xx/xx/xx ,  23 ,Valmont Loses His Heir
* ,xx/xx/xx ,  24 ,The Jealous Marquis Takes Aim
* ,xx/xx/xx ,  25 ,The Veil Is Torn
* ,xx/xx/xx ,  26 ,A Grave Illness
* ,xx/xx/xx ,  27 ,Declaration Of War
* ,xx/xx/xx ,  28 ,A Letter To No One
* ,xx/xx/xx ,  29 ,The Duel
* ,xx/xx/xx ,  30 ,Death
* ,xx/xx/xx ,  31 ,The Denouncement
