Exists, Date, #, Episode Name
* ,xx/xx/xx ,  19 ,First Song - Resurrection Morning
* ,xx/xx/xx ,  20 ,First Song - Hallelujah Morning
* ,xx/xx/xx ,  21 ,First Song - Wonderful In His Name
* ,xx/xx/xx ,  22 ,First Song - Did You Ever Go Sailing
* ,xx/xx/xx ,  23 ,First Song - Drifitn' Too Far From Shore
* ,xx/xx/xx ,  24 ,First Song - A Beautiful Home
* ,xx/xx/xx ,  25 ,First Song - Turn Your Radio On
* ,xx/xx/xx ,  26 ,First Song - Old Camp Meeting Time
* ,xx/xx/xx ,  27 ,First Song - Hallelujah Morning (2)
* ,xx/xx/xx ,  28 ,First Song - The Book of Revelation
* ,xx/xx/xx ,  29 ,First Song - He Set Me Free
* ,xx/xx/xx ,  30 ,First Song - Our Last Moving Day
* ,xx/xx/xx ,  31 ,First Song - When God Dips His Pen (2)
* ,xx/xx/xx ,  32 ,First Song - That Ole Time Preacher Man
  ,xx/xx/xx ,  33 ,episode 33
  ,xx/xx/xx ,  34 ,episode 34
* ,xx/xx/xx ,  35 ,First Song - Glory Is Coming (2)
* ,xx/xx/xx ,  36 ,First Song - The Old Country Church
* ,xx/xx/xx ,  37 ,First Song - I'll Be Somewhere Listening
  ,xx/xx/xx ,  38 ,episode 38
* ,xx/xx/xx ,  39 ,First Song - Campin' In Canaan's Land
* ,xx/xx/xx ,  40 ,First Song - I'd Like To Go Back
* ,xx/xx/xx ,  41 ,First Song - That Wonderful Day
* ,xx/xx/xx ,  42 ,First Song - Just Over In The Glory Land
* ,xx/xx/xx ,  43 ,First Song - Work For The Night Is Coming
* ,xx/xx/xx ,  44 ,First Song - Oh How I Love Jesus
* ,xx/xx/xx ,  45 ,First Song - Remember Me
* ,xx/xx/xx ,  46 ,First Song - In The Sweet Bye and Bye
* ,xx/xx/xx ,  47 ,First Song - Gathering Flowers for Master's Bouquet
* ,xx/xx/xx ,  48 ,First Song - I'll Meet You By The River
* ,xx/xx/xx ,  49 ,First Song - Glory Is Coming
* ,xx/xx/xx ,  50 ,First Song - That Old Time Preacher Man
* ,xx/xx/xx ,  51 ,First Song - To That Other Place
* ,xx/xx/xx ,  52 ,First Song - If We Ever Meet Again
  ,xx/xx/xx ,  53 ,episode 53
* ,xx/xx/xx ,  54 ,First Song - A Beautiful Life
* ,xx/xx/xx ,  55 ,First Song - When God Dips His Pen
  ,xx/xx/xx ,  56 ,episode 56
  ,xx/xx/xx ,  57 ,episode 57
  ,xx/xx/xx ,  58 ,episode 58
  ,xx/xx/xx ,  59 ,episode 59
* ,xx/xx/xx ,  60 ,First Song - Take My Hand
  ,xx/xx/xx ,  61 ,episode 61
* ,xx/xx/xx ,  62 ,First Song - Gatherin' In The Sky
* ,xx/xx/xx ,  63 ,First Song - The Wrath of God
