Exists, Date, #, Episode Name
* ,50/07/10 ,     ,The First Tune Is 'Carmelita'
* ,50/07/31 ,     ,The First Tune Is 'The Donkey Serenade'
* ,50/08/14 ,     ,The First Tune Is 'The Waltz in Swingtime'
* ,53/03/06 ,     ,The First Tune Is 'Blue Tango'
* ,53/08/21 ,     ,The First Tune Is 'Gone with the Wind'
