Exists, Date, #, Episode Name
* ,48/06/27 ,   1 ,The Knock-Kneed Man
* ,48/07/04 ,   2 ,Railway to Freedom
* ,48/07/11 ,   3 ,Dark Explorers
* ,48/07/18 ,   4 ,The Denmark Vesey Story
* ,48/07/25 ,   5 ,The Making of a Man
* ,48/08/01 ,   6 ,The Key to Freedom
* ,48/08/08 ,   7 ,The Heart of George Cotton
  ,48/08/15 ,   8 ,Truth Goes to Washington
* ,48/08/22 ,   9 ,Arctic Biography
* ,48/08/29 ,  10 ,The Story of 1875
* ,48/09/05 ,  11 ,The Poet of Pine Mill
* ,48/09/12 ,  12 ,The Father of the Blues
* ,48/09/19 ,  13 ,Boy with a Dream
* ,48/09/26 ,  14 ,Shakespeare of Harlem
* ,48/10/03 ,  15 ,Citizen Toussaint
* ,48/10/10 ,  16 ,Little David
* ,48/10/17 ,  17 ,The Boy Who Was Traded for a Horse
  ,48/10/31 ,  18 ,The Heart of George Cotton
* ,48/11/07 ,  19 ,Echoes of Harlem
* ,48/11/14 ,  20 ,One out of Seventeen
* ,48/11/21 ,  21 ,The Rhyme of the Ancient Dodger
* ,48/11/28 ,  22 ,Investigator for Democracy
  ,48/12/05 ,  23 ,Autobiography of a Hero
  ,48/12/12 ,  24 ,The Pied Piper Versus Paul Revere
* ,48/12/19 ,  25 ,The Choir Girl from Philadelphia
  ,48/12/26 ,  26 ,Mike Rex
  ,49/01/02 ,  27 ,Maiden Speech
  ,49/01/09 ,  28 ,The Boy Who Beat the Bus
  ,49/01/16 ,  29 ,The Chopin Murder Case
  ,49/01/23 ,  30 ,The World's Fastest Human
  ,49/01/30 ,  31 ,The Last Letter Home
  ,49/02/06 ,  32 ,Searcher for History
  ,49/02/13 ,  33 ,The Death of Aesop
* ,49/02/20 ,  34 ,Peace Mediator
* ,49/02/27 ,  35 ,The House That Paul Built
  ,49/03/06 ,  36 ,Do Something! Do Something!
* ,49/03/13 ,  37 ,Up from Slavery
* ,49/03/20 ,  38 ,Black Boy
* ,49/03/27 ,  39 ,Transfusion
  ,49/04/03 ,  40 ,Pagan Poet
  ,49/04/10 ,  41 ,Woman with a Mission
  ,49/04/17 ,  42 ,Before I Sleep
  ,49/04/24 ,  43 ,Apostle of Freedom
* ,49/05/01 ,  44 ,Help the Blind
  ,49/05/08 ,     ,No Show Aired
* ,49/05/15 ,  45 ,The Ballad of Satchel Paige
  ,49/05/22 ,  46 ,The Secretary of Peace
* ,49/05/29 ,  47 ,The Saga of Melody Jackson
* ,49/06/05 ,  48 ,Anatomy of an Ordinance
* ,49/06/12 ,  49 ,Negro Cinderella
* ,49/06/19 ,  50 ,Ghost Editor
* ,49/06/26 ,  51 ,Harriet's Children
* ,49/07/03 ,  52 ,Norfolk Miracle
* ,49/07/17 ,  53 ,The Legend of Stackalee
* ,49/07/24 ,  54 ,The Legend of John Henry
* ,49/07/31 ,  55 ,The Trumpet Talks
* ,49/08/07 ,  56 ,The Long Road
* ,49/08/14 ,  57 ,Black Hamlet Part I
* ,49/08/21 ,  58 ,Black Hamlet Part II
* ,49/08/28 ,  59 ,Segregation, Incorporated
* ,49/09/04 ,  60 ,The Saga of Senator Blanche K Bruce
  ,49/09/11 ,  61 ,The Tiger Hunt
  ,49/09/18 ,  62 ,Poet in Bronzeville
* ,49/09/25 ,  63 ,A Garage in Gainesville
* ,49/10/02 ,  64 ,Execution Awaited
* ,49/10/09 ,  65 ,Father to Son
* ,49/10/16 ,  66 ,Of Blood and the Boogie
* ,49/10/23 ,  67 ,Diary of a Nurse
* ,49/10/30 ,  68 ,Keeper of the Dream
* ,49/11/06 ,  69 ,The Man Who Owned Chicago
  ,49/11/13 ,  70 ,Blind Alley Symphony
  ,49/11/20 ,  71 ,The Tale of the Tobacco Auctioneer
  ,49/11/27 ,  72 ,The Death of Aesop
  ,49/12/04 ,  73 ,Joe Rainey Versus the Status Quo
  ,50/01/08 ,  74 ,The Capture
* ,50/01/15 ,  75 ,The Birth of a League
  ,50/01/22 ,  76 ,Lawyer of Liberty
  ,50/01/29 ,  77 ,Portrait of Bill Robinson
  ,50/02/05 ,  78 ,Housing - Chicago
* ,50/02/12 ,  79 ,Recorder of History
  ,50/02/19 ,  80 ,Brotherhood Week Begins at Home
  ,50/02/26 ,  81 ,The Umfundisi of Ndotsheni
  ,50/03/05 ,  82 ,Atlanta Thesis
* ,50/03/12 ,  83 ,Premonition of the Panther
  ,50/03/19 ,  84 ,The Making of a Balladeer
* ,50/03/26 ,  85 ,The Liberators Part I
  ,50/04/02 ,  86 ,The Liberators Part II
* ,50/04/09 ,  87 ,The Buddy Young Story
* ,50/04/16 ,  88 ,Crime Fighter
* ,50/04/23 ,  89 ,Dance Anthropologist
  ,50/05/07 ,  90 ,The Case of Samuel Johnson
  ,50/05/14 ,  91 ,The Sorrow Songs - Spirituals
  ,50/05/21 ,  92 ,John Hope, Educator
* ,50/06/04 ,  93 ,The Grave Diggers' Handicap
* ,50/06/11 ,  94 ,The Shy Boy
  ,50/06/18 ,  95 ,The Case of the Congressman's Train Ride
* ,50/06/25 ,  96 ,The Angel of Federal Street
* ,50/07/02 ,  97 ,Kansas City Phone Call
* ,50/07/09 ,  98 ,Mr Jericho Adjusts a Claim
  ,50/07/16 ,  99 ,Test by Fire
  ,50/07/23 , 100 ,Sing a Song for Children
  ,50/07/30 , 101 ,The Knock-Kneed Man
  ,50/08/06 , 102 ,The Peace Mediator
* ,50/08/13 , 103 ,Last Letter Home
* ,50/10/15 , 104 ,Patriotic Format
  ,50/10/22 , 105 ,
  ,50/10/29 , 106 ,
  ,50/11/05 , 107 ,
* ,50/11/12 , 108 ,The Golden Circle
* ,50/11/19 , 109 ,Michael Shipkoff
* ,50/11/26 , 110 ,Mackton and Winston of Company `D'
  ,50/12/03 , 111 ,
* ,50/12/10 , 112 ,Matthew Lyon
* ,50/12/17 , 113 ,United Nations
* ,50/12/24 , 114 ,Frank Johnson Story
* ,50/12/31 , 115 ,John, Alma, Johnny and Myra
* ,51/01/07 , 116 ,Nathan Hale Story
* ,51/01/14 , 117 ,Dwight David Eisenhower
* ,51/01/21 , 118 ,Anna's Story
  ,51/01/28 , 119 ,
* ,51/02/04 , 120 ,Jeff Maxwell Story
  ,51/02/11 , 121 ,
* ,51/02/18 , 122 ,Forced Confession
* ,51/02/25 , 123 ,The Story of Anna Zenger
* ,51/03/04 , 124 ,Benjamin Drake Story
* ,51/03/11 , 125 ,Dick Draper Story
* ,51/03/18 , 126 ,Thomas Wright, American Citizen
* ,51/03/25 , 127 ,Citizen Whitney
  ,51/04/01 , 128 ,
* ,51/04/08 , 129 ,The Jones Family
* ,51/04/15 , 130 ,Fred Custer Story
* ,51/04/22 , 131 ,Reverend Brown's Half Acre
* ,51/04/29 , 132 ,Korean Frontline
* ,51/05/06 , 133 ,Harper College Story
* ,51/05/13 , 134 ,Open for Business
* ,51/05/19 , 135 ,Judge Farwell's Story
  ,51/05/26 , 136 ,
* ,51/06/02 , 137 ,Russell Thomas Story
* ,51/06/09 , 138 ,The Avondale Story
* ,51/06/16 , 139 ,Mike Yankovich, Minnesota Miner
* ,51/06/23 , 140 ,Wanted - A Witness
  ,51/06/30 , 141 ,
  ,51/07/07 , 142 ,
  ,51/07/14 , 143 ,
  ,51/07/21 , 144 ,
  ,51/07/28 , 145 ,
  ,51/08/04 , 146 ,
  ,51/08/11 , 147 ,
  ,51/08/18 , 148 ,
  ,51/08/25 , 149 ,
  ,51/09/01 , 150 ,
  ,51/09/08 , 151 ,
  ,51/09/15 , 152 ,
  ,51/09/22 , 153 ,
  ,51/09/29 , 154 ,
  ,51/10/08 , 155 ,
  ,51/10/15 , 156 ,
  ,51/10/22 , 157 ,
  ,51/10/29 , 158 ,
  ,51/11/05 , 159 ,
  ,51/11/12 , 160 ,
  ,51/11/19 , 161 ,
