Exists, Date, #, Episode Name
* ,34/xx/xx ,     ,Dames
* ,34/xx/xx ,     ,Harold Teen
* ,34/xx/xx ,     ,Twenty Million Sweethearts
* ,35/xx/xx ,     ,Go into Your Dance
* ,35/xx/xx ,     ,Gold Diggers of 1935
* ,35/xx/xx ,     ,Shipmates Forever
