Exists, Date, #, Episode Name
* ,41/xx/xx ,   1 ,Joseph Lister
* ,41/xx/xx ,   2 ,Elizabeth Anderson
* ,41/xx/xx ,  11 ,Robert Koch
* ,41/xx/xx ,  12 ,Edward Trudeau
* ,41/xx/xx ,  19 ,Dr. Richard Kovac
* ,41/xx/xx ,  20 ,Dr. Robert Slaughter
* ,41/xx/xx ,  23 ,Captain Rutherford
* ,41/xx/xx ,  24 ,John Morton
* ,41/xx/xx ,  29 ,William Mayo Sr
* ,41/xx/xx ,  30 ,William and Charles Mayo
* ,41/xx/xx ,  33 ,Edward Jenner
* ,41/xx/xx ,  34 ,Dr Contat
