Exists, Date, #, Episode Name
  ,40/09/29 ,     ,First Episode
* ,41/07/18 ,     ,How Do You Describe Counting In Jacks
* ,41/07/19 ,     ,First Contestant - Edward P Horne
* ,41/08/15 ,     ,First Contestant - Jack Lowe
* ,42/05/15 ,     ,Guest - Arthur Treacher
* ,42/07/03 ,     ,First Guest - Pat Rooney
* ,42/07/14 ,     ,Guest - Myer Davis
* ,42/07/17 ,     ,Guest - Pappy Delowe
* ,42/07/24 ,     ,Guest - Helen Menken
* ,42/09/11 ,     ,Guest - Lili Damata
* ,44/03/04 ,     ,How Much Milk & Cream Does America Eat
* ,44/03/10 ,     ,First Contestant - Robert Preston
* ,44/03/17 ,     ,How Many Rooms in the White House ( No Ending)
* ,44/04/21 ,     ,Dedicated To Mark Twain
* ,44/08/13 ,     ,From Cincinnati
* ,44/08/20 ,     ,Guest - Jane Wyman
* ,44/09/01 ,     ,How Many People Voted in 1940
* ,44/09/08 ,     ,How Long Does a Dollar Bill Last
* ,44/10/13 ,     ,Abandoned Bank Accounts
* ,45/02/02 ,     ,First Contestant - Bob Young
* ,45/08/12 ,     ,False Japanese Surrender News
* ,47/04/02 ,     ,Fastest Baseball Pitch
* ,48/01/02 ,     ,How Many Peanuts in Peanut Oil
* ,48/10/15 ,     ,Screwing Party
* ,50/08/30 ,     ,Rhinoceros Amble 100 Yards
* ,51/05/02 ,     ,Contestants from Vancouver
