Exists, Date, #, Episode Name
* ,34/10/13 ,     ,The Merry Widow
* ,34/xx/xx ,     ,Barretts Of Wimpole Street
* ,34/xx/xx ,     ,Harold Teen
* ,34/xx/xx ,     ,Merry Widow
* ,35/xx/xx ,     ,Broadway Melody Of 1936
* ,35/xx/xx ,     ,David Copperfield
* ,35/xx/xx ,     ,Here Comes The Band
* ,35/xx/xx ,     ,Mutiny On The Bounty
* ,35/xx/xx ,     ,Reckless
* ,36/xx/xx ,     ,After The Thin Man
* ,36/xx/xx ,     ,Born To Dance
* ,36/xx/xx ,     ,Camille
* ,36/xx/xx ,     ,Gorgeous Hussy
* ,36/xx/xx ,     ,Libeled Lady
* ,36/xx/xx ,     ,Love On The Run
* ,36/xx/xx ,     ,Suzy
* ,36/xx/xx ,     ,The Great Ziegfield
* ,37/xx/xx ,     ,A Day At The Races
* ,37/xx/xx ,     ,Captains Courageous
* ,37/xx/xx ,     ,Conquest
* ,37/xx/xx ,     ,Firefly
* ,37/xx/xx ,     ,New Faces of 1937
* ,37/xx/xx ,     ,Parnell
* ,37/xx/xx ,     ,The Big Broadcast of 1937
* ,37/xx/xx ,     ,The Firefly
* ,37/xx/xx ,     ,They Gave Him A Gun
* ,38/xx/xx ,     ,Everybody Sing
* ,38/xx/xx ,     ,Girl Of The Golden West
* ,38/xx/xx ,     ,Goldwyn Follies
* ,38/xx/xx ,     ,Great Waltz
* ,38/xx/xx ,     ,Listen, Darling
* ,38/xx/xx ,     ,Love Finds Andy Hardy
* ,39/xx/xx ,     ,At The Circus
* ,39/xx/xx ,     ,Babes In Arms
* ,39/xx/xx ,     ,Broadway Serenade
* ,39/xx/xx ,     ,Dancing Coed
* ,39/xx/xx ,     ,Let Freedom Ring
* ,39/xx/xx ,     ,Man About Town
* ,39/xx/xx ,     ,Wizard of Oz
* ,40/xx/xx ,     ,Flight Command
* ,40/xx/xx ,     ,Go West
* ,40/xx/xx ,     ,Hardy Family - Christmas Greetings
* ,40/xx/xx ,     ,Little Nelly Kelly
* ,40/xx/xx ,     ,Marx Brothers Go West
* ,40/xx/xx ,     ,Strike Up The Band
* ,41/xx/xx ,     ,Babes On Broadway
* ,41/xx/xx ,     ,Kathleen
* ,41/xx/xx ,     ,Lady Be Good
* ,41/xx/xx ,     ,Life Begins For Andy Hardy
* ,41/xx/xx ,     ,Sunny
* ,42/xx/xx ,     ,Cairo
* ,42/xx/xx ,     ,For Me And My Gal
* ,42/xx/xx ,     ,I Married An Angel
* ,42/xx/xx ,     ,Rio Rita
* ,42/xx/xx ,     ,The Courtship Of Andy Hardy
* ,48/xx/xx ,     ,Three Musketeers
* ,xx/xx/xx ,     ,Caddy
* ,xx/xx/xx ,     ,College Rhythm
* ,xx/xx/xx ,     ,Kid from Brooklyn
* ,xx/xx/xx ,     ,Monsieur Beaucaire
