Exists, Date, #, Episode Name
* ,44/06/04 ,   1 ,Square Nazi Jack Boot
  ,44/06/11 ,   2 ,--- (LW plans an unusual alumni party)
  ,44/06/18 ,   3 ,--- (encounters macabre murder in a barbershop)
  ,44/06/25 ,     ,--- PRE-EMPTED (Republican Convention)
  ,44/07/02 ,   4 ,
  ,44/07/09 ,   5 ,
  ,44/07/16 ,   6 ,
  ,44/07/23 ,   7 ,The Man Who Died Laughing
* ,44/07/30 ,   8 ,The Vanishing Housekeeper (aka-Mrs Mullet Disappears)
  ,44/08/06 ,   9 ,
  ,44/08/13 ,  10 ,The Mystery of Rampant Insanity
  ,44/08/20 ,  11 ,
  ,44/08/27 ,  12 ,
  ,44/09/03 ,  13 ,
* ,44/09/10 ,  14 ,Murder at Dandy's Dream Domicile (aka-The Resort Murder)
* ,44/09/17 ,  15 ,The Four Killers (aka The Reunion)
* ,44/09/24 ,  16 ,Murder at the State Fair
* ,44/10/08 ,  17 ,Murder on the Train
  ,44/10/15 ,  18 ,Nylon Sale
  ,44/10/22 ,  19 ,
  ,44/10/29 ,     ,--- PRE-EMPTED (VP Speech)
  ,44/11/05 ,  20 ,
  ,44/11/12 ,  21 ,
  ,44/11/19 ,  22 ,
  ,44/11/26 ,  23 ,
  ,44/12/03 ,  24 ,
  ,44/12/10 ,  25 ,
  ,44/12/17 ,  26 ,
  ,44/12/24 ,     ,--- PRE-EMPTED (Christmas Eve Special)
  ,44/12/31 ,  27 ,
  ,45/01/07 ,  28 ,
  ,45/01/14 ,  29 ,
  ,45/01/21 ,  30 ,
  ,45/01/28 ,  31 ,
  ,45/02/04 ,  32 ,
  ,45/02/11 ,  33 ,
  ,45/02/18 ,  34 ,
  ,45/02/25 ,  35 ,
  ,45/03/04 ,  36 ,
  ,45/03/11 ,  37 ,
  ,45/03/18 ,  38 ,
  ,45/03/25 ,  39 ,
  ,45/04/01 ,  40 ,
  ,45/04/08 ,  41 ,
  ,45/04/15 ,  42 ,
* ,45/04/22 ,  43 ,The Corpse Meets a Deadline
  ,45/04/29 ,  44 ,--- (LW meets an interesting hitchhiker)
