Exists, Date, #, Episode Name
* ,xx/xx/xx ,   1 ,Democracy Is Our Way Of Life
* ,xx/xx/xx ,   2 ,Democracy Can Be Betrayed
* ,xx/xx/xx ,   3 ,The Rights Of Citizenship
* ,xx/xx/xx ,   4 ,The Duties Of Citizenship
* ,xx/xx/xx ,   5 ,The Party Regular vs. The Independent
* ,xx/xx/xx ,   6 ,Democracy Advances
* ,xx/xx/xx ,   7 ,The Early Meaning Of Democracy
* ,xx/xx/xx ,   8 ,Increasing Complexity Brings Increasing Regulation
* ,xx/xx/xx ,   9 ,The Westward Advance Of Democracy
* ,xx/xx/xx ,  10 ,Democracy Begins At Home
* ,xx/xx/xx ,  11 ,Education and Democracy
* ,xx/xx/xx ,  12 ,Adult Education
* ,xx/xx/xx ,  13 ,Democracy and Health
* ,xx/xx/xx ,  14 ,Religion In A Democracy
* ,xx/xx/xx ,  15 ,Democracy and The Farmer
* ,xx/xx/xx ,  16 ,Democracy In Industry
* ,xx/xx/xx ,  17 ,Toward The Common Good
* ,xx/xx/xx ,  18 ,Property Rights In A Democracy
* ,xx/xx/xx ,  19 ,Women In A Democracy
* ,xx/xx/xx ,  20 ,Democracy and Radio
* ,xx/xx/xx ,  21 ,Democracy and Preparedness
* ,xx/xx/xx ,  22 ,Democracy In War-time
* ,xx/xx/xx ,  23 ,The Ideal Persists
* ,xx/xx/xx ,  24 ,Methods Of Democracy
* ,xx/xx/xx ,  25 ,What Price Vigilance
* ,xx/xx/xx ,  26 ,The Victory Of Democracy
