Exists, Date, #, Episode Name
* ,46/01/16 ,  10 ,Samuel Gompers
* ,46/12/06 ,   6 ,Hey, Cabby
* ,46/xx/xx ,   1 ,The Story Of Wendell Willkie
* ,46/xx/xx ,   2 ,The Story Of Joseph Goldberger
* ,46/xx/xx ,   3 ,The Story Of Jane Addams
* ,46/xx/xx ,   4 ,The Story Of Brandeis-Holmes
* ,46/xx/xx ,   5 ,The Story Of George Washington Carver
* ,46/xx/xx ,   6 ,The Story Of Al Smith
* ,46/xx/xx ,   7 ,The Story Of George W. Norris
* ,46/xx/xx ,   8 ,The Story Of Joseph Pulitzer
* ,46/xx/xx ,   9 ,Franz Boaz
* ,46/xx/xx ,  11 ,The Story Of Woodrow Wilson
* ,46/xx/xx ,  12 ,The Story Of Franklin Delano Roosevelt Part 1
* ,46/xx/xx ,  13 ,The Story Of Franklin Delano Roosevelt Part 2
* ,xx/xx/xx ,  11 ,The Story Of Lewis and Clark
* ,xx/xx/xx ,  12 ,The Story Of Andrew Jackson
  ,xx/xx/xx ,  14 ,episode 14
  ,xx/xx/xx ,  15 ,episode 15
  ,xx/xx/xx ,  16 ,episode 16
  ,xx/xx/xx ,  17 ,episode 17
  ,xx/xx/xx ,  18 ,episode 18
* ,xx/xx/xx ,  19 ,The Story Of The Civil War
* ,xx/xx/xx ,  20 ,The Story Of The Reconstruction
  ,xx/xx/xx ,  21 ,episode 21
  ,xx/xx/xx ,  22 ,episode 22
* ,xx/xx/xx ,  23 ,The History Of American Law
* ,xx/xx/xx ,  24 ,Death To The Microbe
* ,xx/xx/xx ,  25 ,Speech On Wing
* ,xx/xx/xx ,  26 ,Land Of The Free, Home Of The Brave
