Exists, Date, #, Episode Name
* ,37/04/05 ,  98 ,The Lady on the Two Cent Stamp
* ,38/07/14 ,   3 ,Something Tells Me
* ,38/07/14 ,   4 ,The Story of Love
* ,40/12/24 , 367 ,There Will Always Be an England
* ,xx/xx/xx ,  96 ,Oh, Boom
* ,xx/xx/xx , 250 ,No Mama No
* ,xx/xx/xx , 278 ,Dancing in the Dark
* ,xx/xx/xx , 279 ,Playmates
* ,xx/xx/xx , 298 ,Nobody's Sweetheart Now
* ,xx/xx/xx , 299 ,I've Got My Eyes on You
* ,xx/xx/xx , 305 ,Produced by N B C in New York
* ,xx/xx/xx , 306 ,There's Gonna Be a Great Day
* ,xx/xx/xx , 319 ,Produced by N B C in New York (24)
* ,xx/xx/xx , 320 ,Snuggled on Your Shoulder
* ,xx/xx/xx , 345 ,Seems Like a Month of Sundays
* ,xx/xx/xx , 346 ,Keep Away from That Eden Tree
* ,xx/xx/xx , 357 ,Let's Be Buddies
* ,xx/xx/xx , 358 ,You Danced with Dynamite
* ,xx/xx/xx , 365 ,Give a Little Whistle
* ,xx/xx/xx , 366 ,The Drummer Boy
* ,xx/xx/xx , 368 ,Love Is on the Air Tonight
* ,xx/xx/xx , 373 ,The Sun Will Be up in the Morning
* ,xx/xx/xx , 374 ,My Darling
* ,xx/xx/xx , 393 ,Only Speaks Morning
* ,xx/xx/xx , 394 ,My Song
* ,xx/xx/xx , 395 ,I'm Sweet on Sweet Little You
* ,xx/xx/xx , 396 ,Dream Valley
* ,xx/xx/xx ,     ,Two Hearts Beat with a Joy Complete
