Exists, Date, #, Episode Name
* ,39/11/21 ,   1 ,Two Happy People Part 1
* ,39/11/28 ,   2 ,Two Happy People Part 2
* ,39/12/05 ,   3 ,The Andy Devine Story
* ,39/12/12 ,   4 ,Walt Disney
  ,39/12/19 ,   5 ,
  ,39/12/25 ,   6 ,
* ,40/01/01 ,   7 ,Kenny Gardner
  ,40/01/08 ,   8 ,
  ,40/01/15 ,   9 ,
  ,40/01/22 ,  10 ,
  ,40/01/29 ,     ,Preempted
  ,40/02/05 ,  11 ,
  ,40/02/12 ,  12 ,
  ,40/02/19 ,  13 ,
  ,40/02/26 ,     ,Preempted
  ,40/03/04 ,  14 ,
* ,40/03/11 ,  15 ,Guest - Priscilla Lane
  ,40/03/18 ,  16 ,
  ,40/03/25 ,  17 ,
* ,40/04/01 ,  18 ,First Song - By the Waters Of Minnetonka
* ,40/04/08 ,  19 ,Guest - Andy Devine
* ,40/04/15 ,  20 ,Guest - Stu Erwin
  ,40/04/22 ,  21 ,
  ,40/04/29 ,  22 ,
* ,40/05/06 ,  23 ,
* ,40/05/13 ,  24 ,Guest - Virginia Maples
  ,40/05/20 ,  25 ,
  ,40/05/27 ,  26 ,
  ,40/06/03 ,  27 ,
* ,40/06/10 ,  28 ,Guest - Rosemary Lane
  ,40/06/17 ,  29 ,
  ,40/06/24 ,  30 ,
  ,40/07/01 ,  31 ,
* ,40/07/08 ,  32 ,Guest - Rosemary Lane
  ,40/07/15 ,  33 ,
  ,40/07/22 ,  34 ,
* ,40/07/29 ,  35 ,Willie's of Hollywood
  ,40/08/05 ,  36 ,
  ,40/08/12 ,  37 ,
  ,40/08/19 ,  38 ,
  ,40/08/26 ,  39 ,
  ,40/09/02 ,  40 ,
  ,40/09/09 ,  41 ,
  ,40/09/16 ,  42 ,
  ,40/09/23 ,  43 ,
  ,40/09/30 ,  44 ,
  ,40/10/07 ,  45 ,
* ,40/10/14 ,  46 ,Meet the NBC Orchestra
  ,40/10/21 ,  47 ,
  ,40/10/28 ,  48 ,
  ,42/02/07 ,     ,  Last Episode
