Exists, Date, #, Episode Name
* ,45/06/22 ,     ,
* ,47/06/09 ,     ,
* ,47/07/17 ,     ,Lora Lawton
* ,47/07/19 ,     ,Lora Lawton
* ,47/07/28 ,     ,
* ,47/09/15 ,     ,
* ,47/10/13 ,     ,Lora Lawton
* ,47/10/20 ,     ,Lora Lawton
* ,47/10/26 ,     ,Lora Lawton
* ,47/10/27 ,     ,Lora Lawton
* ,47/11/27 ,     ,
* ,47/12/01 ,     ,Lora Lawton
* ,47/12/03 ,     ,
* ,47/12/04 ,     ,Lora Lawton
* ,47/12/08 ,     ,
* ,47/12/09 ,     ,Lora Lawton
* ,47/12/10 ,     ,Lora Lawton
* ,47/12/12 ,     ,
* ,47/12/16 ,     ,
* ,47/12/19 ,     ,
* ,47/12/22 ,     ,
* ,47/12/23 ,     ,Lora Lawton
* ,47/12/29 ,     ,
* ,47/12/30 ,     ,
* ,48/01/05 ,     ,
* ,48/01/16 ,     ,
* ,48/04/30 ,     ,Lora Lawton
* ,48/05/02 ,     ,Lora Lawton
* ,48/05/04 ,     ,Lora Lawton
* ,48/05/05 ,     ,Lora Lawton
* ,48/05/11 ,     ,Lora Lawton
* ,48/05/12 ,     ,Lora Lawton
* ,48/05/13 ,     ,Lora Lawton
* ,48/05/25 ,     ,Lora Lawton
* ,48/05/27 ,     ,Lora Lawton
* ,48/05/31 ,     ,Lora Lawton
* ,48/06/23 ,     ,Lora Lawton
* ,48/07/13 ,     ,Lora Lawton
* ,48/07/14 ,     ,Lora Lawton
