Exists, Date, #, Episode Name
* ,80/02/25 ,   1 ,Open Government
* ,80/03/03 ,   2 ,The Offical Visit
* ,80/03/10 ,   3 ,The Economy Drive
* ,80/03/17 ,   4 ,Big Brother
* ,80/03/23 ,   5 ,The Writing on the Wall
* ,80/03/31 ,   6 ,The Right to Know
* ,80/04/07 ,   7 ,Jobs for the Boys
* ,81/02/23 ,   8 ,Compassionate Society
* ,81/03/02 ,   9 ,Doing the Honours
* ,81/03/09 ,  10 ,The Death List
* ,81/03/16 ,  11 ,The Greasy Pole
* ,81/03/23 ,  12 ,The Devil You Know
* ,81/03/30 ,  13 ,The Quality of Life
* ,81/04/08 ,  14 ,A Question of Loyalty
* ,82/11/11 ,  15 ,Equal Opportunities
* ,82/11/18 ,  16 ,The Challenge
* ,82/11/25 ,  17 ,A Skeleton in the Cupboard
* ,82/12/02 ,  18 ,The Moral Dimension
* ,82/12/09 ,  19 ,Tthe Bed of Nails
* ,82/12/16 ,  20 ,The Whiskey Priest
* ,82/12/23 ,  21 ,The Middle Class Rip-off
* ,84/12/17 ,  22 , Party Games
