Exists, Date, #, Episode Name
* ,xx/xx/xx ,   1 ,Introduction to Yiddish Melodies in Swing
* ,xx/xx/xx ,   2 ,The Bridegroom Special
* ,xx/xx/xx ,   3 ,Adler Shoes Commercial
* ,xx/xx/xx ,   4 ,Second Avenue Square Dance
* ,xx/xx/xx ,   5 ,Oh Mama I'm So in Love
* ,xx/xx/xx ,   6 ,WEVD Station ID
* ,xx/xx/xx ,   7 ,Die Goldene Khasene
* ,xx/xx/xx ,   8 ,Manischewitz Matzo Commercial
* ,xx/xx/xx ,   9 ,Samson and Delilah
* ,xx/xx/xx ,  10 ,Bei Mir Bist Du Schoen
* ,xx/xx/xx ,  11 ,Hebrew National Meats Commercial
* ,xx/xx/xx ,  12 ,Joe and Paul Commercial
* ,xx/xx/xx ,  13 ,Joe and Paul
* ,xx/xx/xx ,  14 ,WEVD Station ID (Second)
* ,xx/xx/xx ,  15 ,Levine Mit Zayn Flying Machine
* ,xx/xx/xx ,  16 ,WVFW Station ID
* ,xx/xx/xx ,  17 ,Parkway Cafeteria Commercial
* ,xx/xx/xx ,  18 ,Dona Dona
* ,xx/xx/xx ,  19 ,Stanton Street Clothier's Theme Song
* ,xx/xx/xx ,  20 ,WBBC Station ID
* ,xx/xx/xx ,  21 ,Wo Bist Du Gewesen Vor Prohibition
* ,xx/xx/xx ,  22 ,Milady Frozen Fruit Products Commercial
* ,xx/xx/xx ,  23 ,Ajax Commercial
* ,xx/xx/xx ,  24 ,Surrey Mit A Fringe Afn Top - Oy, S'Iz A Sheyne Fr
* ,xx/xx/xx ,  25 ,Yiddish Melodies in Swing Intro
* ,xx/xx/xx ,  26 ,Yidel Mitn Fiedel
* ,xx/xx/xx ,  27 ,WCNW Station ID
* ,xx/xx/xx ,  28 ,Turkish Yalle Ve Uve
* ,xx/xx/xx ,  29 ,Gefilte Fish Commercial
* ,xx/xx/xx ,  30 ,Dayenu
* ,xx/xx/xx ,  31 ,Eastside Gluckstern's Restaurant Commercial
* ,xx/xx/xx ,  32 ,Barbasol Commercial
* ,xx/xx/xx ,  33 ,Battle Hymn of the Republic
* ,xx/xx/xx ,  34 ,Sign off to Yiddish Melodies in Swing
