Exists, Date, #, Episode Name
* ,47/07/01 ,   1 ,Radio - The Listening Years
* ,47/07/14 ,   2 ,The Storming of the Bastille
* ,47/07/28 ,   3 ,Columbus Discovers America
* ,47/08/04 ,   4 ,Witchcraft Trials at Salem
* ,47/08/11 ,   5 ,The Defeat of the Spanish Armada
* ,47/08/18 ,   6 ,The Alamo
* ,47/08/25 ,   7 ,The Last Day of Pompeii
* ,47/12/07 ,   8 ,Napoleon Returns from Elba
* ,47/12/14 ,   9 ,Assassination of Abraham Lincoln
* ,47/12/21 ,  10 ,The Sailing of the Mayflower
* ,47/12/28 ,  11 ,The Storming of the Bastille
* ,48/01/04 ,  12 ,Witchcraft Trials at Salem
  ,48/01/11 ,  13 ,The Burr - Hamilton Duel
* ,48/01/18 ,  14 ,The Signing of the Magna Carta
* ,48/01/25 ,  15 ,The Alamo
* ,48/02/01 ,  16 ,The Defeat of the Spanish Armada
* ,48/02/08 ,  17 ,The Dreyfus Case
* ,48/02/15 ,  18 ,The Assassination of Julius Caesar
* ,48/02/22 ,  19 ,The Battle of Gettysburg
* ,48/02/29 ,  20 ,Joan of Arc Is Burned at the Stake
  ,48/03/07 ,  21 ,The Okalahoma Land Run
* ,48/03/14 ,  22 ,The Death of Socrates
* ,48/03/21 ,  23 ,Philadelphia, July 4, 1776
* ,48/04/04 ,  24 ,The Monitor and the Merrimac
* ,48/04/11 ,  25 ,The Last Day of Pompeii
* ,48/04/18 ,  26 ,The Battle of Plassey
* ,48/04/25 ,  27 ,The Fall of Troy
* ,48/05/02 ,  28 ,The Surrender of Sitting Bull
* ,48/05/09 ,  29 ,The Burr - Hamilton Duel
* ,48/05/16 ,  30 ,The Signing of the Magna Carta
* ,48/05/23 ,  31 ,The Execution of Maximilian
* ,48/05/30 ,  32 ,Toussaint L'ouverture Liberates Haiti
* ,48/06/06 ,  33 ,The Battle of Hastings
  ,48/06/13 ,  34 ,
* ,48/06/20 ,  35 ,The Impeachment of Andrew Johnson
* ,48/06/27 ,  36 ,The Execution of Mary, Queen of Scots
* ,48/07/04 ,  37 ,Declaration of Independance
* ,48/08/22 ,  38 ,Lexington, Concord and Merriam's Corner
* ,48/08/29 ,  39 ,The Execution of Joan of Arc
* ,48/09/05 ,  40 ,Assassination Of Abraham Lincoln
  ,48/09/12 ,  41 ,
* ,48/09/19 ,  42 ,The Ratification of the Us Constitution
* ,48/09/26 ,  43 ,Ann Hutchinson's Trial
* ,48/10/03 ,  44 ,The First Battle of Bull Run
* ,48/10/10 ,  45 ,Columbus Discovers America
* ,48/10/17 ,  46 ,The Trial of Marie Antoinette
* ,48/10/24 ,  47 ,The Fall of Troy
* ,48/10/31 ,  48 ,The Election of Thomas Jefferson
* ,48/11/07 ,  49 ,Lee and Grant at Appomattox
* ,48/11/14 ,  50 ,Napoleon Recaptured and Exiled
  ,48/11/21 ,  51 ,Assassination of Abraham Lincoln
  ,48/11/28 ,  52 ,Conquest of the Grand Canyon
* ,48/12/05 ,  53 ,The Execution of Maxmilian
* ,48/12/12 ,  54 ,The Conspiracy of Cataline
* ,48/12/19 ,  55 ,The Hanging of Captain Kidd
* ,48/12/26 ,  56 ,The Monitor and the Merrimac
* ,49/01/02 ,  57 ,The Surrender of Sitting Bull
* ,49/01/09 ,  58 ,The Sentencing of Charles I
* ,49/01/16 ,  59 ,Mutiny in the Colonial Army
* ,49/01/23 ,  60 ,Toussaint L'ouverture Liberates Haiti
* ,49/01/30 ,  61 ,Colonel Johnson Eats the Love Apple
* ,49/02/06 ,  62 ,The Trial of John Peter Zenger
* ,49/02/13 ,  63 ,The Battle of Hastings
* ,49/02/20 ,  64 ,The Ordeal of Savonarola
* ,49/02/27 ,  65 ,The Impeachment of Andrew Johnson
* ,49/03/06 ,  66 ,The Rise of Alexander the Great - Peace Offer
* ,49/03/13 ,  67 ,The Rise of Alexander the Great - Battle for Asia
* ,49/03/20 ,  68 ,The Rise of Alexander the Great - Mutiny in India
* ,49/03/27 ,  69 ,The Okalahoma Land Run
* ,49/04/03 ,  70 ,Mary, Queen of Scots
* ,49/04/10 ,  71 ,Perry's Dash to the North Pole
* ,49/04/17 ,  72 ,Napoleon Returns from Elba
* ,49/04/24 ,  73 ,Caesar Is Assassinated
* ,49/05/01 ,  74 ,Montezuma and the Spaniards
* ,49/05/08 ,  75 ,The Trial of Samuel Chase
* ,49/05/15 ,  76 ,Lexington and Concord
* ,49/05/22 ,  77 ,Bombardment of Fort Sumter
* ,49/05/29 ,  78 ,The Siege of Leiden - Holland
* ,49/06/05 ,  79 ,The Capture of John Wilkes Booth
  ,49/06/12 ,  80 ,Caesar Crosses the Rubicon
* ,49/10/30 ,  81 ,The Trial of Burr
* ,49/11/27 ,  82 ,Tom Thumb
* ,49/12/25 ,  83 ,Charlemagne
* ,50/01/22 ,  84 ,New Amsterdam
* ,50/02/19 ,  85 ,Charge of the Light Brigade
* ,50/03/19 ,  86 ,Stamp Act Rebellion
* ,50/04/16 ,  87 ,Thermopolae
* ,50/05/14 ,  88 ,William Penn Trial
* ,50/06/11 ,  89 ,Women's Rights
  ,50/07/09 ,  90 ,Boston Tea Party
