Exists, Date, #, Episode Name
* ,52/xx/xx ,   1 ,From This Moment On
* ,52/xx/xx ,   2 ,S' Wonderful
* ,52/xx/xx ,   3 ,Smile Darn Ya, Smile
* ,52/xx/xx ,   5 ,Sweet Lorraine
* ,52/xx/xx ,   6 ,Giselle
* ,52/xx/xx ,   7 ,The Date Is Approximate (11)
* ,52/xx/xx ,   8 ,The Date Is Approximate (12)
* ,52/xx/xx ,   9 ,The Date Is Approximate (10)
* ,52/xx/xx ,  10 ,The Date Is Approximate (9)
* ,52/xx/xx ,  12 ,The Date Is Approximate (8)
* ,52/xx/xx ,  13 ,Basil Adlam and His Orchestra, Hy Averback (announcer), Gisele
* ,52/xx/xx ,  14 ,The Date Is Approximate (7)
* ,52/xx/xx ,  15 ,All Dressed up to Smile
* ,52/xx/xx ,  16 ,Three Little Words
* ,52/xx/xx ,  17 ,Basil Adlam and His Orchestra, Hy Averback (announcer), Jimmy
* ,52/xx/xx ,  17 ,The Date Is Approximate
* ,52/xx/xx ,  18 ,The Date Is Approximate (6)
* ,52/xx/xx ,  19 ,The Date Is Approximate (5)
* ,52/xx/xx ,  20 ,The Date Is Approximate (4)
* ,52/xx/xx ,  21 ,Thou Swell
* ,52/xx/xx ,  22 ,Half as Much
* ,52/xx/xx ,  25 ,The Date Is Approximate (3)
* ,52/xx/xx ,  26 ,The Date Is Approximate (2)
* ,xx/xx/xx ,   4 ,Mario Lanza, Ray Sinatra and His Orchestra (2)
* ,xx/xx/xx ,  11 ,Mario Lanza, Ray Sinatra and His Orchestra
* ,xx/xx/xx ,  11 ,Thine Alone
* ,xx/xx/xx ,  15 ,All Dressed up to Smile (2)
* ,xx/xx/xx ,  16 ,Three Little Words (2)
