Exists, Date, #, Episode Name
  ,35/04/20 ,     ,First Song - Here Comes Cookie
  ,35/04/27 ,     ,First Song - It's An Old Southern Custom
  ,35/05/04 ,     ,First Song - What's The Reason
  ,35/05/11 ,     ,First Song - You're A Heavenly Thing
  ,35/05/18 ,     ,First Song - The Lady In Red
  ,35/05/25 ,     ,First Song - Love And A Dime
  ,35/06/01 ,     ,First Song - What's The Reason
  ,35/06/08 ,     ,First Song - I'll Never Say Never Again
  ,35/06/15 ,     ,First Song - Footloose And Fancy Free
  ,35/06/22 ,     ,First Song - The Lady In Red
  ,35/06/29 ,     ,First Song - I'm Living In A Great Big Way
  ,35/07/06 ,     ,First Song - I'll Never Say Never Again
  ,35/07/13 ,     ,First Song - Get Rhythm In Your Feet
  ,35/07/20 ,     ,First Song - Every Little Moment
* ,35/07/27 ,     ,First Song - Lulu's Back In Town (#13)
  ,35/08/03 ,     ,First Song - Living In A Great Big Way
  ,35/08/10 ,     ,First Song - Lulu's Back In Town
  ,35/08/17 ,     ,First Song - Hooray For Love
  ,35/08/24 ,     ,First Song - That's What You Think
  ,35/08/31 ,     ,First Song - Truckin'
  ,35/09/07 ,     ,First Song - Top Hat
  ,35/09/14 ,     ,First Song - Medley Of Big Broadcast Tunes
  ,35/09/21 ,     ,First Song - Double Trouble
  ,35/09/28 ,     ,First Song - No Strings
  ,35/10/05 ,     ,First Song - Broadway Rhythm
  ,35/10/12 ,     ,First Song - Truckin'
  ,35/10/19 ,     ,First Song - Top Hat
  ,35/10/26 ,     ,First Song - From The Top Of Your Head
  ,35/11/02 ,     ,First Song - Truckin'
  ,35/11/09 ,     ,First Song - No Other One
  ,35/11/16 ,     ,First Song - Don't Give Up The Ship
  ,35/11/23 ,     ,First Song - Top Hat
  ,35/11/30 ,     ,First Song - No Other One
  ,35/12/07 ,     ,First Song - Truckin'
  ,35/12/14 ,     ,First Song - No Other One
  ,35/12/21 ,     ,First Song - Don't Give Up The Ship
  ,35/12/28 ,     ,First Song - Eenie, Meeny, Miney, Mo
  ,36/01/04 ,     ,First Song - No Other One (#11)
  ,36/01/11 ,     ,First Song - Eenie, Meeny, Miney, Mo (#10)
  ,36/01/18 ,     ,First Song - Eenie, Meeny, Miney, Mo (#11)
  ,36/01/25 ,     ,First Song - I Feel Like A Feather In The Breeze (#5)
  ,36/02/01 ,     ,First Song - Rhythm In My Nursery Rhymes (#10)
  ,36/02/08 ,     ,First Song - I'm Gonna Sit Right Down And Write Myself A Letter (#15)
  ,36/02/15 ,     ,First Song - Rhythm In My Nursery Rhymes (#15)
  ,36/02/22 ,     ,First Song - I'm Shootin' High (#5)
  ,36/02/29 ,     ,First Song - I Feel Like A Feather In The Breeze (#12)
  ,36/03/07 ,     ,First Song - I'm Gonna Sit Right Down And Write Myself A Letter (#2)
  ,36/03/11 ,     ,First Song - You Hit The Spot (#10)
  ,36/03/14 ,     ,First Song - I'm Gonna Sit Right Down And Write Myself A Letter (#6)
  ,36/03/18 ,     ,First Song - I'm Shootin' High (#7)
  ,36/03/21 ,     ,First Song - Goody, Goody (#2)
  ,36/03/25 ,     ,First Song - Wah Hoo (#9)
  ,36/03/28 ,     ,First Song - Let Yourself Go (#5)
  ,36/04/01 ,     ,First Song - Wah Hoo (#10)
  ,36/04/04 ,     ,First Song - I'm Shootin' High (#16)
  ,36/04/08 ,     ,First Song - Let Yourself Go (#3)
* ,36/04/11 ,     ,First Song - Let Yourself Go (#3)
  ,36/04/15 ,     ,First Song - Wah Hoo (#10)
  ,36/04/18 ,     ,First Song - Let Yourself Go (#4)
  ,36/04/22 ,     ,First Song - Let Yourself Go (#5)
  ,36/04/25 ,     ,First Song - It's Been So Long (#8)
  ,36/04/29 ,     ,First Song - Goody, Goody (#2)
  ,36/05/02 ,     ,First Song - Let Yourself Go (#9)
  ,36/05/06 ,     ,First Song - Let Yourself Go (#11)
  ,36/05/09 ,     ,First Song - Goody, Goody (#4)
  ,36/05/13 ,     ,First Song - It's You (#4)
  ,36/05/16 ,     ,First Song - You (#4)
  ,36/05/20 ,     ,First Song - Let Yourself Go (#14)
* ,36/05/23 ,     ,First Song - Let Yourself Go (#14)
* ,36/05/27 ,     ,First Song - Goody, Goody (#7)
  ,36/05/30 ,     ,First Song - Goody, Goody (#7)
  ,36/06/03 ,     ,First Song - Robins And Roses (#4)
  ,36/06/06 ,     ,First Song - Robins And Roses (#4)
  ,36/06/10 ,     ,First Song - You (#6)
  ,36/06/13 ,     ,First Song - You (#6)
  ,36/06/17 ,     ,First Song - You (#4)
  ,36/06/20 ,     ,First Song - You (#4)
  ,36/06/24 ,     ,First Song - You (#8)
  ,36/07/01 ,     ,First Song - You Can't Pull The Wool Over My Eyes (#10)
  ,36/07/04 ,     ,First Song - Is It True What They Say About Dixie (#2)
  ,36/07/08 ,     ,First Song - You Can't Pull The Wool Over My Eyes (#10)
  ,36/07/11 ,     ,First Song - The Glory Of Love (#7)
  ,36/07/15 ,     ,First Song - Is It True What They Say About Dixie (#4)
  ,36/07/18 ,     ,First Song - Is It True What They Say About Dixie (#4)
  ,36/07/22 ,     ,First Song - Is It True What They Say About Dixie (#5)
  ,36/07/25 ,     ,First Song - You Can Pull The Wool Over My Eyes (#4)
  ,36/07/29 ,     ,First Song - Is It True What They Say About Dixie (#7)
  ,36/08/01 ,     ,First Song - Is It True What They Say About Dixie (#7)
  ,36/08/05 ,     ,First Song - You Can't Pull The Wool Over My Eyes (#6)
  ,36/08/08 ,     ,First Song - The Glory Of Love (#4)
  ,36/08/12 ,     ,First Song - You Can't Pull The Wool Over My Eyes (#4)
  ,36/08/15 ,     ,First Song - You Can't Pull The Wool Over My Eyes (#4)
  ,36/08/19 ,     ,First Song - You Can't Pull The Wool Over My Eyes (#5)
  ,36/08/22 ,     ,First Song - The Glory Of Love (#9)
  ,36/08/26 ,     ,First Song - Bye Bye Baby (#12)
  ,36/08/29 ,     ,First Song - Bye Bye Baby (#12)
  ,36/09/02 ,     ,First Song - Bye Bye Baby (#10)
  ,36/09/06 ,     ,First Song - Bye Bye Baby (#10)
  ,36/09/09 ,     ,First Song - Bye Bye Baby (#5)
  ,36/09/12 ,     ,First Song - Bye Bye Baby (#5)
  ,36/09/16 ,     ,First Song - Sing Baby Sing (#8)
  ,36/09/19 ,     ,First Song - Bye Bye Baby (#7)
  ,36/09/23 ,     ,First Song - Sing Baby Sing (#7)
  ,36/09/27 ,     ,First Song - Sing Baby Sing (#7)
  ,36/09/30 ,     ,First Song - Bye Bye Baby (#6)
  ,36/10/03 ,     ,First Song - Sing Baby Sing (#7)
  ,36/10/04 ,     ,First Song - Sing Baby Sing (#5)
  ,36/10/07 ,     ,First Song - Bye Bye Baby (#7)
  ,36/10/10 ,     ,First Song - I'm An Old Cowhand (#12)
  ,36/10/17 ,     ,First Song - When A Lady Meets A Gentleman (#11)
* ,36/10/21 ,     ,First Song - Sing Baby Sing (#5)
* ,36/10/24 ,     ,First Song - When A Lady Meets A Gentleman (#11)
  ,36/10/28 ,     ,First Song - Sing Baby Sing (#4)
  ,36/11/04 ,     ,First Song - Sing Baby Sing (#6)
  ,36/11/07 ,     ,First Song - Me and The Moon (#9)
  ,36/11/11 ,     ,First Song - You Turned The Tables On Me (#8)
  ,36/11/14 ,     ,First Song - Sing Baby Sing (#14)
  ,36/11/18 ,     ,First Song - Me And The Moon (#12)
  ,36/11/21 ,     ,First Song - Who Loves You (#9)
  ,36/11/25 ,     ,First Song - You Turned The Tables On Me (#5)
  ,36/11/28 ,     ,First Song - It's De-Lovely (#7)
  ,36/12/02 ,     ,First Song - Did You Mean It (#5)
  ,36/12/06 ,     ,First Song - It's De-lovely (#6)
  ,36/12/09 ,     ,First Song - You Turned The Tables On Me (#9)
  ,36/12/12 ,     ,First Song - You Turned The Tables On Me (#5)
  ,36/12/16 ,     ,First Song - Organ Grinders Swing (#7)
  ,36/12/19 ,     ,First Song - It's De-Lovely (#5)
  ,36/12/23 ,     ,First Song - I'm In A Dancing Mood (#6)
  ,36/12/26 ,     ,First Song - I'm In A Dancing Mood (#6)
  ,36/12/30 ,     ,First Song - I'm In A Dancing Mood (#6)
  ,37/01/02 ,     ,First Song - I'm In A Dancing Mood (#6)
  ,37/01/06 ,     ,First Song - I'm In A Dancing Mood (#6)
  ,37/01/09 ,     ,First Song - I'm In A Dancing Mood (#6)
  ,37/01/13 ,     ,First Song - With Plenty Of Money And You (#5)
  ,37/01/16 ,     ,First Song - With Plenty Of Money And You (#5)
  ,37/01/20 ,     ,First Song - It's De-Lovely (#4)
  ,37/01/23 ,     ,Second Song - Goodnight My Love (#2)
  ,37/01/27 ,     ,Second Song - In The Chapel In The Moonlight (#3)
  ,37/01/30 ,     ,First Song - With Plenty Of Money And You (#4)
  ,37/03/03 ,     ,First Song - This Year's Kisses (#2)
  ,37/03/06 ,     ,First Song - This Year's Kisses (#2)
  ,37/03/10 ,     ,First Song - Good Night My Love (#2)
  ,37/03/13 ,     ,First Song - I've Got My Love To Keep Me Warm (#5)
  ,37/03/17 ,     ,First Song - Boo Hoo (#4)
  ,37/03/20 ,     ,First Song - Boo Hoo (#4)
  ,37/03/24 ,     ,First Song - I've Got My Love To Keep Me Warm (#4)
  ,37/03/27 ,     ,First Song - Boo Hoo (#2)
  ,37/03/31 ,     ,First Song - I've Got My Love To Keep Me Warm (#3)
  ,37/04/03 ,     ,First Song - I've Got My Love To Keep Me Warm (#3)
  ,37/04/07 ,     ,First Song - This Year's Kisses (#5)
  ,37/04/10 ,     ,First Song - Too Marvelous For Words (#9)
  ,37/04/14 ,     ,First Song - I've Got My Love To Keep Me Warm (#4)
  ,37/04/17 ,     ,First Song - This Year's Kisses (#7)
  ,37/04/21 ,     ,First Song - I've Got My Love To Keep Me Warm (#7)
  ,37/04/24 ,     ,First Song - Little Old Lady (#2)
  ,37/04/28 ,     ,First Song - The Love Bug Will Bite You (#9)
  ,37/05/01 ,     ,First Song - The Love Bug Will Bite You (#9)
  ,37/05/05 ,     ,First Song - How Could You (#10)
  ,37/05/08 ,     ,First Song - How Could You (#10)
  ,37/05/12 ,     ,First Song - Boo Hoo (#2)
  ,37/05/15 ,     ,First Song - Boo Hoo (#2)
  ,37/05/19 ,     ,First Song - The Love Bug Will Bite You (#7)
  ,37/05/22 ,     ,First Song - Boo Hoo (#4)
  ,37/05/26 ,     ,First Song - The Love Bug Will Bite You (#4)
  ,37/05/29 ,     ,First Song - The Love Bug Will Bite You (#4)
  ,37/06/02 ,     ,First Song - They Can't Take That Away (#9)
  ,37/06/05 ,     ,First Song - Let's Call The Whole Thing Off (#7)
  ,37/06/07 ,     ,
  ,37/06/09 ,     ,First Song - The Love Bug Will Bite You (#8)
  ,37/06/12 ,     ,First Song - The Love Bug Will Bite You (#8)
  ,37/06/16 ,     ,First Song - The Love Bug Will Bite You (#9)
  ,37/06/19 ,     ,First Song - Never In A Million Years (#3)
  ,37/06/23 ,     ,First Song - The Merry-Go-Round Broke Down (#3)
  ,37/06/26 ,     ,First Song - The Merry-Go-Round Broke Down (#3)
  ,37/06/30 ,     ,First Song - The Merry-Go-Round Broke Down (#3)
  ,37/07/03 ,     ,First Song - The Merry-Go-Round Broke Down (#3)
  ,37/07/07 ,     ,First Song - Never In A Million Years (#7)
  ,37/07/10 ,     ,First Song - The You And Me That Used To Be (#9)
  ,37/07/14 ,     ,First Song - The Merry-Go-Round Broke Down (#2)
  ,37/07/17 ,     ,First Song - The You And Me That Used To Be (#7)
  ,37/07/21 ,     ,First Song - The You And Me That Used To Be (#6)
  ,37/07/24 ,     ,First Song - Cause My Baby Says It's So (#10)
  ,37/07/28 ,     ,First Song - The You And Me That Used To Be (#10)
  ,37/07/31 ,     ,First Song - The You And Me That Used To Be (#10)
  ,37/08/04 ,     ,First Song - So Rare (#6)
  ,37/08/07 ,     ,First Song - The Merry-Go-Round Broke Down (#4)
  ,37/08/11 ,     ,First Song - A Sailboat In The Moonlight (#5)
  ,37/08/14 ,     ,First Song - The Merry-Go-Round Broke Down (#3)
  ,37/08/18 ,     ,First Song - So Rare (#5)
  ,37/08/21 ,     ,First Song - So Rare (#5)
  ,37/08/25 ,     ,First Song - The Merry-Go-Round Broke Down (#10)
  ,37/08/28 ,     ,First Song - So Rare (#2)
  ,37/09/01 ,     ,First Song - Have You Got Any Castles, Baby (#9)
  ,37/09/04 ,     ,First Song - Have You Got Any Castles, Baby (#9)
  ,37/09/08 ,     ,First Song - A Sailboat In The Moonlight (#70)
  ,37/09/11 ,     ,First Song - The First Time I Saw You (#6)
  ,37/09/15 ,     ,First Song - A Sailboat In the Moonlight (#7)
  ,37/09/19 ,     ,First Song - So Rare (#2)
  ,37/09/22 ,     ,First Song - The First Time I Saw You (#8)
  ,37/09/25 ,     ,First Song - Have You Got Any Castles, Baby (#5)
  ,37/09/29 ,     ,First Song - So Rare (#8)
  ,37/10/02 ,     ,First Song - Have You Got Any Castles, Baby (#4)
  ,37/10/06 ,     ,First Song - So Rare (#6)
  ,37/10/09 ,     ,First Song - Remember Me (#4)
  ,37/10/13 ,     ,First Song - You Can't Stop Me From Dreaming (#10)
  ,37/10/16 ,     ,First Song - Remember Me (#2)
  ,37/10/20 ,     ,First Song - Have You Got Any Castles, Baby (#2)
  ,37/10/23 ,     ,First Song - Remember Me (#5)
  ,37/10/27 ,     ,First Song - Have You Got Any Castles, Baby (#5)
  ,37/10/30 ,     ,First Song - You Can't Stop Me From Dreaming (#8)
  ,37/11/03 ,     ,First Song - You Can't Stop Me From Dreaming (#4)
  ,37/11/06 ,     ,First Song - Vieni, Vieni (#5)
  ,37/11/10 ,     ,First Song - Vieni, Vieni (#3)
  ,37/11/13 ,     ,First Song - Have You Got Any Castles, Baby (#7)
  ,37/11/15 ,     ,First Song - Vieni, Vieni (#3)
  ,37/11/17 ,     ,First Song - Remember Me (#4)
  ,37/11/20 ,     ,First Song - You Can't Stop Me From Dreaming (#2)
  ,37/11/24 ,     ,First Song - Vieni, Vieni (#2)
  ,37/11/27 ,     ,First Song - You Can't Stop Me From Dreaming (#3)
  ,37/12/01 ,     ,First Song - Nice Work If You Can Get It (#7)
  ,37/12/04 ,     ,First Song - Vieni, Vieni (#3)
  ,37/12/11 ,     ,First Song - Nice Work If You Can Get It (#5)
  ,37/12/18 ,     ,First Song - Rosalie (#6)
  ,37/12/26 ,     ,First Song - Vieni, Vieni (6)
  ,38/01/01 ,     ,First Song - Vieni, Vieni (#8)
  ,38/01/07 ,     ,
  ,38/01/15 ,     ,First Song _ Vieni, Vieni (#8)
  ,38/01/22 ,     ,First Song - Rosalie (#2)
  ,38/01/29 ,     ,First Song - Nice Work If You Can Get It (#9)
  ,38/02/05 ,     ,First Song - Mama, That Moon Is Hear Again (#9)
  ,38/02/12 ,     ,First Song - Rosalie (#6)
  ,38/02/19 ,     ,First Song - The Dipsy Doodle (#4)
  ,38/02/26 ,     ,First Song - The Dipsy Doodle (#3)
  ,38/03/06 ,     ,First Song - Bei Mir Bist Du Schoen (#9)
  ,38/03/12 ,     ,First Song - I Double Dare You (#3)
  ,38/03/19 ,     ,First Song - You're An Education (#9)
  ,38/03/25 ,     ,First Song - Heigh Ho (#6)
  ,38/04/02 ,     ,First Song - Heigh Ho (#10)
  ,38/04/09 ,     ,First Song - Whistle While You Work (#5)
  ,38/04/16 ,     ,First Song - You're An Education (#6)
  ,38/04/23 ,     ,First Song - You're An Education (#10)
  ,38/04/30 ,     ,First Song - Cry, Baby Cry (#6)
  ,38/05/07 ,     ,First Song - You're An Education (#5)
  ,38/05/14 ,     ,First Song - Cry, Baby Cry (#3)
  ,38/05/20 ,     ,First Song - Cry, Baby Cry (#4)
  ,38/05/21 ,     ,First Song - You're An Education (#8)
  ,38/06/04 ,     ,First Song - Don't Be That Way (#2)
  ,38/06/11 ,     ,First Song - You Could'nt Be Cuter (#10)
  ,38/06/18 ,     ,First Song - Don't Be That Way (#6)
  ,38/06/25 ,     ,First Song - Cry, Baby Cry (#6)
  ,38/07/02 ,     ,First Song - I Let A Song Go Out Of My Heart (#3)
  ,38/07/09 ,     ,First Song - I Married An Angel (#4)
  ,38/07/16 ,     ,First Song - Says My Heart (#2)
  ,38/07/23 ,     ,First Song - Flat Foot Floogy (#5)
  ,38/07/30 ,     ,First Song - I'm Gonna Lock My Heart (#9)
  ,38/08/08 ,     ,First Song - Flat Foot Floogy (#7)
  ,38/08/13 ,     ,First Song - I'm Gonna Lock My Heart (#7)
  ,38/08/20 ,     ,First Song - Says My Heart (#7)
  ,38/08/27 ,     ,First Song - What Goes On Here In My Heart (#7)
  ,38/09/03 ,     ,First Song - I've Got A Pocket Full Of Dreams (#7)
  ,38/09/10 ,     ,First Song - Alexander's Ragtime Band (#10)
  ,38/09/17 ,     ,First Song - I'm Gonna Lock My Heart (#5)
  ,38/09/24 ,     ,First Song - Alexander's Ragtime Band (#8)
  ,38/10/01 ,     ,First Song - A Tisket, A Tasket (#2)
  ,38/10/08 ,     ,First Song - Alexanders Ragtime Band (#9)
  ,38/10/15 ,     ,First Song - I've Got A Pocket Full Of Dreams (#2)
* ,38/10/22 ,     ,First Song - Stop Beating Round The Mulberry Bush (#2)
  ,38/10/29 ,     ,First Song - Stop Beating Round The Mulberry Bush (#4)
  ,38/11/05 , 132 ,First Song - Lambeth Walk (#5)
  ,38/11/12 , 133 ,First Song - I've Got A Pocket Full Of Dreams (#3)
  ,38/11/19 , 134 ,First Song - I've Got A Pocket Full Of Dreams (#7)
  ,38/11/26 , 135 ,First Song - The Lambeth Walk (#8)
  ,38/12/03 , 136 ,First Song - I've Got A Pocket Full Of Dreams (#9)
  ,38/12/10 , 137 ,First Song - The Lambeth Walk (#8)
  ,38/12/17 , 138 ,First Song - Sixty Seconds Got Together (#10)
  ,38/12/24 , 139 ,First Song - Jeepers Creepers (#7)
  ,38/12/31 , 140 ,First Song - I Won't Tell A Soul (#6)
  ,39/01/14 , 141 ,First Song - This Can't Be Love (#5)
  ,39/01/17 , 142 ,First Song - Jeepers Creepers (#9)
  ,39/01/21 , 143 ,First Song - FDR Jones (#9)
  ,39/01/28 , 144 ,First Song - Jeepers Creepers (#2)
  ,39/02/04 , 145 ,First Song - This Can't Be Love (#5)
  ,39/02/11 , 146 ,First Song - This Can't Be Love (#2)
  ,39/02/18 , 147 ,First Song - Annabelle (#10)
  ,39/02/25 , 148 ,First Song - Annabelle (#10)
  ,39/03/04 , 149 ,First Song - I Cried For You (#10)
  ,39/03/11 , 150 ,First Song - The Masquerade Is Over (#10)
  ,39/03/18 , 151 ,First Song - The Masquerade Is Over (#10)
  ,39/03/25 , 152 ,First Song - I Cried For You (#9)
  ,39/04/01 , 153 ,First Song - Heaven Can Wait (#9)
  ,39/04/08 , 154 ,First Song - The Moon Is A Silver Dollar (#10)
  ,39/04/15 , 155 ,First Song - I Want My Share Of Love (#10)
  ,39/04/22 , 156 ,First Song - The Moon Is A Silver Dollar (#10)
  ,39/04/29 , 157 ,First Song - I'm Building A Sailboat Of Dreams (#10)
  ,39/05/06 , 158 ,First Song - Don't Worry About Me (#10)
  ,39/05/13 , 159 ,First Song - Penny Serenade (#10)
  ,39/05/20 , 160 ,First Song - I Never Knew Heaven Could Speak (#10)
  ,39/05/27 , 161 ,First Song - I Never Knew Heaven Could Speak (#9)
  ,39/06/03 , 162 ,First Song - Little Skipper (#10)
  ,39/06/10 , 163 ,First Song - Little Sir Echo (#10)
  ,39/06/17 , 164 ,First Song - Strange Enchantment (#10)
  ,39/06/24 , 165 ,First Song - Stairway To The Stars (#10)
  ,39/07/01 , 166 ,First Song - Three Little Fishes (#10)
  ,39/07/08 , 168 ,First Song - Don't Worry About Me (#10)
  ,39/07/15 , 168 ,First Song - All I Remember Is You (#10)
  ,39/07/22 , 169 ,First Song - I Poured My Heart Into A Song (#10)
  ,39/07/29 , 170 ,First Song - This Is No Dream (#9)
  ,39/08/05 , 171 ,First Song - To You (#10)
  ,39/08/12 , 172 ,First Song - In The Middle Of A Dream (#10)
  ,39/08/19 , 173 ,First Song - Over The Rainbow (#10)
  ,39/08/26 , 174 ,First Song - The Man With The Mandolin (#10)
  ,39/09/02 , 175 ,First Song - White Sails (#10)
  ,39/09/09 , 176 ,First Song - Comes Love (#10)
  ,39/09/16 , 177 ,First Song - Beer Barrel Polka (#10)
  ,39/09/23 , 178 ,First Song - Go Fly A Kite (#10)
  ,39/09/30 , 179 ,First Song - The Lamp Is Low (#10)
  ,39/10/07 , 180 ,First Song - Moon Love (#10)
  ,39/10/14 , 181 ,First Song - An Apple For The Teacher (#10)
  ,39/10/21 , 182 ,First Song - Are You Having Any Fun (#10)
  ,39/10/28 , 183 ,First Song - Oh You Crazy Moon (#10)
  ,39/11/04 ,     ,First Song - Are You Having Any Fun? (#6)
  ,39/11/11 ,     ,First Song - The Man With The Mandolin (#7)
  ,39/11/18 ,     ,First Song - Are You Having Any Fun? (#8)
  ,39/11/25 ,     ,First Song - Are You Having Any Fun? (#10)
  ,39/12/02 , 188 ,First Song - Are You Having Any Fun? (#9)
  ,39/12/09 , 189 ,First Song - El Rancho Grande (#7)
  ,39/12/16 , 190 ,First Song - Goody Goodbye (#9)
  ,39/12/23 , 191 ,First Song - I Didn't Know What Time It Was (#8)
  ,39/12/30 , 192 ,First Song - Goody Goodbye (#10)
  ,40/01/06 , 193 ,First Song - I Didn't Know What Time It Was (#8)
  ,40/01/13 , 194 ,First Song - Lilacs In The Rain (#10)
  ,40/01/20 , 195 ,First Song - Stop, It's Wonderful (#10)
  ,40/01/27 , 196 ,First Song - South Of The Border (#7)
  ,40/02/03 , 197 ,First Song - South Of The Border (#10)
  ,40/02/10 , 198 ,First Song - In An Old Dutch Garden (#7)
  ,40/02/17 ,     ,First Song - Darn That Dream (#7)
  ,40/02/24 , 252 ,First Song - In An Old Dutch Garden (#7)
  ,40/03/02 , 253 ,First Song - I've Got My Eyes On You (#10)
  ,40/03/09 , 254 ,First Song - I've Got My Eyes On You (#6)
  ,40/03/16 , 255 ,First Song - Leaning On The Old Top Rail (#10)
  ,40/03/23 , 256 ,First Song - In An Old Dutch Garden (#6)
  ,40/03/30 , 257 ,First Song - I've Got My Eyes On You (#9)
  ,40/04/06 , 258 ,First Song - In An Old Dutch Garden (#5)
  ,40/04/16 , 259 ,First Song - The Singing Hills (#7)
  ,40/04/20 , 260 ,First Song - The Singing Hills (#9)
  ,40/04/27 , 261 ,First Song - Let There Be Love (#9)
  ,40/05/04 , 262 ,First Song - The Singing Hills - (#4)
  ,40/05/11 , 263 ,First Song - The Singing Hills (#5)
  ,40/05/18 , 264 ,First Song - Say It (#9)
  ,40/05/25 , 265 ,First Song - The Singing Hills (#8)
  ,40/06/01 , 266 ,First Song - When You Wish Upon A Star (#8)
  ,40/06/08 , 267 ,First Song - It's A Wonderful World (#8)
  ,40/06/15 , 268 ,First Song - The Singing Hills (#10)
  ,40/06/22 , 269 ,First Song - Say It (#4)
  ,40/06/29 , 270 ,First Song - I Can't Love You Anymore (#6)
  ,41/06/07 ,     ,
  ,41/06/14 ,     ,
  ,41/06/21 ,     ,
* ,41/06/28 ,     ,First Song - Goodbye Now
* ,41/07/05 ,     ,Song - Just A Little Bit South Of North Carolina
* ,41/07/12 ,     ,First Song - Amapola
  ,41/07/18 ,     ,
  ,41/07/26 ,     ,
  ,41/09/06 ,     ,
  ,41/09/13 ,     ,
* ,41/09/20 ,     ,First Song - Maria Elena
  ,41/09/27 ,     ,
  ,41/10/04 ,     ,
  ,41/10/11 ,     ,
  ,41/10/18 ,     ,
* ,41/10/25 ,     ,First Song - Yours
* ,41/11/01 ,     ,First Song - Do You Care
  ,41/11/08 ,     ,
* ,41/11/15 ,     ,Number One Song - Tonight We Love
  ,41/11/22 ,     ,
  ,41/11/29 ,     ,
* ,42/06/27 ,     ,First Song - Skylark
  ,42/07/11 ,     ,
* ,42/07/18 ,     ,First Song - Three Little Sisters (#09)
  ,42/07/25 ,     ,
* ,42/09/19 ,     ,First Song - Be Careful, It's My Heart
* ,42/10/03 ,     ,First Song - Take Me
* ,42/10/17 ,     ,First Song - I Left My Heart at the Stagedoor Canteen
* ,42/11/07 ,     ,First Tune - I've Got A Gal In Kalamazoo (#4)
* ,42/11/14 ,     ,One of the Commercials Has a Good Re-enactment of a Tobacco
* ,42/11/21 ,     ,First Tune - Dearly Beloved (#5)
* ,42/11/28 ,     ,Second Song - I've Got A Gal In Kalamazolo
* ,42/12/26 ,     ,Number One Song - White Christmas
* ,43/01/02 ,     ,First Song - Dearly Beloved
* ,43/01/09 ,     ,First Song  - Praise The Lord And Pass The Ammunition (#08)
  ,43/01/15 ,     ,
* ,43/01/23 ,     ,First Song - Why Don't You Fall In Love With Me (#04)
* ,43/03/27 ,     ,First Song - Taking A Chance On Love
  ,43/04/03 ,     ,
* ,43/04/10 ,     ,First Song - For Me And My Gal
  ,43/04/17 ,     ,
  ,43/04/24 ,     ,
* ,43/05/08 ,     ,First Song - There's A Harbor Of Dream Boats
  ,43/05/15 ,     ,
  ,43/05/22 ,     ,
* ,43/05/29 ,     ,First Song - Don't Get Around Much Anymore
* ,43/06/05 ,     ,First Song - Don't Get Around Much Anymore
  ,43/06/12 ,     ,
  ,43/06/18 ,     ,
  ,43/06/25 ,     ,
  ,43/07/03 ,     ,
  ,43/07/10 ,     ,
  ,43/07/17 ,     ,First Song - Let's Get Lost
* ,43/07/24 ,     ,Frank Sinatra, Joan Edwards, Mark Warnow and His Orchestra
  ,43/07/31 ,     ,
  ,43/08/07 ,     ,
  ,43/08/14 ,     ,
  ,43/08/21 ,     ,
* ,43/08/28 ,     ,First Song - I Heard You Cried Last Night (#08)
  ,43/09/04 ,     ,
  ,43/09/11 ,     ,
  ,43/09/18 ,     ,
* ,43/09/25 ,     ,First Song - All or Nothing at All
  ,43/10/02 ,     ,
* ,43/10/09 ,     ,First Song - Paper Doll (#04)
* ,43/10/16 ,     ,First Song - All Or Nothing At All (#07)
  ,43/10/23 ,     ,
  ,43/10/30 ,     ,
* ,43/11/06 ,     ,First Song - I Heard You Cried Last Night (#07)
* ,43/11/13 ,     ,First Song - Sunday Monday Or Always
  ,43/11/20 ,     ,
  ,43/11/27 ,     ,
* ,43/12/04 ,     ,First Song - Sunday, Monday Or Always (#07)
  ,43/12/11 ,     ,
  ,43/12/18 ,     ,
  ,43/12/25 ,     ,
  ,44/01/01 ,     ,
  ,44/01/08 ,     ,
* ,44/01/15 ,     ,First Song - People Will Say We're In Love
* ,44/01/22 ,     ,First Song - Paper Doll (#04)
* ,44/01/29 ,     ,First Song - Oh What A Beautiful Morining
  ,44/02/05 ,     ,
* ,44/02/12 ,     ,First Song - Speak Low (#08)
* ,44/02/19 ,     ,First Song - No Love No Nothing
  ,44/02/26 ,     ,
  ,44/03/02 ,     ,
  ,44/03/09 ,     ,
  ,44/03/16 ,     ,
  ,44/03/23 ,     ,
  ,44/04/01 ,     ,
* ,44/04/08 ,     ,First Song - I'll Get by
* ,44/04/15 ,     ,First Song - Do Nothing Until You Hear From Me
  ,44/04/22 ,     ,
  ,44/04/29 ,     ,
* ,44/05/06 ,     ,First Song - Poinciana (#09)
* ,44/05/13 ,     ,First Song - I'll Be Seeing You (#07)
* ,44/05/20 ,     ,First Song - I'll Be Seeing You (#07)
  ,44/05/26 ,     ,
* ,44/06/03 ,     ,First Song - Amor
* ,44/06/10 ,     ,First Song - San Fernando Valley (#04)
* ,44/06/17 ,     ,First Song - Amor (#05)
  ,44/06/24 ,     ,
  ,44/07/01 ,     ,
* ,44/07/08 ,     ,First Song - I'll Get By (#4)
* ,44/07/15 ,     ,First Song - Milkman Keep Those Bottles Quiet (#06)
* ,44/07/22 ,     ,First Song - Sweet Lorriane (#07)
* ,44/08/05 ,     ,First Song - Long Ago And Far Away
* ,44/08/19 ,     ,First Song - I'll Walk Alone (#07)
* ,44/08/26 ,     ,First Song - It Had To Be You (#06)
* ,44/09/02 ,     ,First Song - Is You Is Or Is You Ain't (#05)
* ,44/09/09 ,     ,First Song - It Had To Be You (#09)
* ,44/09/16 ,     ,First Song - Is You Is Or Is You Ain't
  ,44/09/23 ,     ,
* ,44/10/07 ,     ,First Song - Swinging On A Star
* ,44/10/14 ,     ,First Song - How Many Hearts Have You Broken?
  ,44/10/21 ,     ,
  ,44/10/28 ,     ,
* ,44/12/02 ,     ,First Song - Always
* ,44/12/09 ,     ,First Song - Let Me Love You Tonight
* ,44/12/16 ,     ,First Song - There Goes That Song Again
* ,44/12/23 ,     ,First Song - I Dream Of You (#07)
* ,44/12/30 ,     ,First Song - Always
  ,45/01/06 ,     ,
  ,45/01/13 ,     ,
* ,45/01/20 ,     ,First Song - I Dream Of You
* ,45/01/27 ,     ,First Song - Don't You Know I Care
* ,45/02/03 ,     ,First Song - Sweet Dreams Sweetheart
* ,45/02/10 ,     ,First Song - I Dream Of You (#04)
  ,45/02/17 ,     ,
  ,45/02/24 ,     ,
  ,45/03/03 ,     ,
* ,45/03/10 ,     ,First Song - Sleighride In July
  ,45/03/17 ,     ,
* ,45/03/24 ,     ,First Song - Sweet Dreams Sweetheart (#6)
  ,45/03/31 ,     ,
  ,45/04/07 ,     ,
* ,45/04/14 ,     ,First Song - My Dreams Are Getting Betting All the Time
  ,45/04/21 ,     ,
  ,45/04/28 ,     ,
* ,45/05/12 ,     ,First Song - Candy (#1)
  ,45/05/19 ,     ,
  ,45/05/27 ,     ,
* ,45/06/02 ,     ,First Tune - Laura (#1)
  ,45/06/09 ,     ,
  ,45/06/16 ,     ,
* ,45/06/23 ,     ,First Tune - Sentimental Journey (#1)
* ,45/06/30 ,     ,First Tune - Sentimental Journey (#1)
* ,45/07/07 ,     ,First Song - Sentimental Journey
* ,45/07/14 ,     ,First Song - Dream
* ,45/07/21 ,     ,First Song - You Belong To My Heart (#6)
  ,45/07/28 ,     ,
* ,45/08/04 ,     ,First Song - Sentimental Journey (#5)
  ,45/08/11 ,     ,
* ,45/08/18 ,     ,First Song -  On The Atchinson, Topeka And The Sante Fe (#5)
* ,45/09/01 ,     ,First Song - I Wish I Knew (#6)
  ,45/09/08 ,     ,
* ,45/09/15 ,     ,First Song - I'm Gonna Love That Guy (#7)
* ,45/09/22 ,     ,First Tune - Be This Or That (#7)
* ,45/09/29 ,     ,First Song - I'll Buy That Dream (#5)
* ,45/10/06 ,     ,First Song - Gotta Be This Or That (#4)
* ,45/10/13 ,     ,First Song - I'm Gonna Love That Guy (#6)
* ,45/10/20 ,     ,First Song - How Deep Is The Ocean (#8)
  ,45/10/28 ,     ,
  ,45/11/03 ,     ,First Tune - Along The Navajo Trail (#6)
* ,45/11/10 ,     ,First Song - It's Been a Long, Long, Time
* ,45/11/17 ,     ,First Song - On The Atchinson, Topeka and Santa Fe (#8)
* ,45/11/24 ,     ,First Song - Along The Navaho Trail (#6)
* ,45/12/01 ,     ,Joan Edwards, Dick Todd, Mark Warnow and His Orchestra
  ,45/12/08 ,     ,
* ,45/12/15 ,     ,A Composite Broadcast
  ,45/12/22 ,     ,
* ,45/12/29 ,     ,First Song - Just A Little Fond Affection (#07)
  ,46/01/05 ,     ,
  ,46/01/12 ,     ,
* ,46/01/19 ,     ,Joan Edwards, Dick Todd, Mark Warnow and His Orchestra
  ,46/01/26 ,     ,
  ,46/02/02 ,     ,
  ,46/02/09 ,     ,
* ,46/02/16 ,     ,First Song - Let It Snow (#06)
  ,46/02/23 ,     ,
  ,46/03/02 ,     ,
  ,46/03/09 ,     ,
* ,46/03/16 ,     ,First Song - Doctor, Lawyer, Indian Chief (#08)
* ,46/03/23 ,     ,First Song - Some Sunday Morning
  ,46/03/30 ,     ,
  ,46/04/06 ,     ,
  ,46/04/13 ,     ,
* ,46/04/20 ,     ,First  Song - Let It Snow
  ,46/04/27 ,     ,
  ,46/05/04 ,     ,
  ,46/05/11 ,     ,
  ,46/05/18 ,     ,
* ,46/05/25 ,     ,First Song - Shoo Fly Pie (#06)
  ,46/08/03 ,     ,
* ,46/08/10 ,     ,First Song - They Say It's Wonderful
  ,46/08/17 ,     ,
  ,46/08/24 ,     ,
  ,46/08/31 ,     ,
* ,46/09/07 ,     ,First Song - Five Minutes More
  ,46/09/14 ,     ,
* ,46/09/21 ,     ,First Song - I Don't Know Enough About You (#09)
  ,46/09/28 ,     ,
* ,46/10/05 ,     ,First Song - I Got The Sun In The Morning (#07)
  ,46/11/02 ,     ,
* ,46/11/09 ,     ,First Song - Rumors Are Flying
  ,46/11/16 ,     ,
  ,46/11/23 ,     ,
  ,46/11/30 ,     ,
  ,46/12/07 ,     ,
* ,46/12/14 ,     ,First Song - Old Buttermilk Sky
  ,46/12/21 ,     ,
  ,46/12/28 ,     ,
* ,47/01/25 ,     ,First Song - The Things We Did Last Summer (#09)
* ,47/01/xx ,     ,All Time Hit Parade Extras
* ,47/01/xx ,     ,All-time Hit Parade Extras
* ,47/02/08 ,     ,First Song - The Who Would Is Singing My Song (#08)
* ,47/02/15 ,     ,First Song - Old Buttermilk Sky (#08)
  ,47/02/22 ,     ,
* ,47/06/24 ,     ,First Song - I Wonder
* ,47/06/28 ,     ,First Song - My Adobe Hacienda (#04)
* ,47/07/19 ,     ,First Song - Peg O' My Heart
* ,47/11/13 ,     ,Italian Broadcast With Frank Sinatra
* ,47/12/06 ,     ,First Song - It Was Just One Of Those Things (extra)
  ,47/12/15 ,     ,
* ,47/12/18 ,     ,Using the Original Music, This Is a Rebroadcast by Radio Italiana
* ,48/01/17 ,     ,First Song - How Soon
  ,48/02/26 ,     ,First Tune - Sunflower (#10)
  ,48/03/05 ,     ,First Tune - I've Got My Love To Keep Me Warm (#5)
* ,48/03/20 ,     ,First Song - I'm Looking over a Four Leaf Clover
  ,48/03/27 ,     ,
* ,48/05/08 ,     ,First Song - Laroo, Laroo, Lilli Bolero (#06)
  ,48/05/15 ,     ,
* ,48/05/22 ,     ,First Song - Laroo, Laroo, Lilli Bolero
* ,48/05/29 ,     ,First Song - You Can't Be True Dear (#05)
* ,48/06/26 ,     ,First Song - Little White Lies (#06)
* ,48/07/03 ,     ,First Song - Now Is The Hour (#07)
* ,48/07/10 ,     ,First Song - Haunted Heart (#05)
  ,48/07/17 ,     ,
  ,48/07/24 ,     ,
* ,48/07/31 ,     ,First Song - Those Little White Lies (#06)
* ,48/08/07 ,     ,First Song - Just One Of Those Things (extra)
* ,48/08/14 ,     ,First Song - You Call Everybody Darling (#06)
  ,48/08/21 ,     ,
* ,48/09/11 ,     ,First Song - Hair Of Gold (#07)
  ,48/10/30 ,     ,First Tune - You Call Everyone Darling (#5)
  ,48/11/06 ,     ,First Tune - You Were Only Fooling (#6)
  ,48/11/13 ,     ,First Tune - You Were Only Fooling (#7)
  ,48/11/20 ,     ,First Tune - Everyday I Love You (#10)
* ,48/11/27 ,     ,First Song - You Call Everyone Darling (#9)
* ,48/12/04 ,     ,First Song - You Were Only Fooling (#4)
* ,48/12/11 ,     ,First Song - Hair Of Gold, Eyes Of Blue (#6)
* ,48/12/18 ,     ,First Song - Cuanto La Gusta (#6)
  ,48/12/25 ,     ,First Tune - Jingle Bells (extra)
  ,49/01/01 ,     ,First Tune - A Little Bird Told Me (#4)
  ,49/01/08 ,     ,First Tune - Cuanto Ls Gusta (#9)
  ,49/01/15 ,     ,First Tune - A Little Bird Told Me (#4)
* ,49/01/22 ,     ,First Song - Cuanto La Gusta (#8)
* ,49/01/29 ,     ,First Song - Powder Your Fact With Sunshine (#9)
* ,49/02/05 ,     ,First Song - I've Got My Love To Keep Me Warm (#9)
* ,49/02/12 ,     ,First Song - On A Slow Boat To China (#10)
  ,49/02/19 ,     ,First Tune - I've Got My Love To Keep Me Warm (#6)
  ,49/02/26 ,     ,First Tune - Sunflower (#10)
  ,49/03/05 ,     ,First Tune - I've Got My Love To Keep Me Warm (#5)
  ,49/03/12 ,     ,First Tune - Sunflower (#8)
* ,49/03/19 ,     ,First Song -I've Got My Love To Keep Me Warm (#7)
* ,49/03/26 ,     ,First Song - Sunflower (#7)
* ,49/04/02 ,     ,First Song - Someone Like You (#9)
* ,49/04/09 ,     ,First Song - Red Roses For A Blue Lady (#9)
  ,49/04/16 ,     ,
  ,49/04/23 ,     ,
* ,49/11/12 ,     ,First Song - Room Full of Roses
  ,49/11/19 ,     ,
* ,50/10/12 ,     ,First Tune - A Simple Melody (#1 is Good Night Irene)
* ,51/11/24 ,     ,First Song - Sin
  ,51/12/01 ,     ,
* ,51/12/08 ,     ,First Song - Sin
  ,51/12/15 ,     ,
  ,51/12/21 ,     ,
  ,51/12/28 ,     ,
  ,52/03/01 ,     ,
* ,52/03/08 ,     ,First Song - Shrimp Boats A'Comin' (#1 Is Cry)
  ,52/03/15 ,     ,
  ,52/03/21 ,     ,
* ,52/05/03 ,     ,First Song - Wheel of Fortune
  ,52/05/10 ,     ,
  ,52/05/17 ,     ,
  ,52/05/24 ,     ,
  ,52/05/31 ,     ,
  ,52/06/07 ,     ,
* ,52/06/14 ,     ,First Song - Kiss of Fire
  ,52/06/21 ,     ,
  ,52/06/28 ,     ,
* ,52/12/26 ,     ,First Tune - Why Don't You Fall In Love With Me (#1 Is White Christmas)
  ,55/04/23 ,     ,
* ,55/04/30 ,     ,First Song - The Ballad of Davy Crockett
* ,55/06/25 ,     ,First Tune - Somethings Gotta Give (#1 is Cherry Pink And Apple Blossom White )
* ,55/11/25 ,     ,First Tune - Love And Marriage (#1 Is Sixteen Tons)
  ,57/01/05 ,     ,
  ,57/01/12 ,     ,
* ,57/01/19 ,     ,First Song - Singin' the Blues
  ,57/01/26 ,     ,
* ,57/03/02 ,     ,First Song - Young Love
  ,57/03/09 ,     ,
  ,57/03/16 ,     ,
  ,57/03/23 ,     ,
  ,57/03/30 ,     ,
  ,57/04/06 ,     ,
  ,57/04/13 ,     ,
* ,57/04/20 ,     ,First Song - Round and Round
  ,57/04/27 ,     ,
* ,59/03/xx ,     ,First Song - Alvin's Harmonica
* ,xx/xx/xx ,     ,First Song - Amour
* ,xx/xx/xx ,     ,First Song - As Long As I Live
* ,xx/xx/xx ,     ,First Song - I've Got A Pocket Full Of Dreams
