Exists, Date, #, Episode Name
  ,30/01/01 ,     ,Terry Salomonson was the earliest researcher on this log
  ,30/01/02 ,     ,John Abbott has added to the research with his 3 volume "The Who is Johnny Dollar Matter?"
* ,48/12/07 ,   0 ,Milford Brooks III (Dick Powell Audition)
  ,49/01/14 ,   0 ,The Robert Perry Case (Charles Russell Audition)
* ,49/02/18 ,   1 ,The Parakoff Policy
* ,49/02/18 ,   1 ,The Parakoff Policy (alternate music)
* ,49/02/25 ,   2 ,The Slow Boat from China
* ,49/03/04 ,   3 ,The Robert Perry Case
* ,49/03/11 ,   4 ,Murder Is a Merry-Go-Round
* ,49/03/25 ,   5 ,Milford Brooks III Matter
* ,49/04/01 ,   6 ,The Stolen Portrait of The Duke of Massen
  ,49/04/08 ,   7 ,The Case of the Foxy Terrier (The Thespia Theatre Bonfire)
* ,49/04/15 ,   8 ,The Case of the Hundred Thousand Dollar Legs
* ,49/04/22 ,   9 ,The Case of Barton Drake
  ,49/07/17 ,  10 ,Here Comes the Death of the Party
* ,49/07/24 ,  11 ,Who Took the Taxis For a Ride
  ,49/07/31 ,  12 ,How Much Bourbon Can Flow Under the Bridgework
* ,49/08/07 ,  13 ,Murder Ain't Minor (The Case of Bonnie Goodwin)
  ,49/08/14 ,  14 ,Death Takes A Working Day (How Not To Take A Vacation In Fairfield County)
* ,49/08/21 ,  15 ,Out of the Fire Into the Frying Pan
  ,49/08/28 ,  16 ,How I Turned a Luxury Liner into A Battleship
* ,49/09/04 ,  17 ,The Expiring Nickels and the Egyptian Jackpot
* ,49/09/25 ,  18 ,The Search for Michelle Marsh
* ,49/10/01 ,  19 ,The Fishing Boat Affair
* ,49/10/08 ,  20 ,The Racehorse Piledriver Matter
* ,49/10/15 ,  21 ,Dr Otto Schmedlich
* ,49/10/22 ,  22 ,Witness, Witness, Who's Got the Witness
* ,49/10/29 ,  23 ,The Little Man Who Wasn't All There
* ,49/11/05 ,  24 ,The Island of Tin-Yutan (The South Sea Adventure; Mother Call My Draftboard; I'm Leaving the Country Again)
* ,49/11/12 ,  25 ,The Melanie Carter Matter (Who'd Like to Rock the Old Doll to Sleep)
* ,49/11/26 ,  26 ,The Skull Canyon Mine
* ,49/12/03 ,  27 ,Bodyguard to Anne Connelly
* ,49/12/10 ,  28 ,The Circus Animal Show Matter
* ,49/12/17 ,  29 ,Haiti Adventure Matter
* ,49/12/24 ,  30 ,The Department Store Swindle Matter (How I Played Santa Claus and Almost Got Left Holding the Bag)
  ,49/12/31 ,  31 ,The Diamond Protector Matter (You Lead a Diamond, Mother, and the Game Will Really Get Started)
  ,50/01/07 ,  32 ,The Firebug Hunter Matter (Press out My Asbestos Dinner Jacket, Mother, I'm Going to the Smoke Eater's Ball)
  ,50/01/14 ,  33 ,The Missing Chinese Stripper Matter
* ,50/02/03 ,  34 ,Death Takes a Working Day (The Loyal B Martin Matter)
* ,50/02/10 ,  35 ,The S.S. Malay Trader Ship
* ,50/02/17 ,  36 ,The Gravedigger's Spades (Mr & Mrs Arbuthnel Trump)
* ,50/02/24 ,  37 ,The Archeologist (The Disappearance of Bruce Lambert)
* ,50/03/03 ,  38 ,Bodyguard to the Late Robert W Perry
* ,50/03/07 ,  39 ,Alec Jefferson, The Youthful Millionaire (Rebel Wildcatters, How I Got a Wildcat Oil Operation by the Tail)
* ,50/03/14 ,  40 ,The Eighty-Five Little Minks
* ,50/03/21 ,  41 ,The Man Who Wrote Himself to Death (Stuart Palmer, Writer)(Unedited Drama Portions)
* ,50/03/28 ,  42 ,The Village Scene (The Missing Masterpiece)
* ,50/04/04 ,  43 ,The Story of the Big Red Schoolhouse (Unedited Drama Portions)
* ,50/04/11 ,  44 ,The Dead First-Helpers
* ,50/04/18 ,  45 ,The Story of the Ten-O-Eight (Unedited Drama Portions)
* ,50/04/25 ,  46 ,Pearl Carrasa
* ,50/05/02 ,  47 ,The Able Tackitt Matter (Unedited Drama Portions)
* ,50/05/09 ,  48 ,The Harold Trandem Matter
* ,50/05/16 ,  49 ,The Sidney Rykoff Matter (Unedited Drama Portions)
* ,50/05/23 ,  50 ,The Earl Chadwick Matter
* ,50/05/30 ,  51 ,The Port-au-Prince Matter
* ,50/06/08 ,  52 ,The Caligio Diamond Matter
* ,50/06/15 ,  53 ,The Arrowcraft Matter
* ,50/06/22 ,  54 ,The London Matter
* ,50/06/29 ,  55 ,The Barbara James Matter
* ,50/07/06 ,  56 ,The Belo-Horizonte Railroad
* ,50/07/13 ,  57 ,The Calgary Matter
* ,50/07/20 ,  58 ,The Henry J Unger Matter
  ,50/07/27 ,  59 ,The Tell-All Book Matter
* ,50/08/03 ,  60 ,The Blood River Matter
* ,50/08/10 ,  61 ,The Hartford Alliance Matter
* ,50/08/17 ,  62 ,The Mickey McQueen Matter
* ,50/08/22 ,  63 ,The Trans-Pacific Export Matter (Rehearsal)
* ,50/08/24 ,  63 ,The Trans-Pacific Export Matter
* ,50/08/31 ,  64 ,The Virginia Beach Matter
* ,50/09/30 ,  65 ,The Howard Caldwell Matter
* ,50/10/07 ,  66 ,The Richard Splain Matter
* ,50/10/14 ,  67 ,The Yankee Pride Matter
* ,50/10/21 ,  68 ,The Jack Madigan Matter
* ,50/10/28 ,  69 ,The Joan Sebastian Matter
* ,50/11/04 ,  70 ,The Queen Anne Pistols Matter
* ,50/11/11 ,  71 ,The Adam Kegg Matter
* ,50/11/18 ,  72 ,The Nora Falkner Matter
* ,50/11/25 ,  73 ,The Woodward Manila Matter
  ,50/12/09 ,   0 ,Pre-empted {was to be The Jackie Cleaver Matter, broadcast 51-03-31}
* ,50/12/15 ,  74 ,The Leland Blackburn Matter (Rehearsal)
* ,50/12/16 ,  74 ,The Leland Blackburn Matter
  ,50/12/23 ,  75 ,The Montevideo Matter
  ,50/12/30 ,  76 ,The Rudy Valentine Matter
  ,51/01/06 ,  77 ,The Adolph Schoman Matter
* ,51/01/13 ,  78 ,The Port-O-Call Matter
* ,51/01/20 ,  79 ,The David Rockey Matter
  ,51/01/27 ,  80 ,The Weldon Bragg Matter
  ,51/02/03 ,  81 ,The Monopoly Matter
  ,51/02/10 ,  82 ,The Lloyd Hammerly Matter
  ,51/02/17 ,  83 ,The Vivian Fair Matter
* ,51/02/24 ,  84 ,The Jarvis Wilder Matter
* ,51/03/03 ,  85 ,The Celia Woodstock Matter
* ,51/03/10 ,  86 ,The Stanley Springs Matter
  ,51/03/17 ,  87 ,The Emil Lovett Matter
* ,51/03/24 ,  88 ,The Byron Hayes Matter
* ,51/03/31 ,  89 ,The Jackie Cleaver Matter (recorded 50/12/09)
* ,51/04/07 ,  90 ,The Edward French Matter
* ,51/04/14 ,  91 ,The Mickey McQueen Matter
* ,51/04/21 ,  92 ,The Willard South Matter
* ,51/04/28 ,  93 ,The Month-End Raid Matter
* ,51/05/05 ,  94 ,The Virginia Towne Matter
* ,51/05/05 ,  94 ,The Virginia Towne Matter (Unedited Drama Portions)(recorded 51-04-25)
  ,51/05/12 ,  95 ,The Marie Meadows Matter
* ,51/05/19 ,  96 ,The Jane Doe Matter
* ,51/05/26 ,  97 ,The Lillis Bond Matter (Unedited Drama Portions)(recorded 51-05-17)
* ,51/06/02 ,  98 ,The Soderbury, Maine, Matter (Unedited Drama Portions)(recorded 51-05-24)
* ,51/06/09 ,  99 ,The George Farmer Matter
* ,51/06/16 , 100 ,The Arthur Boldrick Matter
* ,51/06/20 , 101 ,The Malcolm Wish, M.D. Matter
* ,51/06/27 , 102 ,The Hatchet House Theft Matter
* ,51/07/04 , 103 ,The Alonzo Chapman Matter
* ,51/07/11 , 104 ,The Fair-Way Matter
* ,51/07/18 , 105 ,The Neal Breer Matter
  ,51/07/25 , 106 ,The Blind Item Matter
* ,51/08/01 , 107 ,The Horace Lockhart Matter
  ,51/08/08 , 108 ,The Morgan Fry Matter
* ,51/08/15 , 109 ,The Lucky Costa Matter
* ,51/08/22 , 110 ,The Cumberland Theft Matter
* ,51/08/29 , 111 ,The Leland Case Matter (Unedited Drama Portions)(recorded 51-08-22)
  ,51/09/12 , 112 ,The Rum Barrel Matter
* ,51/09/19 , 113 ,The Cuban Jewel Matter
* ,51/09/26 , 114 ,The Protection Matter
* ,51/10/06 , 115 ,The Douglas Taylor Matter
* ,51/10/13 , 116 ,The Millard Ward Matter
  ,51/10/20 , 117 ,The Janet Abbe Matter
* ,51/10/27 , 118 ,The Tolhurst Theft Matter
* ,51/11/03 , 119 ,The Hannibal Murphy Matter
* ,51/11/10 , 120 ,The Birdy Baskerville Matter
* ,51/11/17 , 121 ,The Merrill Kent Matter
* ,51/12/08 , 122 ,The Youngstown Credit Group Matter
  ,51/12/15 , 123 ,The Paul Barberis Matter
* ,51/12/22 , 124 ,The Maynard Collins Matter
* ,51/12/29 , 125 ,The Alma Scott Matter
* ,52/01/05 , 126 ,The Glen English Matter
  ,52/01/12 , 127 ,The Baxter Matter
* ,52/07/02 , 128 ,The Amelia Harwell Matter
  ,52/07/09 , 129 ,The Yankee Pride Matter
  ,52/07/16 , 130 ,The Henry Page Matter
  ,52/07/23 , 131 ,The Montevideo Matter
  ,52/07/30 , 132 ,The New Bedford Morgue Matter
  ,52/08/06 , 133 ,The Sidney Mann Matter
  ,52/08/13 , 134 ,The Tom Hickman Matter
  ,52/08/20 , 135 ,The Edith Maxwell Matter
  ,52/08/27 , 136 ,The Yankee Pride Matter (repeat of 129)
  ,52/09/03 , 137 ,The Montevideo Matter (repeat of 131)
* ,52/11/24 ,   0 ,The Trans-Pacific Matter Part A (John Lund Audition)
* ,52/11/28 ,   0 ,The Trans-Pacific Matter Part B (John Lund Audition)
  ,52/11/28 , 138 ,The Singapore Arson Matter
* ,52/12/05 , 139 ,The James Clayton Matter
* ,52/12/12 , 140 ,The Elliott Champion Matter
  ,52/12/19 , 141 ,The New Cambridge Matter
* ,52/12/26 , 142 ,The Walter Patterson Matter
* ,53/01/02 , 143 ,The Baltimore Matter
* ,53/01/09 , 144 ,The Thelma Ibsen Matter
* ,53/01/16 , 145 ,The Starlet Matter
* ,53/01/23 , 146 ,The Marigold Matter
* ,53/01/30 , 147 ,The Kay Bellamy Matter
* ,53/02/06 , 148 ,The Chicago Fraud Matter
  ,53/02/13 , 149 ,The Lancer Jewelry Matter
* ,53/02/20 , 150 ,The Latourette Matter
* ,53/02/27 , 151 ,The Underwood Matter
* ,53/03/06 , 152 ,The Jeanne Maxwell Matter
  ,53/03/10 , 153 ,The Birdy Baskerville Matter
* ,53/03/17 , 154 ,The King's Necklace Matter [AFRTS]
* ,53/03/17 , 154 ,The King's Necklace Matter [Network]
* ,53/03/24 , 155 ,The Syndicate Matter
* ,53/03/31 , 156 ,The Lester James Matter
* ,53/04/07 , 157 ,The Enoch Arden Matter
* ,53/04/14 , 158 ,The Madison Matter
* ,53/04/21 , 159 ,The Dameron Matter [AFRTS]
* ,53/04/21 , 159 ,The Dameron Matter [Network]
* ,53/04/28 , 160 ,The San Antonio Matter [Network]
* ,53/04/28 , 160 ,The San Antonio Matter [Network]
* ,53/04/29 , 160 ,The San Antonio Matter [AFRTS]
* ,53/05/05 , 161 ,The Blackmail Matter
* ,53/05/12 , 162 ,The Rochester Theft Matter [Network]
* ,53/05/12 , 162 ,The Rochester Theft Matter [Network]
* ,53/05/13 , 162 ,The Rochester Theft Matter [AFRTS]
* ,53/05/19 , 163 ,The Emily Braddock Matter
* ,53/05/26 , 164 ,The Brisbane Fraud Matter [AFRTS]
* ,53/06/02 , 165 ,The Costain Matter [AFRTS]
* ,53/06/09 , 166 ,The Oklahoma Red Matter [AFRTS]
* ,53/06/16 , 167 ,The Emil Carter Matter
* ,53/06/23 , 168 ,The Jonathan Bellows Matter [AFRTS]
* ,53/06/30 , 169 ,The Jones Matter
  ,53/07/07 , 170 ,The Bishop Blackmail Matter
* ,53/07/14 , 171 ,The Shayne Bombing Matter
* ,53/07/21 , 172 ,The Black Doll Matter [AFRTS]
* ,53/07/28 , 173 ,The James Forbes Matter
* ,53/08/04 , 174 ,The Voodoo Matter
* ,53/08/11 , 175 ,The Nancy Shaw Matter
* ,53/08/18 , 176 ,The Isabel James Matter (The Kimball Matter)
* ,53/08/25 , 177 ,The Nelson Matter
* ,53/09/01 , 178 ,The Stanley Price Matter
* ,53/09/08 , 179 ,The Lester Matson Matter [AFRTS]
  ,53/09/15 , 180 ,The Oscar Clark Matter
* ,53/09/22 , 181 ,The William Post Matter
* ,53/09/29 , 182 ,The Amita Buddha Matter
* ,53/10/06 , 183 ,The Alfred Chambers Matter
* ,53/10/13 , 184 ,The Phillip Morey Matter
* ,53/10/20 , 185 ,The Allen Saxton Matter
* ,53/10/27 , 186 ,The Howard Arnold Matter
* ,53/11/03 , 187 ,The Gino Gambona Matter [AFRTS]
* ,53/11/10 , 188 ,The Bobby Foster Matter [AFRTS]
* ,53/11/17 , 189 ,The Nathan Gayles Matter [AFRTS]
* ,53/11/24 , 190 ,The Independent Diamond Traders' Matter
* ,53/12/01 , 191 ,The Monopoly Matter
* ,53/12/08 , 192 ,The Barton Baker Matter [AFRTS]
* ,53/12/15 , 193 ,The Milk and Honey Matter [AFRTS]
  ,53/12/22 , 194 ,The Rudy Valentine Matter
* ,53/12/29 , 195 ,The Ben Bryson Matter [AFRTS]
* ,54/01/05 , 196 ,The Fairway Matter [AFRTS]
* ,54/01/12 , 197 ,The Celia Woodstock Matter [AFRTS]
  ,54/01/19 , 198 ,The Draminski Matter
* ,54/01/26 , 199 ,The Beauregard Matter [AFRTS]
* ,54/02/02 , 200 ,The Paul Gorrell Matter [AFRTS]
* ,54/02/09 , 201 ,The Harpooned Angler Matter [AFRTS]
* ,54/02/16 , 202 ,The Uncut Canary Matter [AFRTS]
* ,54/02/23 , 203 ,The Classified Killer Matter [AFRTS]
* ,54/03/02 , 204 ,The Road-Test Matter [AFRTS]
* ,54/03/09 , 205 ,The Terrified Taun Matter
* ,54/03/16 , 206 ,The Berlin Matter [AFRTS]
* ,54/03/23 , 207 ,The Piney Corners Matter [AFRTS]
  ,54/03/30 , 208 ,The Undried Fiddle Back Matter
* ,54/04/06 , 209 ,The Sulphur and Brimstone Matter
* ,54/04/13 , 210 ,The Magnolia and Honeysuckle Matter [AFRTS]
* ,54/04/20 , 211 ,The Nathan Swing Matter [AFRTS]
* ,54/04/27 , 212 ,The Frustrated Phoenix Matter [AFRTS]
* ,54/05/04 , 213 ,The Dan Frank Matter [AFRTS]
  ,54/05/11 , 214 ,The Aromatic Cicatrix Matter
* ,54/05/18 , 215 ,The Bilked Baroness Matter
* ,54/05/25 , 216 ,The Punctilious Firebug Matter
* ,54/06/01 , 217 ,The Temperamental Tote Board Matter
* ,54/06/08 , 218 ,The Sara Dearing Matter [AFRTS]
* ,54/06/15 , 219 ,The Paterson Transport Matter [AFRTS]
  ,54/06/22 , 220 ,The Arthur Boldrick Matter
* ,54/06/29 , 221 ,The Woodward Manila Matter [AFRTS]
* ,54/07/06 , 222 ,The Jan Brueghel Matter (The Flowering Judas Matter) [AFRTS]
* ,54/07/13 , 223 ,The Carboniferous Dolomite Matter [AFRTS]
* ,54/07/20 , 224 ,The Jeanne Maxwell Matter [FEN-AFRTS]
* ,54/07/27 , 225 ,The Radioactive Gold Matter
* ,54/08/03 , 226 ,The Hampton Line Matter [AFRTS]
  ,54/08/10 , 227 ,The Sarah Martin Matter
  ,54/09/05 , 228 ,The Hamilton Payroll Matter
  ,54/09/12 , 229 ,The Great Bannock Race Matter
  ,54/09/19 , 230 ,The Upjohn Matter
* ,55/08/29 ,   0 ,The Trans-Pacific Matter Parts 1 & 2 (Gerald Mohr Audition)
* ,55/08/29 ,   0 ,The Trans-Pacific Matter Parts 1 (Gerald Mohr Audition)
* ,55/08/29 ,   0 ,The Trans-Pacific Matter Parts 2 (Gerald Mohr Audition)
* ,55/10/03 , 231 ,The Macormack Matter - Ep 1
* ,55/10/04 , 232 ,The Macormack Matter - Ep 2
* ,55/10/05 , 233 ,The Macormack Matter - Ep 3
* ,55/10/06 , 234 ,The Macormack Matter - Ep 4
* ,55/10/07 , 235 ,The Macormack Matter - Ep 5
* ,55/10/10 , 236 ,The Molly K Matter - Ep 1
* ,55/10/11 , 237 ,The Molly K Matter - Ep 2
* ,55/10/12 , 238 ,The Molly K Matter - Ep 3
* ,55/10/13 , 239 ,The Molly K Matter - Ep 4
* ,55/10/14 , 240 ,The Molly K Matter - Ep 5
* ,55/10/17 , 241 ,The Chesapeake Fraud Matter - Ep 1
* ,55/10/18 , 242 ,The Chesapeake Fraud Matter - Ep 2
* ,55/10/19 , 243 ,The Chesapeake Fraud Matter - Ep 3
* ,55/10/20 , 244 ,The Chesapeake Fraud Matter - Ep 4
* ,55/10/21 , 245 ,The Chesapeake Fraud Matter - Ep 5
* ,55/10/24 , 246 ,The Alvin Summers Matter - Ep 1
* ,55/10/25 , 247 ,The Alvin Summers Matter - Ep 2
* ,55/10/26 , 248 ,The Alvin Summers Matter - Ep 3
* ,55/10/27 , 249 ,The Alvin Summers Matter - Ep 4
* ,55/10/28 , 250 ,The Alvin Summers Matter - Ep 5
* ,55/10/31 , 251 ,The Valentine Matter - Ep 1
* ,55/11/01 , 252 ,The Valentine Matter - Ep 2
* ,55/11/02 , 253 ,The Valentine Matter - Ep 3
* ,55/11/03 , 254 ,The Valentine Matter - Ep 4
* ,55/11/04 , 255 ,The Valentine Matter - Ep 5
* ,55/11/07 , 256 ,The Lorko Diamonds Matter - Ep 1
* ,55/11/08 , 257 ,The Lorko Diamonds Matter - Ep 2
* ,55/11/09 , 258 ,The Lorko Diamonds Matter - Ep 3
* ,55/11/10 , 259 ,The Lorko Diamonds Matter - Ep 4
* ,55/11/11 , 260 ,The Lorko Diamonds Matter - Ep 5
* ,55/11/14 , 261 ,The Broderick Matter - Ep 1
* ,55/11/15 , 262 ,The Broderick Matter - Ep 2
* ,55/11/16 , 263 ,The Broderick Matter - Ep 3
* ,55/11/17 , 264 ,The Broderick Matter - Ep 4
* ,55/11/18 , 265 ,The Broderick Matter - Ep 5
* ,55/11/21 , 266 ,The Amy Bradshaw Matter - Ep 1
* ,55/11/22 , 267 ,The Amy Bradshaw Matter - Ep 2
* ,55/11/23 , 268 ,The Amy Bradshaw Matter - Ep 3
* ,55/11/24 , 269 ,The Amy Bradshaw Matter - Ep 4
* ,55/11/25 , 270 ,The Amy Bradshaw Matter - Ep 5
* ,55/11/28 , 271 ,The Henderson Matter - Ep 1
* ,55/11/29 , 272 ,The Henderson Matter - Ep 2
* ,55/11/30 , 273 ,The Henderson Matter - Ep 3
* ,55/12/01 , 274 ,The Henderson Matter - Ep 4
* ,55/12/02 , 275 ,The Henderson Matter - Ep 5
* ,55/12/05 , 276 ,The Cronin Matter - Ep 1
* ,55/12/06 , 277 ,The Cronin Matter - Ep 2
* ,55/12/07 , 278 ,The Cronin Matter - Ep 3
* ,55/12/08 , 279 ,The Cronin Matter - Ep 4
* ,55/12/09 , 280 ,The Cronin Matter - Ep 5
* ,55/12/12 , 281 ,The Lansing Fraud Matter - Ep 1
* ,55/12/13 , 282 ,The Lansing Fraud Matter - Ep 2
* ,55/12/14 , 283 ,The Lansing Fraud Matter - Ep 3
* ,55/12/15 , 284 ,The Lansing Fraud Matter - Ep 4
* ,55/12/16 , 285 ,The Lansing Fraud Matter - Ep 5
* ,55/12/19 , 286 ,The Nick Shurn Matter - Ep 1
* ,55/12/20 , 287 ,The Nick Shurn Matter - Ep 2
* ,55/12/21 , 288 ,The Nick Shurn Matter - Ep 3
* ,55/12/22 , 289 ,The Nick Shurn Matter - Ep 4
* ,55/12/23 , 290 ,The Nick Shurn Matter - Ep 5
* ,55/12/26 , 291 ,The Forbes Matter - Ep 1
* ,55/12/27 , 292 ,The Forbes Matter - Ep 2
* ,55/12/28 , 293 ,The Forbes Matter - Ep 3
* ,55/12/29 , 294 ,The Forbes Matter - Ep 4
* ,55/12/30 , 295 ,The Forbes Matter - Ep 5
* ,56/01/02 , 296 ,The Caylin Matter - Ep 1
* ,56/01/03 , 297 ,The Caylin Matter - Ep 2
* ,56/01/04 , 298 ,The Caylin Matter - Ep 3
* ,56/01/05 , 299 ,The Caylin Matter - Ep 4
* ,56/01/06 , 300 ,The Caylin Matter - Ep 5
* ,56/01/09 , 301 ,The Todd Matter - Ep 1
* ,56/01/10 , 302 ,The Todd Matter - Ep 2
* ,56/01/11 , 303 ,The Todd Matter - Ep 3
* ,56/01/12 , 304 ,The Todd Matter - Ep 4
* ,56/01/13 , 305 ,The Todd Matter - Ep 5
* ,56/01/16 , 306 ,The Ricardo Amerigo Matter - Ep 1
* ,56/01/17 , 307 ,The Ricardo Amerigo Matter - Ep 2
* ,56/01/18 , 308 ,The Ricardo Amerigo Matter - Ep 3
* ,56/01/19 , 309 ,The Ricardo Amerigo Matter - Ep 4
* ,56/01/20 , 310 ,The Ricardo Amerigo Matter - Ep 5
* ,56/01/23 , 311 ,The Duke Red Matter - Ep 1
* ,56/01/24 , 312 ,The Duke Red Matter - Ep 2
* ,56/01/25 , 313 ,The Duke Red Matter - Ep 3
* ,56/01/26 , 314 ,The Duke Red Matter - Ep 4
* ,56/01/27 , 315 ,The Duke Red Matter - Ep 5
* ,56/01/30 , 316 ,The Flight Six Matter - Ep 1
* ,56/01/31 , 317 ,The Flight Six Matter - Ep 2
* ,56/02/01 , 318 ,The Flight Six Matter - Ep 3
* ,56/02/02 , 319 ,The Flight Six Matter - Ep 4
* ,56/02/03 , 320 ,The Flight Six Matter - Ep 5
* ,56/02/06 , 321 ,The McClain Matter - Ep 1
* ,56/02/07 , 322 ,The McClain Matter - Ep 2
  ,56/02/08 , 323 ,The McClain Matter - Ep 3
* ,56/02/09 , 324 ,The McClain Matter - Ep 4
* ,56/02/10 , 325 ,The McClain Matter - Ep 5
* ,56/02/13 , 326 ,The Cui Bono Matter - Ep 1
* ,56/02/14 , 327 ,The Cui Bono Matter - Ep 2
* ,56/02/15 , 328 ,The Cui Bono Matter - Ep 3
* ,56/02/16 , 329 ,The Cui Bono Matter - Ep 4
* ,56/02/17 , 330 ,The Cui Bono Matter - Ep 5
* ,56/02/20 , 331 ,The Bennet Matter - Ep 1
* ,56/02/21 , 332 ,The Bennet Matter - Ep 2
* ,56/02/22 , 333 ,The Bennet Matter - Ep 3
* ,56/02/23 , 334 ,The Bennet Matter - Ep 4
* ,56/02/24 , 335 ,The Bennet Matter - Ep 5
* ,56/02/27 , 336 ,The Fathom-Five Matter - Ep 1
* ,56/02/28 , 337 ,The Fathom-Five Matter - Ep 2
* ,56/02/29 , 338 ,The Fathom-Five Matter - Ep 3
* ,56/03/01 , 339 ,The Fathom-Five Matter - Ep 4
* ,56/03/02 , 340 ,The Fathom-Five Matter - Ep 5
* ,56/03/05 , 341 ,The Plantagent Matter - Ep 1
* ,56/03/06 , 342 ,The Plantagent Matter - Ep 2
* ,56/03/07 , 343 ,The Plantagent Matter - Ep 3
* ,56/03/08 , 344 ,The Plantagent Matter - Ep 4
* ,56/03/09 , 345 ,The Plantagent Matter - Ep 5
* ,56/03/12 , 346 ,The Clinton Matter - Ep 1
* ,56/03/13 , 347 ,The Clinton Matter - Ep 2
* ,56/03/14 , 348 ,The Clinton Matter - Ep 3
* ,56/03/15 , 349 ,The Clinton Matter - Ep 4
* ,56/03/16 , 350 ,The Clinton Matter - Ep 5
* ,56/03/19 , 351 ,The Jolly Roger Fraud Matter - Ep 1
* ,56/03/20 , 352 ,The Jolly Roger Fraud Matter - Ep 2
* ,56/03/21 , 353 ,The Jolly Roger Fraud Matter - Ep 3
* ,56/03/22 , 354 ,The Jolly Roger Fraud Matter - Ep 4
* ,56/03/23 , 355 ,The Jolly Roger Fraud Matter - Ep 5
* ,56/03/26 , 356 ,The LaMarr Matter - Ep 1
* ,56/03/27 , 357 ,The LaMarr Matter - Ep 2
* ,56/03/28 , 358 ,The LaMarr Matter - Ep 3
* ,56/03/29 , 359 ,The LaMarr Matter - Ep 4
* ,56/03/30 , 360 ,The LaMarr Matter - Ep 5
* ,56/04/02 , 361 ,The Salt City Matter - Ep 1
  ,56/04/03 , 362 ,The Salt City Matter - Ep 2
* ,56/04/04 , 363 ,The Salt City Matter - Ep 3
* ,56/04/05 , 364 ,The Salt City Matter - Ep 4
* ,56/04/06 , 365 ,The Salt City Matter - Ep 5
* ,56/04/09 , 366 ,The Laird Douglas Douglas of Heatherscote Matter - Ep 1
* ,56/04/10 , 367 ,The Laird Douglas Douglas of Heatherscote Matter - Ep 2
* ,56/04/11 , 368 ,The Laird Douglas Douglas of Heatherscote Matter - Ep 3
* ,56/04/12 , 369 ,The Laird Douglas Douglas of Heatherscote Matter - Ep 4
* ,56/04/13 , 370 ,The Laird Douglas Douglas of Heatherscote Matter - Ep 5
* ,56/04/16 , 371 ,The Shepherd Matter - Ep 1
* ,56/04/17 , 372 ,The Shepherd Matter - Ep 2
* ,56/04/18 , 373 ,The Shepherd Matter - Ep 3
* ,56/04/19 , 374 ,The Shepherd Matter - Ep 4
* ,56/04/20 , 375 ,The Shepherd Matter - Ep 5
* ,56/04/23 , 376 ,The Lonely Hearts Matter - Ep 1
* ,56/04/24 , 377 ,The Lonely Hearts Matter - Ep 2
* ,56/04/25 , 378 ,The Lonely Hearts Matter - Ep 3
  ,56/04/26 , 379 ,The Lonely Hearts Matter - Ep 4
* ,56/04/27 , 380 ,The Lonely Hearts Matter - Ep 5
* ,56/04/30 , 381 ,The Callicles Matter - Ep 1
* ,56/05/01 , 382 ,The Callicles Matter - Ep 2
* ,56/05/02 , 383 ,The Callicles Matter - Ep 3
* ,56/05/03 , 384 ,The Callicles Matter - Ep 4
* ,56/05/04 , 385 ,The Callicles Matter - Ep 5
* ,56/05/07 , 386 ,The Silver Blue Matter - Ep 1
* ,56/05/08 , 387 ,The Silver Blue Matter - Ep 2
* ,56/05/09 , 388 ,The Silver Blue Matter - Ep 3
* ,56/05/10 , 389 ,The Silver Blue Matter - Ep 4
* ,56/05/11 , 390 ,The Silver Blue Matter - Ep 5
* ,56/05/14 , 391 ,The Matter of the Medium, Well Done - Ep 1
* ,56/05/15 , 392 ,The Matter of the Medium, Well Done - Ep 2
* ,56/05/16 , 393 ,The Matter of the Medium, Well Done - Ep 3
* ,56/05/17 , 394 ,The Matter of the Medium, Well Done - Ep 4
* ,56/05/18 , 395 ,The Matter of the Medium, Well Done - Ep 5
* ,56/05/21 , 396 ,The Tears of Night Matter - Ep 1
* ,56/05/22 , 397 ,The Tears of Night Matter - Ep 2
* ,56/05/23 , 398 ,The Tears of Night Matter - Ep 3
* ,56/05/24 , 399 ,The Tears of Night Matter - Ep 4
* ,56/05/25 , 400 ,The Tears of Night Matter - Ep 5
* ,56/05/28 , 401 ,The Matter of Reasonable Doubt - Ep 1
* ,56/05/29 , 402 ,The Matter of Reasonable Doubt - Ep 2
* ,56/05/30 , 403 ,The Matter of Reasonable Doubt - Ep 3
* ,56/05/31 , 404 ,The Matter of Reasonable Doubt - Ep 4
* ,56/06/01 , 405 ,The Matter of Reasonable Doubt - Ep 5
* ,56/06/04 , 406 ,The Indestructible Mike Matter - Ep 1
* ,56/06/05 , 407 ,The Indestructible Mike Matter - Ep 2
* ,56/06/06 , 408 ,The Indestructible Mike Matter - Ep 3
* ,56/06/07 , 409 ,The Indestructible Mike Matter - Ep 4
* ,56/06/08 , 410 ,The Indestructible Mike Matter - Ep 5
* ,56/06/11 , 411 ,The Laughing Matter - Ep 1
* ,56/06/12 , 412 ,The Laughing Matter - Ep 2
* ,56/06/13 , 413 ,The Laughing Matter - Ep 3
* ,56/06/14 , 414 ,The Laughing Matter - Ep 4
* ,56/06/15 , 415 ,The Laughing Matter - Ep 5
* ,56/06/18 , 416 ,The Pearling Matter - Ep 1
* ,56/06/19 , 417 ,The Pearling Matter - Ep 2
* ,56/06/20 , 418 ,The Pearling Matter - Ep 3
* ,56/06/21 , 419 ,The Pearling Matter - Ep 4
* ,56/06/22 , 420 ,The Pearling Matter - Ep 5
* ,56/06/25 , 421 ,The Long Shot Matter - Ep 1
* ,56/06/26 , 422 ,The Long Shot Matter - Ep 2
* ,56/06/27 , 423 ,The Long Shot Matter - Ep 3
* ,56/06/28 , 424 ,The Long Shot Matter - Ep 4
* ,56/06/29 , 425 ,The Long Shot Matter - Ep 5
* ,56/07/02 , 426 ,The Midas Touch Matter - Ep 1
* ,56/07/03 , 427 ,The Midas Touch Matter - Ep 2
* ,56/07/04 , 428 ,The Midas Touch Matter - Ep 3
* ,56/07/05 , 429 ,The Midas Touch Matter - Ep 4
* ,56/07/06 , 430 ,The Midas Touch Matter - Ep 5
* ,56/07/09 , 431 ,The Shady Lane Matter - Ep 1
* ,56/07/10 , 432 ,The Shady Lane Matter - Ep 2
* ,56/07/11 , 433 ,The Shady Lane Matter - Ep 3
* ,56/07/12 , 434 ,The Shady Lane Matter - Ep 4
* ,56/07/13 , 435 ,The Shady Lane Matter - Ep 5
* ,56/07/16 , 436 ,The Star of Capetown Matter - Ep 1
* ,56/07/17 , 437 ,The Star of Capetown Matter - Ep 2
* ,56/07/18 , 438 ,The Star of Capetown Matter - Ep 3
* ,56/07/19 , 439 ,The Star of Capetown Matter - Ep 4
* ,56/07/20 , 440 ,The Star of Capetown Matter - Ep 5
* ,56/07/23 , 441 ,The Open Town Matter - Ep 1
* ,56/07/24 , 442 ,The Open Town Matter - Ep 2
* ,56/07/25 , 443 ,The Open Town Matter - Ep 3
* ,56/07/26 , 444 ,The Open Town Matter - Ep 4
* ,56/07/27 , 445 ,The Open Town Matter - Ep 5
* ,56/07/30 , 446 ,The Sea Legs Matter - Ep 1
* ,56/07/31 , 447 ,The Sea Legs Matter - Ep 2
* ,56/08/01 , 448 ,The Sea Legs Matter - Ep 3
* ,56/08/02 , 449 ,The Sea Legs Matter - Ep 4
* ,56/08/03 , 450 ,The Sea Legs Matter - Ep 5
* ,56/08/06 , 451 ,The Alder Matter - Ep 1
* ,56/08/07 , 452 ,The Alder Matter - Ep 2
* ,56/08/08 , 453 ,The Alder Matter - Ep 3
* ,56/08/09 , 454 ,The Alder Matter - Ep 4
* ,56/08/10 , 455 ,The Alder Matter - Ep 5
* ,56/08/13 , 456 ,The Crystal Lake Matter - Ep 1
* ,56/08/14 , 457 ,The Crystal Lake Matter - Ep 2
* ,56/08/15 , 458 ,The Crystal Lake Matter - Ep 3
* ,56/08/16 , 459 ,The Crystal Lake Matter - Ep 4
  ,56/08/17 ,   0 ,Pre-empted by the Soap Box Derby
* ,56/08/17 , 460 ,The Crystal Lake Matter - Ep 5
* ,56/08/24 , 461 ,The Kranesburg Matter - Ep 1 (1st of 6)
* ,56/08/27 , 462 ,The Kranesburg Matter - Ep 1-A (according to script) (2nd of 6)
* ,56/08/28 , 463 ,The Kranesburg Matter - Ep 2 (3rd of 6)
* ,56/08/29 , 464 ,The Kranesburg Matter - Ep 3 (4th of 6)
* ,56/08/30 , 465 ,The Kranesburg Matter - Ep 4 (5th of 6)
* ,56/08/31 , 466 ,The Kranesburg Matter - Ep 5 (6th of 6)
* ,56/09/03 , 467 ,The Curse of Kamashek Matter - Ep 1
* ,56/09/04 , 468 ,The Curse of Kamashek Matter - Ep 2
* ,56/09/05 , 469 ,The Curse of Kamashek Matter - Ep 3
* ,56/09/06 , 470 ,The Curse of Kamashek Matter - Ep 4
* ,56/09/07 , 471 ,The Curse of Kamashek Matter - Ep 5
* ,56/09/10 , 472 ,The Confidential Matter - Ep 1
* ,56/09/11 , 473 ,The Confidential Matter - Ep 2
* ,56/09/12 , 474 ,The Confidential Matter - Ep 3
* ,56/09/13 , 475 ,The Confidential Matter - Ep 4
* ,56/09/14 , 476 ,The Confidential Matter - Ep 5
* ,56/09/17 , 477 ,The Imperfect Alibi Matter - Ep 1
  ,56/09/18 , 478 ,The Imperfect Alibi Matter - Ep 2
* ,56/09/19 , 479 ,The Imperfect Alibi Matter - Ep 3
* ,56/09/20 , 480 ,The Imperfect Alibi Matter - Ep 4
* ,56/09/21 , 481 ,The Imperfect Alibi Matter - Ep 5
* ,56/09/24 , 482 ,The Meg's Palace Matter - Ep 1
* ,56/09/25 , 483 ,The Meg's Palace Matter - Ep 2
* ,56/09/26 , 484 ,The Meg's Palace Matter - Ep 3
* ,56/09/27 , 485 ,The Meg's Palace Matter - Ep 4
* ,56/09/28 , 486 ,The Meg's Palace Matter - Ep 5
* ,56/10/01 , 487 ,The Picture Postcard Matter - Ep 1
* ,56/10/02 , 488 ,The Picture Postcard Matter - Ep 2
* ,56/10/03 , 489 ,The Picture Postcard Matter - Ep 3
* ,56/10/04 , 490 ,The Picture Postcard Matter - Ep 4
* ,56/10/05 , 491 ,The Picture Postcard Matter - Ep 5
* ,56/10/08 , 492 ,The Primrose Matter - Ep 1
* ,56/10/09 , 493 ,The Primrose Matter - Ep 2
* ,56/10/10 , 494 ,The Primrose Matter - Ep 3
* ,56/10/11 , 495 ,The Primrose Matter - Ep 4
* ,56/10/12 , 496 ,The Primrose Matter - Ep 5
* ,56/10/15 , 497 ,The Phantom Chase Matter - Ep 1 (1st of 9)
* ,56/10/16 , 498 ,The Phantom Chase Matter - Ep 2 (2nd of 9)
* ,56/10/17 , 499 ,The Phantom Chase Matter - Ep 3 (3rd of 9)
* ,56/10/18 , 500 ,The Phantom Chase Matter - Ep 4 (4th of 9)
* ,56/10/19 , 501 ,The Phantom Chase Matter - Ep 5 (5th of 9)
* ,56/10/22 , 502 ,The Phantom Chase Matter - Ep 6 (6th of 9)
  ,56/10/23 ,   0 ,Pre-empted
* ,56/10/24 , 503 ,The Phantom Chase Matter - Ep 8 (no script #7 produced) (7th of 9)
* ,56/10/25 , 504 ,The Phantom Chase Matter - Ep 9 (8th of 9)
* ,56/10/26 , 505 ,The Phantom Chase Matter - Ep 10 (9th of 9)
* ,56/10/29 , 506 ,The Silent Queen Matter - Ep 1
* ,56/10/30 , 507 ,The Silent Queen Matter - Ep 2
* ,56/10/31 , 508 ,The Silent Queen Matter - Ep 3
* ,56/11/01 , 509 ,The Silent Queen Matter - Ep 4
* ,56/11/02 , 510 ,The Silent Queen Matter - Ep 5
* ,56/11/11 , 511 ,The Big Scoop Matter
* ,56/11/18 , 512 ,The Markham Matter
* ,56/11/25 , 513 ,The Royal Street Matter
  ,56/12/02 ,   0 ,Pre-empted by the Jack Benny Christmas Show
* ,56/12/09 , 514 ,The Burning Carr Matter
* ,56/12/16 , 515 ,The Rasmussen Matter
* ,56/12/23 , 516 ,The Missing Mouse Matter
* ,56/12/30 , 517 ,The Squared Circle Matter
* ,57/01/06 , 518 ,The Ellen Dear Matter [AFRTS]
* ,57/01/13 , 519 ,The Desalles Matter [AFRTS]
* ,57/01/20 , 520 ,The Blooming Blossom Matter
* ,57/01/27 , 521 ,The Mad Hatter Matter [AFRTS]
* ,57/02/03 , 522 ,The Kirbey Will Matter
* ,57/02/10 , 523 ,The Templeton Matter [AFRTS]
  ,57/02/17 , 524 ,The Golden Touch Matter
* ,57/03/03 , 525 ,The Meek Memorial Matter [AFRTS]
* ,57/03/10 , 526 ,The Suntan Oil Matter [AFRTS]
* ,57/03/17 , 527 ,The Clever Chemist Matter [AFRTS]
  ,57/03/24 , 528 ,The Hollywood Matter
  ,57/03/31 , 529 ,The Moonshine Murder Matter
* ,57/04/14 , 530 ,The Ming Toy Murphy Matter
  ,57/04/21 , 531 ,The Marley K Matter
* ,57/04/28 , 532 ,The Melancholy Memory Matter
* ,57/05/05 , 533 ,The Peerless Fire Matter
  ,57/05/12 , 534 ,The Glacier Ghost Matter
* ,57/05/19 , 535 ,The Michael Meany Mirage Matter [AFRTS]
* ,57/05/26 , 536 ,The Wayward Truck Matter [AFRTS]
* ,57/06/02 , 537 ,The Loss of Memory Matter
* ,57/06/09 , 538 ,The Mason-Dixon Mismatch Matter [AFRTS]
* ,57/06/16 , 539 ,The Dixon Murder Matter [AFRTS]
* ,57/06/23 , 540 ,The Parley Barron Matter [AFRTS]
* ,57/06/30 , 541 ,The Funny Money Matter [AFRTS]
* ,57/07/07 , 542 ,The Felicity Feline Matter
* ,57/07/14 , 543 ,The Heatherstone Players Matter
* ,57/07/21 , 544 ,The Yours Truly Matter
* ,57/07/28 , 545 ,The Confederate Coinage Matter [AFRTS]
* ,57/08/04 , 546 ,The Wayward Widow Matter [AFRTS]
* ,57/08/11 , 547 ,The Killer's Brand Matter
  ,57/08/18 , 548 ,The Winnipesaukee Wonder Matter
* ,57/08/25 , 549 ,The Smoky Sleeper Matter
* ,57/09/01 , 550 ,The Poor Little Rich Girl Matter [AFRTS]
* ,57/09/08 , 551 ,The Charmona Matter
* ,57/09/15 , 552 ,The J. P. D. Matter
* ,57/09/22 , 553 ,The Ideal Vacation Matter [AFRTS]
* ,57/09/29 , 554 ,The Doubtful Dairy Matter [AFRTS]
* ,57/10/06 , 555 ,The Bum Steer Matter [AFRTS]
* ,57/10/13 , 556 ,The Silver Belle Matter [AFRTS]
* ,57/10/20 , 557 ,The Mary Grace Matter [AFRTS]
* ,57/10/27 , 558 ,The Three Sisters Matter [AFRTS]
* ,57/11/03 , 559 ,The Model Picture Matter
* ,57/11/10 , 560 ,The Alkali Mike Matter
* ,57/11/17 , 561 ,The Shy Beneficiary Matter [AFRTS]
* ,57/11/24 , 562 ,The Hope to Die Matter
* ,57/12/01 , 563 ,The Sunny Dream Matter [AFRTS]
* ,57/12/08 , 564 ,The Hapless Hunter Matter [AFRTS]
* ,57/12/15 , 565 ,The Happy Family Matter [AFRTS]
* ,57/12/22 , 566 ,The Carmen Kringle Matter
* ,57/12/29 , 567 ,The Latin Lovely Matter
* ,58/01/05 , 568 ,The Ingenuous Jeweler Matter [AFRTS]
* ,58/01/12 , 569 ,The Boron 112 Matter
* ,58/01/19 , 570 ,The Eleven O'Clock Matter [AFRTS]
  ,58/01/26 , 571 ,The Fire in Paradise Matter [AFRTS]
* ,58/02/02 , 572 ,The Price of Fame Matter [AFRTS]
* ,58/02/09 , 573 ,The Sick Chick Matter
* ,58/02/16 , 574 ,The Time and Tide Matter [AFRTS]
* ,58/02/23 , 575 ,The Durango Laramie Matter [AFRTS]
* ,58/03/02 , 576 ,The Diamond Dilemma Matter [AFRTS]
* ,58/03/09 , 577 ,The Wayward Moth Matter [AFRTS]
* ,58/03/16 , 578 ,The Salkoff Sequel Matter [AFRTS]
* ,58/03/23 , 579 ,The Denver Disbursal Matter [AFRTS]
* ,58/03/30 , 580 ,The Killer's List Matter [AFRTS]
* ,58/04/06 , 581 ,The Eastern-Western Matter [AFRTS]
* ,58/04/13 , 582 ,The Wayward Money Matter [AFRTS]
* ,58/04/20 , 583 ,The Wayward Trout Matter [AFRTS]
* ,58/04/27 , 584 ,The Village of Virtue Matter [AFRTS]
* ,58/05/04 , 585 ,The Carson Arson Matter [AFRTS]
* ,58/05/11 , 586 ,The Rolling Stone Matter [AFRTS]
* ,58/05/18 , 587 ,The Ghost to Ghost Matter [AFRTS]
* ,58/05/25 , 588 ,The Midnite Sun Matter [AFRTS]
  ,58/06/01 , 589 ,The Froward Fisherman Matter
* ,58/06/08 , 590 ,The Wayward River Matter [AFRTS]
* ,58/06/15 , 591 ,The Delectable Damsel Matter
* ,58/06/22 , 592 ,The Virtuous Mobster Matter [AFRTS]
* ,58/06/29 , 593 ,The Ugly Pattern Matter [AFRTS]
* ,58/07/06 , 594 ,The Blinker Matter [AFRTS]
* ,58/07/13 , 595 ,The Mohave Red Matter [AFRTS]
* ,58/07/20 , 596 ,The Mohave Red Sequel Matter [AFRTS]
* ,58/07/27 , 597 ,The Wayward Killer Matter [AFRTS]
* ,58/08/03 , 598 ,The Lucky 4 Matter
* ,58/08/10 , 599 ,The Two Faced Matter
* ,58/08/24 , 600 ,The Noxious Needle Matter
  ,58/08/31 , 601 ,The Limping Liability Matter
* ,58/09/07 , 602 ,The Malibu Mystery Matter [AFRTS]
* ,58/09/14 , 603 ,The Wayward Diamonds Matter [AFRTS]
* ,58/09/21 , 604 ,The Johnson Payroll Matter [AFRTS]
* ,58/09/21 , 604 ,The Johnson Payroll Matter [Network]
* ,58/09/28 , 605 ,The Gruesome Spectacle Matter [AFRTS]
  ,58/10/05 , 606 ,The Missing Matter Matter
  ,58/10/12 , 607 ,The Impossible Murder Matter
  ,58/10/19 , 608 ,The Monoxide Mystery Matter
  ,58/10/26 , 609 ,The Basking Ridge Matter
  ,58/11/02 , 610 ,The Crater Lake Matter
  ,58/11/09 , 611 ,The Close Shave Matter
* ,58/11/16 , 612 ,The Double Trouble Matter [AFRTS]
  ,58/11/23 , 613 ,The One Most Wanted Matter
* ,58/11/30 , 614 ,The Hair Raising Matter
  ,58/12/07 , 615 ,The Perilous Parley Matter  {script says 12-21-58}
  ,58/12/14 , 616 ,The Allanmee Matter
  ,58/12/28 , 617 ,The Telltale Tracks Matter
* ,59/01/04 , 618 ,The Hollywood Mystery Matter
* ,59/01/11 , 619 ,The Deadly Doubt Matter
  ,59/01/18 , 620 ,The Love Shorn Matter
* ,59/01/25 , 621 ,The Doting Dowager Matter
  ,59/02/01 , 622 ,The Curley Waters Matter
* ,59/02/08 , 623 ,The Date with Death Matter [AFRTS]
* ,59/02/15 , 624 ,The Shankar Diamond Matter [AFRTS]
* ,59/02/22 , 625 ,The Blue Madonna Matter [AFRTS]
  ,59/03/01 , 626 ,The Clouded Crystal Matter
* ,59/03/08 , 627 ,The Net of Circumstance Matter [AFRTS]
* ,59/03/15 , 628 ,The Baldero Matter
* ,59/03/22 , 629 ,The Lake Mead Mystery Matter
* ,59/03/29 , 630 ,The Jimmy Carter Matter
* ,59/04/05 , 631 ,The Frisco Fire Matter
* ,59/04/12 , 632 ,The Fairweather Friend Matter
* ,59/04/19 , 633 ,The Cautious Celibate Matter
* ,59/04/26 , 634 ,The Winsome Widow Matter
  ,59/05/03 , 635 ,The Negligent Nephew Matter
* ,59/05/10 , 636 ,The Fatal Filet Matter
* ,59/05/17 , 637 ,The Twin Trouble Matter
* ,59/05/24 , 638 ,The Casque of Death Matter [AFRTS]
* ,59/05/31 , 639 ,The Big H Matter
* ,59/06/07 , 640 ,The Wayward Heiress Matter
* ,59/06/14 , 641 ,The Wayward Sculptor Matter
* ,59/06/21 , 642 ,The Life at Stake Matter
* ,59/06/28 , 643 ,The Mei-Ling Buddah Matter
* ,59/07/05 , 644 ,The Only One Butt Matter
* ,59/07/12 , 645 ,The Frantic Fisherman Matter
* ,59/07/19 , 646 ,The Will and A Way Matter
* ,59/07/26 , 647 ,The Bolt Out of the Blue Matter
* ,59/08/02 , 648 ,The Deadly Chain Matter
* ,59/08/09 , 649 ,The Lost by a Hair Matter
* ,59/08/16 , 650 ,The Night in Paris Matter [AFRTS]
* ,59/08/23 , 651 ,The Embarcadero Matter
* ,59/08/30 , 652 ,The Really Gone Matter
* ,59/09/06 , 653 ,The Backfire That Backfired Matter
* ,59/09/13 , 654 ,The Leumas Matter
* ,59/09/20 , 655 ,The Little Man Who Was There Matter [AFRTS]
  ,59/09/27 , 656 ,The Gruesome Spectacle Matter
* ,59/10/04 , 657 ,The Buffalo Matter
* ,59/10/11 , 658 ,The Further Buffalo Matter
* ,59/10/18 , 659 ,The Missing Missile Matter          {numbering change}
* ,59/10/25 , 660 ,The Double Identity Matter          {numbering change}
* ,59/11/01 , 661 ,The Hand of Providential Matter
* ,59/11/08 , 662 ,The Larson Arson Matter
* ,59/11/15 , 663 ,The Bayou Body Matter
* ,59/11/22 , 664 ,The Fancy Bridgework Matter
* ,59/11/29 , 665 ,The Wrong Man Matter [AFRTS]
* ,59/12/06 , 666 ,The Hired Homicide Matter
* ,59/12/13 , 667 ,The Sudden Wealth Matter
* ,59/12/20 , 668 ,The Red Mystery Matter
* ,59/12/27 , 669 ,The Burning Desire Matter
* ,60/01/03 , 670 ,The Hapless Ham Matter
* ,60/01/10 , 671 ,The Unholy Two Matter
* ,60/01/17 , 672 ,The Evaporated Clue Matter
* ,60/01/24 , 673 ,The Nuclear Goof Matter
* ,60/01/31 , 674 ,The Merry-Go-Round Matter
* ,60/02/07 , 675 ,The Sidewinder Matter
* ,60/02/14 , 676 ,The P.O. Matter
* ,60/02/21 , 677 ,The Alvin's Alfred Matter
* ,60/02/28 , 678 ,The Look Before the Leap Matter
* ,60/03/06 , 679 ,The Moonshine Matter
* ,60/03/13 , 680 ,The Deep Down Matter
* ,60/03/20 , 681 ,The Saturday Night Matter
* ,60/03/27 , 682 ,The False Alarm Matter
* ,60/04/03 , 683 ,The Double Exposure Matter
  ,60/04/10 ,   0 ,Pre-empted by Masters Golf Tournament
* ,60/04/17 , 684 ,The Deadly Swamp Matter
* ,60/04/24 , 685 ,The Silver Queen Matter [AFRTS]
* ,60/05/01 , 686 ,The Fatal Switch Matter
* ,60/05/08 , 687 ,The Phony Phone Matter
* ,60/05/15 , 688 ,The Mystery Gal Matter
* ,60/05/22 , 689 ,The Man Who Waits Matter
* ,60/05/29 , 690 ,The Redrock Matter
* ,60/06/05 , 691 ,The Canned Canary Matter
* ,60/06/12 , 692 ,The Harried Heiress Matter
* ,60/06/19 , 693 ,The Flask of Death Matter
* ,60/06/26 , 694 ,The Wholly Unexpected Matter [AFRTS]
* ,60/07/03 , 695 ,The Collector's Matter [AFRTS]
* ,60/07/03 , 695 ,The Collector's Matter [Network]
* ,60/07/17 , 696 ,The Back to the Back Matter [AFRTS]
* ,60/07/17 , 696 ,The Back to the Back Matter [Network]
  ,60/07/24 ,   0 ,Pre-empted by Convention Preview
* ,60/07/31 , 697 ,The Rhymer Collection Matter [AFRTS]
  ,60/08/07 , 698 ,The Magnanimous Matter
* ,60/08/14 , 699 ,The Paradise Lost Matter
* ,60/08/21 , 700 ,The Twisted Twin Matter
* ,60/08/28 , 701 ,The Deadly Debt Matter [AFRTS]
* ,60/09/04 , 702 ,The Killer Kin Matter
* ,60/09/11 , 703 ,The Too Much Money Matter
* ,60/09/18 , 704 ,The Real Smokey Matter [AFRTS]
* ,60/09/25 , 705 ,The Five Down Matter
* ,60/10/02 , 706 ,The Stope of Death Matter
* ,60/10/09 , 707 ,The Recompense Matter [AFRTS]
* ,60/10/16 , 708 ,The Twins of Tahoe Matter
* ,60/10/23 , 709 ,The Unworthy Kin Matter
* ,60/10/30 , 710 ,The What Goes Matter
* ,60/11/06 , 711 ,The Super Salesman Matter
* ,60/11/13 , 712 ,The Bad One Matter
* ,60/11/20 , 713 ,The Double Deal Matter
* ,60/11/27 , 714 ,The Empty Threat Matter
* ,60/12/04 , 715 ,The Earned Income Matter [AFRTS]
  ,60/12/11 , 716 ,The Locked Room Murder Matter
* ,60/12/18 , 717 ,The Wayward Kilocycles Matter
  ,60/12/25 , 718 ,The Christmas Present Matter
  ,61/01/01 , 719 ,The Missing Jewels Matter
* ,61/01/08 , 720 ,The Paperback Mystery Matter
* ,61/01/15 , 721 ,The Very Fishy Matter
  ,61/01/22 , 722 ,The Dollar Put in Jail Matter
* ,61/01/29 , 723 ,The Short Term Matter
* ,61/02/05 , 724 ,The Who's Who Matter
* ,61/02/12 , 725 ,The Wayward Fireman Matter
  ,61/02/19 , 726 ,The Too Tired Matter
* ,61/02/26 , 727 ,The Touch-Up Matter
* ,61/03/05 , 728 ,The Morning After Matter
* ,61/03/12 , 729 ,The Ring of Death Matter
* ,61/03/19 , 730 ,The Informer Matter
* ,61/03/26 , 731 ,The Two's a Crowd Matter
* ,61/04/02 , 732 ,The Wrong Sign Matter
* ,61/04/09 , 733 ,The Captain's Table Matter
* ,61/04/16 , 734 ,The Latrodectus Matter
* ,61/04/23 , 735 ,The Rat Pack Matter
  ,61/04/30 , 736 ,The Purple Doll Matter
  ,61/05/07 , 737 ,The Newark Stockbroker Matter
* ,61/05/14 , 738 ,The Simple Simon Matter
* ,61/05/21 , 739 ,The Lone Wolf Matter
* ,61/05/28 , 740 ,The Yaak Mystery Matter
* ,61/06/04 , 741 ,The Stock-In-Trade Matter
* ,61/06/11 , 742 ,The Big Date Matter [Network]
* ,61/06/11 , 742 ,The Big Date Matter [Network]
* ,61/06/12 , 742 ,The Big Date Matter [AFRTS]
* ,61/06/18 , 743 ,The Low Tide Matter
* ,61/06/25 , 744 ,The Imperfect Crime Matter
* ,61/07/02 , 745 ,The Well of Trouble Matter
* ,61/07/09 , 746 ,The Fiddle Faddle Matter
* ,61/07/16 , 747 ,The Old Fashioned Murder Matter
* ,61/07/23 , 748 ,The Chuckanut Matter
* ,61/07/30 , 749 ,The Philadelphia Miss Matter [AFRTS]
* ,61/08/06 , 750 ,The Perilous Padre Matter
* ,61/08/13 , 751 ,The Wrong Doctor Matter
* ,61/08/20 , 752 ,Too Many Crooks Matter
* ,61/08/27 , 753 ,The Shifty Looker Matter
* ,61/09/03 , 754 ,The All Wet Matter
* ,61/09/10 , 755 ,The Buyer and the Cellar Matter
  ,61/09/17 , 756 ,The Clever Crook Matter
* ,61/09/24 , 757 ,The Double-Barreled Matter
  ,61/10/01 , 758 ,One of the Rottenest Rackets Matter
* ,61/10/08 , 759 ,The Medium Rare Matter
  ,61/10/15 , 760 ,The Quiet Little Town in New Jersey Matter
* ,61/10/22 , 761 ,The Three for One Matter
* ,61/10/29 , 762 ,The Bee or Not to Bee Matter
* ,61/11/05 , 763 ,The Monticello Mystery Matter
* ,61/11/12 , 764 ,The Wrong One Matter
* ,61/11/19 , 765 ,The Guide to Murder Matter
* ,61/11/26 , 766 ,The Mad Bomber Matter
* ,61/12/03 , 767 ,The Cinder Elmer Matter
  ,61/12/10 , 768 ,The Firebug
* ,61/12/17 , 769 ,The Phony Phone Matter [Network]
* ,61/12/17 , 769 ,The Phony Phone Matter [Network]
* ,61/12/18 , 769 ,The Phony Phone Matter [AFRTS]
* ,61/12/31 , 770 ,The One Too Many Matter
* ,62/01/07 , 771 ,The Hot Chocolate Matter
  ,62/01/14 , 772 ,The Gold Rush Country Matter
* ,62/01/21 , 773 ,The Terrible Torch Matter
* ,62/01/28 , 774 ,The Can't Be So Matter
* ,62/02/04 , 775 ,The Nugget of Truth Matter
* ,62/02/11 , 776 ,The Do It Yourself Matter
* ,62/02/18 , 777 ,The Takes a Crook Matter
* ,62/02/25 , 778 ,The Mixed Blessing Matter
* ,62/03/04 , 779 ,The Top Secret Matter
* ,62/03/11 , 780 ,The Golden Dream Matter
* ,62/03/18 , 781 ,The Ike and Mike Matter
* ,62/03/25 , 782 ,The Shadow of a Doubt Matter
* ,62/04/01 , 783 ,The Blue Rock Matter
* ,62/04/08 , 784 ,The Ivy Emerald Matter
* ,62/04/15 , 785 ,The Wrong Idea Matter
* ,62/04/22 , 786 ,The Skidmore Matter
* ,62/04/29 , 787 ,The Grand Canyon Matter
* ,62/05/06 , 788 ,The Burma Red Matter
* ,62/05/13 , 789 ,The Lust for Gold Matter
* ,62/05/20 , 790 ,The Two Steps to Murder Matter
* ,62/05/27 , 791 ,The Zipp Matter
* ,62/06/03 , 792 ,The Wayward Gun Matter
  ,62/06/10 , 793 ,The Tuna Clipper Matter
* ,62/06/17 , 794 ,The All Too Easy Matter
* ,62/06/24 , 795 ,The Hood of Death Matter
* ,62/07/01 , 796 ,The Vociferous Dolphin Matter
* ,62/07/08 , 797 ,The Rilldoe Matter
* ,62/07/15 , 798 ,The Weather or Not Matter
* ,62/07/22 , 799 ,The Skimpy Matter
* ,62/07/29 , 800 ,The Four Is a Crowd Matter
* ,62/08/05 , 801 ,The Case of Trouble Matter
* ,62/08/12 , 802 ,The Oldest Gag Matter
* ,62/08/19 , 803 ,The Lorelei Matter [AFRTS]
* ,62/08/26 , 804 ,The Gold Rush Matter
* ,62/09/02 , 805 ,The Doninger Doninger Matter
* ,62/09/09 , 806 ,The Four Cs Matter
* ,62/09/16 , 807 ,The No Matter Matter
* ,62/09/23 , 808 ,The Deadly Crystal Matter
* ,62/09/30 , 809 ,The Tip-Off Matter
