Exists, Date, #, Episode Name
* ,xx/xx/xx ,     ,Bad Day At Black Rock (nxt week - England Expects)
  ,xx/xx/xx ,     ,Big Ben
  ,xx/xx/xx ,     ,Chrispen's Day
* ,xx/xx/xx ,     ,Detectives Are Not Always Right (nxt week - It's Different For Men)
  ,xx/xx/xx ,     ,England Expects
* ,xx/xx/xx ,     ,Forbidden Planet (ntx week - Big Ben)
  ,xx/xx/xx ,     ,It's Different For Men
  ,xx/xx/xx ,     ,Jeopardy
* ,xx/xx/xx ,     ,Scrooge The Miser
  ,xx/xx/xx ,     ,Smiling Through
* ,xx/xx/xx ,     ,The Big Smoke - Return To Tenderness
  ,xx/xx/xx ,     ,The Miser
  ,xx/xx/xx ,     ,The Third Husband
* ,xx/xx/xx ,     ,There Was A Crooked Man (nxt week - Jeopardy)
  ,xx/xx/xx ,     ,Three Men On A Horse
  ,xx/xx/xx ,     ,Thunder On Sycamore Street
* ,xx/xx/xx ,     ,You Only Die Once
