Exists, Date, #, Episode Name
  ,44/06/15 ,   1 ,
  ,44/06/22 ,   2 ,First Song - Juke Box Saturday Night
  ,44/06/29 ,   3 ,First Song - San Fernando Valley
  ,44/07/06 ,   4 ,First Song - I'll Get By As Long As I Have You
  ,44/07/13 ,   5 ,
  ,44/07/20 ,   6 ,
  ,44/07/27 ,   7 ,First Song - I'll Get By As Long As I Have You
  ,44/08/03 ,   8 ,First Song - Star Eyes
* ,44/08/10 ,   9 ,First Song - Let's Sing A Song About Susie
  ,44/08/17 ,  10 ,
  ,44/08/24 ,  11 ,First Song - Pretty Kitty Blue Eyes
  ,44/08/31 ,  12 ,
  ,44/09/07 ,  13 ,First Song - Tico Tico
  ,44/09/14 ,  14 ,First Song - How Many Hearts Have You Broken?
  ,44/09/21 ,  15 ,First Song - I'll Walk Alone
  ,44/09/28 ,  16 ,First Song - Lili Marlene
