Exists, Date, #, Episode Name
  ,38/10/10 ,   1 ,--- [1st Week of M-T-W-T-F schedule @ 6pm on WGN-Mutual]
  ,38/10/17 ,   6 ,
  ,38/10/24 ,  11 ,
  ,38/10/31 ,  16 ,
  ,38/11/07 ,  21 ,
  ,38/11/14 ,  26 ,
  ,38/11/21 ,  31 ,
  ,38/11/28 ,  36 ,
  ,38/12/05 ,  41 ,
  ,38/12/12 ,  46 ,
  ,38/12/19 ,  51 ,
  ,38/12/26 ,  56 ,
  ,39/01/02 ,  61 ,
  ,39/01/09 ,  66 ,
  ,39/01/16 ,  71 ,
  ,39/01/23 ,  76 ,
  ,39/01/30 ,  81 ,
* ,39/02/06 ,  86 ,Planning of Aerial Photo Mission [date in RGI log - #26 in RGI log]
  ,39/02/13 ,  91 ,
  ,39/02/20 ,  96 ,
  ,39/02/21 ,  97 ,
  ,39/02/22 ,  98 ,
  ,39/02/23 ,  99 ,
  ,39/02/24 , 100 ,Establishing Hidden Airfield [date in RGI log - #40 in RGI log]
  ,39/02/27 , 101 ,
  ,39/03/06 , 106 ,
  ,39/03/13 , 111 ,
  ,39/03/20 , 116 ,
  ,39/03/27 , 121 ,
  ,39/03/28 , 122 ,
* ,39/03/29 , 123 ,Photographic Mission [date questionable - see episode #86]
  ,39/03/30 , 124 ,
  ,39/03/31 , 125 ,
  ,39/04/03 , 126 ,
  ,39/04/10 , 131 ,
  ,39/04/17 , 136 ,
  ,39/04/18 , 137 ,
  ,39/04/19 , 138 ,
  ,39/04/20 , 139 ,
* ,39/04/21 , 140 ,Establishing A Hidden Airfield  [date questionable - see episode #100]
  ,39/04/24 , 141 ,
  ,39/05/01 , 146 ,
  ,39/05/02 , 147 ,
  ,39/05/03 , 148 ,
  ,39/05/04 , 149 ,
  ,39/05/05 , 150 ,--- (LAST episode of 1st season)
* ,39/05/23 ,  63 ,Steve Has Crashed
  ,39/09/25 , 151 ,--- [1st episode of 2nd season - weekdays @ 6pm on WGN-Mutual]
  ,39/10/02 , 156 ,
  ,39/10/09 , 161 ,
  ,39/10/16 , 166 ,
* ,39/10/17 , 167 ,Questions for Perada [date & episode # same as RGI log]
* ,39/10/18 , 168 ,Under Attack From One Of Shark's Planes
* ,39/10/19 , 169 ,Patrick and Pinky Search Grounds, and See Something!
* ,39/10/20 , 170 ,Our Friends Rest
* ,39/10/23 , 171 ,Shark and Fury Search Major Steele's Cabin
* ,39/10/24 , 172 ,What Happened To Ma and Her Friends?
* ,39/10/25 , 173 ,Chuck Responds to the Signal
* ,39/10/26 , 174 ,Sharks' Pilot Escapes
* ,39/10/27 , 175 ,Captain Midnight and Chuck Return to Juan's Lodge
* ,39/10/30 , 176 ,One of Shark's Planes Razzes Captain Midnight
  ,39/10/31 , 177 ,
  ,39/11/01 , 178 ,
  ,39/11/02 , 179 ,
  ,39/11/03 , 180 ,
* ,39/11/06 , 181 ,The Mexican Supper is Interrupted
* ,39/11/07 , 182 ,Shark Tries to Discover Location of the Treasure
* ,39/11/08 , 183 ,Juan Gets Good News
* ,39/11/09 , 184 ,Pablo's Mexican Jumping Beans
* ,39/11/10 , 185 ,Delores Tries to Kill Ivan Shark
* ,39/11/13 , 186 ,Patsy and Chuck Explore The Cave
* ,39/11/14 , 187 ,Shark Searches for Delores
* ,39/11/15 , 188 ,Chuck Falls into Underground River
* ,39/11/16 , 189 ,Plans to Rescue Delores
* ,39/11/17 , 190 ,At Last - The Hacienda
* ,39/11/20 , 191 ,Trying to Break Thru a Cave In
* ,39/11/21 , 192 ,An Unlikely Alibi
* ,39/11/22 , 193 ,Shark Prepares a Deadly Trap
* ,39/11/23 , 194 ,Captain and Chuck Avoid the Trap and Death!
* ,39/11/24 , 195 ,Escape, But now Under Fire
* ,39/11/27 , 196 ,Chuck and Delores Escape, But Are Being Followed
* ,39/11/28 , 197 ,Forced To Make A Sudden Landing
* ,39/11/29 , 198 ,Where's Chuck's Plane?
* ,39/11/30 , 199 ,Shark Questions One Of His Pilots
* ,39/12/01 , 200 ,Senor Lutro Informs Shark of Change of Plans
* ,39/12/04 , 201 ,Successful Takeoff!
* ,39/12/05 , 202 ,Captain and Juan Take off On A Night Flight
* ,39/12/06 , 203 ,Captain and Juan Tangle With Shark's Chief Pilot
* ,39/12/07 , 204 ,Pinky and Slim Are Missing
* ,39/12/08 , 205 ,The Cattle Drive
* ,39/12/11 , 206 ,A Forced Landing in the Path Of Cattle
* ,39/12/12 , 207 ,Chuck and Patsy Escape
* ,39/12/13 , 208 ,Shark's Sinister Plans
* ,39/12/14 , 209 ,Shark's Men Take over the Valley
* ,39/12/15 , 210 ,Captain Explains His Signal to Patsy
* ,39/12/18 , 211 ,After Parachuting, Chuck Attacked by Guardo
* ,39/12/19 , 212 ,Refuse in an Aztec Temple
* ,39/12/20 , 213 ,Footprints
* ,39/12/21 , 214 ,Captain Meets Lutro and Von Grif
* ,39/12/22 , 215 ,Lutro and Von Grif Watch as Shark and Fury Plan
* ,39/12/25 , 216 ,Falling Into Shark's Deadly Plan
* ,39/12/26 , 217 ,A Plan to Thwart a Plan
* ,39/12/27 , 218 ,Juan and Patsy Voice Concern over Captain And Chuck
* ,39/12/28 , 219 ,Taken Prisoner by Lutro and Von Grif
* ,39/12/29 , 220 ,Captain Midnight Leads Attack of Hacienda --- (LAST of weekdays schedule)
* ,39/xx/xx ,  23 ,Hold Up To Get Red's Watch
  ,40/01/01 ,     ,--- PRE-EMPTED (by 1940 Rose Bowl)
* ,40/01/02 , 221 ,The Hacienda is Ours! --- [1st Week of M-W-F schedule @ 6pm on WGN-Mutual]
* ,40/01/03 , 222 ,An Amazing Discovery
* ,40/01/05 , 223 ,The Treasure Has Disappeared
* ,40/01/08 , 224 ,Shark's Secret Landing Field
* ,40/01/10 , 225 ,An Early Morning Talk [Final Perada Treasure - segue into 'Mysterious Voice' adventure]
* ,40/01/12 , 226 ,A Mysterious Cry For Help --- [Mysterious Voice - #01of33]
* ,40/01/15 , 227 ,Where's The Voice Coming From?
* ,40/01/17 , 228 ,Patsy Spots a Broken Airplane Wing
* ,40/01/19 , 229 ,Bud Must Go To The Hospital  - Now!
* ,40/01/22 , 230 ,Captain Has A Plan
* ,40/01/24 , 231 ,Smoke Floating Over Nearby Ridge
* ,40/01/26 , 232 ,Chuck Asks Mr Gillis for Dynamite
* ,40/01/29 , 233 ,Dynamiting the Trees
* ,40/01/31 , 234 ,Chuck Successfully Takes Off
* ,40/02/02 , 235 ,After A Good Nights Sleep - Surprise!
* ,40/02/05 , 236 ,On Their Way To See Chuck
* ,40/02/07 , 237 ,Captain and Patsy Discuss Chuck's Disappearance
* ,40/02/09 , 238 ,Chuck Last Seen With Mysterious Stranger
* ,40/02/12 , 239 ,What Did Chuck Do?
* ,40/02/14 , 240 ,Chuck Arrested By Government Man
* ,40/02/16 , 241 ,Chuck and Frank Land To Investigate Strange Plane
* ,40/02/19 , 242 ,Plans to Search For Chuck
* ,40/02/21 , 243 ,Imprisoned In Shark's Plane
* ,40/02/23 , 244 ,A Smugglers Shack
* ,40/02/26 , 245 ,Captain Believes No-one In Charge of Chuck's Plane
* ,40/02/28 , 246 ,Chuck Learns Sharks Sinister Plan
* ,40/03/01 , 247 ,Shark Sends a Telegram to Captain Midnight
* ,40/03/04 , 248 ,The Telegram
* ,40/03/06 , 249 ,Chuck Talks To Shark Aboard Shark's Plane
* ,40/03/08 , 250 ,Captain Demands to Hear Chuck's Voice
* ,40/03/11 , 251 ,Chuck Will Talk To Captain Midnight Tonight
* ,40/03/13 , 252 ,Shark Issues An Ultimatum
* ,40/03/15 , 253 ,Shark Tells Fury His Plans
* ,40/03/18 , 254 ,Shark Demands Answer Within 24 Hours
* ,40/03/20 , 255 ,Chuck Gets Disturbing News
* ,40/03/22 , 256 ,Flying To Point of Shark's First Broadcast
* ,40/03/25 , 257 ,Chuck Transmits Secret Message
* ,40/03/27 , 258 ,Captain Midnight finds Shark's hideout
  ,40/03/29 , 259 ,--- [LAST episode of this run of shows)
* ,40/09/30 , 260 ,PREMIERE - (3rd season - Mutual Network - weekdays @ 5:45pm - still on Mutual)
* ,40/10/01 , 261 ,Shark Tries To Destroy The Group
  ,40/10/02 , 262 ,
  ,40/10/03 , 263 ,
  ,40/10/04 , 264 ,
  ,40/10/07 , 265 ,
  ,40/10/14 , 270 ,
  ,40/10/21 , 275 ,
  ,40/10/28 , 280 ,
  ,40/11/04 , 285 ,
  ,40/11/11 , 290 ,
  ,40/11/18 , 295 ,
  ,40/11/25 , 300 ,
  ,40/12/02 , 305 ,
  ,40/12/09 , 310 ,
  ,40/12/16 , 315 ,
  ,40/12/23 , 320 ,
  ,40/12/30 , 325 ,
  ,40/12/31 , 326 ,
  ,4x/xx/xx ,     ,Flight For Freedom
  ,41/01/01 ,     ,--- PRE-EMPTED (by New Year's Day football games)
  ,41/01/02 , 327 ,
  ,41/01/03 , 328 ,
  ,41/01/06 , 329 ,
  ,41/01/13 , 334 ,
  ,41/01/20 , 339 ,
  ,41/01/27 , 344 ,
  ,41/02/03 , 349 ,
  ,41/02/10 , 354 ,
  ,41/02/17 , 359 ,
  ,41/02/24 , 364 ,
  ,41/03/03 , 369 ,
  ,41/03/10 , 374 ,
  ,41/03/17 , 379 ,
  ,41/03/24 , 384 ,
  ,41/03/31 , 389 ,
  ,41/04/07 , 394 ,
  ,41/04/14 , 399 ,
  ,41/04/21 , 404 ,
  ,41/04/28 , 409 ,
  ,41/05/05 , 414 ,
  ,41/05/12 , 419 ,
  ,41/05/19 , 424 ,
  ,41/05/26 , 429 ,
  ,41/06/02 , 434 ,
* ,41/06/09 , 439 ,The Secret Squadron Attacks Shark's Submarine
  ,41/06/16 , 444 ,
  ,41/06/23 , 449 ,
  ,41/06/30 , 450 ,
  ,41/07/01 , 451 ,
  ,41/07/02 , 452 ,
  ,41/07/03 , 453 ,
  ,41/07/04 , 454 ,--- LAST episode of 3rd season
  ,41/09/29 , 455 ,PREMIERE - (4th season - Mutual Network - weekdays @ 5:45pm - still on Mutual)
  ,41/10/06 , 460 ,
  ,41/10/13 , 465 ,
  ,41/10/20 , 470 ,
  ,41/10/21 , 471 ,
  ,41/10/22 , 472 ,
  ,41/10/23 , 473 ,
* ,41/10/24 , 474 ,Chuck And Joyce Are Prisoners Of The Tiger Tong
  ,41/10/27 , 475 ,
  ,41/11/03 , 480 ,
  ,41/11/10 , 485 ,
  ,41/11/17 , 490 ,
  ,41/11/24 , 495 ,
  ,41/12/01 , 500 ,
  ,41/12/08 , 505 ,
  ,41/12/15 , 510 ,
  ,41/12/22 , 515 ,
  ,41/12/29 , 520 ,
  ,42/01/05 , 525 ,
  ,42/01/12 , 530 ,
  ,42/01/19 , 535 ,
  ,42/01/26 , 540 ,
  ,42/02/02 , 545 ,
  ,42/02/09 , 550 ,
  ,42/02/16 , 555 ,
  ,42/02/23 , 560 ,
  ,42/03/02 , 565 ,
  ,42/03/09 , 570 ,
  ,42/03/16 , 575 ,
  ,42/03/23 , 580 ,
  ,42/03/30 , 585 ,
  ,42/04/06 , 590 ,
  ,42/04/13 , 595 ,
  ,42/04/20 , 600 ,
  ,42/04/27 , 605 ,
  ,42/05/04 , 610 ,
  ,42/05/11 , 615 ,
  ,42/05/18 , 620 ,
  ,42/05/25 , 625 ,
  ,42/06/01 , 630 ,
  ,42/06/08 , 635 ,
  ,42/06/15 , 640 ,
  ,42/06/22 , 645 ,
  ,42/06/23 , 646 ,
  ,42/06/24 , 647 ,
  ,42/06/25 , 648 ,
  ,42/06/26 , 649 ,--- LAST episode of 4th season
  ,42/09/28 , 650 ,PREMIERE - (5th season - weekdays @ 5:45pm - moves to NBC-Blue network)
  ,42/10/05 , 655 ,
  ,42/10/06 , 656 ,
  ,42/10/07 , 657 ,
* ,42/10/08 , 658 ,Assignment Under The Sea
  ,42/10/09 , 659 ,
  ,42/10/12 , 660 ,
  ,42/10/19 , 665 ,
  ,42/10/26 , 670 ,
  ,42/11/02 , 675 ,
  ,42/11/09 , 680 ,
  ,42/11/16 , 685 ,
  ,42/11/17 , 686 ,
  ,42/11/18 , 687 ,
  ,42/11/19 , 688 ,
  ,42/11/20 , 689 ,
  ,42/11/23 , 690 ,
* ,42/11/24 , 691 ,Fighting With Commandos
  ,42/11/25 , 692 ,
  ,42/11/26 , 693 ,
  ,42/11/27 , 694 ,
  ,42/11/30 , 695 ,
  ,42/12/07 , 700 ,
  ,42/12/14 , 705 ,
  ,42/12/21 , 710 ,
  ,42/12/28 , 715 ,
  ,42/12/29 , 716 ,
* ,42/12/30 , 717 ,Destruction Of The Nazi Submarine Base
  ,42/12/31 , 718 ,
  ,43/01/01 , 719 ,
  ,43/01/04 , 720 ,
  ,43/01/11 , 725 ,
  ,43/01/18 , 730 ,
  ,43/01/25 , 735 ,
  ,43/02/01 , 740 ,
  ,43/02/08 , 745 ,
  ,43/02/15 , 750 ,
* ,43/02/16 , 751 ,Trapped By The Nazis
  ,43/02/17 , 752 ,
  ,43/02/18 , 753 ,
  ,43/02/19 , 754 ,
* ,43/02/22 , 755 ,Challenge Of The Crossed Swords
  ,43/03/01 , 760 ,
  ,43/03/08 , 765 ,
  ,43/03/15 , 770 ,
  ,43/03/22 , 775 ,
  ,43/03/29 , 780 ,
  ,43/04/05 , 785 ,
  ,43/04/06 , 786 ,
  ,43/04/07 , 787 ,
  ,43/04/08 , 788 ,
* ,43/04/09 , 789 ,The Silver Dagger Strikes
* ,43/04/12 , 790 ,The Silver Dagger Strikes
  ,43/04/19 , 795 ,
  ,43/04/26 , 800 ,
  ,43/05/03 , 805 ,
  ,43/05/10 , 810 ,
  ,43/05/17 , 815 ,
  ,43/05/24 , 820 ,
  ,43/05/25 , 821 ,
* ,43/05/26 , 822 ,The Secret Squadron Strikes
  ,43/05/27 , 823 ,
  ,43/05/28 , 824 ,
  ,43/05/31 , 825 ,
  ,43/06/07 , 830 ,
  ,43/06/14 , 835 ,
  ,43/06/21 , 840 ,
  ,43/06/22 , 841 ,
  ,43/06/23 , 842 ,
  ,43/06/24 , 843 ,
  ,43/06/25 , 844 ,--- LAST episode of 5th season
  ,43/09/27 , 845 ,PREMIERE - (6th season - weekdays @ 5:45pm - still on NBC-Blue network)
  ,43/10/04 , 850 ,
  ,43/10/05 , 851 ,
  ,43/10/06 , 852 ,
  ,43/10/07 , 853 ,
  ,43/10/08 , 854 ,
* ,43/10/09 ,     ,*** [MIS-DATED - 10/09/43 is a SATURDAY]
  ,43/10/11 , 855 ,
  ,43/10/18 , 860 ,
  ,43/10/25 , 865 ,
  ,43/11/01 , 870 ,
  ,43/11/08 , 875 ,
  ,43/11/15 , 880 ,
  ,43/11/22 , 885 ,
  ,43/11/29 , 890 ,
  ,43/11/30 , 891 ,
  ,43/12/01 , 892 ,
* ,43/12/02 , 893 ,Signal From The Sky
  ,43/12/03 , 894 ,
  ,43/12/06 , 895 ,
  ,43/12/07 , 896 ,
* ,43/12/08 , 897 ,East Of Formosa
  ,43/12/09 , 898 ,
  ,43/12/10 , 899 ,
* ,43/12/12 ,     , *** [MIS-DATED - 12/12/43 is a SUNDAY]
  ,43/12/13 , 900 ,
  ,43/12/20 , 905 ,
  ,43/12/27 , 910 ,
  ,44/01/03 , 915 ,
  ,44/01/10 , 920 ,
* ,44/01/17 , 925 ,Japanese Bombers Shot Down
  ,44/01/18 , 926 ,
  ,44/01/19 , 927 ,
* ,44/01/20 , 928 ,The Dive Bombers Fight
* ,44/01/21 , 929 ,Captain Midnight Shot Down
* ,44/01/24 , 930 ,Prisoner Of The Japs
  ,44/01/31 , 935 ,
  ,44/02/07 , 940 ,
  ,44/02/14 , 945 ,
  ,44/02/21 , 950 ,
  ,44/02/28 , 955 ,
  ,44/03/06 , 960 ,
  ,44/03/13 , 965 ,
  ,44/03/20 , 970 ,
  ,44/03/27 , 975 ,
  ,44/04/03 , 980 ,
  ,44/04/10 , 985 ,
  ,44/04/17 , 990 ,
  ,44/04/18 , 991 ,
  ,44/04/19 , 992 ,
* ,44/04/20 , 993 ,Mountain Battle
  ,44/04/21 , 994 ,
  ,44/04/24 , 995 ,
  ,44/05/01 ,1000 ,
  ,44/05/08 ,1005 ,
  ,44/05/15 ,1010 ,
  ,44/05/22 ,1015 ,
  ,44/05/29 ,1020 ,
  ,44/06/05 ,1025 ,
  ,44/06/12 ,1030 ,
  ,44/06/19 ,1035 ,
  ,44/06/20 ,1036 ,
  ,44/06/21 ,1037 ,
  ,44/06/22 ,1038 ,
  ,44/06/23 ,1039 ,--- LAST episode of 6th season
  ,44/09/25 ,1040 ,PREMIERE - (7th season - weekdays @ 5:45pm - still on NBC-Blue network)
  ,44/10/02 ,1045 ,
  ,44/10/09 ,1050 ,
  ,44/10/16 ,1055 ,
  ,44/10/23 ,1060 ,
  ,44/10/30 ,1065 ,
  ,44/10/31 ,1066 ,
* ,44/11/01 ,1067 ,Dangerous Flight
  ,44/11/02 ,1068 ,Jungle Rendezvous
  ,44/11/03 ,1069 ,
  ,44/11/06 ,1070 ,
  ,44/11/13 ,1075 ,
  ,44/11/20 ,1080 ,
  ,44/11/27 ,1085 ,
  ,44/12/04 ,1090 ,
  ,44/12/11 ,1095 ,
  ,44/12/18 ,1100 ,
  ,44/12/25 ,1105 ,
  ,45/01/01 ,1110 ,
  ,45/01/08 ,1115 ,
  ,45/01/15 ,1120 ,
  ,45/01/22 ,1125 ,
  ,45/01/29 ,1130 ,
  ,45/02/05 ,1135 ,
  ,45/02/12 ,1140 ,
  ,45/02/19 ,1145 ,
  ,45/02/26 ,1150 ,
  ,45/03/05 ,1155 ,
  ,45/03/12 ,1160 ,
  ,45/03/19 ,1165 ,
  ,45/03/26 ,1170 ,
  ,45/04/02 ,1175 ,
  ,45/04/09 ,1180 ,
  ,45/04/16 ,1185 ,
  ,45/04/23 ,1190 ,
  ,45/04/30 ,1195 ,
  ,45/05/07 ,1200 ,
  ,45/05/14 ,1205 ,
  ,45/05/21 ,1210 ,
  ,45/05/28 ,1215 ,
  ,45/06/04 ,1220 ,
  ,45/06/11 ,1225 ,
  ,45/06/18 ,1230 ,
  ,45/06/19 ,1231 ,
  ,45/06/20 ,1232 ,
  ,45/06/21 ,1233 ,
  ,45/06/22 ,1234 ,--- LAST episode of 7th season
  ,45/09/24 ,1235 ,PREMIERE - (8th season - weekdays @ 5:30pm - back on MUTUAL network)
  ,45/10/01 ,1240 ,
  ,45/10/08 ,1245 ,
  ,45/10/15 ,1250 ,
  ,45/10/22 ,1255 ,
  ,45/10/29 ,1260 ,
  ,45/11/05 ,1265 ,
  ,45/11/12 ,1270 ,
  ,45/11/19 ,1275 ,
  ,45/11/26 ,1280 ,
  ,45/12/03 ,1285 ,
  ,45/12/10 ,1290 ,
  ,45/12/17 ,1295 ,
  ,45/12/24 ,1300 ,
  ,45/12/31 ,1305 ,
  ,46/01/01 ,1306 ,*** [in LA Times schedule only]
  ,46/01/02 ,1307 ,
  ,46/01/03 ,1308 ,
  ,46/01/04 ,1309 ,
  ,46/01/07 ,1310 ,
  ,46/01/14 ,1315 ,
  ,46/01/21 ,1320 ,
  ,46/01/28 ,1325 ,
  ,46/02/04 ,1330 ,
  ,46/02/11 ,1335 ,
  ,46/02/18 ,1340 ,
  ,46/02/25 ,1345 ,
  ,46/03/04 ,1350 ,
  ,46/03/11 ,1355 ,
  ,46/03/18 ,1360 ,
  ,46/03/25 ,1365 ,
  ,46/04/01 ,1370 ,
  ,46/04/08 ,1375 ,
  ,46/04/15 ,1380 ,
  ,46/04/22 ,1385 ,
  ,46/04/29 ,1390 ,
  ,46/05/06 ,1395 ,
  ,46/05/13 ,1400 ,
  ,46/05/20 ,1405 ,
  ,46/05/27 ,1410 ,
  ,46/06/03 ,1415 ,
  ,46/06/10 ,1420 ,
  ,46/06/17 ,1425 ,
  ,46/06/24 ,1430 ,
  ,46/07/01 ,1435 ,
  ,46/07/08 ,1440 ,
  ,46/07/15 ,1445 ,
  ,46/07/22 ,1450 ,
  ,46/07/29 ,1455 ,
  ,46/08/05 ,1460 ,
  ,46/08/12 ,1465 ,
  ,46/08/13 ,1466 ,
* ,46/08/14 ,1467 ,Double Cross
  ,46/08/15 ,1468 ,
  ,46/08/16 ,1469 ,
  ,46/08/19 ,1470 ,
  ,46/08/26 ,1475 ,
  ,46/09/02 ,1480 ,
  ,46/09/09 ,1485 ,
  ,46/09/16 ,1490 ,
  ,46/09/23 ,1495 ,
  ,46/09/30 ,1500 ,
  ,46/10/07 ,1505 ,
  ,46/10/14 ,1510 ,
  ,46/10/21 ,1515 ,
  ,46/10/28 ,1520 ,
  ,46/11/04 ,1525 ,
  ,46/11/11 ,1530 ,
  ,46/11/18 ,1535 ,
  ,46/11/25 ,1540 ,
  ,46/12/02 ,1545 ,
  ,46/12/09 ,1550 ,
  ,46/12/16 ,1555 ,
  ,46/12/23 ,1560 ,
  ,46/12/30 ,1565 ,
  ,46/12/31 ,1566 ,
  ,47/01/01 ,     ,--- PRE-EMPTED (by New Year's Day football games)
  ,47/01/02 ,1567 ,
  ,47/01/03 ,1568 ,
  ,47/01/06 ,1569 ,
  ,47/01/13 ,1574 ,
  ,47/01/20 ,1579 ,
  ,47/01/27 ,1584 ,
  ,47/02/03 ,1589 ,
  ,47/02/10 ,1594 ,
* ,47/02/11 ,1595 ,The Man With The Missing Finger
  ,47/02/12 ,1596 ,
  ,47/02/13 ,1597 ,
  ,47/02/14 ,1598 ,
  ,47/02/17 ,1599 ,
  ,47/02/24 ,1604 ,
  ,47/03/03 ,1609 ,
  ,47/03/10 ,1614 ,
  ,47/03/11 ,1615 ,
* ,47/03/12 ,1616 ,The Slave Smugglers
  ,47/03/13 ,1617 ,
  ,47/03/14 ,1618 ,
  ,47/03/17 ,1619 ,
  ,47/03/24 ,1624 ,
  ,47/03/31 ,1629 ,
* ,47/04/07 ,1634 ,The Map Of Mystery
  ,47/04/14 ,1639 ,
* ,47/04/21 ,1644 ,We Who Are About To Die
  ,47/04/28 ,1649 ,
  ,47/05/05 ,1654 ,
  ,47/05/12 ,1659 ,
  ,47/05/13 ,1660 ,
* ,47/05/14 ,1661 ,Stolen Star
  ,47/05/15 ,1662 ,
  ,47/05/16 ,1663 ,
  ,47/05/19 ,1664 ,
  ,47/05/26 ,1669 ,
  ,47/06/02 ,1674 ,
  ,47/06/09 ,1679 ,
  ,47/06/16 ,1684 ,
  ,47/06/17 ,1685 ,
  ,47/06/18 ,1686 ,
  ,47/06/19 ,1687 ,
  ,47/06/20 ,1688 ,--- LAST episode of 8th & 9th seasons
  ,47/09/29 ,1689 ,PREMIERE - (10th season - weekdays @ 5:30pm - still on MUTUAL network)
  ,47/10/06 ,1694 ,
  ,47/10/13 ,1699 ,
  ,47/10/20 ,1704 ,
  ,47/10/27 ,1709 ,
  ,47/11/03 ,1714 ,
  ,47/11/10 ,1719 ,
  ,47/11/17 ,1724 ,
  ,47/11/24 ,1729 ,
  ,47/12/01 ,1734 ,
  ,47/12/08 ,1739 ,
  ,47/12/15 ,1744 ,
  ,47/12/22 ,1749 ,
  ,47/12/29 ,1754 ,
  ,48/01/05 ,1759 ,
  ,48/01/12 ,1764 ,
  ,48/01/19 ,1769 ,
  ,48/01/26 ,1774 ,
  ,48/02/02 ,1779 ,
  ,48/02/09 ,1784 ,
  ,48/02/16 ,1789 ,
  ,48/02/23 ,1794 ,
  ,48/03/01 ,1799 ,
  ,48/03/08 ,1804 ,
  ,48/03/09 ,1805 ,
  ,48/03/10 ,1806 ,
  ,48/03/11 ,1807 ,
  ,48/03/12 ,1808 ,
  ,48/03/15 ,1809 ,T
  ,48/03/22 ,1814 ,
* ,48/03/26 ,1818 ,The Jewels Of The Queen Of Sheba [Monday = 'The Double Cross']
  ,48/03/29 ,1819 ,The Double Cross
  ,48/04/05 ,1824 ,
  ,48/04/12 ,1829 ,
  ,48/04/19 ,1834 ,
  ,48/04/26 ,1839 ,
  ,48/05/03 ,1844 ,
  ,48/05/10 ,1849 ,
  ,48/05/17 ,1854 ,
  ,48/05/24 ,1859 ,
  ,48/05/31 ,1864 ,
  ,48/06/07 ,1869 ,
  ,48/06/08 ,1870 ,
  ,48/06/09 ,1871 ,
  ,48/06/10 ,1872 ,
  ,48/06/11 ,1873 ,
  ,48/09/20 ,1874 ,
  ,48/09/27 ,1879 ,
  ,48/10/04 ,1884 ,
  ,48/10/11 ,1889 ,
  ,48/10/18 ,1894 ,
  ,48/10/25 ,1899 ,
  ,48/11/01 ,1904 ,
  ,48/11/08 ,1909 ,
  ,48/11/15 ,1914 ,
  ,48/11/22 ,1919 ,
  ,48/11/29 ,1924 ,
  ,48/12/06 ,1929 ,
  ,48/12/07 ,1930 ,
* ,48/12/08 ,1931 ,The Return Of Ivan Shark (tomorrow - The Rescue)
  ,48/12/09 ,1932 ,The Rescue
  ,48/12/10 ,1933 ,
  ,48/12/13 ,1934 ,
  ,48/12/20 ,1939 ,
  ,48/12/27 ,1944 ,
  ,49/01/03 ,1949 ,
  ,49/01/04 ,1950 ,
  ,49/01/05 ,1951 ,
  ,49/01/06 ,1952 ,
  ,49/01/07 ,1953 ,
* ,49/01/10 ,1954 ,Secret Submarine Base
* ,49/01/11 ,1955 ,
  ,49/01/12 ,1956 ,
  ,49/01/13 ,1957 ,
  ,49/01/14 ,1958 ,
  ,49/01/17 ,1959 ,
  ,49/01/24 ,1964 ,
  ,49/01/31 ,1969 ,
  ,49/02/01 ,1970 ,
  ,49/02/02 ,1971 ,
  ,49/02/03 ,1972 ,
* ,49/02/04 ,1973 ,
  ,49/02/07 ,1974 ,
  ,49/02/14 ,1979 ,
  ,49/02/21 ,1984 ,
  ,49/02/28 ,1989 ,
  ,49/03/07 ,1994 ,
  ,49/03/14 ,1999 ,
  ,49/03/21 ,2004 ,
  ,49/03/28 ,2009 ,
  ,49/04/04 ,2014 ,
  ,49/04/11 ,2019 ,
  ,49/04/18 ,2024 ,
  ,49/04/25 ,2029 ,
  ,49/05/02 ,2034 ,
  ,49/05/09 ,2039 ,
  ,49/05/16 ,2044 ,
  ,49/05/23 ,2049 ,
  ,49/05/30 ,2054 ,
  ,49/06/06 ,2059 ,
  ,49/06/13 ,2064 ,
  ,49/06/14 ,2065 ,
  ,49/06/15 ,2066 ,
  ,49/06/16 ,2067 ,
  ,49/06/17 ,2068 ,--- [FINAL episode of daily shows]
  ,49/09/20 ,2069 ,--- [start of Tuesday & Thursday shows]
  ,49/09/22 ,2070 ,
* ,49/09/27 ,2071 ,Flying Ruby
  ,49/09/29 ,2072 ,
  ,49/10/04 ,2073 ,
  ,49/10/06 ,2074 ,
  ,49/10/11 ,2075 ,
  ,49/10/13 ,2076 ,
  ,49/10/18 ,2077 ,
  ,49/10/20 ,2078 ,
  ,49/10/25 ,2079 ,
  ,49/10/27 ,2080 ,
  ,49/11/01 ,2081 ,
  ,49/11/03 ,2082 ,
  ,49/11/08 ,2083 ,
  ,49/11/10 ,2084 ,
  ,49/11/15 ,2085 ,
  ,49/11/17 ,2086 ,
  ,49/11/22 ,2087 ,
  ,49/11/24 ,2088 ,
  ,49/11/29 ,2089 ,
  ,49/12/01 ,2090 ,
  ,49/12/06 ,2091 ,
  ,49/12/08 ,2092 ,
  ,49/12/13 ,2093 ,
  ,49/12/15 ,2094 ,Last Episode
* ,49/xx/xx ,     ,Phantom Rustler
