Exists, Date, #, Episode Name
* ,4x/xx/xx ,   1 ,First Song - Cimmaron (Audition)
* ,4x/xx/xx ,   2 ,First Song - Country Girl
  ,4x/xx/xx ,   3 ,episode 3
  ,4x/xx/xx ,   4 ,episode 4
* ,4x/xx/xx ,   5 ,First Song - No Vacancies
* ,4x/xx/xx ,   6 ,First Song - Eight More Miles To Louisville
  ,4x/xx/xx ,   7 ,episode 7
* ,4x/xx/xx ,   8 ,First Song - Plain Old Country Girl
  ,4x/xx/xx ,   9 ,episode 9
  ,4x/xx/xx ,  10 ,episode 10
  ,4x/xx/xx ,  11 ,episode 11
  ,4x/xx/xx ,  12 ,episode 12
* ,4x/xx/xx ,  13 ,First Song - Stay A Little Longer
* ,4x/xx/xx ,  14 ,First Song - Wish I Had A Nickel
  ,4x/xx/xx ,  15 ,First Song - Sugar Hill
  ,4x/xx/xx ,  16 ,episode 16
* ,4x/xx/xx ,  17 ,First Song - Divorce C.O.D.
* ,4x/xx/xx ,  18 ,First Song - An Old Fashioned Hoedown
* ,4x/xx/xx ,  19 ,First Song - Skip To My Lou
* ,4x/xx/xx ,  20 ,First Song - Oklahoma City
* ,4x/xx/xx ,  21 ,First Song - Cindy
* ,4x/xx/xx ,  22 ,First Song - Sourwood Mountain
* ,4x/xx/xx ,  23 ,First Song - Feudin', Fussin' and A-Fightin'
* ,4x/xx/xx ,  24 ,First Song - The Beautiful Morning Glory
