Exists, Date, #, Episode Name
* ,62/xx/xx ,     ,He Who Laughs Last
* ,63/03/10 ,     ,Kimberly Jim
* ,63/10/03 ,     ,Kimerly Jim
* ,64/04/12 ,     ,Morning Departure
* ,66/xx/xx ,     ,The Cassius Touch
* ,06/12/19 ,     ,To Dorothy, A Son
* ,xx/xx/xx ,     , All the Way
* ,xx/xx/xx ,     ,A Long Memory
* ,xx/xx/xx ,     ,A Question of Loving
* ,xx/xx/xx ,     ,A Question of Loving
* ,xx/xx/xx ,     ,All the Way
* ,xx/xx/xx ,     ,Berta
* ,xx/xx/xx ,     ,Berta
* ,xx/xx/xx ,     ,Bonaventure
* ,xx/xx/xx ,     ,But Petrosky Goes on Forever
* ,xx/xx/xx ,     ,But Petrosky Goes on Forever
* ,xx/xx/xx ,     ,Close Quarters
* ,xx/xx/xx ,     ,Close Quarters
* ,xx/xx/xx ,     ,Cornelia
* ,xx/xx/xx ,     ,Cornelia
* ,xx/xx/xx ,     ,Foreigner
* ,xx/xx/xx ,     ,Foreigner
* ,xx/xx/xx ,     ,He Who Laughs Last
* ,xx/xx/xx ,     ,Libel
* ,xx/xx/xx ,     ,Libel
* ,xx/xx/xx ,     ,Long Memory
* ,xx/xx/xx ,     ,Man in a Burning Hat
* ,xx/xx/xx ,     ,Man in a Burning Hat
* ,xx/xx/xx ,     ,Miranda
* ,xx/xx/xx ,     ,Miranda
* ,xx/xx/xx ,     ,Morning Departure
* ,xx/xx/xx ,     ,No Second Trial
* ,xx/xx/xx ,     ,No Second Trial
* ,xx/xx/xx ,     ,Open Verdict
* ,xx/xx/xx ,     ,Open Verdict
* ,xx/xx/xx ,     ,Retirement Benefits
* ,xx/xx/xx ,     ,Retirement Benefits
* ,xx/xx/xx ,     ,Robber and the Priest
* ,xx/xx/xx ,     ,Robber and the Priest
* ,xx/xx/xx ,     ,Scrooge the Miser
* ,xx/xx/xx ,     ,Scrooge the Miser
* ,xx/xx/xx ,     ,Talk of the Dead
* ,xx/xx/xx ,     ,Talk of the Dead
* ,xx/xx/xx ,     ,The Cassius Touch
* ,xx/xx/xx ,     ,The Cross Maker
* ,xx/xx/xx ,     ,The Cross Maker
* ,xx/xx/xx ,     ,The Day the Unicorns Danced
* ,xx/xx/xx ,     ,The Diary of Ann Frank
* ,xx/xx/xx ,     ,The Diary of Anne Frank
* ,xx/xx/xx ,     ,The Gold Bug
* ,xx/xx/xx ,     ,The Gold Bug
* ,xx/xx/xx ,     ,The Trial of Mary Dugan
* ,xx/xx/xx ,     ,The Trial of Mary Dugan
* ,xx/xx/xx ,     ,The Unguarded Hour
* ,xx/xx/xx ,     ,The Unguarded Hour
* ,xx/xx/xx ,     ,The Woman with Red Hair
* ,xx/xx/xx ,     ,To Dorothy, a Son
* ,xx/xx/xx ,     ,Tthe Woman with Red Hair
* ,xx/xx/xx ,     ,Zulu
* ,xx/xx/xx ,     ,Zulu
