Exists, Date, #, Episode Name
* ,47/07/14 ,     ,The Citizens of Paris Before the Bastille
* ,47/07/28 ,     ,The Witchcraft Trials at Salem
* ,47/08/04 ,     ,Sir Frances Drake Defeats the Spanish Armada
* ,47/08/11 ,     ,The Defense of the Alamo
* ,47/12/07 ,     ,Sustaining 2 -00 P M the Events of July 31, 1815 the End of the Napoleonic Era, Including a Fascinating Interview with the Emperor John Daly, Jackson Beck, Robert Lewis Shayon (producer, Director), Ken Roberts, Sigmund Miller (writer) 29 -35 Audio Condition - Excellent
* ,47/12/21 ,     ,The Sailing of the Mayflower
* ,48/01/18 ,     ,The Signing of the Magna Carta
* ,48/01/18 ,     ,The Signing of the Magna Carta
* ,48/02/08 ,     ,The Dreyfus Case
* ,48/02/22 ,     ,The Battle of Gettysburg
* ,48/02/22 ,     ,The Battle of Gettysburg
* ,48/02/29 ,     ,The Execution of Joan of Arc
* ,48/03/07 ,     ,The Oklahoma Land Run
* ,48/03/14 ,     ,The Death of Socrates
* ,48/03/21 ,     ,The Declaration of Independence Is Adopted
* ,48/04/04 ,     ,The Monitor and the Merrimac
* ,48/04/11 ,     ,The Last Day of Pompeii
* ,48/04/18 ,     ,The Battle of Plassey
