Exists, Date, #, Episode Name
* ,42/02/11 ,     ,
* ,42/02/25 ,     ,
* ,42/05/20 ,     ,Incomplete)
* ,42/05/22 ,     ,Incomplete)
* ,42/06/01 ,     ,
* ,42/06/04 ,     ,
* ,42/06/09 ,     ,Incomplete)
* ,42/06/10 ,     ,
* ,42/06/13 ,     ,Incomplete)
* ,42/06/25 ,     ,
* ,42/06/26 ,     ,Incomplete)
* ,42/07/20 ,     ,Incomplete)
* ,42/08/10 ,     ,Incomplete)
* ,42/09/03 ,     ,Missing Start)
* ,42/10/06 ,     ,
* ,42/10/09 ,     ,Incomplete)
* ,42/10/19 ,     ,Incomplete)
* ,42/10/26 ,     ,
* ,42/10/29 ,     ,Incomplete)
