Exists, Date, #, Episode Name
* ,45/06/03 ,   1 ,Guest - Charlie Ruggles
* ,45/06/10 ,   2 ,Guest - Groucho Marx
* ,45/06/17 ,   3 ,Guest - Garry Moore
* ,45/06/24 ,   4 ,Guest - Jack Carson
* ,45/07/01 ,   5 ,Guest - Aldolph Menjou
* ,45/07/08 ,   6 ,Guest - Vera Vague
* ,45/07/15 ,   7 ,Guest - William Frawley
* ,45/07/22 ,   8 ,Guest - Charles Kemper
* ,45/07/29 ,   9 ,Santa Monica
* ,45/08/05 ,  10 ,Pasadena
* ,45/08/12 ,  11 ,Santa Monica
* ,45/08/19 ,  12 ,Corona
* ,45/08/26 ,  13 ,Catalina Island
