Exists, Date, #, Episode Name
  ,47/09/28 ,   1 ,Good Neighbors in Spades --- PREMIERE (CBS - starring Myron McCormick & Charlotte Lawrence)
  ,47/10/05 ,   2 ,Poor Little Rich Boy
  ,47/10/12 ,   3 ,Three Strikes for Johnny
  ,47/10/19 ,   4 ,The One Cent Magenta
  ,47/10/26 ,   5 ,The Long Chance
  ,47/11/02 ,   6 ,Friend of the People
  ,47/11/09 ,   7 ,West of Suez
  ,47/11/16 ,   8 ,Half Way Down East
  ,47/11/23 ,   9 ,The Golden Dell
  ,47/11/30 ,  10 ,Joe's Boy
  ,47/12/07 ,  11 ,Eight Seconds to Live
  ,47/12/14 ,  12 ,Forced Landing
  ,47/12/21 ,  13 ,The Mean Wise Man
  ,47/12/28 ,  14 ,Make Believe Badman
  ,48/01/04 ,  15 ,The Jade Fan
  ,48/01/11 ,  16 ,The Unwritten Story
  ,48/01/18 ,  17 ,Unwelcome Niece
  ,48/01/25 ,  18 ,One Bad Apple
  ,48/02/03 ,  19 ,Old Lady India --- (show moves to Tuesdays)
  ,48/02/10 ,  20 ,Knock Twice
  ,48/02/17 ,  21 ,Troubled Waters
  ,48/02/24 ,  22 ,Homecoming
  ,48/03/02 ,  23 ,The Two Meanest Men in the World
  ,48/03/09 ,  24 ,Mountain Medicine
  ,48/03/16 ,  25 ,The Temple of Evil
  ,48/03/23 ,  26 ,The Lost River Gold Mine
  ,48/03/30 ,  27 ,The Man Who Didn't Die
  ,48/04/06 ,  28 ,
  ,48/04/13 ,  29 ,The Clever Woman
  ,48/04/20 ,  30 ,--- (does a delinquent parent get a good slapping around)
  ,48/04/27 ,  31 ,
  ,48/05/04 ,  32 ,Don't Do Me Any Favors
  ,48/05/11 ,  33 ,
  ,48/05/18 ,  34 ,The Fourth King of Egypt
  ,48/05/25 ,  35 ,The Three Jet Beads
  ,48/06/01 ,  36 ,Too Much Money
  ,48/06/08 ,  37 ,
  ,48/06/15 ,  38 ,The Star from Brooklyn
