Exists, Date, #, Episode Name
* ,47/09/29 ,   1 ,Meet the Naughtons
* ,47/09/30 ,   2 ,Let Them Eat Cake
* ,47/10/01 ,   3 ,The Wedding Presents
* ,47/10/02 ,   4 ,Many Happy Returns
* ,47/10/03 ,   5 ,The New Apartment
* ,47/10/06 ,   6 ,It's a Lock
* ,47/10/07 ,   7 ,Introspection
* ,47/10/08 ,   8 ,Mama's Early Birthday
* ,47/10/09 ,   9 ,Claudia Worries
* ,47/10/10 ,  10 ,Moving Day
* ,47/10/13 ,  11 ,The First Quarrel
* ,47/10/14 ,  12 ,Dog Days
* ,47/10/15 ,  13 ,Life with Major
* ,47/10/16 ,  14 ,Salmon on Sale
* ,47/10/17 ,  15 ,Dinner Plans
* ,47/10/20 ,  16 ,The Salmon Mousse
* ,47/10/21 ,  17 ,Return of the Wedding Presents
* ,47/10/22 ,  18 ,The Leaky Faucet
* ,47/10/23 ,  19 ,The Beginning of Our Home
* ,47/10/24 ,  20 ,Family Finances
* ,47/10/27 ,  21 ,The New Car
* ,47/10/28 ,  22 ,The Driver's Test
* ,47/10/29 ,  23 ,The Trip
* ,47/10/30 ,  24 ,David's Shirt
* ,47/10/31 ,  25 ,A Beautiful Sunday
* ,47/11/03 ,  26 ,Driving Downtown
* ,47/11/04 ,  27 ,Roger's Visit
* ,47/11/05 ,  28 ,The Broken Mandarin
* ,47/11/06 ,  29 ,The Engagement Ring
* ,47/11/07 ,  30 ,Mama is Ill
* ,47/11/10 ,  31 ,David's Cold
* ,47/11/11 ,  32 ,Armistice Day
* ,47/11/12 ,  33 ,The Kittens
* ,47/11/13 ,  34 ,A Sick Kitten
* ,47/11/14 ,  35 ,Stolen Car
* ,47/11/17 ,  36 ,A Small Death
* ,47/11/18 ,  37 ,Hartley and Julia Return
* ,47/11/19 ,  38 ,Opera Tickets
* ,47/11/20 ,  39 ,A Night at the Opera
* ,47/11/21 ,  40 ,An Available Apartment
* ,47/11/24 ,  41 ,Bath Time for Shakespeare
* ,47/11/25 ,  42 ,No Room at the Inn
* ,47/11/26 ,  43 ,Painted into a Corner
* ,47/11/27 ,  44 ,Thanksgiving Dinner
* ,47/11/28 ,  45 ,Nice Night for a Walk
* ,47/12/01 ,  46 ,We're Just Looking
* ,47/12/02 ,  47 ,The Whole Tooth
* ,47/12/03 ,  48 ,Through Claudia's Eyes
* ,47/12/04 ,  49 ,Can We Put Clothes in It, Too
* ,47/12/05 ,  50 ,The Shiner
* ,47/12/08 ,  51 ,A Genuine Antique
* ,47/12/09 ,  52 ,Claudia Suspects
* ,47/12/10 ,  53 ,The Joyous News
* ,47/12/11 ,  54 ,A Blank Canvas
* ,47/12/12 ,  55 ,A Real Stunner
* ,47/12/15 ,  56 ,The New Carpets
* ,47/12/16 ,  57 ,Psychic Buttons
* ,47/12/17 ,  58 ,A Job Offer
* ,47/12/18 ,  59 ,Heartbreak
* ,47/12/19 ,  60 ,Without Mama
* ,47/12/22 ,  61 ,Pipe Shopping
* ,47/12/23 ,  62 ,Lost and Found
* ,47/12/24 ,  63 ,Christmas Eve
* ,47/12/25 ,  64 ,Merry Christmas
* ,47/12/26 ,  65 ,A Surprise for Claudia
* ,47/12/29 ,  66 ,Claudia's Birthday
* ,47/12/30 ,  67 ,Naming the Dane
* ,47/12/31 ,  68 ,New Year's Eve
* ,48/01/01 ,  69 ,Julia's New Year Musicale
* ,48/01/02 ,  70 ,The Parking Lot
* ,48/01/05 ,  71 ,Women Drivers
* ,48/01/06 ,  72 ,Married or Not
* ,48/01/07 ,  73 ,The Organ Grinder
* ,48/01/08 ,  74 ,The New Secretary
* ,48/01/09 ,  75 ,Lottie Takes Over
* ,48/01/12 ,  76 ,Roger's Idea
* ,48/01/13 ,  77 ,Dropping Hints
* ,48/01/14 ,  78 ,David's Enthusiasm
* ,48/01/15 ,  79 ,Today's Upcoming Trip
* ,48/01/16 ,  80 ,The Old House
* ,48/01/19 ,  81 ,Of Men and Houses
* ,48/01/20 ,  82 ,Hat Shopping with Julia
* ,48/01/21 ,  83 ,Lunch with Hartley
* ,48/01/22 ,  84 ,Nothing Ever Happens To Us
* ,48/01/23 ,  85 ,Waiting for the Mailman
* ,48/01/26 ,  86 ,Discussing the Bid
* ,48/01/27 ,  87 ,Telephone Negotiations
* ,48/01/28 ,  88 ,Surprise Competition
* ,48/01/29 ,  89 ,Claudia Makes a Call
* ,48/01/30 ,  90 ,Mama Sees the House
* ,48/02/02 ,  91 ,A Bicycle Accident
* ,48/02/03 ,  92 ,David the Nursemaid
* ,48/02/04 ,  93 ,A Business Trip
* ,48/02/05 ,  94 ,Goodbye at the Airport
* ,48/02/06 ,  95 ,First Night Alone
* ,48/02/09 ,  96 ,Reggie Stops By
* ,48/02/10 ,  97 ,Legal Complications
* ,48/02/11 ,  98 ,Delilah Comes Through
* ,48/02/12 ,  99 ,Filing the Paperwork
* ,48/02/13 , 100 ,Dinner with Reggie
* ,48/02/16 , 101 ,Bluff's Infection
* ,48/02/17 , 102 ,Planning the Renovation
* ,48/02/18 , 103 ,New Shoes
* ,48/02/19 , 104 ,Lottie and Reggie
* ,48/02/20 , 105 ,Bluff's Homecoming
* ,48/02/23 , 106 ,Finding a Contractor
* ,48/02/24 , 107 ,A Little Something for the House
* ,48/02/25 , 108 ,Cornered By Mrs. Meeker
* ,48/02/26 , 109 ,Has Claudia Changed
* ,48/02/27 , 110 ,Renovation Begins
* ,48/03/01 , 111 ,Painting Pants
* ,48/03/02 , 112 ,Visiting Hartley
* ,48/03/03 , 113 ,Running into Helen
* ,48/03/04 , 114 ,A Missing Plumber
* ,48/03/05 , 115 ,Telephone Woes
* ,48/03/08 , 116 ,Three Alarm Fire
* ,48/03/09 , 117 ,Explaining Insurance
* ,48/03/10 , 118 ,Astrology
* ,48/03/11 , 119 ,Digging a Well
* ,48/03/12 , 120 ,Income Tax
* ,48/03/15 , 121 ,A Snack at 4 AM
* ,48/03/16 , 122 ,Touring the Farm
* ,48/03/17 , 123 ,The Tree Surgeon
  ,48/03/18 , 124 ,
* ,48/03/19 , 125 ,Waiting for the Train
* ,48/03/22 , 126 ,Shopping for the Baby
* ,48/03/23 , 127 ,Finding a Farmer
* ,48/03/24 , 128 ,Laundry Problems
* ,48/03/25 , 129 ,The Interior Decorator
* ,48/03/26 , 130 ,The Flower Seller
* ,48/03/29 , 131 ,Renting the Apartment
* ,48/03/30 , 132 ,Jeffrey Pays a Visit
* ,48/03/31 , 133 ,The Night Clubbers
* ,48/04/01 , 134 ,April Fools' Day
* ,48/04/02 , 135 ,Finding the Stateroom
* ,48/04/05 , 136 ,Hiring a Maid
* ,48/04/06 , 137 ,Opening the Safe
* ,48/04/07 , 138 ,Dinner with Aunt Louisa
* ,48/04/08 , 139 ,Browsing the Catalog
* ,48/04/09 , 140 ,Vacuums and Mailboxes
* ,48/04/12 , 141 ,The Moving Men
* ,48/04/13 , 142 ,An Important Banquet
* ,48/04/14 , 143 ,Mama's Living Arrangements
* ,48/04/15 , 144 ,The Last Night in New York
* ,48/04/16 , 145 ,Driving to the New House
* ,48/04/19 , 146 ,Peaceful in the Country
* ,48/04/20 , 147 ,News of the Neighbors
* ,48/04/21 , 148 ,Egg Hunting
* ,48/04/22 , 149 ,In the Gloaming
* ,48/04/23 , 150 ,Hiring a Farmer
* ,48/04/26 , 151 ,Noises in the Night
* ,48/04/27 , 152 ,Repairing the Wall
* ,48/04/28 , 153 ,Chicken in the Oven
* ,48/04/29 , 154 ,A Visit from Bertha and Fritz
* ,48/04/30 , 155 ,The Happy Woman
* ,48/05/03 , 156 ,Mama Takes the Train
* ,48/05/04 , 157 ,Reviewing the Budget
* ,48/05/05 , 158 ,The New Maid
* ,48/05/06 , 159 ,Noises in the Pipes
* ,48/05/07 , 160 ,Dry Flies
* ,48/05/10 , 161 ,Parking the Car
* ,48/05/11 , 162 ,An Appointment in New York
* ,48/05/12 , 163 ,Breakfast in Bed
* ,48/05/13 , 164 ,An Evening Stroll
* ,48/05/14 , 165 ,The Prodigal Pup
* ,48/05/17 , 166 ,Gertrude Arrives
* ,48/05/18 , 167 ,Fresh Off the Farm
* ,48/05/19 , 168 ,The Lack of a Jack
* ,48/05/20 , 169 ,A Letter of Recommendation
* ,48/05/21 , 170 ,Gertrude's One Weakness
* ,48/05/24 , 171 ,Claudia's Secret Letter
* ,48/05/25 , 172 ,Will Actress Claudia Stage a Comeback
* ,48/05/26 , 173 ,Late for the Train
* ,48/05/27 , 174 ,George Reynolds Needs An Architect
* ,48/05/28 , 175 ,Victoria Manners Pays a Visit and Takes a Long, Long Look at David
* ,48/05/31 , 176 ,Lunch with Victoria Manners
* ,48/06/01 , 177 ,The Bet
* ,48/06/02 , 178 ,David at Home
* ,48/06/03 , 179 ,Roger Comes to Dinner
* ,48/06/04 , 180 ,Gone Fishin'
* ,48/06/07 , 181 ,Jeff Killian, Expelled from School, Is Coming to Eastbrook
* ,48/06/08 , 182 ,Jeff Has a Hard First Day on the Farm
* ,48/06/09 , 183 ,Fisherman
* ,48/06/10 , 184 ,Jeff's Mother Changes Her Plans
* ,48/06/11 , 185 ,Claudia Decides to Meddle
* ,48/06/14 , 186 ,The Aftermath of a Fine Weekend
* ,48/06/15 , 187 ,Mama Remembers
* ,48/06/16 , 188 ,Meeting the Boat
* ,48/06/17 , 189 ,An Evening Alone
* ,48/06/18 , 190 ,The Crossroads of the World
* ,48/06/21 , 191 ,A Flower Garden
* ,48/06/22 , 192 ,Meeting Dr. Taft
* ,48/06/23 , 193 ,A Lucky Dime
* ,48/06/24 , 194 ,Making Ice Cream
* ,48/06/25 , 195 ,The Mayor Discusses A New School
* ,48/06/28 , 196 ,Who's Knocking at the Door
* ,48/06/29 , 197 ,In New York
* ,48/06/30 , 198 ,Afternoon in New York
* ,48/07/01 , 199 ,The Baby Is Coming
* ,48/07/02 , 200 ,Still Coming
* ,48/07/05 , 201 ,It's a Boy
* ,48/07/06 , 202 ,First Look at the New Heir
* ,48/07/07 , 203 ,David Visits the Hospital
* ,48/07/08 , 204 ,Visitors and Gifts
* ,48/07/09 , 205 ,A Walk with David, and a Doctor's Problem
* ,48/07/12 , 206 ,Claudia Uses Her Baby to Help Another
* ,48/07/13 , 207 ,The True Story of 'The Jarvis Bay'
* ,48/07/14 , 208 ,Walking the Baby
* ,48/07/15 , 209 ,Leaving the Hospital
* ,48/07/16 , 210 ,That First 2:00 AM Feeding
* ,48/07/19 , 211 ,The First Confusing Monday Morning
* ,48/07/20 , 212 ,Naming the Baby
* ,48/07/21 , 213 ,If You've Seen One Baby, You've Seen Them All
* ,48/07/22 , 214 ,The Phantom House-cleaner
* ,48/07/23 , 215 ,Claudia Does Something About the Weather
* ,48/07/26 , 216 ,David Fixes This and That
* ,48/07/27 , 217 ,Plans for Bobby's Education
* ,48/07/28 , 218 ,Plans to Bring Bertha and Fritz Back to the Farm
* ,48/07/29 , 219 ,Packing for the Return Trip
* ,48/07/30 , 220 ,Welcome to the Farm
* ,48/08/02 , 221 ,Gertrude Departs
* ,48/08/03 , 222 ,Gifts for Bobby
* ,48/08/04 , 223 ,Bathing the Baby
* ,48/08/05 , 224 ,Making the Beds
* ,48/08/06 , 225 ,Fritz and Bertha Arrive
* ,48/08/09 , 226 ,Bobby's First Visitor
* ,48/08/10 , 227 ,Fritz Helps Ruby, the Pig
* ,48/08/11 , 228 ,Bertha Takes Over
* ,48/08/12 , 229 ,Claudia Cleans the Closet, David the Transvestite
* ,48/08/13 , 230 ,Lotte from the Bronx Recognizes the Farmer's Wife Within Claudia
* ,48/08/16 , 231 ,Claudia Has Doubts, David Has Doubts
* ,48/08/17 , 232 ,A Day on the Town
* ,48/08/18 , 233 ,Lunch in New York with Julia
* ,48/08/19 , 234 ,First Night Back Home
* ,48/08/20 , 235 ,A Trip to the Movies
* ,48/08/23 , 236 ,An Evening at the Summer Theatre
* ,48/08/24 , 237 ,Claudia at the Ball Game
* ,48/08/25 , 238 ,A Visit to Coney Island
* ,48/08/26 , 239 ,Claudia Gets Offered A Part
* ,48/08/27 , 240 ,Claudia Talks about Summer Love
* ,48/08/30 , 241 ,A Rocky Rehearsal
* ,48/08/31 , 242 ,Claudia Rehearses While David Vacations
* ,48/09/01 , 243 ,The Town Crier Interviews Claudia
* ,48/09/02 , 244 ,Claudia's Furniture Gets A Part
* ,48/09/03 , 245 ,Claudia in Summer Stock - Dress Rehearsal
* ,48/09/06 , 246 ,Opening Night Jitters
* ,48/09/07 , 247 ,And the Curtain Goes Up
* ,48/09/08 , 248 ,Mr. Tucker Takes Center Stage
* ,48/09/09 , 249 ,Bobby's First Cold
* ,48/09/10 , 250 ,After the Play Ends
* ,48/09/13 , 251 ,Claudia's First Check
* ,48/09/14 , 252 ,Claudia and the Country Auction
* ,48/09/15 , 253 ,The Norton's First Anniversary
* ,48/09/16 , 254 ,A Steak Dinner Goes to the Dogs
* ,48/09/17 , 255 ,A Fast Swim, But a Strange Pool
* ,48/09/20 , 256 ,An Autumn Evening on the Farm
* ,48/09/21 , 257 ,Bad News
* ,48/09/22 , 258 ,Tense Drama in a Doctor's Office
* ,48/09/23 , 259 ,A Taste of Loneliness
* ,48/09/24 , 260 ,Claudia Visits the Hospital
* ,48/09/27 , 261 ,Mr. Tucker Helps Out
* ,48/09/28 , 262 ,Rebuilding the Barn
* ,48/09/29 , 263 ,Doctor's Report on David
* ,48/09/30 , 264 ,David's Partner Visits
* ,48/10/01 , 265 ,More Company for David
* ,48/10/04 , 266 ,David Coming Home from the Hospital
* ,48/10/05 , 267 ,Balancing the Checkbook
* ,48/10/06 , 268 ,Companions in Convalescence
* ,48/10/07 , 269 ,David 'Fixes' the Telephone
* ,48/10/08 , 270 ,A Gift from Mr. Tucker
* ,48/10/11 , 271 ,David's First Day Outside
  ,48/10/12 , 272 ,Back to Work or Not
* ,48/10/13 , 273 ,Roger Stays the Day
* ,48/10/14 , 274 ,Trespassers Beware
* ,48/10/15 , 275 ,Hunting with Jimmy
* ,48/10/18 , 276 ,Parking Problems
* ,48/10/19 , 277 ,Return from the Discount Drug Store
* ,48/10/20 , 278 ,Dr. Barry Visits
* ,48/10/21 , 279 ,Solitaire and Larceny for Two
* ,48/10/22 , 280 ,Jared Tucker Talks Cows
* ,48/10/25 , 281 ,Some Serious Yankee Cow Tradin'
* ,48/10/26 , 282 ,Claudia Decides on a Cow
* ,48/10/27 , 283 ,Tucker Trades for A Cow
* ,48/10/28 , 284 ,Claudia's In-laws Arrive
* ,48/10/29 , 285 ,Nourishing Cream
* ,48/11/01 , 286 ,David Returns
* ,48/11/02 , 287 ,Election Day
* ,48/11/03 , 288 ,A Present for Claudia
* ,48/11/04 , 289 ,A Second Meeting with Jesse Mason
* ,48/11/05 , 290 ,Football
* ,48/11/08 , 291 ,Strange Call at Night
* ,48/11/09 , 292 ,The Cow Moves In
* ,48/11/10 , 293 ,A Trip to the City
* ,48/11/11 , 294 ,Armistice Day in Eastbrook
* ,48/11/12 , 295 ,A Draft in the Night
* ,48/11/15 , 296 ,David Breaks the Law
* ,48/11/16 , 297 ,Painting Porch Furniture
* ,48/11/17 , 298 ,Waiting Up for David
* ,48/11/18 , 299 ,Bobby Wakes Everyone
* ,48/11/19 , 300 ,Jared and Roger Spar
* ,48/11/22 , 301 ,Checking on the Cow
* ,48/11/23 , 302 ,More for Thanksgiving
* ,48/11/24 , 303 ,Fritz and Bertha Leave
* ,48/11/25 , 304 ,Finally Thanksgiving
* ,48/11/26 , 305 ,Leftover Hangover
* ,48/11/29 , 306 ,Listening to the Pringles
* ,48/11/30 , 307 ,The Great Dane Debate
* ,48/12/01 , 308 ,Fighting Over the Dane
* ,48/12/02 , 309 ,A Dog in the Mail
* ,48/12/03 , 310 ,Mrs. Brown Meets the Dog
* ,48/12/06 , 311 ,Paying Bills
* ,48/12/07 , 312 ,Spring Plowing Planning
* ,48/12/08 , 313 ,Claudia Organizes David
* ,48/12/09 , 314 ,Installing Windows
* ,48/12/10 , 315 ,Claudia Worries
* ,48/12/13 , 316 ,Eight Inches of Snow
* ,48/12/14 , 317 ,David Gets A Haircut
* ,48/12/15 , 318 ,Going to the Birds
* ,48/12/16 , 319 ,David Interrupted
* ,48/12/17 , 320 ,Finding Mistletoe
* ,48/12/20 , 321 ,Mrs. Brown Decides
* ,48/12/21 , 322 ,Shopping for Mama
* ,48/12/22 , 323 ,Giving Away David's Gift
* ,48/12/23 , 324 ,The Nortons Hunt A Tree
* ,48/12/24 , 325 ,The Christmas Calf
* ,48/12/27 , 326 ,Catching Cold
* ,48/12/28 , 327 ,Furnace Troubles
* ,48/12/29 , 328 ,Claudia's Birthday
* ,48/12/30 , 329 ,Planning New Year's
* ,48/12/31 , 330 ,Ringing in 1949
* ,49/01/03 , 331 ,Fussing Over Mr. Tucker
* ,49/01/04 , 332 ,Bulb Snatching
* ,49/01/05 , 333 ,Mrs. Brown Leaves
* ,49/01/06 , 334 ,Missing Mrs. Brown
* ,49/01/07 , 335 ,Snowstorm
* ,49/01/10 , 336 ,Roger Goes Skiing
* ,49/01/11 , 337 ,Frozen Pipes
* ,49/01/12 , 338 ,Love for Lottie
* ,49/01/13 , 339 ,A Ride Uptown
* ,49/01/14 , 340 ,The Sage of Duck Pond Lane
* ,49/01/17 , 341 ,Dressing David for Rain
* ,49/01/18 , 342 ,Managing the Milk
* ,49/01/19 , 343 ,Jared Asks A Favor
* ,49/01/20 , 344 ,Catalogue Shopping
* ,49/01/21 , 345 ,Lost Collar Button
* ,49/01/24 , 346 ,Talking A Trip
* ,49/01/25 , 347 ,Four for Lunch
* ,49/01/26 , 348 ,A Watch for Mr. Tucker
* ,49/01/27 , 349 ,A Look for a Book
* ,49/01/28 , 350 ,A Surprise Guest
* ,49/01/31 , 351 ,A Tiny Thaw
* ,49/02/01 , 352 ,Schoolhouse Plans
* ,49/02/02 , 353 ,Jared Tucker, Babysitter
* ,49/02/03 , 354 ,Tucker's Report
* ,49/02/04 , 355 ,Pot Roast for Friends
* ,49/02/07 , 356 ,A Lesson for Jimmy
* ,49/02/08 , 357 ,Arguing Ashtrays
* ,49/02/09 , 358 ,Dinner and A Hat
* ,49/02/10 , 359 ,Who to Invite
* ,49/02/11 , 360 ,Off to the Concert
* ,49/02/14 , 361 ,The Forgotten 14th
* ,49/02/15 , 362 ,Fifteen Minutes Not to Hurry
* ,49/02/16 , 363 ,An Unexpected Visit
* ,49/02/17 , 364 ,Car Trouble
* ,49/02/18 , 365 ,Darning the Phone
* ,49/02/21 , 366 ,Waiting on the Babysitter
* ,49/02/22 , 367 ,The Land Across the Road
* ,49/02/23 , 368 ,Eastbrook or New York
* ,49/02/24 , 369 ,Preparing for New York
* ,49/02/25 , 370 ,Fuss Before Leaving
* ,49/02/28 , 371 ,Surprising Mama
* ,49/03/01 , 372 ,Moving in on Mama
* ,49/03/02 , 373 ,David Courts the Ladies
* ,49/03/03 , 374 ,Up All Night
* ,49/03/04 , 375 ,Kidnapped for Dinner
* ,49/03/07 , 376 ,To Stay or Go
* ,49/03/08 , 377 ,Claudia Buys A Cow
* ,49/03/09 , 378 ,Who Sleeps Where
* ,49/03/10 , 379 ,City Versus Country
* ,49/03/11 , 380 ,Milking Majesty
* ,49/03/14 , 381 ,Taxed Again
* ,49/03/15 , 382 ,Vying for Silence
* ,49/03/16 , 383 ,The Westbrook Accident
* ,49/03/17 , 384 ,Telling David
* ,49/03/18 , 385 ,Claudia in Court
* ,49/03/21 , 386 ,Mice Move In
* ,49/03/22 , 387 ,Land for Sale
* ,49/03/23 , 388 ,Dealing for a Deed
* ,49/03/24 , 389 ,Roger's Surprise
* ,49/03/25 , 390 ,Walk in the Rain
