Exists, Date, #, Episode Name
* ,98/12/21 ,     ,s01e01 - The Mexican Seer
* ,98/12/22 ,     ,s01e02 - The Diamond Links
* ,98/12/23 ,     ,s01e03 - The Tyrolean Castle
* ,98/12/25 ,     ,s01e04 - The Arrest of the Colonel
  ,00/01/08 ,   1 ,Mexican Seer
  ,00/01/09 ,   2 ,Diamond Links
  ,00/01/15 ,   3 ,Tyrolean Castle
  ,00/01/16 ,   4 ,Arrest of Colonel Clay
  ,00/11/13 ,   5 ,German Professor
* ,00/11/13 ,     ,s02e01 - The German Professor
  ,00/11/14 ,   6 ,Scottish Retreat
* ,00/11/14 ,     ,s02e02 - The Scottish Retreat
  ,00/11/15 ,   7 ,Old Master
* ,00/11/15 ,     ,s02e03 - The Old Master
  ,00/11/16 ,   8 ,Japanned Dispatch Box
* ,00/11/16 ,     ,s02e04 - The Japanned Distpatch Box
* ,00/11/17 ,     ,s02e05 - The Game Of Poker
* ,03/01/05 ,     ,s03e01 - The Missing Dividends
* ,03/01/12 ,     ,s03e02 - The Man Downstairs
* ,03/01/19 ,     ,s03e03 - The Reluctant Prosecutor
* ,03/01/26 ,     ,s03e04 - The Old Bailey
* ,03/02/02 ,     ,s03e05 - The Final Verdict
