Exists, Date, #, Episode Name
* ,57/07/27 ,   3 ,First Song - Bye Bye Love
* ,57/xx/xx ,   1 ,First Song - Miss Molly
* ,57/xx/xx ,   2 ,First Song - She's Mine, All Mine
* ,57/xx/xx ,  13 ,First Song - I Ain't Going to Wash My Face
* ,57/xx/xx ,  14 ,First Song - On My Farm in Louisiana, Where the Old Red River Flows
* ,57/xx/xx ,  15 ,First Song - Riding Down to Santa Fe
* ,57/xx/xx ,  16 ,First Song - The Ballad of the Boll Weevil
* ,57/xx/xx ,  17 ,First Song - Let Me Be the One
* ,57/xx/xx ,  18 ,First Song - Hold Everything Till I Come Home
* ,58/09/24 ,  69 ,First Song - Slippin' Around
* ,58/09/24 ,  70 ,First Song - Any Time
* ,59/xx/xx ,  30 ,First Song - There's a Love Knot in My Lariat
* ,59/xx/xx ,  42 ,First Song - Roly Poly (Jim Reeves)
* ,59/xx/xx ,  65 ,First Song - Oklahoma Hills (Jim Reeves)
* ,59/xx/xx ,  93 ,First Song - Bye Bye Love ( Webb Pierce)
* ,60/xx/xx , 103 ,First Song - Search Me, Lord
* ,60/xx/xx , 105 ,First Song - Billy Bayou (Jim Reeves)
* ,60/xx/xx , 112 ,First Song - Bimbo, Bimbo (Jim Reeves)
* ,60/xx/xx , 125 ,First Song - Blue Boy (Jim Reeves)
* ,xx/xx/xx ,  26 ,First Song - Hey Mister Cottonpicker
* ,xx/xx/xx ,  27 ,First Song - I'm Comin over Tonight
* ,xx/xx/xx ,  28 ,First Song - Won't You Ride in My Little Red Wagon
* ,xx/xx/xx ,  29 ,First Song - This Heart
* ,xx/xx/xx ,  31 ,Wayne Walker, Hank Garland and the Garland Four, Joyce Hunter
* ,xx/xx/xx ,  32 ,First Song - Got It on My Mind
* ,xx/xx/xx ,  37 ,First Song - Don't Let Your Deal Go Down
* ,xx/xx/xx ,  38 ,First Song - Mr Lost
* ,xx/xx/xx ,  43 ,First Song - The Panhandle Rag
* ,xx/xx/xx ,  44 ,First Song - Hot Diddly Dog
* ,xx/xx/xx ,  45 ,First Song - Don't Sweetheart Me
* ,xx/xx/xx ,  46 ,The Show Features a Great Solo by Cramer
* ,xx/xx/xx ,  47 ,Gordon Terry, June Webb, Floyd Cramer, Hank Garland
* ,xx/xx/xx ,  48 ,First Song - Tangled Mind
* ,xx/xx/xx ,  53 ,First Song - Big Black Train
* ,xx/xx/xx ,  54 ,First Song - Sweet, Sweet Baby
* ,xx/xx/xx ,  55 ,First Song - I Used to Love You but I Don't Anymore
* ,xx/xx/xx ,  56 ,First Song - Oh
* ,xx/xx/xx ,  67 ,First Song - There's Just a Little Bit of You Left in My Heart
* ,xx/xx/xx ,  68 ,First Song - I'm Married Now
* ,xx/xx/xx ,  83 ,First Song - Billy Bayou
* ,xx/xx/xx ,  84 ,First Song - Have You Ever Been Lonely
* ,xx/xx/xx ,  87 ,First Song - I Get The Blues When It Rains
* ,xx/xx/xx ,  88 ,First Song - Suddenly
* ,xx/xx/xx ,  89 ,First Song - John Henry
* ,xx/xx/xx ,  90 ,First Song - Somebody Has Taken My Place
* ,xx/xx/xx ,  91 ,First Song - I'm Walking
* ,xx/xx/xx ,  98 ,First Song - Diamond Joe
* ,xx/xx/xx , 104 ,First Song - Hang Your Head in Shame
* ,xx/xx/xx , 135 ,First Song - How Many Fools
* ,xx/xx/xx , 153 ,First Song - Blue Boy
* ,xx/xx/xx , 173 ,First Song - Billy Bayou (3)
* ,xx/xx/xx , 175 ,Ferlin Husky, Betty Husky
* ,xx/xx/xx , 176 ,Mac Wiseman, Billy Grammer, the Jordanaires
* ,xx/xx/xx , 183 ,First Song - Don't It Make You Wanta Go
* ,xx/xx/xx , 184 ,First Song - Rise and Shine 1
* ,xx/xx/xx , 185 ,First Song - Cut Across Shorty (2)
* ,xx/xx/xx , 186 ,First Song - Today I Started Loving You Again 1
* ,xx/xx/xx , 201 ,Cowboy Copas, Bobby Lord, Tommy Jackson
* ,xx/xx/xx , 202 ,Bobby Lord, Rommy Noble, Floyd Cramer
* ,xx/xx/xx , 207 ,First Song - I Get The Blues When It Rains (2)
* ,xx/xx/xx , 209 ,The Jordanaires
* ,xx/xx/xx , 210 ,Bob Drusky, Helen Mc Croy
* ,xx/xx/xx , 223 ,Jim Reeves
* ,xx/xx/xx , 224 ,Cowboy Copas, Marvin Hughes
* ,xx/xx/xx , 225 ,First Song - Billy Bayou (2)
* ,xx/xx/xx , 232 ,First Song - Your Old Love Letters
* ,xx/xx/xx , 233 ,First Song - In My Adobe Hacienda
* ,xx/xx/xx , 234 ,First Song - I Ain't Gonna Work Tomorrow
* ,xx/xx/xx , 234 ,The Second Tune is 'The Maiden's Prayer'
* ,xx/xx/xx , 235 ,First Song - Walk on Down the Road
* ,xx/xx/xx , 237 ,First Song - Alligator Man
* ,xx/xx/xx , 238 ,First Song - I Wake up with a Big Old Heartache (2)
* ,xx/xx/xx , 239 ,First Song - Ice Cold Love
* ,xx/xx/xx , 240 ,First Song - Let's Think About Life
* ,xx/xx/xx , 241 ,First Song - In Answer to the Might Battle Cry
* ,xx/xx/xx , 242 ,First Song - Don't Just Stand There
* ,xx/xx/xx , 243 ,First Song - Are You Teasing Me
* ,xx/xx/xx , 244 ,The First Tune Is an Unidentified Instrumental
* ,xx/xx/xx , 245 ,First Song - Wait for the Light to Shine
* ,xx/xx/xx , 246 ,First Song - Big Big Dreams
* ,xx/xx/xx , 249 ,First Song - I'm Getting Ready
* ,xx/xx/xx , 250 ,First Song - It's Been a Blue, Blue Day
* ,xx/xx/xx , 252 ,First Song - I'm So Blue
* ,xx/xx/xx , 253 ,First Song - You're Gonna Need My Love Some Day
* ,xx/xx/xx , 254 ,First Song - Boll Weevil
* ,xx/xx/xx , 255 ,First Song - Sugar Foot Rag
* ,xx/xx/xx , 256 ,First Song - I Wake up with a Big Old Heartache
* ,xx/xx/xx , 257 ,First Song - Poor Lonesome Me
* ,xx/xx/xx , 258 ,First Song - Strange
* ,xx/xx/xx , 259 ,First Song - At the Foot of the Bed
* ,xx/xx/xx , 260 ,First Song - Are You from Dixie
* ,xx/xx/xx , 297 ,Sonny James, Skeeter Davis
* ,xx/xx/xx , 298 ,The Wilburn Brothers
* ,xx/xx/xx , 307 ,Jim Reeves (2)
* ,xx/xx/xx , 308 ,First Song - I'm Gonna Change Everything
* ,xx/xx/xx , 319 ,Carl Butler, Bobby Grammer
* ,xx/xx/xx , 320 ,Roy Drusky, Daryl Mc Call
* ,xx/xx/xx , 321 ,Archie Campbell, Dottie West
* ,xx/xx/xx , 322 ,Dick Flood, Mac Wiseman
* ,xx/xx/xx , 327 ,Sonny James, Jerry Byrd
* ,xx/xx/xx , 328 ,The Irvin Twins, Jackie Haines
* ,xx/xx/xx , 339 ,First Song - I Almost Called Your Name
* ,xx/xx/xx , 340 ,First Song - I Pitched My Tent on the Old Camp Ground
* ,xx/xx/xx , 341 ,First Song - Love's Gonna Live Here
* ,xx/xx/xx , 342 ,First Song - That's What Lonesome Is
* ,xx/xx/xx , 343 ,First Song - Bad Times Comin
* ,xx/xx/xx , 344 ,First Song - I've Got a Friend
* ,xx/xx/xx , 345 ,First Song - Oh Tell Me If You Love Me Kitty Clyde
* ,xx/xx/xx , 346 ,First Song - Walk out Backwards
* ,xx/xx/xx , 347 ,First Song - Vera Cruz
* ,xx/xx/xx , 348 ,First Song - Find Out
* ,xx/xx/xx , 349 ,Stonewall Jackson
* ,xx/xx/xx , 350 ,Smiley and Kitty
* ,xx/xx/xx , 351 ,Warner Mack
* ,xx/xx/xx , 352 ,Bobby Lord, Jerry Byrd
* ,xx/xx/xx , 353 ,First Song - Onward Christian Soldiers
* ,xx/xx/xx , 354 ,First Song - Missin' You
* ,xx/xx/xx , 355 ,First Song - Fair and Tender Ladies
* ,xx/xx/xx , 356 ,First Song - Bad Times Coming
* ,xx/xx/xx , 363 ,First Song - Chattanooga Shoeshine Boy
* ,xx/xx/xx , 365 ,First Song - Home In San Antone
* ,xx/xx/xx , 381 ,First Song - Jennie Lou
* ,xx/xx/xx , 382 ,First Song - Ninety-Nine Years
* ,xx/xx/xx , 401 ,Grandpa Jones, Ramona
* ,xx/xx/xx , 402 ,Roy Drusky
* ,xx/xx/xx , 415 ,Sonny James
* ,xx/xx/xx , 416 ,The Jordanaires (2)
* ,xx/xx/xx , 605 ,First Song - Cut Across Shorty
* ,xx/xx/xx , 606 ,First Song - Wings of a Dove
* ,xx/xx/xx , 705 ,First Song - One Man's Trash
* ,xx/xx/xx , 706 ,First Song - Your Love Is Morning to Me
* ,xx/xx/xx , 734 ,First Song - I Will Survive
