Exists, Date, #, Episode Name
* ,53/06/17 ,     ,Marry Off Cousin Willie
* ,53/06/24 ,     ,No-Nose Nick
* ,53/07/01 ,     ,Gloria La Plunge
  ,53/07/07 ,     ,
* ,53/07/15 ,     ,Willie's Birthday
* ,53/07/29 ,     ,Honest Joe
  ,53/09/29 ,     ,
