Exists, Date, #, Episode Name
* ,52/12/03 ,   0 ,The Crime of Bathsheba Spooner (Audition)
* ,53/06/15 ,   1 ,The Crime of Bathsheba Spooner
* ,53/06/22 ,   2 ,The Shockingly Peaceful Passing of Thomas Edwin Bartlett, Green Grocer
* ,53/06/29 ,   3 ,The Checkered Life and Sudden Death of Colonel James Fisk, Jr
* ,53/07/06 ,   4 ,The Shrapnelled Body of Charles Drew, Sr
* ,53/07/13 ,   5 ,The Terrible Deed of John White Webster
* ,53/07/20 ,   6 ,The Death of a Picture Hanger
* ,53/07/27 ,   7 ,The Final Day of General Ketchum, And How He Died
* ,53/08/03 ,   8 ,Mr Thrower's Hammer
* ,53/08/10 ,   9 ,The Axe and the Droot Family, How They Fared
* ,53/08/17 ,  10 ,The Incredible Trial of Laura D Fair
* ,53/08/24 ,  11 ,The Alsop Family, How It Deminished And Grew Again
* ,53/08/31 ,  12 ,Your Loving Son, Nero
* ,53/09/07 ,  13 ,The Torment of Henrietta Robinson, And Why She Killed
* ,53/09/30 ,  14 ,The Bloody, Bloody Banks of Fall River
* ,53/10/07 ,  15 ,The Hangman and William Palmer, Who Won
* ,53/10/14 ,  16 ,The Seven-layered Arsenic Cake of Madame Lafarge
* ,53/10/21 ,  17 ,Billy Bonny Bloodletter, Also Known As 'The Kid'
* ,53/10/28 ,  18 ,John Hayes, His Head And How They Were Parted
* ,53/11/04 ,  19 ,Raschi Among the Crocodiles, And The Prank He Played
* ,53/11/11 ,  20 ,Blackbeard's Fourteenth Wife, Why She Was Not Good For Him
* ,53/11/18 ,  21 ,The Triangle on the Round Table
* ,53/11/25 ,  22 ,The Killing Story of William Corder and the Farmer's Daughter
* ,53/12/02 ,  23 ,If a Body Need a Body, Just Call Burke and Hare
* ,53/12/09 ,  24 ,The Assassination of Abraham Lincoln
* ,53/12/16 ,  25 ,John and Judith, Their Crime And Why They Didn't Get To Enjoy It
* ,53/12/30 ,  26 ,Coyle and Richardson, Why They Hung In A Spanking Breeze
* ,54/01/06 ,  27 ,The Younger Brothers, Why Some Of Them Grew No Older
* ,54/01/13 ,  28 ,How Supan Got the Hook Outside Bombay
* ,54/01/20 ,  29 ,Madeline Smith, Maid or Murderess, Which?
* ,54/01/27 ,  30 ,The Boorn Brothers and the Hangman, A Study In Nip And Tuck
* ,54/02/03 ,  31 ,The Incredible History of John Shepard
* ,54/02/10 ,  32 ,Twenty-Three Knives Against Caesar
* ,54/02/17 ,  33 ,Jean Baptiste Troppmann, Killer Of Many
* ,54/02/24 ,  34 ,The Good Ship Jane, Why She Became Flotsam
* ,54/03/03 ,  35 ,Roger Nems, How He, Though Dead, Won The Game
* ,54/03/10 ,  36 ,New Hampshire, the Tiger and Brad Ferguson, What Happened Then?
* ,54/03/17 ,  37 ,Old Sixtoes, How He Stopped Construction On The B. B. C. and I
  ,54/03/24 ,  38 ,Francisco Pizarro, His Heart On A Golden Knife
* ,54/03/31 ,  39 ,Robby-Boy Balfour; How He Wrecked A Big Prison's Reputation
* ,54/04/07 ,  40 ,The General's Daughter, the Czar's Lieutenant and the Linen Closet
* ,54/04/14 ,  41 ,James Evans, Fireman; How He Extinguished A Human Torch
* ,54/04/21 ,  42 ,Cesare Borgia - His Most Difficult Murder
* ,54/04/28 ,  43 ,Widow Magee and the Three Gypsies; A Vermont Fandango
* ,54/05/05 ,  44 ,Bunny Baumler; His Close Brush With Fame
* ,54/05/12 ,  45 ,Mr Clarke's Skeleton in Mr Aram's Closet; The Noise It Made
* ,54/05/26 ,  46 ,The Lethal Habit of The Marquise De Brinvilliers
* ,54/06/02 ,  47 ,Mr Jonathon Jewett; How Most Peculiarly He Cheated The Hangman
* ,54/06/09 ,  48 ,The Assassination of Leon Trotsky
* ,54/06/16 ,  49 ,The Death of a Baltimore Birdie and Friend
* ,54/06/23 ,  50 ,Ali Pasha - A Turkish Delight
* ,54/06/30 ,  51 ,Good Evening, My Name Is Jack the Ripper
