Exists, Date, #, Episode Name
  ,45/07/04 ,   1 ,Public Enemies
  ,45/07/11 ,   2 ,
  ,45/07/18 ,   3 ,
  ,45/07/25 ,   4 ,
  ,45/08/01 ,   5 ,
  ,45/08/08 ,   6 ,
  ,45/08/15 ,   7 ,
  ,45/08/22 ,   8 ,
  ,45/08/29 ,   9 ,
  ,45/09/05 ,  10 ,
  ,45/09/12 ,  11 ,
  ,45/09/19 ,  12 ,
  ,45/09/26 ,  13 ,
  ,45/10/03 ,  14 ,
  ,45/10/11 ,  15 ,
  ,45/10/18 ,  16 ,
  ,45/10/25 ,  17 ,
  ,45/11/01 ,  18 ,
  ,45/11/08 ,  19 ,
  ,45/11/15 ,  20 ,
  ,45/11/22 ,  21 ,
  ,45/11/29 ,  22 ,
  ,45/12/06 ,  23 ,
  ,45/12/13 ,  24 ,
  ,45/12/20 ,  25 ,
  ,45/12/27 ,  26 ,
  ,46/01/10 ,  27 ,
  ,46/01/17 ,  28 ,
  ,46/01/24 ,  29 ,
  ,46/01/31 ,  30 ,
  ,46/02/07 ,  31 ,
  ,46/02/14 ,  32 ,
  ,46/02/21 ,  33 ,
  ,46/02/28 ,  34 ,
  ,46/03/07 ,  35 ,
  ,46/03/14 ,  36 ,
  ,46/03/21 ,  37 ,
  ,46/03/28 ,  38 ,
  ,46/04/04 ,  39 ,
  ,46/04/11 ,  40 ,
  ,46/04/18 ,  41 ,
  ,46/04/25 ,  42 ,
  ,46/05/02 ,  43 ,
  ,46/05/09 ,  44 ,
  ,46/05/16 ,  45 ,
  ,46/05/23 ,  46 ,
  ,46/05/30 ,  47 ,
  ,46/06/06 ,  48 ,
  ,46/06/13 ,  49 ,
  ,46/06/20 ,  50 ,
  ,46/06/27 ,  51 ,
  ,46/07/13 ,  52 ,The Great Unkissed
  ,46/07/20 ,  53 ,You Can't Beat Love
  ,46/07/27 ,  54 ,Receipt For Murder
  ,46/08/03 ,  55 ,Old Fashioned Mother
  ,46/08/10 ,  56 ,Honeymoon For Four
  ,46/08/17 ,  57 ,
  ,46/08/24 ,  58 ,
  ,46/08/31 ,  59 ,
  ,46/09/07 ,  60 ,
  ,46/09/14 ,  61 ,
  ,46/09/21 ,  62 ,
* ,46/09/28 ,  63 ,Love Is a Gamble
  ,46/10/05 ,  64 ,
  ,46/10/12 ,  65 ,
  ,46/10/19 ,  66 ,
  ,46/10/26 ,  67 ,
  ,46/11/02 ,  68 ,
* ,46/11/09 ,  69 ,Time out for Tea
  ,46/11/16 ,  70 ,
  ,46/11/23 ,  71 ,
  ,46/11/30 ,  72 ,
  ,46/12/07 ,  73 ,
  ,46/12/14 ,  74 ,
  ,46/12/21 ,  75 ,
* ,46/12/28 ,  76 ,Pat and Mike
  ,47/01/04 ,  77 ,
  ,47/01/11 ,  78 ,
* ,47/01/18 ,  79 ,A Day in the Rain
  ,47/01/25 ,  80 ,
  ,47/02/01 ,  81 ,
  ,47/02/08 ,  82 ,
  ,47/02/15 ,  83 ,
  ,47/02/22 ,  84 ,
  ,47/03/01 ,  85 ,
  ,47/03/08 ,  86 ,
* ,47/03/15 ,  87 ,A Bridge For Martha
* ,47/03/22 ,  88 ,Wanted A Name
* ,47/03/29 ,  89 ,Lightning Strikes Twice
* ,47/04/05 ,  90 ,Mister Justice Jimmy
* ,47/04/12 ,  91 ,Reluctant Hero
* ,47/04/19 ,  92 ,Hometown Girl
* ,47/04/26 ,  93 ,Positive Reaction
* ,47/05/03 ,  94 ,Birds of a Feather
* ,47/05/10 ,  95 ,Casanova on the Mountain
* ,47/05/17 ,  96 ,The World Between
* ,47/05/24 ,  97 ,Wanted - An Old Fashioned Girl
* ,47/05/31 ,  98 ,Twice Blessed
* ,47/06/07 ,  99 ,Grasshopper Jockey
* ,47/06/14 , 100 ,The Reluctant Bride
* ,47/06/21 , 101 ,Hook, Line and Sinker
* ,47/06/28 , 102 ,The Belle of the Barbary Coast
* ,47/07/05 , 103 ,But the Face Is Familiar
* ,47/07/12 , 104 ,Deadline for Love
* ,47/07/19 , 105 ,Hollywood Hayride
* ,47/07/26 , 106 ,Solid Sender
* ,47/08/02 , 107 ,I Hate Men
* ,47/08/09 , 108 ,Pathway of a Star
* ,47/08/16 , 109 ,The Night Hangs Heavy
* ,47/08/23 , 110 ,A Peach for the Professor
* ,47/08/30 , 111 ,Page One Wedding
* ,47/09/06 , 112 ,Home, James
* ,47/09/13 , 113 ,Lady In The Night
* ,47/09/20 , 114 ,Double Life
* ,47/09/27 , 115 ,Grandmother Knew Best
* ,47/10/04 , 116 ,Part Time Husband
* ,47/10/11 , 117 ,Tickertape Romance
  ,47/10/18 , 118 ,
  ,47/10/25 , 119 ,
  ,47/11/01 , 120 ,
  ,47/11/08 , 121 ,
  ,47/11/15 , 122 ,
  ,47/11/22 , 123 ,
  ,47/11/29 , 124 ,
  ,47/12/06 , 125 ,
  ,47/12/13 , 126 ,
  ,47/12/20 , 127 ,
  ,47/12/27 , 128 ,
  ,48/01/03 , 129 ,
  ,48/01/10 , 130 ,
  ,48/01/17 , 131 ,
  ,48/01/24 , 132 ,
* ,48/01/31 , 133 ,Bright Prospects
* ,48/02/07 , 134 ,Broadway Interlude
* ,48/02/14 , 135 ,Romantic Developement
* ,48/02/21 , 136 ,The Perfect Blank
* ,48/02/28 , 137 ,Readin', Writin' and Romance
* ,48/03/06 , 138 ,Connecticut Farmer
* ,48/03/13 , 139 ,Who Is Chris Randolph
* ,48/03/20 , 140 ,Mr Worthington
  ,48/03/27 , 141 ,Price For The Weekend
* ,48/04/03 , 142 ,My Pal, the Wife
* ,48/04/10 , 143 ,Happy Ending
* ,48/04/17 , 144 ,Miss Snoring Sleepwalker
* ,48/04/24 , 145 ,Engagement for Two
* ,48/05/01 , 146 ,Dear Molly Mearadew
* ,48/05/08 , 147 ,The Little Liar
* ,48/05/15 , 148 ,Two Loves Have I
* ,48/05/22 , 149 ,See Ya' in the Funny Papers
  ,48/05/29 , 150 ,Call Me Gabriel
* ,48/06/05 , 151 ,You Don't Know Susie
* ,48/06/12 , 152 ,The Controlling Interest
  ,48/06/19 , 153 ,Love Is A Fraud
* ,48/06/26 , 154 ,I Hate Hollywood
* ,48/07/03 , 155 ,The Worm Turns
* ,48/07/10 , 156 ,The Dishonest Ghost
* ,48/07/17 , 157 ,The Story of Pat and Mike
* ,48/07/24 , 158 ,The Quiet Young Man
* ,48/07/31 , 159 ,Model Husband
* ,48/08/07 , 160 ,Practically Engaged
* ,48/08/14 , 161 ,A Ring for Julie
* ,48/08/21 , 162 ,A Barn for the Bard
* ,48/08/28 , 163 ,Grand Slam on The Nancy B
* ,48/09/04 , 164 ,Contract for an Angel
* ,48/09/11 , 165 ,Best Laid Plans
* ,48/09/18 , 166 ,Courtship by Proxy
* ,48/09/25 , 167 ,My Widow Lorraine
  ,48/10/02 , 168 ,The Family Man
* ,48/10/06 , 169 ,Petticoat Justice
  ,48/10/13 , 170 ,Once Upon An Island
  ,48/10/20 , 171 ,
  ,48/10/27 , 172 ,
  ,48/11/03 , 173 ,
  ,48/11/10 , 174 ,
  ,48/11/17 , 175 ,
  ,48/11/24 , 176 ,
  ,48/12/01 , 177 ,
  ,48/12/08 , 178 ,
  ,48/12/15 , 179 ,
  ,48/12/22 , 180 ,
  ,48/12/29 , 181 ,
  ,49/01/05 , 182 ,
  ,49/01/12 , 183 ,
  ,49/01/19 , 184 ,
  ,49/01/26 , 185 ,
  ,49/02/02 , 186 ,
  ,49/02/09 , 187 ,
  ,49/02/16 , 188 ,
  ,49/02/23 , 189 ,
  ,49/03/02 , 190 ,
  ,49/03/09 , 191 ,
  ,49/03/16 , 192 ,
  ,49/03/23 , 193 ,
  ,49/03/30 , 194 ,
  ,49/04/06 , 195 ,
  ,49/04/13 , 296 ,
  ,49/04/20 , 297 ,
  ,49/04/27 , 198 ,
  ,49/05/04 , 199 ,
  ,49/05/11 , 200 ,
  ,49/05/18 , 201 ,
  ,49/05/25 , 202 ,
  ,49/06/01 , 203 ,
  ,49/06/08 , 204 ,
  ,49/06/15 , 205 ,
  ,49/06/22 , 206 ,
  ,49/06/29 , 207 ,
  ,49/07/06 , 208 ,
  ,49/07/13 , 209 ,
  ,49/07/20 , 210 ,
  ,49/07/27 , 211 ,
  ,49/08/03 , 212 ,
  ,49/08/10 , 213 ,
  ,49/08/17 , 214 ,
  ,49/08/24 , 215 ,
  ,49/08/31 , 216 ,
  ,49/09/07 , 217 ,
  ,49/09/14 , 218 ,
  ,49/09/21 , 219 ,
  ,49/09/28 , 220 ,
  ,49/10/05 , 221 ,
  ,49/10/12 , 222 ,
  ,49/10/19 , 223 ,
  ,49/10/26 , 224 ,
  ,49/11/02 , 225 ,
  ,49/11/09 , 226 ,
  ,49/11/16 , 227 ,
  ,49/11/23 , 228 ,
  ,49/11/30 , 229 ,
  ,49/12/07 , 230 ,
  ,49/12/14 , 231 ,
  ,49/12/21 , 232 ,
  ,49/12/28 , 233 ,
  ,50/01/04 , 234 ,
  ,50/01/11 , 235 ,
  ,50/01/18 , 236 ,
  ,50/01/25 , 237 ,
  ,50/02/01 , 238 ,
  ,50/02/08 , 239 ,
  ,50/02/15 , 240 ,
  ,50/02/22 , 241 ,
  ,50/03/01 , 242 ,
  ,50/03/08 , 243 ,
  ,50/03/15 , 244 ,Marriage Of Inconvenience
  ,50/03/22 , 245 ,Out Of The Blue
  ,50/03/29 , 246 ,
