Exists, Date, #, Episode Name
  ,40/xx/xx ,     ,This was a ZIV syndicated show and aired on different dates in different cities
  ,41/xx/xx ,     ,The dates in this log are from WRC, Washington D.C.
* ,52/03/31 ,   1 ,I Walk Alone
* ,52/04/07 ,   2 ,I Can't Sleep
* ,52/04/14 ,   3 ,Little Red Schoolhouse
* ,52/04/21 ,   4 ,Red Red Herring
* ,52/04/28 ,   5 ,Pit Viper
* ,52/05/05 ,   6 ,Traitors for Hire
* ,52/05/12 ,   7 ,Card Game in the Clouds
* ,52/05/19 ,   8 ,American Kremlin
* ,52/05/26 ,   9 ,Tight Wire
* ,52/06/02 ,  10 ,A Riot Made to Order
* ,52/06/09 ,  11 ,Where the Red Men Roam
* ,52/06/16 ,  12 ,The Dangerous Dollars
* ,52/06/23 ,  13 ,Rich Man, Poor Man
* ,52/06/30 ,  14 ,Canadian Crossfire
* ,52/07/07 ,  15 ,Draw the Red Curtain
* ,52/07/14 ,  16 ,Red Clouds on the Good Earth
* ,52/07/21 ,  17 ,Exit on the Left
* ,52/07/28 ,  18 ,The Red Record
* ,52/08/04 ,  19 ,Burnt Offering
* ,52/08/11 ,  20 ,Squeeze Play
* ,52/08/18 ,  21 ,Violence Preferred
* ,52/08/25 ,  22 ,The Rat Race
* ,52/09/01 ,  23 ,Jump to the Whip
* ,52/09/08 ,  24 ,Pennies from the Dead
* ,52/09/15 ,  25 ,A Suit for the Party
* ,52/09/22 ,  26 ,The Party Got Rough
* ,52/09/29 ,  27 ,Little Boy Red
* ,52/10/06 ,  28 ,The Unwelcome Hosts
* ,52/10/13 ,  29 ,No Second Chance
* ,52/10/20 ,  30 ,The Red Gate
* ,52/10/27 ,  31 ,Red Rover, Red Rover
* ,52/11/03 ,  32 ,Home Improvement
* ,52/11/10 ,  33 ,Red Clay
* ,52/11/17 ,  34 ,The Kiss of Death
* ,52/11/24 ,  35 ,Treason Comes in Cans
* ,52/12/01 ,  36 ,The Flames Burned Red
* ,52/12/08 ,  37 ,Hate Song
* ,52/12/15 ,  38 ,Little Boy Blue Turned Red
* ,52/12/22 ,  39 ,Red Gold
* ,52/12/29 ,  40 ,Capitol City Square Dance
* ,52/xx/xx ,   0 ,(Audition) Little Red Schoolhouse (2)
* ,53/01/05 ,  41 ,A Study in Oils
* ,53/01/12 ,  42 ,The Sleeper
* ,53/01/19 ,  43 ,Against the Middle
* ,53/01/26 ,  44 ,The Black Gospel
* ,53/02/02 ,  45 ,The Red Ladies
* ,53/02/09 ,  46 ,One Way Ticket
* ,53/02/16 ,  47 ,Word Game
* ,53/02/23 ,  48 ,The Red Waves
* ,53/03/02 ,  49 ,Trial by Fear
* ,53/03/09 ,  50 ,The Wrong Green
* ,53/03/16 ,  51 ,The Brass Monkey
* ,53/03/23 ,  52 ,Forged Faces
  ,53/03/30 ,  53 ,
  ,53/04/06 ,  54 ,
* ,53/04/13 ,  55 ,An Unamerican Activity
* ,53/04/20 ,  56 ,My Friend the Enemy
* ,53/04/27 ,  57 ,The Canadian Backbone
* ,53/05/04 ,  58 ,The Innocence Club
* ,53/05/11 ,  59 ,The Crossed Heart
* ,53/05/18 ,  60 ,The Red Octopus
  ,53/05/25 ,     ,{moves to Sundays, skips a week}
* ,53/05/31 ,  61 ,Abbie, as in Abigail
* ,53/06/07 ,  62 ,Tour of Duty
* ,53/06/14 ,  63 ,Fifteen Minutes to Murder
* ,53/06/21 ,  64 ,Use Only as Directed
* ,53/06/28 ,  65 ,Double Exposure
* ,53/07/05 ,  66 ,Courier of Disaster
* ,53/07/12 ,  67 ,The Line Is Busy
* ,53/07/19 ,  68 ,The Red Snow
* ,53/07/26 ,  69 ,Very Private Funeral
* ,53/08/02 ,  70 ,Rhapsody in Red
* ,53/08/09 ,  71 ,Kangaroo Court
* ,53/08/16 ,  72 ,The Inhuman Element
  ,53/08/23 ,  73 ,
  ,53/08/30 ,  74 ,
  ,53/09/06 ,  75 ,
  ,53/09/13 ,  76 ,
* ,53/09/20 ,  77 ,Panic Plan
* ,53/09/27 ,  78 ,No Visitors
