Exists, Date, #, Episode Name
* ,63/12/30 ,   0 ,1963 Cambridge Footlights Revue Extracts
* ,64/04/03 ,   1 ,First Pilot
* ,64/04/10 ,   2 ,The Second Pilot
* ,64/04/17 ,   3 ,The Third Pilot
  ,64/04/21 ,     ,
  ,64/04/28 ,     ,
* ,65/10/04 , 101 ,The Critics
* ,65/10/11 , 102 ,Cricket Match
* ,65/10/18 , 103 ,The Workington Shillelagh
* ,65/10/25 , 104 ,The Battle of Whispering Mouse
* ,65/11/01 , 105 ,The Adventures of Little Martin Copperwick
* ,65/11/15 , 106 ,Mike Spanner - Private Eye
* ,65/11/22 , 107 ,England, Our England
* ,65/11/29 , 108 ,Dr Why and the Thing
* ,65/12/06 , 109 ,The Story of Radio
  ,65/12/13 ,     ,
  ,65/12/20 ,     ,
  ,65/12/27 ,     ,
  ,66/03/07 ,     ,
* ,66/03/14 , 201 ,Britain for the British - Ireland
* ,66/03/21 , 202 ,Moll Flounders
* ,66/03/28 , 203 ,Ali Baba
* ,66/04/04 , 204 ,Nelson
  ,66/04/11 , 205 ,Doctor Heckle and Mr Jibe
* ,66/04/18 , 206 ,The Angus Prune Story
* ,66/04/25 , 207 ,Agatha Sotheby's Detective Thriller
* ,66/05/02 , 208 ,World of Sport
* ,66/05/09 , 209 ,Julius Caesar
* ,66/05/16 , 210 ,The Supernatural
* ,66/05/23 , 211 ,Robin Hood
* ,66/05/30 , 212 ,Tim Brown's Schooldays
* ,66/06/06 , 299 ,-Special- Liverpool
* ,66/10/03 , 301 ,The Curse of the Flying Wombat Pt 1
* ,66/10/10 , 302 ,The Curse of the Flying Wombat Pt 2
* ,66/10/17 , 303 ,The Curse of the Flying Wombat Pt 3
* ,66/10/24 , 304 ,The Curse of the Flying Wombat Pt 4
* ,66/10/31 , 305 ,The Curse of the Flying Wombat Pt 5
* ,66/11/07 , 306 ,The Curse of the Flying Wombat Pt 6
* ,66/11/14 , 307 ,The Curse of the Flying Wombat Pt 7
* ,66/11/21 , 308 ,The Curse of the Flying Wombat Pt 8
* ,66/11/28 , 309 ,The Curse of the Flying Wombat Pt 9
* ,66/12/05 , 310 ,The Curse of the Flying Wombat Pt 10
* ,66/12/12 , 311 ,The Curse of the Flying Wombat Pt 11
* ,66/12/19 , 312 ,The Curse of the Flying Wombat Pt 12
* ,66/12/26 , 313 ,The Curse of the Flying Wombat Pt 13
* ,67/01/02 , 399 ,-Special- Jack and the Beanstalk
* ,67/04/23 , 401 ,Camelot
* ,67/04/30 , 402 ,Champion the Wonder Mouse
* ,67/05/07 , 403 ,William Tell
* ,67/05/14 , 404 ,Lost Eskimos of the South Pole
* ,67/05/21 , 405 ,History of the British Army
* ,67/05/28 , 406 ,Decline and Fall of the Entire Roman Empire
* ,67/06/04 , 407 ,A Fairy Story by Hans Anderson
* ,67/06/11 , 408 ,All Hands on Venus
* ,67/06/18 , 409 ,Tales of the Old String West
* ,67/06/25 , 410 ,The Ghost of Objectionable Manor
* ,67/07/02 , 411 ,Tales from Shakespere - Othello
* ,67/07/09 , 412 ,The Inimitable Grimling
* ,67/07/16 , 413 ,Ulysses - The Housewive's Joyce
* ,67/07/23 , 414 ,The Desert Song
* ,68/04/14 , 501 ,Bunny and Claude
* ,68/04/21 , 502 ,Dentist
* ,68/04/28 , 503 ,Viking Saga
* ,68/05/05 , 504 ,Incompetence
* ,68/05/12 , 505 ,10,000 Bc
* ,68/05/19 , 506 ,Ghost Story
* ,68/05/26 , 507 ,Operation Chocolate
* ,68/06/02 , 508 ,Beau Legs
* ,68/06/09 , 509 ,Macbeth
* ,68/06/16 , 510 ,Robinson Prunestone
* ,68/06/23 , 511 ,The Roaring Twenties
* ,68/06/30 , 512 ,Lady Godiva
* ,68/07/07 , 513 ,The History of Cinema
* ,68/12/26 , 599 ,-Special- Dick Whittington's Hat
* ,69/01/12 , 601 ,The Electric Time Trousers Pt1
* ,69/01/19 , 602 ,The Electric Time Trousers Pt2
* ,69/01/26 , 603 ,The Electric Time Trousers Pt3
* ,69/02/02 , 604 ,The Electric Time Trousers Pt4
* ,69/02/09 , 605 ,The Electric Time Trousers Pt5
* ,69/02/16 , 606 ,The Electric Time Trousers Pt6
* ,69/02/23 , 607 ,The Electric Time Trousers Pt7
* ,69/03/02 , 608 ,The Electric Time Trousers Pt8
* ,69/03/09 , 609 ,The Electric Time Trousers Pt9
* ,69/03/16 , 610 ,The Electric Time Trousers Pt10
* ,69/03/23 , 611 ,The Electric Time Trousers Pt11
* ,69/03/30 , 612 ,The Electric Time Trousers Pt12
* ,69/04/06 , 613 ,The Electric Time Trousers Final
* ,69/12/25 , 699 ,-Special- A Christmas Carrot
* ,70/02/15 , 701 ,The Taming of the Shrew
* ,70/02/22 , 702 ,The Canterbury Tales
* ,70/03/01 , 703 ,The Telephone
* ,70/03/08 , 704 ,Circus Life
* ,70/03/15 , 705 ,Billy Bunter of Greyfriars School
* ,70/03/22 , 706 ,Murder on the 3-17 to Cleethorpes
* ,70/03/29 , 707 ,The Six Wives of Henry VIII
* ,70/04/05 , 708 ,Jorrocks, the Memoirs of a Foxhunting Man
* ,70/04/12 , 709 ,The Return of the Son of the Bride of Frankenstein
* ,70/04/19 , 710 ,The Harder They Fall, the More They Hurt Themselves
* ,70/04/26 , 711 ,20,000 Leaks Under the Sea
* ,70/05/03 , 712 ,Greek Tragedy
* ,70/05/10 , 713 ,Full Frontal Radio Prune
* ,70/12/31 , 799 ,-Special- Aliddin-Dr Zhivago
* ,73/11/04 , 801 ,Lawrence of Arabia on Ice
* ,73/11/11 , 802 ,Jack the Ripper
* ,73/11/18 , 803 ,Star Trek
* ,73/11/25 , 804 ,The Search for the Source of the Nile
* ,73/12/02 , 805 ,Song of the South
* ,73/12/09 , 806 ,Oklahoma!
* ,73/12/16 , 807 ,Alice in Wonderland
* ,73/12/23 , 808 ,The Colditz Story
* ,75/08/03 ,     ,
* ,75/08/10 ,     ,Technical Problems
* ,75/08/17 ,     ,Summary Of The Weather
* ,75/08/24 ,     ,Audible Road Signs
* ,75/08/31 ,     ,Bison
* ,75/09/07 ,     ,Long Range Weather Forecast
* ,75/09/14 ,     ,Who, Or What Were The Three Little Pigs?
* ,75/09/21 ,     ,Endless Auction
* ,75/09/28 ,     ,Hooked On Knitting
* ,75/10/05 ,     ,First Quiz Show
* ,75/10/12 ,     ,Time Bomb
* ,75/10/19 ,     ,Arranging Theme Songs
* ,75/10/26 ,     ,Liverpool, The City
* ,75/11/02 ,     ,Magic Tricks
* ,75/11/09 ,     ,Free Music
* ,75/11/16 ,     ,Grubby LIttle Man
* ,75/11/23 ,     ,Tips For Motorists
* ,75/11/30 ,     ,New Signature Tune
* ,75/12/07 ,     ,Another Signature Tune
* ,75/12/28 ,     ,British Courts Of Justice
* ,76/01/11 ,     ,Switch Off Your Radio, Fast!
* ,76/01/18 ,     ,The New Osteopath
* ,76/01/23 ,     ,Old Recording From BBC Archives
* ,76/02/01 ,     ,The David Hatch Show
* ,76/02/08 ,     ,Joke Swapping Junkie
* ,76/02/15 ,     ,Mr Brown's Incurable Illness
* ,76/02/22 ,     ,In 1411 - What Do You Know?
* ,76/02/29 ,     ,Mr Prune And Mrs Bedsock
* ,76/03/07 ,     ,John Mleeze's Bath Night
* ,76/03/14 ,     ,Musical Glasses
* ,76/03/21 ,     ,The Spy With My Cold
* ,76/03/28 ,     ,Time To Meet The Orchestra
* ,76/04/04 ,     ,The Fastest Show On Earch
* ,76/04/11 ,     ,Radio Oscar Awards
* ,76/04/25 ,     ,The Bonzo-Angus Prune Expermint
* ,76/05/09 ,     ,Building A Prefab Bungalow
* ,76/05/16 ,     ,Mr And Mrs Rabbit
* ,76/05/20 ,     ,The Arc Is Full
* ,76/05/23 ,     ,TV Cookery Experts
* ,76/05/30 ,     ,Report On Schools
* ,76/06/06 ,     ,Potted Biographies
* ,76/06/13 ,     ,Theater Intermisson
* ,76/06/20 ,     ,Circus Personalities
* ,76/06/27 ,     ,The Kevin Mousetrap Show
* ,76/07/04 ,     ,The Irianian Desert
* ,76/07/11 ,     ,80 Years Of Cinema In 30 Minutes
* ,89/12/25 , 900 ,-Special- 25th Anniversary Story
