Exists, Date, #, Episode Name
* ,75/09/16 ,     ,S04e08 - Anatomists Ball
* ,76/03/06 ,     ,S05e01 - Footballers Ball
* ,76/03/13 ,     ,S05e02 - Politicians Ball
* ,76/03/20 ,     ,S05e03 - Astronomers Ball
* ,76/03/27 ,     ,S05e04 - Geographers Ball
* ,76/04/03 ,     ,S05e05 - Electrical Goods & Allied Industries Ball
* ,78/08/22 ,     ,S06e01 - Mad Scientists Ball
* ,78/09/05 ,     ,S06e03 - Artists Ball
* ,78/09/12 ,     ,S06e04 - Aristocrats Ball
* ,79/06/16 ,     ,Sxxexx - Vets Ball
* ,79/06/23 ,     ,Sxxexx - Travellers Ball
* ,79/06/30 ,     ,Sxxexx - Drunkards Ball
* ,79/07/07 ,     ,Sxxe10 - Old Testament Ball
* ,79/07/16 ,     ,S07e01 - Confectioners Ball
* ,79/07/23 ,     ,S07e02 - Politicians Ball
* ,79/07/30 ,     ,S07e03 - Broadcasting Ball
* ,79/08/06 ,     ,S07e04 - Science Fiction Ball
* ,79/08/13 ,     ,S07e05 - Gourmets Ball
* ,79/08/20 ,     ,S07e06 - Estate Agents Ball
* ,79/08/27 ,     ,S07e07 - Advertisers Ball
* ,79/09/10 ,     ,S07e09 - Transport Ball
* ,79/09/17 ,     ,S07e10 - Common Market Ball
* ,79/12/24 ,     ,S07sp1 - Christmas Ball
* ,80/12/29 ,     ,S07sp2 - Christmas Ball
* ,81/08/22 ,     ,S08e01 - Royal Ball
* ,81/08/29 ,     ,S08e02 - Criminals Ball
* ,81/09/05 ,     ,S08e03 - Hollywood Ball
* ,81/10/03 ,     ,S08e07 - Household Furnishers Ball
* ,81/10/10 ,     ,S08e08 - T V Awards Ball
* ,81/10/17 ,     ,S08e09 - Cricketers Ball
* ,82/03/20 ,     ,S09e01 - Orientals Ball
* ,82/03/27 ,     ,S09e02 - Financiers Ball
* ,82/04/03 ,     ,S09e03 - Linguists Ball
* ,83/02/26 ,     ,S10e01 - Jewellers Painters and Decorators
* ,84/04/21 ,     ,S11e03 - Vets Ball
* ,84/04/28 ,     ,S11e04 - Removal Mens Ball
* ,85/05/11 ,     ,S12e02 - Fishermans Ball
* ,85/05/25 ,     ,S12e04 - Gamblers Ball
* ,85/06/01 ,     ,S12e05 - Embassies Ball
* ,85/06/08 ,     ,S12e06 - Morticians Ball
* ,85/06/15 ,     ,S12e07 - Expectant Mothers Ball
* ,85/06/22 ,     ,S12e08 - Photographers Ball
* ,85/06/29 ,     ,S12e09 - Farmers Ball
* ,85/07/06 ,     ,S12e10 - Newsagents Ball
* ,86/07/26 ,     ,S13e01 - Communications Ball
* ,86/08/02 ,     ,S13e02 - Wild West Ball
* ,86/08/09 ,     ,S13e03 - Travellers Ball
* ,86/08/16 ,     ,S13e04 - Vicars Ball
* ,86/08/23 ,     ,S13e05 - Caterers Ball
* ,86/08/30 ,     ,S13e06 - Nannies Ball
* ,86/09/06 ,     ,S13e07 - Teachers Ball
* ,86/09/13 ,     ,S13e08 - Health & Efficiency Ball
* ,86/09/20 ,     ,S13e09 - Musicians Ball
* ,86/09/27 ,     ,S13e10 - Secret Service Ball
* ,87/08/31 ,     ,S14e03 - Wine and Cheese Ball
* ,87/10/19 ,     ,S14e10 - Doctors Ball
* ,88/05/14 ,     ,S00e01 - Fleet Street Ball
* ,88/05/21 ,     ,S00e02 - Keep Fit Ball
* ,88/05/28 ,     ,S00e03 - Gardeners Ball
* ,88/06/05 ,     ,S00e04 - Schooldays Ball
* ,88/06/12 ,     ,S00e05 - Delicatessen Ball
* ,88/06/19 ,     ,S00e06 - Licenced Victuallers Ball
* ,88/06/26 ,     ,S00e07 - Motorists Ball
* ,88/07/03 ,     ,S00e08 - Sailors Ball
* ,89/02/18 ,     ,S15e07 - Americans Ball
* ,89/02/25 ,     ,S15e08 - D I Y Ball
* ,89/03/11 ,     ,S15e10 - Roman Ball
* ,90/02/05 ,     ,S16e01 - Ecological Ball
* ,90/02/12 ,     ,S16e02 - Detectives Ball
* ,90/02/19 ,     ,S16e03 - Chefs Ball
* ,90/02/26 ,     ,S16e04 - Vicars Ball
* ,90/03/05 ,     ,S16e05 - Travel Agents Ball
* ,90/03/12 ,     ,S16e06 - (end Missing)
* ,90/11/17 ,     ,S17e01 - Euro Ball
* ,90/11/24 ,     ,S17e02 - Painters Ball
* ,90/12/01 ,     ,S17e03 - Conservative Party Ball
* ,90/12/08 ,     ,S17e04 - Circus Performers Ball
* ,90/12/15 ,     ,S17e05 - Cowboys & Indians Ball
* ,90/12/22 ,     ,S17e06 - Scouts & Guides Camping Jamboree Ball
* ,91/06/22 ,     ,S18e01 - Limericks
* ,91/06/29 ,     ,S18e02 - Limericks
* ,91/07/06 ,     ,S18e03 - Limericks
* ,91/07/13 ,     ,S18e04 - Limericks
* ,91/07/20 ,     ,S18e05 - Limericks
* ,91/07/27 ,     ,S18e06 - Limericks
* ,91/10/19 ,     ,S19e01 - Limericks
* ,91/10/26 ,     ,S19e02 - Limericks
* ,91/11/09 ,     ,
* ,92/06/06 ,     ,S20e03 - Vegetable Film Club
* ,92/06/27 ,     ,S20e06 - Bakers Film Club
* ,92/08/03 ,     ,S20sp1 - Americans Ball
* ,92/12/05 ,     ,S21e04 - Farmers Film Club
* ,93/11/13 ,     ,S22e02 - Vicars Film Club
* ,94/03/12 ,     ,S22esp2
* ,94/06/18 ,     ,S23e04 - Bakers Film Club
* ,94/06/20 ,     ,S23e04
* ,94/11/26 ,     ,S24e04 - Highland Film Club
* ,94/12/03 ,     ,S24e05 - Motor Mechanics Ball
* ,94/12/10 ,     ,S24e06 - Roman Film Club
* ,95/06/03 ,     ,S25e02 - Butchers Film Club
* ,95/06/10 ,     ,S25e03 - Undertakers Song Book
* ,95/06/17 ,     ,S25e04 - Train Drivers Film Club
* ,95/06/24 ,     ,S25e05 - Ornithologists Ball
* ,95/07/01 ,     ,S25e06 - Fishing Community Song Book
* ,95/11/11 ,     ,S26e01 - Antique Collectors Film Club
* ,95/11/18 ,     ,S26e02 - Motor Repair Trade Song Book
* ,95/11/25 ,     ,S26e03 - Newsagents Songbook
* ,95/12/02 ,     ,S26e04 - Weather Forecasters Film Club
* ,95/12/09 ,     ,S26e05 - Painters Song Book
* ,95/12/16 ,     ,S26e06 - Elizabethan Film Club
* ,95/12/25 ,     ,S26esp - Santas Christmas Ball
* ,96/06/01 ,     ,S27e01
* ,96/06/08 ,     ,S27e02 Furniture Makers Song Book
* ,96/06/15 ,     ,S27e03 - Fashion Designers Film Club
* ,96/06/22 ,     ,S27e04 - Biblical Songbook
* ,96/06/29 ,     ,S27e05 - Bankers Film Club
* ,96/07/06 ,     ,S27e06 - Cheesemakers Ball
* ,96/11/22 ,     ,S28e03
* ,96/12/14 ,     ,S28e06 - Biscuitmakers Film Club
* ,97/06/07 ,     ,S29e01 - Smokers Film Club
* ,97/06/14 ,     ,S29e02 - Computer Programmers Song Book
* ,97/06/21 ,     ,S29e03 - Cobblers Song Book
* ,97/06/28 ,     ,S29e04 - Australian Ball
* ,97/07/05 ,     ,S29e05 - Weightwatchers Song Book
* ,97/11/08 ,     ,S30e01 - Hairdressers Song Book
* ,97/11/22 ,     ,S30e03 - Criminal Song Book
* ,97/12/13 ,     ,S30e06 - Old Testament Ball
* ,97/12/25 ,     ,S30esp - Christmas Compilation
* ,98/04/20 ,     ,S30sp4 - T V Seasons
* ,98/04/27 ,     ,S31e01 - Hairdressers Film Club
* ,98/05/04 ,     ,S31e02 - Hotel Owners Ball
* ,98/05/11 ,     ,S31e03 - Welsh Film Festival
* ,98/05/25 ,     ,S31e05 - Pilots & Airline Staff Song Book
* ,98/06/01 ,     ,S31e06 - Football Managers Ball
* ,98/11/30 ,     ,S32e01 - Hospital Book Club
* ,98/12/07 ,     ,S32e02 - Scottish Ball
* ,98/12/14 ,     ,S32e03 - Welsh Song Book
* ,98/12/21 ,     ,S32e04 - Driving Instructors Ball
* ,98/12/25 ,     ,S32sp1 - Christmas Compilation
* ,98/12/28 ,     ,S32e05 - Pensioners Song Book
* ,02/05/20 ,     ,Sandi Toksvig
* ,02/05/27 ,     ,Sandi Toksvig
* ,02/06/03 ,     ,Jeremy Hardy
* ,02/06/10 ,     ,Jeremy Hardy
* ,02/06/17 ,     ,Bill Bailey
* ,02/06/24 ,     ,Bill Bailey
