Exists, Date, #, Episode Name
* ,xx/xx/xx ,   1 ,episode 1
* ,xx/xx/xx ,   2 ,episode 2
* ,xx/xx/xx ,   3 ,episode 3
* ,xx/xx/xx ,   4 ,episode 4
* ,xx/xx/xx ,   5 ,episode 5
* ,xx/xx/xx ,   6 ,episode 6
* ,xx/xx/xx ,   7 ,episode 7
* ,xx/xx/xx ,   8 ,episode 8
* ,xx/xx/xx ,   9 ,episode 9
* ,xx/xx/xx ,  10 ,episode 10
* ,xx/xx/xx ,  11 ,episode 11
* ,xx/xx/xx ,  12 ,episode 12
* ,xx/xx/xx ,  13 ,episode 13
* ,xx/xx/xx ,  14 ,episode 14
* ,xx/xx/xx ,  15 ,episode 15
* ,xx/xx/xx ,  16 ,episode 16
* ,xx/xx/xx ,  17 ,episode 17
* ,xx/xx/xx ,  18 ,episode 18
* ,xx/xx/xx ,  19 ,episode 19
* ,xx/xx/xx ,  20 ,episode 20
* ,xx/xx/xx ,  21 ,episode 21
* ,xx/xx/xx ,  22 ,episode 22
* ,xx/xx/xx ,  23 ,episode 23
* ,xx/xx/xx ,  24 ,episode 24
* ,xx/xx/xx ,  25 ,episode 25
* ,xx/xx/xx ,  26 ,episode 26
* ,xx/xx/xx ,  27 ,episode 27
* ,xx/xx/xx ,  28 ,episode 28
* ,xx/xx/xx ,  29 ,episode 29
* ,xx/xx/xx ,  30 ,episode 30
* ,xx/xx/xx ,  31 ,episode 31
* ,xx/xx/xx ,  32 ,episode 32
* ,xx/xx/xx ,  33 ,episode 33
* ,xx/xx/xx ,  34 ,episode 34
* ,xx/xx/xx ,  35 ,episode 35
* ,xx/xx/xx ,  36 ,episode 36
* ,xx/xx/xx ,  37 ,episode 37
* ,xx/xx/xx ,  38 ,episode 38
* ,xx/xx/xx ,  39 ,episode 39
* ,xx/xx/xx ,  40 ,episode 40
* ,xx/xx/xx ,  41 ,episode 41
* ,xx/xx/xx ,  42 ,episode 42
* ,xx/xx/xx ,  43 ,episode 43
* ,xx/xx/xx ,  44 ,episode 44
* ,xx/xx/xx ,  45 ,episode 45
* ,xx/xx/xx ,  46 ,episode 46
* ,xx/xx/xx ,  47 ,episode 47
* ,xx/xx/xx ,  48 ,episode 48
* ,xx/xx/xx ,  49 ,episode 49
* ,xx/xx/xx ,  50 ,episode 50
* ,xx/xx/xx ,  51 ,episode 51
* ,xx/xx/xx ,  52 ,episode 52
