Exists, Date, #, Episode Name
* ,79/12/27 ,     ,Concrete Evidence
* ,85/06/27 ,     ,Murder Annonymous
* ,xx/xx/xx ,     ,An Open And Shut Case
* ,xx/xx/xx ,     ,Death Among The Rushes
* ,xx/xx/xx ,     ,Murder On A False Note
* ,xx/xx/xx ,     ,Stung Into Action
* ,xx/xx/xx ,     ,The Mask Of Death
* ,xx/xx/xx ,     ,The Plant That Died
