Exists, Date, #, Episode Name
  ,50/03/15 ,   1 ,Hosts Above the Thunder
  ,50/03/22 ,   2 ,Journey into a Germ World
* ,50/03/29 ,   3 ,The Men from Mars
  ,50/04/05 ,   4 ,The Diamond Helmet (Skull)
  ,50/04/12 ,   5 ,The Man Who Conquered Time
  ,50/04/19 ,   6 ,Rocket to the Moon
* ,50/04/26 ,   7 ,When Machines Went Mad
* ,50/05/03 ,   8 ,When Worlds Met
  ,50/05/10 ,   9 ,The Silent Noise
* ,50/05/17 ,  10 ,The Insect
  ,50/05/24 ,  11 ,The Man Who Tried to Stop June 8th
  ,50/05/31 ,  12 ,The First Men
* ,50/06/07 ,  13 ,The Other Man
  ,50/06/14 ,  14 ,The Earth Versus Alexander Corday
* ,50/06/21 ,  15 ,The Brooklyn Brain
* ,50/06/28 ,  16 ,Space Wreck
* ,50/07/05 ,  17 ,A Veteran Comes Home
  ,50/07/12 ,  18 ,The Flower of Evil
  ,50/07/19 ,  19 ,Explorers from Space
  ,50/07/26 ,  20 ,The Living Dead
* ,50/08/02 ,  21 ,The Doom Machine
  ,50/09/13 ,  22 ,
  ,50/09/20 ,  23 ,
* ,50/09/27 ,  24 ,The Green Thing
  ,50/10/04 ,  25 ,That Which Lives in a Steel Head
  ,50/10/11 ,  26 ,
  ,50/10/18 ,  27 ,
  ,50/10/25 ,  28 ,
  ,50/11/01 ,  29 ,
* ,50/11/08 ,  30 ,The Giant Walks
* ,50/11/15 ,  31 ,Worlds Apart
  ,50/11/29 ,  32 ,
  ,50/12/06 ,  33 ,
  ,50/12/13 ,  34 ,
  ,50/12/20 ,  35 ,
  ,50/12/27 ,  36 ,
* ,50/xx/xx ,     ,Flying Saucers (next week- Time Out of Hand)
* ,50/xx/xx ,     ,The Robot Killer (Killer Robot)
  ,50/xx/xx ,     ,Time Out of Hand
  ,51/01/03 ,  37 ,
  ,51/01/10 ,  38 ,
  ,51/01/17 ,  39 ,
  ,51/01/24 ,  40 ,
  ,51/01/31 ,  41 ,
  ,51/02/07 ,  42 ,
  ,51/02/14 ,  43 ,
  ,51/02/21 ,  44 ,
  ,51/02/28 ,  45 ,
  ,51/03/02 ,  46 ,
  ,51/03/09 ,  47 ,
  ,51/03/16 ,  48 ,
  ,51/03/23 ,  49 ,
  ,51/03/30 ,  50 ,
  ,51/04/06 ,  51 ,
  ,51/04/13 ,  52 ,
  ,51/04/20 ,  53 ,
  ,51/04/27 ,  54 ,
  ,51/05/04 ,  55 ,
  ,51/05/11 ,  56 ,
  ,51/05/20 ,  57 ,
  ,51/06/03 ,  58 ,
  ,51/06/10 ,  59 ,
  ,51/06/17 ,  60 ,
  ,51/06/24 ,  61 ,
  ,51/07/01 ,  62 ,
  ,51/07/08 ,  63 ,
  ,51/07/15 ,  64 ,
  ,51/07/22 ,  65 ,
  ,51/07/29 ,  66 ,
  ,51/08/05 ,  67 ,
* ,51/08/12 ,  68 ,The Man from the Second Earth
  ,51/08/19 ,  69 ,
  ,51/08/26 ,  70 ,
  ,51/09/02 ,  71 ,
  ,51/09/09 ,  72 ,
  ,51/09/19 ,  73 ,
  ,51/09/23 ,  74 ,
  ,51/09/26 ,  75 ,
* ,51/10/10 ,  76 ,The Rocket and the Skull
  ,51/10/17 ,  77 ,
  ,51/10/24 ,  78 ,
  ,51/10/31 ,  79 ,
  ,51/11/07 ,  80 ,
  ,51/11/14 ,  81 ,
  ,51/11/21 ,  82 ,
  ,51/11/28 ,  83 ,
  ,51/12/05 ,  84 ,
  ,51/12/12 ,  85 ,
  ,51/12/19 ,  86 ,
  ,51/12/26 ,  87 ,
  ,xx/xx/xx ,     ,Flying Saucers
  ,xx/xx/xx ,     ,Rocket to Nowhere
  ,xx/xx/xx ,     ,The Mechanical Brain
* ,xx/xx/xx ,     ,The Temple of the Pharaohs
