Exists, Date, #, Episode Name
* ,39/10/31 ,   1 ,These Freedoms
* ,39/11/07 ,   2 ,Women and Peace
* ,39/11/14 ,   3 ,Women On the Land
* ,39/11/21 ,   4 ,Women, the Providers
* ,39/11/28 ,   5 ,Refugee Women
* ,39/12/05 ,   6 ,Women Are People
* ,39/12/12 ,   7 ,Laws And The Woman
  ,39/12/19 ,   8 ,Women in the Law
* ,39/12/26 ,   9 ,Seafaring Women (aka-Women and the Sea)
* ,40/01/02 ,  10 ,Women Of Learning
* ,40/01/09 ,  11 ,Women As Teachers
* ,40/01/16 ,  12 ,Pioneer Women
* ,40/01/23 ,  13 ,Women Of Letters (Pearl Buck, guest)
* ,40/01/30 ,  14 ,Women Of The Press (aka-Ladies Of The Press)
* ,40/02/06 ,  15 ,Mothers Of Presidents
* ,40/02/13 ,  16 ,Fashions In Sentiment
  ,40/02/20 ,  17 ,The Bronze Tablet
  ,40/02/27 ,  18 ,Ladies of the Press
  ,40/03/05 ,  19 ,Women In Opera
* ,40/03/12 ,  20 ,Women In Medicine
* ,40/03/19 ,  21 ,Women And Fashion
  ,40/03/26 ,  22 ,The American Home
* ,40/04/02 ,  23 ,Women In Nursing
* ,40/04/09 ,  24 ,From Tavern To Tearoom
* ,40/04/16 ,  25 ,Women In Science
  ,40/04/23 ,  26 ,Behind the Footlights
  ,40/04/30 ,  27 ,Child Welfare (Dr Martha Elliot of US Dept of Education, Speaker)
  ,40/05/07 ,  28 ,Women In Avation (Amelia Earhart, Jacqueline Cochran, Louise Thaden & Helen Richey, aviatrix are discussed)
  ,40/05/13 ,  29 ,Famous American Homemakers
  ,40/05/20 ,  30 ,Women in Politics and Government
  ,40/05/27 ,  31 ,Women In Communication
  ,40/06/03 ,  32 ,Wives of Famous Americans
  ,40/06/10 ,  33 ,American Sportswomen
  ,40/06/17 ,  34 ,Women in Commerce and Trade
  ,40/06/24 ,  35 ,Women as Librarians and Curators
  ,40/07/01 ,  35 ,Women In Dance
