Exists, Date, #, Episode Name
  ,35/07/20 ,   1 ,The Case Of John Dillinger (G-Men)(Log authored by Martin Grams)
  ,35/07/27 ,   2 ,The Case Of Baby Face Nelson (G-Men)
  ,35/08/03 ,   3 ,The Osage Indian Murders (G-Men)
  ,35/08/10 ,   4 ,The Durkin Case (G-Men)
  ,35/08/17 ,   5 ,The Cannon Extortion Case (G-Men)
  ,35/08/24 ,   6 ,Bremer Kidnapping Case (G-Men)
  ,35/08/31 ,   7 ,Urschel Kidnapping Case (G-Men)
  ,35/09/07 ,   8 ,The Case Of Machine Gun Kelly (G-Men)
  ,35/09/14 ,   9 ,The Tri-State Gang (G-Men)
  ,35/09/21 ,  10 ,Fleagle Fingerprint Case (G-Men)
  ,35/09/28 ,  11 ,The Case Of Pretty Boy Floyd (G-Men)
  ,35/10/05 ,  12 ,Boettcher Kidnapping Case (G-Men)
  ,35/10/12 ,  13 ,The Case Of Eddie Doll (G-Men)
  ,36/01/15 ,   1 ,Capture Of The Millin Brothers
  ,36/01/22 ,   2 ,The End Of Fats McCarthy
  ,36/01/29 ,   3 ,The Sacramento Post Office Robbery
  ,36/02/05 ,   4 ,The Reppin Murder Case
  ,36/02/12 ,   5 ,The Case Of Clyde Barrow And Bonnie Parker - Pt 1
  ,36/02/19 ,   6 ,The Case Of Clyde Barrow And Bonnie Parker - Pt 2
  ,36/02/26 ,   7 ,The Los Angeles Sewer Bank Robbers
  ,36/03/04 ,   8 ,The Case of Midget  Fernekes - Pt 1
  ,36/03/11 ,   9 ,The Case Of Midget Fernekes - Pt 2
  ,36/03/18 ,  10 ,Capture Of The Phantom Of The Flats
  ,36/03/25 ,  11 ,Capture Of Leonard Scarnici - Pt 1
  ,36/04/01 ,  12 ,Capture Of Leonard Scarnici - Pt  2
  ,36/04/08 ,  13 ,The Capture Of The Dago Peretti Gang
  ,36/04/15 ,  14 ,The Capture Of Homer Van Meeter
  ,36/04/22 ,  15 ,Capture Of The D'Autremont Brothers - Part 1
  ,36/04/29 ,  16 ,Capture Of The D'Autremont Brothers - Part 2
  ,36/05/06 ,  17 ,Capture Of Willie-The-Actor Sutton - Part 1
  ,36/05/13 ,  18 ,Capture Of Willie-The-Actor Sutton - Part 2
  ,36/05/20 ,  19 ,The Case Of Alex Bogdanoff - Pt 1
  ,36/05/27 ,  20 ,The Case Of Alex Bogdanoff - Pt 2
  ,36/06/03 ,  21 ,The Case Of The Michigan Enigma
  ,36/06/10 ,     ,Pre-Empted
  ,36/06/17 ,  22 ,The Phantom Of Long Island
  ,36/06/24 ,  23 ,Capture Of Two Gun Crowley
  ,36/07/01 ,  24 ,The Case Of Tony 'The Slinger' Clugino
  ,36/07/08 ,  25 ,The Case Of The Lacivoli Gang - Pt 1
  ,36/07/15 ,  26 ,The Case Of The Lacivoli Gang - Pt 2
  ,36/07/22 ,  27 ,The Scientific Case - 5 Short Cases
  ,36/07/29 ,  28 ,The Case Of Basil Banghart
  ,36/08/05 ,  29 ,Capture Of Richard Whittemore
  ,36/08/12 ,  30 ,Case Of Edward Metelski
  ,36/08/19 ,  31 ,Case Of Larry Devol Pt - 1
  ,36/08/26 ,  32 ,Case Of Larry Devol - Pt 2
  ,36/09/02 ,  33 ,The Case Of The Arsenal Gang
  ,36/09/09 ,  34 ,The Case Of The Missouri Massacre
  ,36/09/16 ,  35 ,The Case Of Ma Barker - Part 1
  ,36/09/23 ,  36 ,The Case Of Ma Barker - Part 2
  ,36/09/30 ,  37 ,The Case Of Willie Dooly
  ,36/10/07 ,  38 ,Case Of Leonard Whitfield 'The Cat'
  ,36/10/14 ,  39 ,The Case Of The Diamond Center Gang
  ,36/10/21 ,     ,Pre-Empted
  ,36/10/28 ,  40 ,Red McKenna, The Red Killer
  ,36/11/04 ,  41 ,The Barber Murder Case
  ,36/11/11 ,  42 ,The Phantom Of The Coal Fields - Pt 1
  ,36/11/18 ,  43 ,The Phantom Of The Coal Fields - Pt 2
  ,36/11/25 ,  44 ,The Walter Rathbone Forged Case
  ,36/12/02 ,  45 ,The Case Of Snakes Ryan
  ,36/12/09 ,  46 ,The Case Of Irene Schroder - Pt 1
  ,36/12/16 ,  47 ,The Case Of Irene Schroder  - Pt 2
  ,36/12/23 ,  48 ,The Case Of Antonio Boccadaro - The Cat
  ,36/12/30 ,  49 ,The Case Of Slats Perelli - Pt 1
  ,37/01/06 ,  50 ,The Case Of Slats Perelli - Pt 2
  ,37/01/13 ,  51 ,Anniversary Program #1 - Four Short Stories
  ,37/01/20 ,  52 ,The Case Of Wilbur Underhill - Pt 1
  ,37/01/27 ,  53 ,The Case Of Wilbur Underhill - Pt 2
  ,37/02/03 ,  54 ,The Case Of The Durable Mike Malloy
  ,37/02/10 ,  55 ,The Case Of The Golden Exchange Bank
  ,37/02/17 ,  56 ,The Case Of Alcide 'Frenchy' Benoit
  ,37/02/24 ,  57 ,The Case Of Clifford McKissick - Pt 1
  ,37/03/03 ,  58 ,The Case Of Clifford McKissick - Pt 2
  ,37/03/10 ,  59 ,The Case Of The Broadway Slayers
  ,37/03/17 ,  60 ,The Case Of Merle Vanderbush
  ,37/03/24 ,  61 ,The Case Of Emery 'Killer' Connell - Pt 1
  ,37/03/31 ,  62 ,The Case Of Emery 'Killer' Connell - Pt 2
  ,37/04/07 ,  63 ,The Crime Wave : Scientific Reconstruction
  ,37/04/14 ,  64 ,The Case Of Bum Rogers - Pt 1
  ,37/04/21 ,  65 ,The Case Of Bum Rogers - Pt 2
  ,37/04/28 ,  66 ,The Case Of Tom Errico - Pt 1
  ,37/05/05 ,  67 ,The Case Of Nick Vanna - Pt 2
  ,37/05/12 ,  68 ,The Case Of Cardinella - 'The Devil'
  ,37/05/19 ,  69 ,The Case Of The Bo Epstein Gang
* ,37/05/26 ,  70 ,Jake And Ralph Fleagle
* ,37/06/02 ,  71 ,The Blood Oath Gang
  ,37/06/09 ,  72 ,Count Victor Lustig - Pt 1
  ,37/06/16 ,  73 ,Count Victor Lustig - Pt 2
  ,37/06/23 ,  74 ,The Case Of The Akron Cop Killers - Part 1
* ,37/06/30 ,  76 ,The Case Of The Akron Cop Killers - Part 2
  ,37/07/07 ,  76 ,Police Lore: Powers Of Observation
  ,37/07/14 ,  77 ,The Case Of Raymond Hamilton - Pt 1
  ,37/07/21 ,  78 ,The Case Of Raymond Hamilton - Pt 2
  ,37/07/28 ,  79 ,The Case Of Irving Charles Chapman
  ,37/08/04 ,  80 ,The Gentleman Bandit
  ,37/08/11 ,  81 ,The Case Of Lee Antle
  ,37/08/18 ,  82 ,The Case Of Henri Bolat
  ,37/08/25 ,  83 ,The Case Of Martin Durkin
  ,37/09/01 ,  84 ,The Case Of Bob Zwick - Pt 1
  ,37/09/08 ,  85 ,The Case Of Bob Zwick - Pt 2
  ,37/09/15 ,  86 ,The Case Of The Seattle Safe Crackers
  ,37/09/22 ,  87 ,The Scientific Case
  ,37/09/29 ,  88 ,The Herman Sadler Case
  ,37/10/06 ,  89 ,The Case Of The Busche Brothers
* ,37/10/13 ,  90 ,Safe Crackers And Vault Makers
  ,37/10/20 ,  91 ,The Case Of Al Brady - Pt 1
  ,37/10/27 ,  92 ,The Case Of Al Brady - Pt 2
  ,37/11/03 ,  93 ,The Case Of Lee Bradley
  ,37/11/10 ,  94 ,The Case Of Neal Bowman
  ,37/11/17 ,  95 ,The Case Of The Chain Bandit - Pt 1
  ,37/11/24 ,  96 ,The Case Of The Chain Bandit - Pt 2
  ,37/12/01 ,  97 ,The Case Of George 'Dutch' Anderson
  ,37/12/08 ,  98 ,The Case Of The Dan Heady Gang
  ,37/12/15 ,  99 ,The Case Of Clyde Stevens
  ,37/12/22 , 100 ,The Case Of The Gibson Gang
  ,37/12/29 , 101 ,The Case Of Ford Bradshaw
  ,38/01/05 , 102 ,The Case Of Joe Cabbage
  ,38/01/12 , 103 ,The Case Of The Holiday Bandit
  ,38/01/19 , 104 ,The Case Of Quail Hunter Kennedy
  ,38/01/26 , 105 ,The Case Of Freckles Cranston
  ,38/02/02 , 106 ,The Case Of Martin Lavin
  ,38/02/09 , 107 ,The Case Of The Matt Kimes Gang
  ,38/02/16 , 108 ,The Case Of Eddie Linham
  ,38/02/23 , 109 ,The Case Of Bruno Sydow
  ,38/03/02 , 110 ,The Egan Rats Of Saint Louis - Pt 1
  ,38/03/09 , 111 ,The Egan Rats Of Saint Louis - Pt 2
  ,38/03/16 , 112 ,The Case Of Bobby Hunt
  ,38/03/23 , 113 ,The Case Of Golden Barret And George Squires
  ,38/03/30 , 114 ,The Case Of The Tiger Bandit
  ,38/04/06 , 115 ,Killers Of The Cookson Hills - Pt 1
  ,38/04/13 , 116 ,Killers Of The Cookson Hills - Pt  2
  ,38/04/20 , 117 ,The Case Of Joe Prymas
  ,38/04/27 , 118 ,The Holbach Hotel Murder Case
  ,38/05/04 , 119 ,The Case Of The Yacht Bandits
  ,38/05/11 , 120 ,The Case Of Frank Tesciano
  ,38/05/18 , 121 ,The Case Of The Bones Gang
  ,38/05/25 , 122 ,The Norris Gang
  ,38/06/01 , 123 ,The Case Of The Cain And Proctor Gang
  ,38/06/08 , 124 ,The Case Of Killer McGoig - Pt 1
  ,38/06/15 , 125 ,The Case Of Killer McGoig - Pt 2
  ,38/08/17 , 126 ,The Lawrence C Rea Case
  ,38/08/24 , 127 ,The Brest & Logan Case
  ,38/08/31 , 128 ,The John Ashley Gang - Pt 1
  ,38/09/07 , 129 ,The John Ashley Gang - Pt 2
  ,38/09/14 , 130 ,The John Ashley Gang - Pt 3
  ,38/09/21 , 131 ,Jeff Duree, The Ghost
  ,38/09/28 , 132 ,The Case Of Willie Mason
  ,38/10/05 , 133 ,Evelyn Ellis - Train Robber
  ,38/10/12 , 134 ,The David Shaffer Case
  ,38/10/19 , 135 ,The Case Of Robert Cornette
  ,38/10/26 , 136 ,The Case Of Clarence 'Buck' Kelly
  ,38/11/02 , 137 ,The Case Of Francie 'Puggie' Ryan
  ,38/11/09 , 138 ,The Case Of The Tri-State Gang (Same Script as 35-09-14)
  ,38/11/16 , 139 ,The Case Of William Brown Read
  ,38/11/23 , 140 ,The Case Of Stewart And Wythe
  ,38/11/30 , 141 ,The Case Of Stephen Hoppe
  ,38/12/07 , 142 ,The Rule Of Three
  ,38/12/14 , 143 ,The Case Of Trigger Mad Maughs
  ,38/12/21 , 144 ,The Case Of George 'Jiggs' Lostenier
  ,38/12/28 , 145 ,The Capture Of John W Deering
  ,39/01/04 , 146 ,The Slot Machine Murders
  ,39/01/11 , 147 ,Third Anniversary Program
  ,39/01/18 , 148 ,The Case Of Eddie Doll
  ,39/01/25 , 149 ,The Case Of Jervis Jennings
  ,39/02/01 , 150 ,The Case Of Austin And Hanovitch - Pt 1
  ,39/02/08 , 151 ,The Case Of Austin And Hanovitch - Pt 2
  ,39/02/15 , 152 ,The Case Of Charles Sands And Leon Siler
  ,39/02/22 , 153 ,The Laurel Line Killers
  ,39/03/01 , 154 ,The Case Of Big Boy Brady - Pt 1
  ,39/03/08 , 155 ,The Case Of Big Boy Brady - Pt 2
  ,39/03/15 , 156 ,The Case Of Bad Bill Bagley
  ,39/03/22 , 157 ,The Case Of Arthur Barry
  ,39/03/29 , 158 ,The Case Of Red Kirby
  ,39/04/05 , 159 ,The Hicks Case
  ,39/04/12 , 160 ,The Six Pins Case
  ,39/04/19 , 161 ,The Benny Dixon Case
  ,39/04/26 , 162 ,The Bird Brothers Gang - Pt 1
  ,39/05/03 , 163 ,The Bird Brothers Gang - Pt 2
  ,39/05/10 , 164 ,The Case Of DePasquale & Catalano
  ,39/05/17 , 165 ,The Case Of Mallory 'Red" Kuykendal
  ,39/05/24 , 166 ,The Case Of Handsome Jack Kultas - Pt 1
  ,39/05/31 , 167 ,The Case of Handsome Jack Kultas - Pt 2
  ,39/06/07 , 168 ,The Case Of The Bryan Keenan Gang
  ,39/06/14 , 169 ,The Case Of Gula & Sacoda
  ,39/06/21 , 170 ,The White Hoods Of New Orleans - Pt 1
  ,39/06/28 , 171 ,The White Hoods Of New Orleans - Pt 2
  ,39/10/21 , 172 ,The Case Of The Sullivan Gang
  ,39/10/28 , 173 ,The Case Of Idzi Rudtowski
  ,39/11/04 , 174 ,The Rocheblave Bank Robbery
  ,39/11/11 , 175 ,The Case of Howard And Bashaw
  ,39/11/18 , 176 ,The Case Of The Blonde Tigeress - Pt 1
  ,39/11/25 , 177 ,The Case Of The Blonde Tigeress - Pt 2
  ,39/12/02 , 178 ,The Case Of The Scarface Man
  ,39/12/09 , 179 ,The Case Of Edward Bentz
  ,39/12/16 , 180 ,The Case Of Power & Dickens - Pt 1
  ,39/12/23 , 181 ,The Case Of Power & Dickens - Pt 2
  ,39/12/30 , 182 ,The Case Of Jim Clark
* ,40/01/06 , 183 ,Anniversary Program Number Four
  ,40/01/13 , 184 ,The Whitney Jordan Gang
  ,40/01/20 , 185 ,The Case Of Michael Kalenmyer
  ,40/01/27 , 186 ,The Wilkes Barre Murders - Pt 1
  ,40/02/03 , 187 ,The Wilkes Barre Murders - Pt 2
  ,40/02/10 , 188 ,The Earl Doyle Case
  ,40/02/17 , 189 ,The Case Of John Schrocki
  ,40/02/24 , 190 ,The Case Of Blackie Thompson
  ,40/03/02 , 191 ,The Case Of Cleveland Owens - Pt 1
  ,40/03/09 , 192 ,The Case Of Cleveland Owens - Pt 2
  ,40/03/16 , 193 ,The Case Of The Tattoo Bandits
  ,40/03/23 , 194 ,The Case Of The Carl Ferrito Gang
  ,40/03/30 , 195 ,The Case Of Leo 'Bad Eye' Zalutsky
  ,40/04/06 , 196 ,The Case Of Louis Lepke Buchalter - Pt 1
  ,40/04/13 , 197 ,The Case Of Louis Lepke Buchalter - Pt 2
  ,40/04/20 , 198 ,The Case Of The Boys Haven
  ,40/04/27 , 199 ,The Case Of The Easton Brothers
  ,40/05/04 , 200 ,The Case Of Jack Howard
  ,40/05/11 , 201 ,The Case Of Victor Giamitro
  ,40/05/18 , 202 ,Murder Castle - Pt 1
  ,40/05/25 , 203 ,Murder Castle - Pt 2
  ,40/06/01 , 204 ,The Gruberif Arson Case
  ,40/06/08 , 205 ,The Case Of Marcus Powell
  ,40/06/15 , 206 ,The Case Of Roy Pete Traxler
  ,40/10/11 , 207 ,The Case Of The Beanpole Bandit
  ,40/10/18 , 208 ,The Case Of The Harry Chapman Gang
  ,40/10/25 , 209 ,The Case Of Dwight Beard - Pt 1
* ,40/11/01 , 210 ,The Case Of Dwight Beard - Pt 2
  ,40/11/08 , 211 ,The Dynamite Gang
  ,40/11/15 , 212 ,The Case Of The Davis Brothers
  ,40/11/22 , 213 ,The Case Of The Blonde Tigress - Pt 1 (repeat of 39-11-18)
  ,40/11/29 , 214 ,The Case Of The Blonde Tigress - Pt 2 (repeat Of 39-11-25)
  ,40/12/06 , 215 ,The Case Of The Cotner-Peterson Gang
  ,40/12/13 , 216 ,The Tincher & Glenday Case
  ,40/12/20 , 217 ,The Case Of The Connie Ritter Gang - Pt 1
  ,40/12/27 , 218 ,The Case Of The Connie Ritter Gang - Pt 2
  ,41/01/03 , 219 ,The Case Of The Auld Lange Gang
  ,41/01/10 , 220 ,The Case Of Bad Willie Gray
  ,41/01/17 , 221 ,Fifth Anniversary Program
  ,41/01/24 , 222 ,The Mc Carthney & Korte Gang
  ,41/01/31 , 223 ,The Fogleman & Napier Case
  ,41/02/07 , 224 ,The Bitus-Adams-Berger Case
  ,41/02/14 , 225 ,The Case Of The Margie Dean Gang
  ,41/02/21 , 226 ,The Case Of William Dainard - Pt 1
  ,41/02/28 , 227 ,The Case Of William Dainard - Pt 2
  ,41/03/07 , 228 ,The Case Of The Benigo Gang
  ,41/03/14 , 229 ,The Case Of The Trolley Murders
  ,41/03/21 , 230 ,The Kelly And Huffman Case
* ,41/03/28 , 231 ,The Case of the Nickle and Dime Bandits
* ,41/04/04 , 232 ,The Case of the Missing Corpse aka The Case Of Mrs Gangbusters
  ,41/10/10 , 233 ,The Case Of William Duvall
* ,41/10/17 , 234 ,The Case Of Frank Bacchino
  ,41/10/24 , 235 ,The Case Of Lupeni & Cameron
  ,41/10/31 , 236 ,The Case Of Donald White - Pt 1
  ,41/11/07 , 237 ,The Case Of Donald White - Pt 2
  ,41/11/14 , 238 ,The John Doe Case
  ,41/11/21 , 239 ,The Case Of The Dando Davis Gang
  ,41/11/28 , 240 ,The Duchness Spinelli Gang
  ,41/12/05 , 241 ,The Case Of Julius Bohannon
  ,41/12/12 , 242 ,The Case Of William 'Blackie' Zupkosky
  ,41/12/19 , 243 ,Maryland's Mastermind Of Crime
  ,41/12/26 , 244 ,New York's Safe And Lock Squad
  ,42/01/02 , 245 ,The Case Of Charles Shader - Pt 1
  ,42/01/09 , 246 ,The Case Of Charles Shader - Pt 1
  ,42/01/16 , 247 ,The Case Of George Miller
  ,42/01/23 , 248 ,The Case Of Salvador Mancusco
  ,42/01/30 , 249 ,The Oley & Geary Gang
  ,42/02/06 , 250 ,The Case Of Forrest Turner, Escape Artist - Pt 1
  ,42/02/13 , 251 ,The Case Of Forrest Turner, Escape Artist, Pt 2
  ,42/02/20 , 252 ,Killer Joe Anderson
  ,42/02/27 , 253 ,The Case Of Irving Charles Chapman
  ,42/03/06 , 254 ,The Case Of Dr. Otto Koogler
* ,42/03/13 , 255 ,The Esposito Brothers - Mad Dogs Of Crime
* ,42/03/20 , 256 ,The Case of The Black Bottom Bandit aka The Case Of Earl Joiner
  ,42/03/27 , 257 ,The Case Of The Baby Dillenger Mob
  ,42/04/03 , 258 ,The Scientific Labratory
  ,42/04/10 , 259 ,The Case Of The California Killer
  ,42/04/17 , 260 ,The Case Of Jimmy O'Connor
  ,42/04/24 , 261 ,The Case Of Glenn Roy Wright
  ,42/05/22 , 262 ,The Case Of The Peter, Hayes, Jackson Gang
  ,42/05/29 , 263 ,The Case Of Eddie Adams
  ,42/06/05 , 264 ,The Case Of Carl Campbell
  ,42/06/12 , 265 ,The Case Of Waldo Buck
  ,42/06/19 , 266 ,The Case Of George Slate
  ,42/06/26 , 267 ,The Case Of Riordan & Walters
  ,42/07/03 , 268 ,The Case Of Harry Wells
  ,42/07/10 , 269 ,The Case Of Joe Vigoroux
  ,42/07/17 , 270 ,The Case Of The Earl Loveday Gang
  ,42/07/24 , 271 ,The Case Of Al Brengard
  ,42/07/31 , 272 ,The Case Of The Thomas Martin Gang
  ,42/08/07 , 273 ,The Case Of Tom Slaughter - Pt 1
  ,42/08/14 , 274 ,The Case Of Tom Slaughter - Pt 2
  ,42/08/21 , 275 ,The Case Of Bobby Horn
  ,42/08/28 , 276 ,The Dillingers Of The Ozarks
  ,42/09/04 , 277 ,The Case Of The Western Torpedo
  ,42/09/11 , 278 ,The Case Of Riley & Watson
  ,42/09/18 , 279 ,The Killer From The Badlands
  ,42/09/25 , 280 ,The Case Of Miller & Grinkowicz
  ,42/10/02 , 281 ,The Case Of The Booth & Montgomery Gang
  ,42/10/09 , 282 ,The Case Of John Paul Chase
  ,42/10/16 , 283 ,The Case Of Basil Banghart
* ,42/10/23 , 284 ,The Case Of Clyde William Buchanan
* ,42/10/30 , 285 ,The Case of The Wolverine
* ,42/11/06 , 286 ,The Case Of Dawson And Garner
  ,42/11/13 , 287 ,The Case Of Meredith & Couch
  ,42/11/20 , 288 ,The Case Of Nick The  Arsenal
  ,42/11/27 , 289 ,The Case Of Tanko & Hall - Pt 1
* ,42/12/04 , 290 ,The Case Of Tanko & Hall - Pt 2
  ,42/12/11 , 291 ,The Case Of Ratcliff & Helms
  ,42/12/18 , 292 ,The Case Of Erwin & Brown
  ,42/12/25 , 293 ,Criminal Identification
  ,43/01/01 , 294 ,The Case Of Francis Haines
  ,43/01/08 , 295 ,The Case Of The Doc Madison Gang
  ,43/01/15 , 296 ,The Case Of Fred Burke
  ,43/01/22 , 297 ,The Case Of Chester Alton Purdy
  ,43/01/29 , 298 ,The Case Of Adams & McRee
* ,43/02/05 , 299 ,The Case of Toni-Jo
  ,43/02/12 , 300 ,The Case Of The Hafer & Williams
  ,43/02/19 , 301 ,The Case Of The Cummingham Boys
  ,43/02/26 , 302 ,The Case Of Cecil Salter
  ,43/03/05 , 303 ,The Case Of Ray Majors
  ,43/03/15 , 304 ,Crime Career Of Roger Touhy - Part 1
  ,43/03/22 , 305 ,Criime Career Of Roger Touhy - Part 2
  ,43/03/26 , 306 ,The Case Of Ben Cook
  ,43/04/02 , 307 ,The Case Of Mott & Rusch
  ,43/04/09 , 308 ,The Case Of The Earl Sears Gang
  ,43/04/16 , 309 ,The Case Of Harold Brest
  ,43/04/23 , 310 ,The Case Of Quinton Rock
  ,43/04/30 , 311 ,The Case Of Floyd Hamilton
  ,43/05/07 , 312 ,The Case Of Fred Hunter
  ,43/05/14 , 313 ,The Case Of The Black Market Nylons
  ,43/05/21 , 314 ,The Case Of Forrest Turner - Pt 1
  ,43/05/28 , 315 ,The Case Of Forrest Turner - Pt 2
  ,43/06/04 , 316 ,The Case Of Leland Harvey
  ,43/06/11 , 317 ,The Case Of The Black Market Meat
  ,43/06/18 , 318 ,The Case Of Arnett Booth
  ,43/06/25 , 319 ,The Case Of Thomas Nathan Norris - Pt 1
  ,43/07/02 , 320 ,The Case Of Thomas Nathan Norris - Pt 2
  ,43/07/09 , 321 ,The Case Of The Ripper Gang
  ,43/07/16 , 322 ,The Case Of Dick Williams
  ,43/07/23 , 323 ,The Case Of Leo Hall
  ,43/07/30 , 324 ,The Case Of The John Dean Gang
  ,43/08/06 , 325 ,The Case Of Jimmy O'Connor - Pt 1
  ,43/08/11 , 326 ,The Case Of Jimmy O'Connor - Pt 2
  ,43/08/20 , 327 ,The Case Of The Ralph Briggs Gang
  ,43/08/27 , 328 ,The Case Of The Baby Faced Killer
  ,43/09/03 , 329 ,The Case Of John Wesley Johns
  ,43/09/10 , 330 ,The Case Of Carl Straka - Pt 1
  ,43/09/17 , 331 ,The Case Of Carl Straka - Pt 2
  ,43/09/24 , 332 ,The Case Of Reynolds Forsbrey
  ,43/10/01 , 333 ,The Case Of Pedrini & Bell
  ,43/10/08 , 334 ,The Case Of Slim Gibson
  ,43/10/15 , 335 ,The Case Of Dorothy Stirrat
  ,43/10/22 , 336 ,The Case Of Gant & Hunt
  ,43/10/29 , 337 ,The Case Of Hiram Prather
  ,43/11/05 , 338 ,The Case Of Sunny Lamb
  ,43/11/12 , 339 ,The Case Of Victor Joseph Andreoli
  ,43/11/19 , 340 ,The Case Of Cross & Russell
  ,43/11/26 , 341 ,The Case Of The Spider And Fly Gang
  ,43/12/03 , 342 ,The Case Of Arlie Lewis
  ,43/12/10 , 343 ,The Case Of The Skip Baker Gang
  ,43/12/17 , 344 ,The Case Of The Runyon And Gibson Gang
  ,43/12/24 , 345 ,The Case Of Stetcko & Byra Gang
  ,43/12/31 , 346 ,The Case Of William La Trasse
  ,44/01/07 , 347 ,The Case Of Cliff 'Kip' Harback
  ,44/01/14 , 348 ,The Case Of Brown & Castleman Gang
  ,44/01/21 , 349 ,The Case Of Carl Barone & Domick Gang
  ,44/01/28 , 350 ,The Case Of The Polka Dot Gang
  ,44/02/04 , 351 ,The Case Of Farrington Graham Hill - Pt 1
  ,44/02/11 , 352 ,The Case Of Farrington Graham Hill - Pt 2
  ,44/02/18 , 353 ,The Case Of The Pants Gang Killers
  ,44/02/25 , 354 ,The Case Of The Joe Carlson Gang
  ,44/03/03 , 355 ,The Case Of Edward McNamara
  ,44/03/10 , 356 ,The Case Of Louis 'Lepke' Buchalter - Pt 1
  ,44/03/17 , 357 ,The Case Of Louis 'Lepke' Buchalter - Pt 2
  ,44/03/24 , 358 ,The Case Of Louis 'Lepke' Buchalter - Pt 3
  ,44/03/31 , 359 ,The Case Of Porter Meeks
  ,44/04/07 , 360 ,The Case Of The Draft Dodgers School
  ,44/04/14 , 361 ,The Case Of Willie 'The Grabber' Shapiro
  ,44/04/21 , 362 ,The Case Of Ray Olson
  ,44/04/28 , 363 ,The Case Of The Joe Handley Gang
  ,44/05/05 , 364 ,The Case Of Abe 'Kid Twist' Reles - Pt 1
  ,44/05/12 , 365 ,The Case Of Abe 'Kid Twist' Reles - Pt 2
  ,44/05/19 , 366 ,The Case Of Robert White
  ,44/05/26 , 367 ,The Case Of Batton, Woods, Phelps
* ,44/06/09 , 369 ,The Case of the Unknown Killer
  ,44/06/16 , 370 ,The Case Of Lila Foster
  ,44/06/23 , 371 ,The Case Of Marty Sanders & Ed Moore
  ,44/06/30 , 372 ,The Case Of The Political Boss
  ,44/07/07 , 373 ,The Case Of Skupien & Jacjymiak
  ,44/07/14 , 374 ,The Case Of Matson, Barry & Grant
  ,44/07/21 ,     ,Pre-Empted
  ,44/07/28 , 375 ,The Case Of Kinnie Wagner - Pt 1
  ,44/08/04 , 376 ,The Case Of Kinnie Wagner - Pt 2
  ,44/08/11 , 377 ,The Case Of The Nickel Plate Bandits
  ,44/08/18 , 378 ,The Case Of Raymond Pierce
  ,44/08/25 , 379 ,The Case Of Brooks & Williams
  ,44/09/01 , 380 ,The Case Of Red Jordon
  ,44/09/08 , 381 ,The Case Of Pete Corbett
  ,44/09/15 , 382 ,The Case Of Bielanski & Tillotson
  ,44/09/22 , 383 ,The Case Of The Carter Camp Gang
  ,44/09/29 , 384 ,The Case Of The Frank Raymond Gang
  ,44/10/06 , 385 ,The Case Of Charles Clinton Coates
  ,44/10/13 , 386 ,The Case Of Floyd Bynum
  ,44/10/20 , 387 ,The Case Of William E Brown
  ,44/10/27 , 388 ,The Case Of Willie Dupont
  ,44/11/03 , 389 ,The Case Of Michael Cerese
  ,44/11/04 , 390 ,The Case Of The Radio Intelligence Division
  ,44/11/10 , 391 ,The Case Of The 'Ma' Stager Gang - Pt 1
  ,44/11/17 , 392 ,The Case Of The 'Ma' Stager Gang - Pt 1
  ,44/12/01 , 393 ,The Case Of Ernest L Hoefgen
  ,44/12/08 , 394 ,The Case Of William Auburn Thompson
  ,44/12/15 , 395 ,The Case Of Felker & Mercer
  ,44/12/22 , 396 ,The Case Of Fred Schmidt
  ,44/12/29 , 397 ,The Case Of Hattie Matthews
  ,45/01/05 , 398 ,The Case Of Perkins & Mullins
* ,45/09/15 , 399 ,The Case Of Harry 'Red' Bever
* ,45/09/22 , 400 ,The Case Of The Red Evening Dress
* ,45/09/29 , 401 ,The Case of John K Giles aka John K Giles, Escape Artist
  ,45/10/06 , 402 ,The Case Of Merten & Higgins
  ,45/10/13 , 403 ,The Case Of Ivan Sullivan
  ,45/10/20 , 404 ,The Case Of The Moon Hogan Gang
* ,45/10/27 , 405 ,The Case Of Bielanski & Tillotson
  ,45/11/03 , 406 ,The Case Of Joseph Dunbar Melody
  ,45/11/10 , 407 ,The Case Of Leonard Zalutsky - Pt 1
  ,45/11/17 , 408 ,The Case Of Leonard Zalutsky - Pt 2
* ,45/11/24 , 409 ,The Case of Matthew Kozera
  ,45/12/01 , 410 ,The Case Of William La Trasse (updated version of 43-12-31)
* ,45/12/08 , 411 ,The Case of Blackie Thompson (same Story as 40-02-24)
  ,45/12/15 , 412 ,The Case Of Miran Thompson
* ,45/12/22 , 413 ,The Case of Al Simeone
* ,45/12/29 , 414 ,The Case Of Red Coleman
* ,46/01/05 , 415 ,The Case Of The Rumbolt Vault Robbery aka The Case Of The Three Million Dollar Robbery aka Wentzel Irving
* ,46/01/12 , 416 ,The Case of The Texas Killer
* ,46/01/19 , 417 ,The Case Of Singer & Fauls aka TCOT Triangle Bandit
* ,46/01/26 , 418 ,The Case Of Damiani & Krause - Part 1
* ,46/02/02 , 419 ,The Case of Damiani & Krause - Part 2
  ,46/02/09 , 420 ,The Case Of Ralph Greco
  ,46/02/16 , 421 ,The Nick Dermebeis Gang
  ,46/02/23 , 422 ,The Case Of Willie De Normand
  ,46/03/02 , 423 ,The Case Of Willie Donald Dillon - Pt 1
  ,46/03/09 , 424 ,The Case Of Willie Donald Dillon - Pt 2
* ,46/03/16 , 425 ,The Case of the Death Mask Killer
* ,46/03/23 , 426 ,The Case of Joe McCann And The West Side Syndicate - Pt 1
  ,46/03/30 , 427 ,The Case Of Joe McCann And The West Side Syndicate - Pt 2
  ,46/04/06 , 428 ,The Case Of Joe McCann And The West Side Syndicate - Pt 3
  ,46/04/13 , 429 ,The Case Of Joe McCann And The West Side Syndicate - Pt 4
  ,46/04/20 , 430 ,The Case Of Joe McCann And The West Side Syndicate - Pt 5
  ,46/04/27 , 431 ,The Case Of Paul Barker Gang
  ,46/05/04 , 432 ,The Case Of Jack La Rocca
* ,46/05/11 , 433 ,The Case Of the Alcatraz Prison Riot
* ,46/05/18 , 434 ,The Case Of Adair, Pasterski & Delany
  ,46/05/25 , 435 ,The Case Of Uckele & Matysek
  ,46/06/01 , 436 ,The Case Of The Hitfch-Hike Murder
  ,46/06/08 , 437 ,The Case Of West & Pepperman
  ,46/06/15 , 438 ,The Case Of Jennings & Windmayer
  ,46/06/22 , 439 ,The Case Of Drake, Motari & Ward
  ,46/06/29 , 440 ,The Case Of Carl Hopper
  ,46/07/06 , 441 ,The Case Of Willie Sutton - Pt 1
  ,46/07/13 , 442 ,The Case Of Willie Sutton - Pt 2
  ,46/07/20 , 443 ,The Case Of Willie Sutton - Pt 3
  ,46/07/27 , 444 ,The Case Of Joe Black
  ,46/08/03 , 445 ,The Case Of Ed Davis - Pt 1
  ,46/08/10 , 446 ,The Case Of Ed Davis - Pt 2
  ,46/08/17 , 447 ,The Case Of LaNacha
  ,46/08/24 , 448 ,The Case Of Thomas Nathan 'Pete' Norris - Pt 1
  ,46/08/31 , 449 ,The Case Of Thomas Nathan 'Pete' Norris - Pt 2
  ,46/09/07 , 450 ,The Case Of Thomas Nathan 'Pete' Norris - Pt 3
  ,46/09/14 , 451 ,The Case Of The Laughing Girl Bandit
  ,46/09/21 , 452 ,The Case Of The Lolli Gang - Pt 1
  ,46/09/28 , 453 ,The Case Of The Lolli Gang - Pt 2
  ,46/10/05 , 454 ,The Case Of The Liquor HI-Jackers
  ,46/10/12 , 455 ,The Case Of Walter Freisleben - Pt 1
  ,46/10/19 , 456 ,The Case Of Walter Freisleben - Pt 2
  ,46/10/26 , 457 ,The Case Of Scissors Saunders
  ,46/11/02 , 458 ,The Case Of Louise Peete - Pt !
  ,46/11/09 , 459 ,The Case Of Louise Peete - Pt 2
  ,46/11/16 , 460 ,The Case Of Gelson, Fish & Boyce
  ,46/11/23 , 461 ,The Case Of George Sidney - Pt 1
  ,46/11/30 , 462 ,The Case Of George Sidney - Pt 2
  ,46/12/07 , 463 ,The Case Of The Oklahoma Kid
* ,46/12/14 , 464 ,The Case of the Elusive Burglar - Pt 1
  ,46/12/21 , 465 ,Special Broadcast On  Lewis J Valentine
* ,46/12/28 , 466 ,The Case Of Lester Nelson
* ,47/01/04 , 467 ,The Case of the Elusive Burglar - Pt 2
* ,47/01/11 , 468 ,The Case Of Phil Chadwick - Pt 1
  ,47/01/18 , 469 ,The Case Of Phil Chadwick - Pt  2
  ,47/01/25 , 470 ,The Case Of Phil Chadwick - Pt 3
  ,47/02/01 , 471 ,The Case Of Cronin & Frizzell
  ,47/02/08 , 472 ,The Case Of Nobel & Cartwright
  ,47/02/15 , 473 ,The Case Of The Four X's
  ,47/02/22 , 474 ,The Case Of Joseph Paul Cretzer - Pt 1
  ,47/03/01 , 475 ,The Case Of Jospeh Paul Cretzer - Pt 1
  ,47/03/08 , 476 ,The Case Of Joseph Paul Cretzer - Pt 3
  ,47/03/15 , 477 ,The Case Of Neff & Howell
  ,47/03/22 , 478 ,The Case Of Everhart & Neely - Pt 1
  ,47/03/29 , 479 ,The Case Of Everhart & Neely - Pt 2
  ,47/04/05 , 480 ,The Case Of Wison & Schwartz
  ,47/04/12 , 481 ,The Case Of The Million Dollar Robbery - Pt 1
  ,47/04/19 , 482 ,The Case Of The Million Dollar Robbery - Pt 2
  ,47/04/26 , 483 ,The Case Of Drew & Ogivlie
* ,47/05/03 , 484 ,The Case Of The Russo Gang
  ,47/05/10 , 485 ,The Case Of Jack Robert Purdom - Pt 1
  ,47/05/17 , 486 ,The Case Of Jack Robert Purdom - Pt 2
* ,47/05/24 , 487 ,The Case Of The Crime Teacher  aka Costumed Killer
  ,47/05/31 , 488 ,The Case Of The Flash Bandit - Pt 1
  ,47/06/07 , 489 ,The Case Of The Flash Bandit - Pt 2
  ,47/08/16 , 490 ,The Case Of The Thompson Gang
  ,47/08/23 , 491 ,The Case Of The Masquerade Bandit
  ,47/08/30 , 492 ,The Case Of The California Machine Gunners
  ,47/09/06 , 493 ,The Case Of The Missouri Killers
  ,47/09/13 , 494 ,The Case Of The Drug Store Killers
  ,47/09/20 , 495 ,The Case Of John L Collier - Pt 1
  ,47/09/27 , 496 ,The Case Of John L Collier - Pt 2
* ,47/10/04 , 497 ,The Case of the Kidnapped Paymaster aka The Case of the Seigel Kidnapping
* ,47/10/11 , 498 ,The Case Of Bugs Moran - Part 1
* ,47/10/18 , 499 ,The Case of the Notorious Gang Leader aka The Devil and the Syndicate - Pt 2
* ,47/10/25 , 500 ,The Case Of Bugs Moran - Part 3
  ,47/11/01 , 501 ,The Case Of Kid Fist And The Heavyweight
* ,47/11/08 , 502 ,The Case Of The Jersey Butcher Bandits
  ,47/11/15 , 503 ,The Case Of Amiel Barker - Pt 1
  ,47/11/22 , 504 ,The Case Of Amiel Barker - Pt 2
  ,47/11/29 , 505 ,The Case Of Amiel Barker - Pt 3
* ,47/12/06 , 506 ,The Case Of The Supersonic Safecrackers
* ,47/12/13 , 507 ,The Case Of The New Jersey Counterfeiters
* ,47/12/20 , 508 ,The Case Of Troy Blankenship
* ,47/12/27 , 509 ,The Case Of The Triple Threat Bandit
  ,48/01/03 , 510 ,The Case Of Ernest Booth - Pt !
  ,48/01/10 , 511 ,The Case Of Ernest Booth - Pt 2
  ,48/01/17 , 512 ,The Case Of Tate & Gumtow
* ,48/01/24 , 513 ,The Case Of Joe Fletcher
* ,48/01/31 , 514 ,The Case Of The Oliver Brothers
  ,48/02/07 , 515 ,The Case Of The Sedan Gang
  ,48/02/14 , 516 ,The Case Of Lemon & Huthinson
* ,48/02/21 , 512 ,The Case Of Grzelak & Constantine aka The Case of the Safe-cracking Combine
* ,48/02/28 , 518 ,The Case Of John Frederick Benson aka The Case of the Dakota Badman
  ,48/02/29 , 519 ,The Case Of Passante & Deham
* ,48/03/13 , 520 ,The Case Of Robert Lee Robertson
* ,48/03/20 , 521 ,The Case Of The Broadway Bandits
* ,48/03/27 , 522 ,The Case of the Cumberland Safe Cracker aka The Case Of The Ray Ernest Gang
* ,48/04/03 , 523 ,The Case Of The New York Narcotics King
* ,48/04/10 , 524 ,The Case Of The High School Hotshots
  ,48/04/17 , 525 ,The Case Of The Brutal House Burglar
* ,48/04/24 , 526 ,The Case Of The Quincy Killers
  ,48/05/01 , 527 ,The Case Of The Callous Killers - Pt 1
  ,48/05/08 , 528 ,The Case Of The Callous Killers - Pt 2
  ,48/05/15 , 529 ,The Case Of The Callous Killers - Pt 3
  ,48/05/22 , 530 ,The Case Of Benjamin Franklin Adams
  ,48/05/29 , 531 ,The Case Of Clinton Bolin
  ,48/06/05 , 532 ,The Case Of Rose & Strange
* ,48/06/12 , 533 ,The Case Of The Park Avenue Pilferers
* ,48/06/19 , 534 ,The Case Of Craig And Motes aka Tennessee Triggermen
  ,48/06/26 , 535 ,The Case Of Heywood, McLean & Zink
  ,48/07/03 , 536 ,The Case Of Deutsh & Pezzaopane - Pt 1
  ,48/07/10 , 537 ,The Case Of Deutsh & Pezzaopane - Pt 2
  ,48/07/17 , 538 ,The Case Of Turely & Wasson
* ,48/07/24 , 539 ,The Case Of The Mysterious Rooming House
* ,48/07/31 , 540 ,The Case Of The Carnival Caper
* ,48/08/07 , 541 ,The Case Of The Golf Course Murder
  ,48/08/14 , 542 ,The Case Of The Midtowner Gang - Pt 1
  ,48/08/21 , 543 ,The Case Of The Midtowner Gang - Pt 2
* ,48/08/28 , 544 ,The Case Of The Cowboy Killers
* ,48/09/04 , 545 ,The Collector Who Robbed Midwest Supermarkets aka The Collector
  ,48/09/11 , 546 ,The Case Of Ames & Emrick
  ,48/09/18 , 547 ,The Case Of The Long Shot Counterfeiters
* ,48/09/25 , 548 ,The Case Of The Cincinnati Narcotics Ring
* ,48/10/02 , 549 ,The Case Of The Chicago Tunnel Gang
* ,48/10/09 , 550 ,The Case of the Incorrigible Killer
  ,48/10/16 , 551 ,The Case Of The War Bride Bandit
* ,48/10/23 , 552 ,The Case Of The Twenty Four Hour Twins
  ,48/10/30 , 553 ,The Case Of The Miller-Florence Gang
* ,48/11/06 , 554 ,The Case Of The War Trophy Weapons
  ,48/11/13 , 555 ,The Case Of Alfred Leonard Klein
  ,48/11/20 , 556 ,The Case Of The Huston Brothers (same script as 47-09-06)
* ,48/11/27 , 557 ,The Case Of The Greedy Gunman
* ,48/12/04 , 558 ,The Case of the War Trophy Weapons
* ,48/12/11 , 559 ,The Case Of The Thornberry Brothers
* ,48/12/18 , 560 ,The Case Of The Appointment With Death
  ,48/12/25 , 561 ,The Case Of The College Capers
  ,49/01/01 ,     ,Pre-empted
* ,49/01/08 , 562 ,The Case Of The Surprised Safecrackers
* ,49/01/15 , 563 ,The Case Of The Masquerading Gunmen - Pt 1
* ,49/01/22 , 564 ,The Case Of The Masquerading Gunmen - Pt 2
* ,49/01/29 , 565 ,The Case Of The Counterfeit Combine
  ,49/02/05 , 566 ,The Case Of The Saint Louis Safecrackers
  ,49/02/12 , 567 ,The Case Of The Lone Wolf Airline Robber
  ,49/02/19 , 568 ,The Case Of The Lovelorn Robber
  ,49/02/26 , 569 ,The Case Of The Knave Of Diamonds
  ,49/03/05 , 570 ,The Case Of The Hillbilly Holdup Men
  ,49/03/12 , 571 ,The Case Of The Runaway Bank Robbers
  ,49/03/19 , 572 ,The Case Of The Seagoing Smugglers
  ,49/03/26 , 573 ,The Case Of The Murderous Reformer
  ,49/04/02 , 574 ,The Case Of The Red Headed Robber
  ,49/04/09 , 575 ,The Case Of the Random Killer - Pt 1
  ,49/04/16 , 576 ,The Case Of The Random Killer - Pt 2
  ,49/04/23 , 577 ,The Case Of The Callous Killer - Pt 1
  ,49/04/30 , 578 ,The Case Of The Callous Killer - Pt 2
* ,49/05/07 , 579 ,The Case Of The New Jersey Yegg Man
  ,49/05/14 , 580 ,The Case Of The Tea Peddling Musician
  ,49/05/21 , 581 ,The Case Of The Mix-up In Mink
  ,49/05/28 , 582 ,The Case Of The Department Store Desperados
* ,49/06/04 , 583 ,Appointment With Death aka The Date with Death
* ,49/06/11 , 584 ,The Case of the Sledgehammer Handicap aka The Case of the Laughing Bandits
  ,49/06/18 , 585 ,The Case Of The Bandit Brothers
  ,49/06/25 , 586 ,The Case Of The Mexican Hayride
* ,49/07/02 , 587 ,The Case Of The Metropolitan Motor Mob
  ,49/07/09 , 588 ,The Case Of The Savage Stickup Man
  ,49/07/16 , 589 ,The Case of Tony Adams
  ,49/07/23 , 590 ,The Case Of The Heartless Harbourer
  ,49/07/30 , 591 ,The Case Of George Bedwell
  ,49/08/06 , 592 ,The Case Of Graham & Earp
  ,49/08/13 , 593 ,The Case Of The Undivided 'C's
  ,49/08/20 , 594 ,The Case Of Robert Bertram
* ,49/08/27 , 595 ,The Case Of Roy Frank Godby - Pt 1
  ,49/09/03 , 596 ,The Case Of Roy Frank Godby - Pt 2
* ,49/09/10 , 597 ,The Case Of The Red Hot Readers
  ,49/09/17 , 598 ,The Case Of Schell, Hammer & Cummings
  ,49/09/24 , 599 ,The Case Of Kline, Andrews & Johnson
  ,49/09/30 , 600 ,The Case Of Joseph Blaich
  ,49/10/07 , 601 ,The Case Of The Wandering Convertible - Pt 1
  ,49/10/15 , 602 ,The Case Of The Blue Jay - Pt 2
* ,49/10/22 , 603 ,The Case Of The Elusive Leader
* ,49/10/29 , 604 ,The Case Of The Old School File
  ,49/11/06 , 605 ,The Case Of The Futile Fifth
  ,49/11/12 , 606 ,The Case of The Long, The Short And The Tall
  ,49/11/19 , 607 ,The Case Of The Handshake With Death
  ,49/11/26 , 608 ,The Case Of The Hue And Cry
  ,49/12/03 , 609 ,The Case Of The Paper Stars - Pt 1
  ,49/12/10 , 610 ,The Case Of The Paper Stars - Pt 2
  ,49/12/17 , 611 ,The Case Of The Paper Stars - Pt 3
  ,49/12/24 , 612 ,The Case Of The Polished Cannon - Pt 1
  ,49/12/31 , 613 ,The Case Of The Crowded Garage - Pt 2
* ,50/01/07 , 614 ,The Case Of The Golden Touch
* ,50/01/14 , 615 ,The Case Of The Traveling Paper Hanger
* ,50/01/21 , 616 ,The Case Of The Four Feathers
  ,50/01/28 , 617 ,The Case Of The Two Twenty Two Call - Pt 1
  ,50/02/04 , 618 ,The Case Of The Two Twenty Two Call - Pt 2
  ,50/02/11 , 619 ,The Case Of The Oblivious Angel
  ,50/02/18 , 620 ,The Echo Of Jesse James
  ,50/02/25 , 621 ,The Case Of The Twin Targets
  ,50/03/04 , 622 ,The Case Of The Misty Artisan
  ,50/03/11 , 623 ,The Case Of The Boiled Booster
  ,50/03/18 , 624 ,The Case Of The Double Push
  ,50/03/25 , 625 ,The Case Of The Double Barreled Farmerette
  ,50/04/01 , 626 ,The Case Of The Reluctant Wheeler
  ,50/04/08 , 627 ,The Case Of The Square Question Mark
  ,50/04/15 , 628 ,The Case Of The Wise Young Owl
  ,50/04/22 , 629 ,The Case Of The Blues In The Afternoon
  ,50/04/29 , 630 ,The Case Of The Damper And The Duster
  ,50/05/06 , 631 ,The Case Of The Shallow Trail
  ,50/05/13 , 632 ,The Case Of The Vicious Triangle
  ,50/05/20 , 633 ,The Case Of Emma Gee
  ,50/05/27 , 634 ,The Case Of The Ton Of Doom
  ,50/06/03 , 635 ,The Case Of The Prairie Pearl Diver
* ,50/06/10 , 636 ,The Case Of The Inside Track
  ,50/06/17 , 637 ,The Case Of The Redhead And The Bald Eagle
  ,50/06/24 , 638 ,The Case Of The Second Time Around
  ,50/07/01 , 639 ,The Case Of William Duble
  ,50/07/08 , 640 ,The Case Of The Robot Car Robbers
  ,50/07/15 , 641 ,The Case Of Nick Welaka
  ,50/07/22 , 642 ,The Case Of The Walla Walla Escape
  ,50/07/29 , 643 ,The Case Of The Bad Humor Man
  ,50/08/05 , 644 ,The Case Of Romeo, Arguello & Martel
  ,50/08/12 , 645 ,The Case Of The Harry Zelitz Gang
  ,50/08/19 , 646 ,The Case Of Andy West
  ,50/08/26 , 647 ,The Case Of Neimi & Malony
  ,50/09/02 , 648 ,The Case Of James And William Young
  ,50/09/09 , 649 ,The Case Of Hugo Hedin
  ,50/09/16 , 650 ,The Case Of Masfield, Henley & Yates
* ,50/09/23 , 651 ,The Case Of Mendos, Carter & Henderson
* ,50/09/30 , 652 ,The Case Of The Temperate Thief
* ,50/09/30 , 652 ,The Case Of The Temperate Thief
* ,50/09/30 , 652 ,The Case Of The Temperate Thief
* ,50/09/30 , 652 ,The Case Of The Temperate Thief
  ,50/10/07 , 653 ,The Case Of Close, Moran & Mann
  ,50/10/14 , 654 ,The Case Of May, Aker & Brown
  ,50/10/21 , 655 ,The Case Of Lloyd Sampsell - Pt 1
  ,50/10/28 , 656 ,The Case Of Lloyd Sampsell - Pt 2
  ,50/11/04 , 657 ,The Case Of Ralph Webster
  ,50/11/11 , 658 ,The Case Of William J. Andrews
  ,50/11/18 , 659 ,The Case Of Willard & McNeill Hunt
  ,50/11/25 , 660 ,The Case Of Lindstrom & Corrigan - Pt 1
  ,50/12/02 , 661 ,The Case Of Lindstrom & Corrigan - Pt 2
  ,50/12/09 , 662 ,The Case Of Parsons & Shrew
  ,50/12/16 , 663 ,The Case Of The Blue Terror
  ,50/12/23 , 664 ,The Case Of The Box Men
  ,50/12/30 , 665 ,The Case Of The Guaze Reed Gang
  ,51/01/06 , 666 ,The Case Of Robinson, Butts & Nash
  ,51/01/13 , 667 ,The Case Of Amato, DiPasquale & Grumshaw - Pt 1
  ,51/01/20 , 668 ,The Case Of Amato, DiPasquale & Grumshaw - Pt 2
  ,51/01/27 , 669 ,The Case Of Philpot & Maness
  ,51/02/03 , 670 ,The Case Of O'Day & Wilson
  ,51/02/10 , 671 ,The Case Of The Bruised Brute
  ,51/02/17 , 672 ,The Case Of Taylor & Wilson
  ,51/02/24 , 673 ,The Case Of Henry Clay Tollett
  ,51/03/03 , 674 ,The Case Of Seger & Chapman
  ,51/03/10 , 675 ,The Case Of Bagwell & White
  ,51/03/17 , 676 ,The Case Of The Trail To San Antone
  ,51/03/24 , 677 ,The Case Of The Untrustworthy Trustee
  ,51/03/31 , 678 ,The Case Of The Brother Act
  ,51/04/07 , 679 ,The Case Of Prine & Able
  ,51/04/14 , 680 ,The Case Of The Stranger In The Hall
  ,51/04/21 , 681 ,The Case Of The Short Count To Twenty
  ,51/04/28 , 682 ,The Case Of Klettke & Riskin
  ,51/05/05 , 683 ,The Case Of Southwick, Predeem & Thomas
  ,51/05/12 , 684 ,The Case Of Nash, Cornelius & Peredoe
  ,51/05/19 , 685 ,The Case Of Brown & Dolan
  ,51/05/25 , 686 ,The Case Of The Man In The Trunk
  ,51/06/02 , 687 ,The Case Of Hensley & McCallister
  ,51/06/09 , 688 ,The Case Of Thomas Gunn
  ,51/06/16 , 689 ,The Case Of Grambo, Cuckler & Marchand
  ,51/06/23 , 690 ,The Case Of Ryan & Ross
  ,51/06/30 , 691 ,The Case Of The Trigger Sad Burglars
  ,51/07/07 , 692 ,The Case Of Miller, Papiese & Bentley
  ,51/07/14 , 693 ,The Case Of The Letter To Home
  ,51/07/21 , 694 ,The Case Of Pearsall & Bradley
  ,51/07/28 , 695 ,The Case Of Roy Dimock
  ,51/08/04 , 696 ,The Case Of McNeal, Young, Manning & Brown
  ,51/08/11 , 697 ,The Case Of Darrel D Lawson
  ,51/08/18 , 698 ,The Case Of The New Jersey Bank Robbery
  ,51/08/25 , 699 ,The Case Of Martinelli, Cucco, O'Keefe & Greenburg
  ,51/09/01 , 700 ,The Case Of The Trigger Twins
  ,51/09/08 , 701 ,The Case Of Henry Clay Tollett - Pt 1
  ,51/09/15 , 702 ,The Case Of Henry Clay Tollett - Pt 2
  ,51/09/22 , 703 ,The Case Of The Partner In Crime - Pt 1
  ,51/09/29 , 704 ,The Case of The Partner In Crime - Pt 2
  ,51/10/06 , 705 ,The Case Of Murray & Schak
  ,51/10/13 , 706 ,The Case Of The Mexican Payoff
  ,51/10/20 , 707 ,The Case Of Mendola, Panczko & Jedynak
  ,51/10/27 , 708 ,The Case Of Meltzer & Cooper
  ,51/11/03 , 709 ,The Case Of Belcastro & Piazza
  ,51/11/10 , 710 ,The Case Of The Austin Brothers
  ,51/11/17 , 711 ,The Case Of The Hotel Bandits
  ,51/11/24 , 712 ,The Case Of Billy Davis
  ,51/12/01 , 713 ,The Case Of Kingsley & Endsley
  ,51/12/08 , 714 ,The Case Of The Torn Check
  ,51/12/15 , 715 ,The Case of The Monsterous Canary
  ,51/12/22 , 716 ,The Case Of The Lee Brothers
  ,51/12/29 , 717 ,The Case Of Attilio Montranarella
  ,52/01/05 , 718 ,The Case Of Hall, Stevenson & Smith
  ,52/01/12 , 719 ,The Case Of Kenneth Allen Kitts - Pt 1
  ,52/01/19 , 720 ,The Case Of Kenneth Allen Kitts - Pt 2
  ,52/01/26 , 721 ,The Case Of Mohoney, Dewan & Katherina
  ,52/02/02 , 722 ,The Case Of The White Dynamite
  ,52/02/09 , 723 ,The Case Of Caines & Hansborough
  ,52/02/16 , 724 ,The Case Of Irvine Lee Hawley
  ,52/02/23 , 725 ,The Case Of Willie Sutton - Pt 1 (same as 46-07-06)
  ,52/03/01 , 726 ,The Case Of Willie Sutton - Pt 2 (same as 46-07-13)
  ,52/03/08 , 727 ,The Case Of Willie Sutton - Pt 3 (same as 46-07-20)
  ,52/03/15 , 728 ,The Case Of Rodriguez, Horton & Yanko
  ,52/03/22 , 729 ,The Case Of Edward Budja
  ,52/03/29 , 730 ,The Case Of Terwillinger & Homan
  ,52/04/05 , 731 ,The Case Of Carpentier & Edleman
  ,52/04/12 , 732 ,The Case Of The Ransome Brothers
  ,52/04/19 , 733 ,The Case Of Turney & White
  ,52/04/26 , 734 ,The Case Of Barrett & Brame
  ,52/05/03 , 735 ,
  ,52/05/10 , 736 ,The Case Of Devine & Jones - Pt 1
  ,52/05/17 , 737 ,The Case Of Devine & Jones - Pt 2
  ,52/05/24 , 738 ,
  ,52/05/31 , 739 ,
  ,52/06/07 , 740 ,
  ,52/06/14 , 741 ,
  ,52/06/21 , 742 ,The Case Of The Elusive Killer - Pt 1
  ,52/06/28 , 743 ,The Case Of The Elusive Killer - Pt 2
  ,52/07/05 , 744 ,The Case Of Collett, Beson & Barlow
  ,52/07/12 , 745 ,The Case Of Lee Johnson
  ,52/07/19 , 746 ,The Case Of The Two Ends Of The Park
  ,52/07/26 , 747 ,The Case Of Taylor, Hugjey & McIlrath
  ,52/08/02 , 748 ,The Case Of La Natcha (same as 46-08-17)
  ,52/08/09 , 749 ,The Case Of Able, Nuckolls & Hodges
* ,52/08/16 , 750 ,The Case Of John Economos ( Nicky Small)
  ,52/08/23 , 751 ,The Case Of Rheuark, Williams, Dyer & Eaton
  ,52/08/30 , 752 ,The Case Of The Bottomless Yen
  ,52/09/06 , 753 ,The Case Of Elias, Moyer & Clark
  ,52/09/13 , 754 ,The Case Of The Honolulu Red
  ,52/09/20 , 755 ,The Case Of Fred Wilson
  ,52/09/27 , 756 ,The Case of Peich, Bergamin & Wilson
  ,52/10/04 , 757 ,The Case Of Skiliman, Jackson & Rickett
  ,52/10/11 , 758 ,The Case Of Peckum & Collins
  ,52/10/18 , 759 ,The Case Of Williamson, Martin & Ciesilski
  ,52/10/25 , 760 ,The Case Of Hathcock, Ward & Barnett
  ,52/11/01 , 761 ,The Case Of Leather, Maroe & Noll
  ,52/11/08 , 762 ,The Case Of The Cache Of 'M'
  ,52/11/15 , 763 ,The Case Of The Double Triangle
  ,52/11/22 , 764 ,The Case Of McGhee, Jones & Myer
  ,52/11/29 , 765 ,The Case Of The Rothermi
  ,52/12/06 , 766 ,The Case Of Reed, Esson, La Duca & Muncy
  ,52/12/13 , 767 ,The Case Of Ariaz, Mesa, & Cabrera
  ,52/12/20 , 768 ,The Case Of The Skelly Sferas (The Ugly Pig)
  ,53/01/03 , 770 ,The Case Of Smith & Yewell
  ,53/01/10 , 771 ,The Case Of Louis Arthur Chesler
  ,53/01/17 , 772 ,The Case Of The Purple Parcel
  ,53/01/24 , 773 ,The Case Of Powell, Ash & Farriss
  ,53/01/31 , 774 ,The Case Of Dauer & Hutchins
  ,53/02/07 , 775 ,The Case Of Bondeau & Tolisano
  ,53/02/14 , 776 ,The Case Of Mackie & Flugger
  ,53/02/21 , 777 ,The Case Of Papallio, Spilotto, & Frazbotto
  ,53/02/28 , 778 ,The Case Of Long, Purnell, Pinson & Vince - Pt 1
  ,53/03/07 , 779 ,The Case Of Long, Purnell, Pinson & Vince - Pt 2
  ,53/03/14 , 780 ,The Case Of Long, Purnell, Pinson & Vince - Pt 3
  ,53/03/21 , 781 ,The Case of Purnell, Moore & Vinson
  ,53/03/28 , 782 ,The Case Of The College Capers
  ,53/04/04 , 783 ,The Case Of David Blackwell
  ,53/04/11 , 784 ,The Case Of The Trip North
  ,53/04/18 , 785 ,The Case Of Fairfield, Hagel & Hanson
  ,53/04/25 , 786 ,The Case Of The Steel Ring
  ,53/05/02 , 787 ,The Case Of Chase, Rainey, Stuart & Smith
  ,53/05/09 , 788 ,The Case Of The Wet Run
  ,53/05/16 , 789 ,The Case Of Kuhnhausen & Williams
  ,53/05/23 , 790 ,The Case Of Peters & Vierling
  ,53/05/30 , 791 ,The Case Of  The High Priced Favorite
  ,53/06/06 , 792 ,The Case Of LeRoy B McManaman
* ,53/06/13 , 793 ,The Case Of Fred Whittaker - Pt 1
  ,53/06/20 , 794 ,The Case Of Fred Whittaker - Pt 2
  ,53/06/27 , 795 ,The Case Of The Third Front
  ,53/07/04 , 796 ,The Case Of The Way Out
  ,53/07/11 , 797 ,The Case Of Garland & Yaney
  ,53/07/18 , 798 ,The Case Of Golman & Leviness
  ,53/07/25 , 799 ,The Case Of The Pot Of Copper
  ,53/08/01 , 800 ,The Case Of Smith & Davidson
  ,53/08/08 , 801 ,The Case Of The Twenty Years
  ,53/08/15 , 802 ,The Case Of Whatley, Evans & Dawson
  ,53/08/22 , 803 ,The Case Of Meppin, Winnik & Strokowski
  ,53/08/29 , 804 ,The Case Of Shennault, Alexander & Anderson
  ,53/09/05 , 805 ,The Case Of The Lonesome Ride
  ,53/09/12 , 806 ,The Case Of Charles Edgar Corey
  ,53/09/19 , 807 ,The Case Of The Ticket To Fort Worth
* ,53/09/26 , 809 ,The Case of the Well Traveled Ring
* ,53/10/03 , 809 ,The Reese-Wren-Reid Case aka The Case of the Jewel Robbery
* ,53/10/10 , 810 ,The Case Of The Smoke Ring
  ,53/10/17 , 811 ,The Case Of The Motorcycle Gang
  ,53/10/24 , 812 ,The Case Of The Last Victim
  ,53/10/31 , 813 ,The Case Of The Wheel Of Misfortune
  ,53/11/07 , 814 ,The Case Of The Shipment From Havana
  ,53/11/14 , 815 ,The Case Of A Flight  To The Flnish
  ,53/11/21 , 816 ,The Case Of The Jaguar Driver
  ,53/11/28 , 817 ,The Case Of The Golden Horns
  ,53/12/05 , 818 ,The Case Of The Old Homestead
  ,53/12/12 , 819 ,The Case Of Hildebrandt & La Plante
  ,53/12/19 , 820 ,The Case Of The Hotrod Killer
  ,53/12/26 , 821 ,The Case Of The Baby Blanket Burglars
  ,54/01/02 , 822 ,The Case Of Murder For Pay
  ,54/01/09 , 823 ,The Case Of The Two Couples
  ,54/01/16 , 824 ,The Case Of The Kingpin
  ,54/01/23 , 825 ,The Case Of The Purple Shirt
  ,54/01/30 , 826 ,The Case Of The Snap Brim Hat
  ,54/02/06 , 827 ,The Case Of The Speed Merchants
  ,54/02/13 , 828 ,The Case Of The One Man Raid
  ,54/02/20 , 829 ,The Case Of The Wealthy Brothers
  ,54/02/27 , 830 ,The Case Of The Arsonous Car Thieves
  ,54/03/06 , 831 ,The Case Of The Seven Year Trial
  ,54/03/13 , 832 ,The Case Of The Brickyard Murder
  ,54/03/23 , 833 ,The Case Of The Seven Come Eleven
  ,54/03/27 , 834 ,The Case Of The Luscious Decoy
  ,54/04/03 , 835 ,The Case Of The Feed Mill Shooting
  ,54/04/10 , 836 ,The Case Of The Wall
  ,54/04/17 , 837 ,The Case Of The Sporting Man
  ,54/04/24 , 838 ,The Case Of Death On The Hotel Roof
  ,54/05/01 , 839 ,The Case Of The Honeymoon
  ,54/05/08 , 840 ,The Case Of The Diamond Murder
  ,54/05/15 , 841 ,The Case Of The Cold Dice
  ,54/05/22 , 842 ,The Case Of The Lake Murders
  ,54/05/29 , 843 ,The Case Of The Ellis Island Ring
  ,54/06/05 , 844 ,The Case Of The Close Knit Family
  ,54/06/12 , 845 ,The Case Of The Two Pals (same as 51-07-14)
  ,54/06/19 , 846 ,The Case Of The Misplaced Letter
  ,54/06/26 , 847 ,The Case Of The Elevator Shaft
  ,54/07/03 , 848 ,The Case Of The Misplaced Trailer
* ,54/07/05 , 849 ,The Case Of The Winter Chase
* ,54/07/12 , 850 ,The Case Of The Battle On The Staircase
* ,54/07/19 , 851 ,The Case Of The Manhattan Rampage
* ,54/07/26 , 852 ,The Case Of The Kansas Collectors
* ,54/08/02 , 853 ,The Case Of The Kewpie Doll Champ
* ,54/08/09 , 854 ,The Case Of The Half Lemon
  ,54/08/16 , 855 ,The Case Of The Massachusetts Planner
  ,54/08/23 , 856 ,The Case Of The Charlestown Siege
  ,54/08/30 , 857 ,The Case Of The Claw Hammer Murder
  ,54/09/06 , 858 ,The Case Of The Boulevard Killer
  ,54/10/02 , 859 ,The Case Of The Ten Can Target
  ,54/10/09 , 860 ,The Case Of The Ambush At The Bridge
  ,54/10/16 , 861 ,The Case Of The Theater Trap
  ,54/10/23 , 862 ,The Case Of The Snake River
  ,54/10/30 , 863 ,The Case Of The Blind Alley
  ,54/11/06 , 864 ,The Case Of The Jimmy Gang
  ,54/11/13 , 865 ,The Case Of The Hungry Kidnapper
  ,54/11/20 , 866 ,The Case Of The Hidden Footprints
* ,54/11/27 , 867 ,The Case Of The Amateur Horseplayer
  ,54/12/04 , 868 ,The Case Of The Florida Cottage
  ,54/12/11 , 869 ,The Case Of The Heavy Suitcase
  ,54/12/18 , 870 ,The Case Of The Devil And The Two Faced Killers
  ,54/12/25 , 871 ,The Case Of The Diamond Double Cross
  ,55/01/01 , 872 ,The Case Of The Town With No Telephone
  ,55/01/08 , 873 ,The Case Of The Church Roof
  ,55/01/15 , 874 ,The Case Of The Crazy Driver
  ,55/01/22 , 875 ,The Case Of The Crazy Quilt
  ,55/01/29 , 876 ,The Case Of The Careless Dynamiter
* ,55/02/05 , 877 ,The Case Of The Lost Gun aka The Danville Bank Job
  ,55/02/12 , 878 ,The Case Of The Jealous Wife
  ,55/02/19 , 879 ,The Case Of The College Town
  ,55/02/26 , 880 ,The Case Of The Curious Coincidence
  ,55/03/05 , 881 ,The Case Of The Deadly Toy
  ,55/03/12 , 882 ,The Case Of The False Rubber Nose
* ,55/03/19 , 883 ,The Case Of The Reckless Ride
  ,55/03/26 , 884 ,The Case Of The Manhattan Melting Pot
* ,55/04/02 , 885 ,The Case Of The Mistreated Lady aka Roger Kessel Shot By Hitchhikers
  ,55/04/09 , 886 ,The Case Of The Hong Kong Casanova
* ,55/04/16 , 887 ,The Case Of The Punchdrunk Soldier
  ,55/04/23 , 888 ,The Case Of The Mutt & Jeff Team
* ,55/04/30 , 889 ,The Case Of The Missing Detective aka The Case of the Five Days of Danger
  ,55/05/07 , 890 ,The Case Of The Nervous Brother
* ,55/05/14 , 891 ,The Case Of The Tapped Telephone aka Wire Tap Gets Gus Sickel
  ,55/05/21 , 892 ,The Case Of The Particular Partnership
  ,55/05/28 , 893 ,The Case Of The Fearsome Father
  ,55/06/04 , 894 ,Case Of The Face Of Doom
  ,55/06/11 , 895 ,The Case Of The New Truck
  ,55/06/18 , 896 ,The Case Of The Kill And Run Driver
  ,55/06/25 , 897 ,The Case Of The Dead Hero
  ,55/10/05 , 898 ,The Case Of The Gun In The River
  ,55/10/12 , 899 ,The Case Of The Peculiar Proprietor
  ,55/10/19 , 900 ,The Case Of The Green Eyed Girl - Pt 1
  ,55/10/26 , 901 ,The Case Of The Green Eyed Girl - Pt 2
  ,55/11/02 , 902 ,The Case Of The Jelly Roll Kid
  ,55/11/09 , 903 ,The Case Of The Duchess
  ,55/11/16 , 904 ,The Case Of The Disappearing Groom
  ,55/11/23 , 905 ,The Case Of The Speaking Spectacles
  ,55/11/30 , 906 ,The Case Of John Omar Pinson - Pt 1
  ,55/12/07 , 907 ,The Case Of John Omar Pinson - Pt 2
  ,55/12/14 , 908 ,The Case Of John Omar Oinson - Pt 3
  ,55/12/21 , 909 ,The Case of Arthur Bennett Burl
* ,55/12/28 , 910 ,The Case Of The Torture Trio
  ,56/01/04 , 911 ,The Case Of Rocco & Trapani
  ,56/01/11 , 912 ,The Case Of the Scourge Of Four Continents
  ,56/01/18 , 913 ,The Case Of Boilet & Fiachetti
  ,56/01/25 , 914 ,The Case Of The Blond Tigress
  ,56/02/01 , 915 ,The Case Of Clyde Barrow & Bonnie Parker - Pt 1
  ,56/02/08 , 916 ,The Case Of Clyde Barrow & Bonne Parker
  ,56/02/15 , 917 ,The Case Of The Phantom Of The Payrolls
  ,56/02/22 , 918 ,The Case Of Ma Barker
  ,56/02/29 , 919 ,The Case Of Marino & Pasqua
  ,56/03/07 , 920 ,The Case Of Bill Crain
  ,56/03/14 , 921 ,The Case Of Homer Van Meter
  ,56/03/21 , 922 ,
  ,56/03/28 , 923 ,The Case Of The Old Trapper
  ,56/04/04 , 924 ,The Case Of Nick Montos
  ,56/04/11 , 925 ,The Case Of The Scissors Gang
  ,56/04/18 , 926 ,
  ,56/04/25 , 927 ,The Case Of The Syndicate
  ,56/05/02 , 928 ,The Case Of The Prison Counterfeits
  ,56/05/09 , 929 ,The Case Of Zalutsky - Pt 1
  ,56/05/16 , 930 ,The Case Of Zalutsky - Pt 2
  ,56/05/23 , 931 ,The Case Of Zalutsky - Pt 3
  ,56/05/30 , 932 ,The Case Of The Sinister Smuggler
  ,56/06/06 , 933 ,The Case Of The Pin Up Girl
  ,56/06/13 , 934 ,The Case Of The Extortioners
  ,56/06/20 , 935 ,The Case Of The Conniving Contractor - Pt 1
  ,56/06/27 , 936 ,The Case Of The Conniving Contractor
  ,56/07/04 , 937 ,The Case Of Sporo & Katona
  ,56/07/11 , 938 ,The Case Of The Mail Thief
  ,56/07/18 , 939 ,
  ,56/07/25 , 940 ,The Case Of The Criminal Investigation
  ,56/08/01 , 941 ,The Case Of Fritz The Arsenal
  ,56/08/08 , 942 ,The Case Of Teenage Trouble
  ,56/08/15 ,     ,Pre-empted
  ,56/08/22 ,     ,Pre-empted
  ,56/08/29 , 943 ,The Case Of The Cha Cha Gang
  ,56/09/05 , 944 ,
  ,56/09/12 , 945 ,The Case Of La Rubia
  ,56/09/19 , 946 ,The Case Of The California Killer
  ,56/09/26 , 947 ,The Case Of The Thug Of The Thicket
  ,56/10/03 , 948 ,The Case Of The Careening Killer
  ,56/10/10 , 949 ,The Case Of The Ruthless Romeo
  ,56/10/17 , 950 ,The Case Of The Flim Flam
  ,56/10/24 , 951 ,The Case Of The Sullen Sister
  ,56/10/31 , 952 ,The Case Of Woodruff & Yoderi - Pt 1
  ,56/11/07 , 953 ,The Case Of Woodruff & Yoderi - Pt 2
  ,56/11/14 , 954 ,The Case Of Eddie Lyons
  ,56/11/21 , 955 ,The Case Of The Maternal Mobster - Pt 1
  ,56/11/28 , 956 ,The Case Of The Maternal Mobster - Pt 2
  ,56/12/05 , 957 ,The Case Of The Pugnacious Punk
  ,56/12/12 , 958 ,The Case Of The Heavenly Gates - Pt 1
  ,56/12/19 , 959 ,The Case Of The Heavenly Gates - Pt 2
  ,56/12/26 , 960 ,The Case Of The Armoured Car Robbery
  ,57/01/02 , 961 ,The case Of The Double Crossing Defenders
  ,57/01/09 , 962 ,The Case Of John Dillinger
  ,57/01/16 , 963 ,The Case Of Sal Perotta
  ,57/01/23 , 964 ,The Case Of Mickey Train
  ,57/01/30 , 965 ,The Case Of Carl Rood
  ,57/02/06 , 966 ,The Case Of Carl Slate - Pt 1
  ,57/02/13 , 967 ,The Case Of Carl Slate - Pt 2
  ,57/02/20 , 968 ,The Case Of Carl Slate - Pt 3
  ,57/02/27 , 969 ,The Case Of Bimmy Rivers
  ,57/03/06 , 970 ,The Case Of Sal Perotta
  ,57/03/13 , 971 ,The Case Of Chick Berry
  ,57/03/20 , 972 ,The Case Of Shadd Gray
  ,57/03/27 , 973 ,The Case Of Whitey Bell
  ,57/04/03 , 974 ,The Case Of Arthur 'Blackie' Blachbohn
  ,57/04/10 , 975 ,The Case Of Harry Riss
  ,57/04/17 , 976 ,The Case Of Adam Givens
  ,57/04/24 , 977 ,The Case Of Carl Dayle
  ,57/05/01 , 978 ,The Case Of Edge & Waters
  ,57/05/08 , 979 ,The Case Of The Bomber - Pt 1
  ,57/05/15 , 980 ,The Case Of The Bomber - Pt 2
  ,57/05/22 , 981 ,The Case Of Fred Martin
  ,57/05/29 , 982 ,The Case Of Breezy Catero
  ,57/06/05 , 983 ,The Case Of The Bob Cat
  ,57/06/12 , 984 ,The Case Of Adolph Zintero
  ,57/06/19 , 985 ,The Case Of Pete Mercurio
  ,57/06/26 , 986 ,The Case Of Walter 'Buck' Lance
  ,57/07/03 , 987 ,The Case Of Deke Funella
  ,57/07/10 , 988 ,The Case Of Walter Gurge
  ,57/07/17 , 989 ,The Case Of The Two Chorus Girls
  ,57/07/24 , 990 ,The Case Of The Peculiar Proprietor
  ,57/07/31 , 991 ,The Case Of The Gun In The River
  ,57/08/07 , 992 ,
  ,57/08/14 , 993 ,
  ,57/08/21 , 994 ,
  ,57/08/28 , 995 ,
  ,57/09/04 , 996 ,
  ,57/09/11 , 997 ,
  ,57/09/18 , 998 ,
  ,57/09/25 , 999 ,
  ,57/10/02 ,1000 ,
  ,57/10/09 ,1001 ,
  ,57/10/16 ,1002 ,
  ,57/10/23 ,1003 ,
  ,57/10/30 ,1004 ,
  ,57/11/06 ,1005 ,
  ,57/11/13 ,1006 ,
  ,57/11/20 ,1007 ,
  ,57/11/27 ,1008 ,
  ,57/12/04 ,     ,
  ,57/12/11 ,     ,
  ,57/12/18 ,     ,Last Episode
* ,58/11/09 ,     ,Who Killed Harry Brockton
* ,xx/xx/xx ,     ,Sledgehammer Handicap
* ,xx/xx/xx ,     ,The Case Of The Three Safecrackers
