Exists, Date, #, Episode Name
  ,4x/xx/xx , 466 ,First Song - Back Beat Boogie
  ,4x/xx/xx , 486 ,First Song - They're Either Too Young or Too Old (Kay Kyser)
  ,4x/xx/xx , 487 ,First Song - Shipyard Social Function ( Lucky Millinder)
  ,4x/xx/xx , 509 ,First Song - Rhumboogie (2)
  ,4x/xx/xx , 510 ,First Song - Boogie Woogie
  ,4x/xx/xx , 601 ,First Song - Honeysuckle Rose
  ,4x/xx/xx , 602 ,First Song - Blue Lou (2)
  ,4x/xx/xx , 617 ,First Song - Rollio Rolling Along
  ,4x/xx/xx , 618 ,First Song - Riding Along
  ,4x/xx/xx , 621 ,First Song - Basic Blues
  ,4x/xx/xx , 622 ,First Song - Chicago
  ,4x/xx/xx , 633 ,Count Basie - Jazz Me Blues
  ,4x/xx/xx , 645 ,First Song - Hop, Skip, And Jump (Duke Ellington)
  ,4x/xx/xx , 659 ,First Song - Do Nothing Till You Hear From Me
  ,4x/xx/xx , 660 ,First Song - One O'Clock Jump
  ,4x/xx/xx , 675 ,First Song - Mission to Moscow ( Benny Goodman)
  ,4x/xx/xx , 676 ,First Song - Let's Dance ( Benny Goodman)
  ,4x/xx/xx , 703 ,First Song - Bugle Call Rag
  ,4x/xx/xx , 704 ,First Song - Eager Beaver (5)
  ,4x/xx/xx , 705 ,First Song - Blue Skies
  ,4x/xx/xx , 706 ,First Song - Blue Lou
  ,4x/xx/xx , 717 ,First Song - We'll Get It (2)
  ,4x/xx/xx , 718 ,First Song - Trumpet Blues (3)
  ,4x/xx/xx , 721 ,First Song - Sugarfoot Strut
  ,4x/xx/xx , 722 ,First Song - For Dancers Only
  ,4x/xx/xx , 755 ,First Song - Caribbean Clipper
  ,4x/xx/xx , 756 ,First Song - Two O'Clock Jump
  ,4x/xx/xx , 819 ,First Song - The Donkey Serenade (Artie Shaw)
  ,4x/xx/xx , 820 ,First Song - The Night Special (Harry James)
  ,4x/xx/xx , 829 ,First Song - Margie
  ,4x/xx/xx , 830 ,First Song - Woodchoppers' Ball
  ,4x/xx/xx , 831 ,First Song - Dipper Mouth Blues
  ,4x/xx/xx , 832 ,First Song - Elks Parade
  ,4x/xx/xx , 833 ,First Song - Changes (2)
  ,4x/xx/xx , 834 ,First Song - Swanee River
  ,4x/xx/xx , 835 ,First Song - We'll Get It
  ,4x/xx/xx , 836 ,First Song - Jumping at the Woodside
  ,4x/xx/xx , 837 ,First Song - Eager Beaver
  ,4x/xx/xx , 837 ,First Song - Eager Beaver (6)
  ,4x/xx/xx , 838 ,First Song - Alexander's Ragtime Band (2)
  ,4x/xx/xx , 839 ,First Song - Casa Loma Stomp
  ,4x/xx/xx , 840 ,First Song - Buckle Down Winsocki
  ,4x/xx/xx , 841 ,First Song - The Night Ride
  ,4x/xx/xx , 842 ,First Song - I Found a New Baby
  ,4x/xx/xx , 843 ,First Song - That Honky Tonk Train
  ,4x/xx/xx , 844 ,First Song - The Sad Sack
  ,4x/xx/xx , 845 ,First Song - Here We Go Again
  ,4x/xx/xx , 846 ,First Song - King Porter Stomp (2)
  ,4x/xx/xx , 847 ,First Song - The Bugle Call Rag
  ,4x/xx/xx , 848 ,First Song - Song of India (2)
  ,4x/xx/xx , 849 ,First Song - Strictly Instrumental
  ,4x/xx/xx , 850 ,First Song - Trumpet Blues
  ,4x/xx/xx , 851 ,First Song - Opus Number One
  ,4x/xx/xx , 852 ,First Song - King Porter Stomp
  ,4x/xx/xx , 853 ,First Song - South Rampart Street Parade
  ,4x/xx/xx , 854 ,First Song - Carribbean Clipper
  ,4x/xx/xx , 855 ,First Song - South Eager Beaver
  ,4x/xx/xx , 856 ,First Song - Well, Git It! (3)
  ,4x/xx/xx , 877 ,First Song - The Mole
  ,4x/xx/xx , 878 ,First Song - At The Jazz Ball
  ,4x/xx/xx , 890 ,First Song - Moonlight on the Ganges
  ,4x/xx/xx , 892 ,First Song - G I Stomp
  ,4x/xx/xx ,1419 ,First Song - After Hours ( Erskine Hawkins)
  ,4x/xx/xx ,1420 ,First Song - at Last ( Glenn Miller)
  ,4x/xx/xx ,1421 ,First Song - Bugle Call Rag ( Benny Goodman)
  ,4x/xx/xx ,1422 ,First Song - After You've Gone ( Tommy Dorsey)
  ,4x/xx/xx ,1423 ,First Song - Friar Rock ( Harry James)
  ,4x/xx/xx ,1424 ,First Song - Tippin' in ( Erskine Hawkins)
  ,4x/xx/xx ,1429 ,First Song - a String of Pearls ( Glenn Miller)
  ,4x/xx/xx ,1430 ,First Song - Texas Tex ( Tex Beneke)
  ,45/xx/xx , 932 ,First Song Opus #1 (Tommy Dorsey)
  ,45/xx/xx , 933 ,First Song - Frankie And Johnny (Bunny Berrigan)
  ,45/xx/xx , 934 ,First Song - Woodchoppers Ball (Woody Herman)
  ,46/xx/xx ,1194 ,First Song - Boy Meets Horn (Benny Goodman)
  ,46/xx/xx ,1196 ,First Song - Frankie And Johnny (Bunny Berrigan) (2)
  ,46/xx/xx ,1197 ,First Song - Eager Beaver (Stan Kenton)
  ,81/xx/xx ,     ,Benny Goodman, Peggy Lee - Why Don't You Do Right
  ,82/xx/xx ,     ,Benny Goodman - Swing Low Sweet Chariot
  ,xx/xx/xx ,   4 ,episode 4
* ,xx/xx/xx ,  13 ,First Song - The Pennsylvania Polka
* ,xx/xx/xx ,  14 ,First Song - The Woodchopper's Ball
* ,xx/xx/xx ,  28 ,First Song - Diggin' For Dex
* ,xx/xx/xx ,  46 ,First Song - Shortnin' Bread (2)
* ,xx/xx/xx , 201 ,First Song - The Jersey Bounce
* ,xx/xx/xx , 202 ,First Song - The Strip Polka
* ,xx/xx/xx , 271 ,First Song - Mandy, Make up Your Mind
* ,xx/xx/xx , 272 ,First Song - Good Queen Bess
* ,xx/xx/xx , 277 ,First Song - I Surrender Dear
* ,xx/xx/xx , 278 ,First Song - Route 23
* ,xx/xx/xx , 282 ,First Song - When Johnny Comes Marching Home
* ,xx/xx/xx , 287 ,First Song - At Sundown
* ,xx/xx/xx , 288 ,First Song - Cow Cow Boogie
* ,xx/xx/xx , 305 ,First Song - Swingin' On C
* ,xx/xx/xx , 306 ,First Song - Got To Get To Saint Jo
* ,xx/xx/xx , 309 ,First Song - That Old Black Magic
* ,xx/xx/xx , 310 ,First Song - Jersey Bounce
* ,xx/xx/xx , 321 ,First Song - Let Me Up
* ,xx/xx/xx , 322 ,First Song - Boogie Woogie Man
  ,xx/xx/xx , 385 ,Guest - Coast Guard
  ,xx/xx/xx , 386 ,Guest - Navy
* ,xx/xx/xx , 387 ,First Song - Daddy
* ,xx/xx/xx , 388 ,First Song - Begin The Beguine
* ,xx/xx/xx , 389 ,First Song - Why Don't You Do Right?
* ,xx/xx/xx , 390 ,First Song - C Jam Blues
* ,xx/xx/xx , 414 ,First Song - Joe Turner Blues
* ,xx/xx/xx , 415 ,First Song - Are You Ready
* ,xx/xx/xx , 416 ,First Song - Apollo Jump
* ,xx/xx/xx , 417 ,First Song - I'm Like a Fish out of Water
* ,xx/xx/xx , 449 ,First Song - The Limehouse Blues
* ,xx/xx/xx , 450 ,First Song - Jitters
* ,xx/xx/xx , 459 ,First Song - Hallelujah
* ,xx/xx/xx , 460 ,First Song - Shortnin' Bread
* ,xx/xx/xx , 465 ,First Song - Let's Dance (2)
* ,xx/xx/xx , 467 ,First Song - The Macon Flyer
* ,xx/xx/xx , 479 ,First Song - Boogie Woogie Boo Hoo
* ,xx/xx/xx , 485 ,First Song - Perdido
* ,xx/xx/xx , 493 ,First Song - Feet Draggin' Blues
* ,xx/xx/xx , 494 ,First Song - Buckle Down Winsocki (2)
* ,xx/xx/xx , 609 ,First Song - Rhumboogie
* ,xx/xx/xx , 623 ,First Song - Stompin' at the Savoy
* ,xx/xx/xx , 642 ,First Song - Yes, Indeed (Al Donohue)
* ,xx/xx/xx , 661 ,First Song - Song of India
* ,xx/xx/xx , 662 ,First Song - Stompin' at the Savoy (2)
* ,xx/xx/xx , 666 ,First Song - South Rampart Street Parade (3)
* ,xx/xx/xx , 695 ,First Song - Washington Whirligig
* ,xx/xx/xx , 696 ,First Song - Let's Dance
* ,xx/xx/xx , 711 ,First Song - Song Of India
* ,xx/xx/xx , 712 ,First Song - Basie Boogie (3)
* ,xx/xx/xx , 731 ,First Song - Who
* ,xx/xx/xx , 739 ,First Song - Jazz Me Blues
* ,xx/xx/xx , 740 ,First Song - Sugar Foot Stomp (2)
* ,xx/xx/xx , 751 ,First Song - I Want To Be Happy
* ,xx/xx/xx , 757 ,First Song - Eager Beaver (4)
* ,xx/xx/xx , 758 ,First Song - Alexander's Ragtime Band
* ,xx/xx/xx , 761 ,First Song - South Rampart Street Parade (4)
* ,xx/xx/xx , 762 ,First Song - Birmingham Special
* ,xx/xx/xx , 763 ,First Song - Well, Git It!
* ,xx/xx/xx , 764 ,First Song - The King Porter Stomp
* ,xx/xx/xx , 769 ,First Song - Marchita
* ,xx/xx/xx , 784 ,First Song - Woodchopper's Ball
* ,xx/xx/xx , 785 ,First Song - Walk Jenny Walk
* ,xx/xx/xx , 789 ,First Song - After You've Gone
* ,xx/xx/xx , 790 ,First Song - Well, Git It! (2)
* ,xx/xx/xx , 793 ,First Song - Down By The Old Mill Stream
* ,xx/xx/xx , 794 ,First Song - Here We Go Again (2)
* ,xx/xx/xx , 802 ,First Song - Washington Whirligig (2)
* ,xx/xx/xx , 803 ,First Song - Two O'Clock Jump (2)
* ,xx/xx/xx , 804 ,First Song - Caribbean Clipper (2)
* ,xx/xx/xx , 811 ,First Song - The Sugarfoot Strut
* ,xx/xx/xx , 812 ,First Song - The One O'Clock Jump (3)
* ,xx/xx/xx , 901 ,First Song - Opus One
* ,xx/xx/xx , 906 ,First Song - King Porter Stomp  (2)
* ,xx/xx/xx , 907 ,First Song - 9-20 Special
* ,xx/xx/xx , 908 ,First Song - Changes
* ,xx/xx/xx , 913 ,First Song - Jumpin' at the Woodside (2)
* ,xx/xx/xx , 914 ,First Song - 'Deed I Do
* ,xx/xx/xx , 920 ,First Song - The 9-20 Special
* ,xx/xx/xx , 957 ,First Song - Boogie Woogie (2)
* ,xx/xx/xx , 958 ,First Song - Two O'Clock Jump (3)
* ,xx/xx/xx , 969 ,First Song - Well, Git It! (4)
* ,xx/xx/xx , 970 ,First Song - Eager Beaver (2)
* ,xx/xx/xx , 975 ,First Song - Basie Boogie (2)
* ,xx/xx/xx , 976 ,First Song - Number Nineteen
* ,xx/xx/xx ,1024 ,First Song - Leave Us Leap (3)
* ,xx/xx/xx ,1031 ,First Song - The One O'Clock Jump
* ,xx/xx/xx ,1032 ,First Song - Swingtime In The Rockies
* ,xx/xx/xx ,1033 ,First Song - Opus One (2)
* ,xx/xx/xx ,1034 ,First Song - Jam Session
* ,xx/xx/xx ,1035 ,First Song - Swing Low, Sweet Chariot
* ,xx/xx/xx ,1036 ,First Song - Opus One (3)
* ,xx/xx/xx ,1063 ,First Song - Wham
* ,xx/xx/xx ,1064 ,First Song - South Rampart Street Parade (2)
* ,xx/xx/xx ,1077 ,First Song - Eager Beaver (3)
* ,xx/xx/xx ,1079 ,First Song - Bugle Call Rag (2)
* ,xx/xx/xx ,1079 ,First Song - Jack The Bellboy
* ,xx/xx/xx ,1080 ,First Song - Number Nineteen (2)
* ,xx/xx/xx ,1093 ,First Song - Jumpin' At The Woodside
* ,xx/xx/xx ,1094 ,First Song - The Continental
* ,xx/xx/xx ,1096 ,First Song - The Night Ride (2)
* ,xx/xx/xx ,1109 ,First Song - Hawaiian War Chant
* ,xx/xx/xx ,1110 ,First Song - Leave Us Leap (2)
* ,xx/xx/xx ,1117 ,First Tune - Russian Lullaby
* ,xx/xx/xx ,1118 ,First Tune - Little Jazz
* ,xx/xx/xx ,1203 ,First Song - Your Father's Moustache
* ,xx/xx/xx ,1204 ,First Song - Basie Boogie
* ,xx/xx/xx ,1383 ,First Song - Sunny Side Of The Street
* ,xx/xx/xx ,1384 ,First Song - Leave Us Leap
* ,xx/xx/xx ,1461 ,First Song - My Blue Heaven
* ,xx/xx/xx ,1462 ,First Song - The One O'Clock Jump (2)
* ,xx/xx/xx ,1833 ,First Song - Caldonia
* ,xx/xx/xx ,1834 ,First Song - The Best Things In Life Are Free
* ,xx/xx/xx ,2315 ,First Song - You're The One
* ,xx/xx/xx ,     ,(Kay Kyser)
  ,xx/xx/xx ,     ,Count Basie - Basie's Basement
  ,xx/xx/xx ,     ,Erskine Hawkins - Rose Room
* ,xx/xx/xx ,     ,First Song - American Patrol
* ,xx/xx/xx ,     ,First Song - Boogie Woogie (Not 510)
  ,xx/xx/xx ,     ,First Song - Cherokee (2)
  ,xx/xx/xx ,     ,First Song - Fame (2)
* ,xx/xx/xx ,     ,First Song - Get Happy
  ,xx/xx/xx ,     ,First Song - High Society ( Bunny Berrigan)
  ,xx/xx/xx ,     ,First Song - Indian Love Call ( Artie Shaw)
  ,xx/xx/xx ,     ,First Song - Java Junction ( Bob Crosby)
  ,xx/xx/xx ,     ,First Song - Jeep Rhythm (2)
  ,xx/xx/xx ,     ,First Song - Jivin' ( Bunny Berrigan)
* ,xx/xx/xx ,     ,First Song - Jumping At The Woodside (2)
  ,xx/xx/xx ,     ,First Song - Night Ride ( Ambrose)
* ,xx/xx/xx ,     ,First Song - Opus One (4)
  ,xx/xx/xx ,     ,First Song - Soldier Jumped at Dawn (2)
  ,xx/xx/xx ,     ,First Song - Stomp Mr Henry Lee (2)
  ,xx/xx/xx ,     ,First Song - Sugarfoot Stomp ( Benny Goodman)
  ,xx/xx/xx ,     ,First Song - Swing Crazy (2)
* ,xx/xx/xx ,     ,First Song - Trumpet Blues (2)
* ,xx/xx/xx ,     ,First Song - Two O'Clock Jump (Not 756)
  ,xx/xx/xx ,     ,First Song - We'll Get It ( Tommy Dorsey)
  ,xx/xx/xx ,     ,First Song - Who ( Tommy Dorsey)
  ,xx/xx/xx ,     ,First Song - Woodchopper's Ball ( Woody Herman) (2)
  ,xx/xx/xx ,     ,Guest Star - Kay Kyser (2)
  ,xx/xx/xx ,     ,Stan Kenton, June Christy - It's Been a Long, Long Time
