Exists, Date, #, Episode Name
* ,xx/xx/xx ,   1 ,Ep001
* ,xx/xx/xx ,   2 ,Ep002
* ,xx/xx/xx ,   3 ,Ep003
* ,xx/xx/xx ,   4 ,Ep004
* ,xx/xx/xx ,   5 ,Ep005
* ,xx/xx/xx ,   6 ,Ep006
* ,xx/xx/xx ,   7 ,Ep007
* ,xx/xx/xx ,   8 ,Ep008
* ,xx/xx/xx ,   9 ,Ep009
* ,xx/xx/xx ,  10 ,Ep010
* ,xx/xx/xx ,  11 ,Ep011
* ,xx/xx/xx ,  12 ,Ep012
* ,xx/xx/xx ,  13 ,Ep013
* ,xx/xx/xx ,  14 ,Ep014
* ,xx/xx/xx ,  15 ,Ep015
* ,xx/xx/xx ,  16 ,Ep016
* ,xx/xx/xx ,  17 ,Ep017
* ,xx/xx/xx ,  18 ,Ep018
* ,xx/xx/xx ,  19 ,Ep019
* ,xx/xx/xx ,  20 ,Ep020
* ,xx/xx/xx ,  21 ,Ep021
* ,xx/xx/xx ,  22 ,Ep022
* ,xx/xx/xx ,  23 ,Ep023
* ,xx/xx/xx ,  24 ,Ep024
* ,xx/xx/xx ,  25 ,Ep025
* ,xx/xx/xx ,  26 ,Ep026
* ,xx/xx/xx ,  27 ,Ep027
* ,xx/xx/xx ,  28 ,Ep028
* ,xx/xx/xx ,  29 ,Ep029
* ,xx/xx/xx ,  30 ,Ep030
* ,xx/xx/xx ,  31 ,Ep031
* ,xx/xx/xx ,  32 ,Ep032
* ,xx/xx/xx ,  33 ,Ep033
* ,xx/xx/xx ,  34 ,Ep034
* ,xx/xx/xx ,  35 ,Ep035
* ,xx/xx/xx ,  36 ,Ep036
* ,xx/xx/xx ,  37 ,Ep037
* ,xx/xx/xx ,  38 ,Ep038
* ,xx/xx/xx ,  39 ,Ep039
* ,xx/xx/xx ,  40 ,Ep040
* ,xx/xx/xx ,  41 ,Ep041
* ,xx/xx/xx ,  42 ,Ep042
* ,xx/xx/xx ,  43 ,Ep043
* ,xx/xx/xx ,  44 ,Ep044
* ,xx/xx/xx ,  45 ,Ep045
* ,xx/xx/xx ,  46 ,Ep046
* ,xx/xx/xx ,  47 ,Ep047
* ,xx/xx/xx ,  48 ,Ep048
* ,xx/xx/xx ,  49 ,Ep049
* ,xx/xx/xx ,  50 ,Ep050
* ,xx/xx/xx ,  51 ,Ep051
* ,xx/xx/xx ,  52 ,Ep052
* ,xx/xx/xx ,  53 ,Ep053
* ,xx/xx/xx ,  54 ,Ep054
* ,xx/xx/xx ,  55 ,Ep055
* ,xx/xx/xx ,  56 ,Ep056
* ,xx/xx/xx ,  57 ,Ep057
* ,xx/xx/xx ,  58 ,Ep058
* ,xx/xx/xx ,  59 ,Ep059
* ,xx/xx/xx ,  60 ,Ep060
* ,xx/xx/xx ,  61 ,Ep061
* ,xx/xx/xx ,  62 ,Ep062
* ,xx/xx/xx ,  63 ,Ep063
* ,xx/xx/xx ,  64 ,Ep064
* ,xx/xx/xx ,  65 ,Ep065
* ,xx/xx/xx ,  66 ,Ep066
* ,xx/xx/xx ,  67 ,Ep067
* ,xx/xx/xx ,  68 ,Ep068
* ,xx/xx/xx ,  69 ,Ep069
* ,xx/xx/xx ,  70 ,Ep070
* ,xx/xx/xx ,  71 ,Ep071
* ,xx/xx/xx ,  72 ,Ep072
* ,xx/xx/xx ,  73 ,Ep073
* ,xx/xx/xx ,  74 ,Ep074
* ,xx/xx/xx ,  75 ,Ep075
* ,xx/xx/xx ,  76 ,Ep076
* ,xx/xx/xx ,  77 ,Ep077
* ,xx/xx/xx ,  78 ,Ep078
* ,xx/xx/xx ,  79 ,Ep079
* ,xx/xx/xx ,  80 ,Ep080
* ,xx/xx/xx ,  81 ,Ep081
* ,xx/xx/xx ,  82 ,Ep082
* ,xx/xx/xx ,  83 ,Ep083
* ,xx/xx/xx ,  84 ,Ep084
* ,xx/xx/xx ,  85 ,Ep085
* ,xx/xx/xx ,  86 ,Ep086
* ,xx/xx/xx ,  87 ,Ep087
* ,xx/xx/xx ,  88 ,Ep088
* ,xx/xx/xx ,  89 ,Ep089
* ,xx/xx/xx ,  90 ,Ep090
* ,xx/xx/xx ,  91 ,Ep091
* ,xx/xx/xx ,  92 ,Ep092
* ,xx/xx/xx ,  93 ,Ep093
* ,xx/xx/xx ,  94 ,Ep094
* ,xx/xx/xx ,  95 ,Ep095
* ,xx/xx/xx ,  96 ,Ep096
* ,xx/xx/xx ,  97 ,Ep097
* ,xx/xx/xx ,  98 ,Ep098
* ,xx/xx/xx ,  99 ,Ep099
* ,xx/xx/xx , 100 ,Ep100
* ,xx/xx/xx , 101 ,Ep101
* ,xx/xx/xx , 102 ,Ep102
* ,xx/xx/xx , 104 ,Ep103
* ,xx/xx/xx , 104 ,Ep104
